#Time,E,D,C,B,A
0,0,0,66.73,118.552,0
3.1e-5,5.37841e-8,0.00206862,66.7316,118.548,0
0.000406,7.08512e-6,0.0270908,66.751,118.504,0
0.00107154,4.0358e-5,0.0714949,66.7854,118.425,0
0.0044019,0.000648732,0.293592,66.9565,118.031,0
0.0137115,0.00626833,0.913493,67.4247,116.937,0
0.0234952,0.0183857,1.56338,67.9012,115.799,0
0.0342274,0.0389798,2.27423,68.4059,114.563,0
0.0464122,0.0715926,3.0785,68.9565,113.175,0
0.0589058,0.115187,3.89981,69.4967,111.77,0
0.0848412,0.238321,5.59288,70.5421,108.908,0
0.133468,0.586534,8.71753,72.2384,103.739,0
0.182095,1.0849,11.7666,73.6148,98.8154,0
0.237374,1.82877,15.1272,74.8245,93.5013,0
0.299053,2.8737,18.7287,75.7709,87.9084,0
0.368344,4.30582,22.5706,76.3819,82.0234,0
0.44907,6.29889,26.7546,76.566,75.6623,0
0.533687,8.73592,30.7859,76.2365,69.5234,0
0.625169,11.7358,34.7246,75.3757,63.4456,0
0.724391,15.3728,38.5,73.9563,57.4526,0
0.832386,19.7265,42.029,71.9548,51.5714,0
0.943445,24.5675,45.0471,69.5166,46.1506,0
1.06247,30.0892,47.6281,66.5924,40.972,0
1.18149,35.8802,49.5779,63.4491,36.3745,0
1.30634,42.1654,51.001,60.0101,32.1052,0
1.43411,48.7429,51.8622,56.4222,28.2544,0
1.56792,55.7105,52.1923,52.663,24.7159,0
1.81211,68.4053,51.535,45.9807,19.3608,0
2.0752,81.7126,49.4273,39.2597,14.8821,0
2.33828,94.3256,46.3289,33.1877,11.4395,0
2.60137,106.037,42.6277,27.8241,8.79324,0
2.86445,116.729,38.6277,23.166,6.75914,0
3.12753,126.355,34.5568,19.1741,5.19558,0
3.39062,134.92,30.5788,15.7894,3.99371,0
3.66037,142.641,26.7122,12.8789,3.04948,0
4.051,152.062,21.6358,9.52026,2.06338,0
4.53386,161.185,16.3344,6.48889,1.27315,0
4.85453,165.942,13.4107,5.00501,0.923876,0
5.15019,169.558,11.1092,3.92717,0.687398,0
5.49558,172.993,8.85398,2.94828,0.48663,0
5.84097,175.721,7.00957,2.20619,0.344501,0
6.18637,177.875,5.51637,1.64609,0.243883,0
6.54565,179.626,4.27531,1.21043,0.170271,0
6.91878,181.024,3.26303,0.877216,0.117242,0
7.29191,182.089,2.47785,0.634148,0.0807279,0
7.67409,182.913,1.86021,0.453774,0.0550852,0
8.06531,183.542,1.38083,0.321426,0.0372493,0
8.47047,184.023,1.00971,0.224409,0.0248394,0
8.89518,184.388,0.724101,0.153651,0.0162434,0
9.33681,184.658,0.510231,0.103405,0.0104437,0
9.78448,184.85,0.356348,0.0690742,0.00667435,0
10.2437,184.986,0.245612,0.045574,0.00421639,0
10.7151,185.082,0.166985,0.0296822,0.00263125,0
11.2176,185.151,0.110252,0.0187572,0.0015918,0
11.7439,185.198,0.0710965,0.0115759,0.000940316,0
12.2945,185.229,0.0447501,0.00697264,0.000542104,0
12.9033,185.251,0.0267048,0.00397187,0.000294813,0
13.5396,185.264,0.0155015,0.00220102,0.000155983,0
14.258,185.272,0.00834562,0.00112717,7.59895e-5,0
15.055,185.277,0.00417495,0.000534872,3.42062e-5,0
15.923,185.28,0.00195117,0.000236667,1.43293e-5,0
16.923,185.281,0.000805806,9.20414e-5,5.24669e-6,0
17.923,185.281,0.000330452,3.56627e-5,1.92046e-6,0
18.923,185.282,0.000134594,1.37676e-5,7.02814e-7,0
19.923,185.282,5.32172e-5,5.11576e-6,2.44473e-7,0
20.923,185.282,2.1965e-5,2.04172e-6,9.50214e-8,0
21.923,185.282,6.95084e-6,5.11504e-7,1.55946e-8,0
22.923,185.282,4.35001e-6,4.29029e-7,2.25731e-8,0
23.923,185.282,2.11764e-6,2.13904e-7,1.14691e-8,0
24.923,185.282,7.88753e-7,7.07049e-8,3.26081e-9,0
25.923,185.282,2.44128e-7,1.7985e-8,6.00419e-10,0
26.923,185.282,3.76234e-8,1.78312e-10,-1.71827e-10,0
27.923,185.282,-2.01499e-8,-3.55738e-9,-2.57545e-10,0
28.923,185.282,-2.48247e-8,-2.95023e-9,-1.71671e-10,0
29.923,185.282,-1.6503e-8,-1.68304e-9,-8.58276e-11,0
30.923,185.282,-8.5455e-9,-7.70118e-10,-3.43279e-11,0
31.923,185.282,-4.46957e-9,-3.93641e-10,-1.7164e-11,0
32.923,185.282,-2.33534e-9,-2.01111e-10,-8.58198e-12,0
33.923,185.282,-1.21902e-9,-1.02701e-10,-4.29099e-12,0
34.923,185.282,-6.35722e-10,-5.24233e-11,-2.14549e-12,0
35.923,185.282,-3.31235e-10,-2.6748e-11,-1.07275e-12,0
36.923,185.282,-1.72439e-10,-1.36422e-11,-5.36374e-13,0
37.923,185.282,-8.9697e-11,-6.9552e-12,-2.68187e-13,0
38.923,185.282,-4.66208e-11,-3.54465e-12,-1.34093e-13,0
39.923,185.282,-2.42133e-11,-1.80585e-12,-6.70467e-14,0
40.923,185.282,-1.25665e-11,-9.19685e-13,-3.35234e-14,0
41.923,185.282,-6.51736e-12,-4.68223e-13,-1.67617e-14,0
42.923,185.282,-3.37783e-12,-2.38302e-13,-8.38084e-15,0
43.923,185.282,-1.74954e-12,-1.21246e-13,-4.19042e-15,0
44.923,185.282,-9.05605e-13,-6.16707e-14,-2.09521e-15,0
45.923,185.282,-4.68482e-13,-3.13592e-14,-1.0476e-15,0
46.923,185.282,-2.42212e-13,-1.59415e-14,-5.23802e-16,0
47.923,185.282,-1.25157e-13,-8.10169e-15,-2.61901e-16,0
48.923,185.282,-6.46365e-14,-4.11632e-15,-1.30951e-16,0
49.923,185.282,-3.33637e-14,-2.0909e-15,-6.54753e-17,0
50.923,185.282,-1.72128e-14,-1.06182e-15,-3.27377e-17,0
51.923,185.282,-8.87593e-15,-5.39093e-16,-1.63688e-17,0
52.923,185.282,-4.57478e-15,-2.73639e-16,-8.18441e-18,0
53.923,185.282,-2.35683e-15,-1.38866e-16,-4.09221e-18,0
54.923,185.282,-1.21364e-15,-7.04558e-17,-2.0461e-18,0
55.923,185.282,-6.2469e-16,-3.57394e-17,-1.02305e-18,0
56.923,185.282,-3.21408e-16,-1.81255e-17,-5.11526e-19,0
57.923,185.282,-1.65299e-16,-9.19062e-18,-2.55763e-19,0
58.923,185.282,-8.49792e-17,-4.65925e-18,-1.27881e-19,0
59.923,185.282,-4.36704e-17,-2.3616e-18,-6.39407e-20,0
60.923,185.282,-2.24336e-17,-1.19678e-18,-3.19704e-20,0
61.923,185.282,-1.152e-17,-6.06384e-19,-1.59852e-20,0
62.923,185.282,-5.91359e-18,-3.07188e-19,-7.99259e-21,0
63.923,185.282,-3.03459e-18,-1.55592e-19,-3.9963e-21,0
64.923,185.282,-1.55669e-18,-7.87953e-20,-1.99815e-21,0
65.923,185.282,-7.98295e-19,-3.98972e-20,-9.99074e-22,0
66.923,185.282,-4.09247e-19,-2.01984e-20,-4.99537e-22,0
67.923,185.282,-2.09735e-19,-1.02241e-20,-2.49768e-22,0
68.923,185.282,-1.07455e-19,-5.17447e-21,-1.24884e-22,0
69.923,185.282,-5.50367e-20,-2.61846e-21,-6.24421e-23,0
70.923,185.282,-2.81808e-20,-1.32484e-21,-3.12211e-23,0
71.923,185.282,-1.44255e-20,-6.70225e-22,-1.56105e-23,0
72.923,185.282,-7.38226e-21,-3.39015e-22,-7.80526e-24,0
73.923,185.282,-3.77686e-21,-1.71459e-22,-3.90263e-24,0
74.923,185.282,-1.93178e-21,-8.67051e-23,-1.95132e-24,0
75.923,185.282,-9.87811e-22,-4.38404e-23,-9.75658e-25,0
76.923,185.282,-5.04987e-22,-2.21641e-23,-4.87829e-25,0
77.923,185.282,-2.58096e-22,-1.1204e-23,-2.43915e-25,0
78.923,185.282,-1.31879e-22,-5.66298e-24,-1.21957e-25,0
79.923,185.282,-6.73707e-23,-2.86198e-24,-6.09786e-26,0
80.923,185.282,-3.44084e-23,-1.44623e-24,-3.04893e-26,0
81.923,185.282,-1.75696e-23,-7.3074e-25,-1.52447e-26,0
82.923,185.282,-8.96939e-24,-3.69181e-25,-7.62233e-27,0
83.923,185.282,-4.57794e-24,-1.86496e-25,-3.81116e-27,0
84.923,185.282,-2.33607e-24,-9.42008e-26,-1.90558e-27,0
85.923,185.282,-1.19182e-24,-4.75768e-26,-9.52791e-28,0
86.923,185.282,-6.07925e-25,-2.40266e-26,-4.76396e-28,0
87.923,185.282,-3.10029e-25,-1.21324e-26,-2.38198e-28,0
88.923,185.282,-1.58077e-25,-6.12575e-27,-1.19099e-28,0
89.923,185.282,-8.0585e-26,-3.09265e-27,-5.95494e-29,0
90.923,185.282,-4.10731e-26,-1.56121e-27,-2.97747e-29,0
91.923,185.282,-2.09306e-26,-7.8805e-28,-1.48874e-29,0
92.923,185.282,-1.06642e-26,-3.97747e-28,-7.44368e-30,0
93.923,185.282,-5.43245e-27,-2.00734e-28,-3.72184e-30,0
94.923,185.282,-2.76687e-27,-1.01298e-28,-1.86092e-30,0
95.923,185.282,-1.40899e-27,-5.1114e-29,-9.3046e-31,0
96.923,185.282,-7.17391e-28,-2.57896e-29,-4.6523e-31,0
97.923,185.282,-3.65201e-28,-1.30111e-29,-2.32615e-31,0
98.923,185.282,-1.85882e-28,-6.56372e-30,-1.16308e-31,0
99.923,185.282,-9.45967e-29,-3.31093e-30,-5.81538e-32,0
100,185.282,-8.80506e-29,-3.07797e-30,-5.39942e-32,0
