#Time,E,D,C,B,A
0,140.383,0,169.265,94.0584,187.064
3.1e-5,140.383,0.00524702,169.263,94.0613,187.058
0.000275857,140.383,0.0466811,169.244,94.0841,187.012
0.000660996,140.383,0.111827,169.215,94.1198,186.94
0.00257658,140.383,0.435311,169.072,94.2971,186.582
0.0109147,140.393,1.833,168.454,95.057,185.033
0.0193954,140.414,3.2375,167.838,95.8102,183.47
0.0287335,140.452,4.7643,167.172,96.617,181.765
0.0394631,140.512,6.49354,166.424,97.5154,179.825
0.0784006,140.884,12.551,163.851,100.526,172.958
0.132153,141.772,20.3825,160.634,104.075,163.906
0.191442,143.22,28.3624,157.474,107.243,154.471
0.255856,145.307,36.3187,154.428,109.882,144.835
0.326101,148.141,44.2274,151.48,111.912,135.01
0.40256,151.825,52.0136,148.623,113.237,125.072
0.485285,156.447,59.57,145.84,113.771,115.142
0.574644,162.1,66.8237,143.092,113.455,105.299
0.671075,168.884,73.7039,140.317,112.246,95.6195
0.775206,176.902,80.1459,137.441,110.117,86.1635
0.886826,186.186,86.0333,134.398,107.089,77.0633
0.998447,196.074,90.9765,131.324,103.472,68.9243
1.11569,207,95.2541,128.006,99.2108,61.299
1.23576,218.655,98.7572,124.48,94.5135,54.3641
1.35869,230.973,101.512,120.719,89.4902,48.0755
1.48737,244.177,103.58,116.618,84.124,42.2708
1.64688,260.836,105.104,111.322,77.4693,36.0384
1.90384,287.941,105.468,102.412,67.0769,27.8719
2.1608,314.855,103.695,93.2474,57.4164,21.556
2.4265,341.964,100.1,83.7692,48.4106,16.5263
2.6922,367.929,95.1575,74.532,40.4816,12.6702
2.9579,392.446,89.2628,65.7306,33.617,9.71382
3.22359,415.308,82.7577,57.5045,27.752,7.44727
3.48929,436.394,75.9306,49.9418,22.7937,5.70959
3.79703,458.529,67.9288,42.0677,18.0474,4.19715
4.16957,482.062,58.4872,33.8169,13.5116,2.89178
4.60711,505.36,48.1745,25.8284,9.54028,1.86701
5.0231,523.542,39.4274,19.7634,6.80598,1.23165
5.44889,538.634,31.6666,14.8765,4.78861,0.804583
5.94686,552.457,24.119,10.5512,3.15384,0.489001
6.45162,563.031,18.0232,7.36784,2.05282,0.295188
6.97887,571.177,13.1033,5.01172,1.30349,0.174232
7.55727,577.536,9.09925,3.24969,0.78751,0.097712
8.165,582.103,6.11204,2.0402,0.461215,0.0532159
8.77272,585.152,4.05123,1.26907,0.268789,0.0289825
9.38467,587.172,2.64599,0.780353,0.155383,0.0157178
10.0336,588.548,1.66488,0.462231,0.0865345,0.00821463
10.6979,589.425,1.02493,0.268419,0.0473475,0.00422828
11.3905,589.98,0.611534,0.151195,0.0251525,0.00211551
12.1119,590.32,0.353517,0.082582,0.0129688,0.00102846
12.8759,590.524,0.195864,0.0432253,0.00640788,0.000479196
13.6515,590.638,0.10652,0.0222571,0.00312174,0.000220679
14.4557,590.701,0.0561359,0.0111157,0.00147657,9.87804e-5
15.3286,590.736,0.0277435,0.00519818,0.000653016,4.12862e-5
16.2427,590.754,0.0131404,0.00233075,0.000277047,1.65638e-5
17.2427,590.763,0.00574566,0.000963064,0.000108142,6.10552e-6
18.2427,590.767,0.00248905,0.000395361,4.20468e-5,2.24649e-6
19.2427,590.769,0.00106679,0.000160865,1.62327e-5,8.22411e-7
20.2427,590.769,0.000456774,6.57548e-5,6.33609e-6,3.0662e-7
21.2427,590.77,0.000191966,2.62747e-5,2.403e-6,1.10135e-7
22.2427,590.77,8.22163e-5,1.08558e-5,9.60806e-7,4.27929e-8
23.2427,590.77,3.39167e-5,4.23413e-6,3.51263e-7,1.44773e-8
24.2427,590.77,1.42527e-5,1.67586e-6,1.28488e-7,4.73049e-9
25.2427,590.77,5.2915e-6,5.86004e-7,4.21222e-8,1.44508e-9
26.2427,590.77,1.4374e-6,1.36866e-7,8.08411e-9,2.09966e-10
27.2427,590.77,8.8214e-8,-8.51055e-9,-2.00557e-9,-1.21043e-10
28.2427,590.77,-2.31105e-7,-3.54923e-8,-3.27681e-9,-1.38828e-10
29.2427,590.77,-2.13565e-7,-2.75938e-8,-2.25508e-9,-8.68535e-11
30.2427,590.77,-1.30808e-7,-1.54427e-8,-1.16539e-9,-4.17173e-11
31.2427,590.77,-6.94128e-8,-8.01791e-9,-5.93122e-10,-2.08586e-11
32.2427,590.77,-3.67863e-8,-4.15984e-9,-3.01776e-10,-1.04293e-11
33.2427,590.77,-1.94715e-8,-2.15667e-9,-1.53495e-10,-5.21466e-12
34.2427,590.77,-1.02944e-8,-1.11736e-9,-7.80512e-11,-2.60733e-12
35.2427,590.77,-5.43647e-9,-5.78519e-10,-3.96774e-11,-1.30367e-12
36.2427,590.77,-2.86791e-9,-2.99342e-10,-2.01646e-11,-6.51833e-13
37.2427,590.77,-1.51135e-9,-1.54793e-10,-1.02453e-11,-3.25916e-13
38.2427,590.77,-7.95675e-10,-7.99988e-11,-5.20412e-12,-1.62958e-13
39.2427,590.77,-4.18498e-10,-4.13208e-11,-2.6428e-12,-8.14791e-14
40.2427,590.77,-2.19914e-10,-2.13313e-11,-1.34177e-12,-4.07395e-14
41.2427,590.77,-1.1546e-10,-1.10062e-11,-6.81069e-13,-2.03698e-14
42.2427,590.77,-6.05681e-11,-5.6759e-12,-3.45627e-13,-1.01849e-14
43.2427,590.77,-3.17469e-11,-2.92563e-12,-1.7536e-13,-5.09244e-15
44.2427,590.77,-1.66271e-11,-1.50729e-12,-8.8953e-14,-2.54622e-15
45.2427,590.77,-8.70164e-12,-7.76203e-13,-4.51131e-14,-1.27311e-15
46.2427,590.77,-4.55059e-12,-3.99539e-13,-2.28748e-14,-6.36555e-16
47.2427,590.77,-2.37808e-12,-2.05568e-13,-1.15965e-14,-3.18278e-16
48.2427,590.77,-1.2419e-12,-1.05723e-13,-5.87784e-15,-1.59139e-16
49.2427,590.77,-6.48126e-13,-5.43507e-14,-2.9787e-15,-7.95694e-17
50.2427,590.77,-3.38028e-13,-2.793e-14,-1.50924e-15,-3.97847e-17
51.2427,590.77,-1.76188e-13,-1.43473e-14,-7.64569e-16,-1.98924e-17
52.2427,590.77,-9.17774e-14,-7.36727e-15,-3.87257e-16,-9.94618e-18
53.2427,590.77,-4.77796e-14,-3.78169e-15,-1.96115e-16,-4.97309e-18
54.2427,590.77,-2.486e-14,-1.9405e-15,-9.93009e-17,-2.48654e-18
55.2427,590.77,-1.29277e-14,-9.95384e-16,-5.02721e-17,-1.24327e-18
56.2427,590.77,-6.71906e-15,-5.10415e-16,-2.54469e-17,-6.21636e-19
57.2427,590.77,-3.49035e-15,-2.61647e-16,-1.28788e-17,-3.10818e-19
58.2427,590.77,-1.81222e-15,-1.34082e-16,-6.51712e-18,-1.55409e-19
59.2427,590.77,-9.40454e-16,-6.86898e-17,-3.29741e-18,-7.77045e-20
60.2427,590.77,-4.87816e-16,-3.51789e-17,-1.66813e-18,-3.88522e-20
61.2427,590.77,-2.52914e-16,-1.80114e-17,-8.4378e-19,-1.94261e-20
62.2427,590.77,-1.31066e-16,-9.21906e-18,-4.26746e-19,-9.71306e-21
63.2427,590.77,-6.78919e-17,-4.71743e-18,-2.15801e-19,-4.85653e-21
64.2427,590.77,-3.51526e-17,-2.41327e-18,-1.09115e-19,-2.42827e-21
65.2427,590.77,-1.81934e-17,-1.23422e-18,-5.51645e-20,-1.21413e-21
66.2427,590.77,-9.41223e-18,-6.31052e-19,-2.78858e-20,-6.07066e-22
67.2427,590.77,-4.8674e-18,-3.22573e-19,-1.40947e-20,-3.03533e-22
68.2427,590.77,-2.51613e-18,-1.64848e-19,-7.12321e-21,-1.51767e-22
69.2427,590.77,-1.30017e-18,-8.42239e-20,-3.59955e-21,-7.58833e-23
70.2427,590.77,-6.71598e-19,-4.30213e-20,-1.81874e-21,-3.79416e-23
71.2427,590.77,-3.46784e-19,-2.19701e-20,-9.18858e-22,-1.89708e-23
72.2427,590.77,-1.79001e-19,-1.12171e-20,-4.64172e-22,-9.48541e-24
73.2427,590.77,-9.23632e-20,-5.72579e-21,-2.34457e-22,-4.74271e-24
74.2427,590.77,-4.76427e-20,-2.9221e-21,-1.18414e-22,-2.37135e-24
75.2427,590.77,-2.45668e-20,-1.49095e-21,-5.98e-23,-1.18568e-24
76.2427,590.77,-1.26637e-20,-7.60574e-22,-3.01964e-23,-5.92838e-25
77.2427,590.77,-6.5258e-21,-3.8791e-22,-1.52464e-23,-2.96419e-25
78.2427,590.77,-3.3618e-21,-1.97804e-22,-7.69731e-24,-1.4821e-25
79.2427,590.77,-1.73132e-21,-1.00845e-22,-3.88571e-24,-7.41048e-26
80.2427,590.77,-8.91363e-22,-5.14031e-23,-1.96138e-24,-3.70524e-26
81.2427,590.77,-4.5878e-22,-2.61965e-23,-9.89953e-25,-1.85262e-26
82.2427,590.77,-2.36064e-22,-1.33481e-23,-4.99608e-25,-9.2631e-27
83.2427,590.77,-1.21432e-22,-6.80009e-24,-2.5212e-25,-4.63155e-27
84.2427,590.77,-6.24478e-23,-3.46365e-24,-1.27218e-25,-2.31577e-27
85.2427,590.77,-3.21059e-23,-1.76392e-24,-6.41878e-26,-1.15789e-27
86.2427,590.77,-1.6502e-23,-8.98152e-25,-3.23834e-26,-5.78944e-28
87.2427,590.77,-8.47963e-24,-4.57244e-25,-1.63364e-26,-2.89472e-28
88.2427,590.77,-4.35619e-24,-2.32742e-25,-8.24058e-27,-1.44736e-28
89.2427,590.77,-2.23732e-24,-1.18449e-25,-4.15648e-27,-7.23679e-29
90.2427,590.77,-1.1488e-24,-6.02729e-26,-2.09633e-27,-3.6184e-29
91.2427,590.77,-5.8973e-25,-3.0665e-26,-1.05721e-27,-1.8092e-29
92.2427,590.77,-3.02665e-25,-1.55991e-26,-5.33128e-28,-9.04599e-30
93.2427,590.77,-1.55299e-25,-7.93396e-27,-2.68826e-28,-4.523e-30
94.2427,590.77,-7.9667e-26,-4.03475e-27,-1.35544e-28,-2.2615e-30
95.2427,590.77,-4.08593e-26,-2.05154e-27,-6.83372e-29,-1.13075e-30
96.2427,590.77,-2.09511e-26,-1.043e-27,-3.44513e-29,-5.65375e-31
97.2427,590.77,-1.07407e-26,-5.30182e-28,-1.7367e-29,-2.82687e-31
98.2427,590.77,-5.50506e-27,-2.69468e-28,-8.75416e-30,-1.41344e-31
99.2427,590.77,-2.821e-27,-1.3694e-28,-4.41242e-30,-7.06718e-32
100,590.77,-1.63936e-27,-7.90162e-29,-2.52824e-30,-4.02162e-32
