#Time,E,D,C,B,A
0,0,0.806809,120.694,0,0
3.1e-5,2.51077e-5,0.810525,120.69,0,0
0.000362254,0.000302364,0.850218,120.65,0,0
0.000878582,0.000757861,0.912041,120.588,0,0
0.00338787,0.00342282,1.21159,120.286,0,0
0.0111283,0.0163464,2.12613,119.358,0,0
0.01841,0.0349177,2.97353,118.492,0,0
0.0276078,0.0671231,4.02619,117.407,0,0
0.0566785,0.231147,7.22615,114.043,0,0
0.0891932,0.52132,10.5844,110.395,0,0
0.125376,0.967993,14.0607,106.472,0,0
0.163956,1.57737,17.4809,102.442,0,0
0.20593,2.38367,20.8854,98.2315,0,0
0.251436,3.41148,24.2276,93.8615,0,0
0.300775,4.68839,27.4692,89.3429,0,0
0.354193,6.24028,30.5646,84.6956,0,0
0.411926,8.09076,33.4654,79.9443,0,0
0.474208,10.2603,36.1231,75.1171,0,0
0.541281,12.7653,38.4911,70.2441,0,0
0.613401,15.6177,40.5263,65.3564,0,0
0.690852,18.8243,42.1906,60.4856,0,0
0.773948,22.3861,43.4517,55.6627,0,0
0.863046,26.2984,44.2843,50.9178,0,0
0.958556,30.5504,44.6705,46.2797,0,0
1.05625,34.9152,44.6131,41.9722,0,0
1.16164,39.5948,44.1315,37.7742,0,0
1.26702,44.2045,43.3,33.996,0,0
1.40026,49.8822,41.8631,29.7552,0,0
1.62867,59.0983,38.7233,23.679,0,0
1.85709,67.537,35.12,18.8436,0,0
2.09458,75.4154,31.225,14.8601,0,0
2.33564,82.4722,27.3514,11.677,0,0
2.59229,88.9881,23.4787,9.0337,0,0
2.85194,94.6138,19.9189,6.96787,0,0
3.11759,99.467,16.6912,5.3423,0,0
3.38324,103.519,13.8854,4.09597,0,0
3.64888,106.88,11.4803,3.14041,0,0
3.9631,110.101,9.10546,2.29363,0,0
4.34828,113.144,6.79574,1.56043,0,0
4.82493,115.851,4.68096,0.968818,0,0
5.29485,117.685,3.21042,0.605558,0,0
5.76398,118.936,2.18597,0.37881,0,0
6.29366,119.872,1.40523,0.223045,0,0
6.82782,120.476,0.893528,0.130742,0,0
7.38797,120.874,0.552146,0.0746731,0,0
8.04737,121.151,0.311017,0.038621,0,0
8.66119,121.298,0.181182,0.0209055,0,0
9.37661,121.394,0.0959136,0.0102241,0,0
10.1708,121.449,0.0470198,0.00462142,0,0
10.9563,121.475,0.0230935,0.00210729,0,0
11.8263,121.489,0.0104466,0.000883482,0,0
12.8263,121.496,0.00417001,0.000325262,0,0
13.8263,121.499,0.00165627,0.000120047,0,0
14.8263,121.5,0.000650633,4.37724e-5,0,0
15.8263,121.5,0.000255113,1.61585e-5,0,0
16.8263,121.5,0.000101659,5.95147e-6,0,0
17.8263,121.5,4.10812e-5,2.29709e-6,0,0
18.8263,121.5,1.66937e-5,9.02562e-7,0,0
19.8263,121.501,6.70581e-6,3.46678e-7,0,0
20.8263,121.501,2.74322e-6,1.35802e-7,0,0
21.8263,121.501,9.40164e-7,4.34442e-8,0,0
22.8263,121.501,2.06525e-7,7.5949e-9,0,0
23.8263,121.501,-2.38577e-8,-2.61292e-9,0,0
24.8263,121.501,-6.18349e-8,-3.60932e-9,0,0
25.8263,121.501,-4.56424e-8,-2.36487e-9,0,0
26.8263,121.501,-2.46149e-8,-1.17003e-9,0,0
27.8263,121.501,-1.26e-8,-5.85016e-10,0,0
28.8263,121.501,-6.44624e-9,-2.92508e-10,0,0
29.8263,121.501,-3.29624e-9,-1.46254e-10,0,0
30.8263,121.501,-1.68469e-9,-7.3127e-11,0,0
31.8263,121.501,-8.60625e-10,-3.65635e-11,0,0
32.8263,121.501,-4.39453e-10,-1.82817e-11,0,0
33.8263,121.501,-2.24297e-10,-9.14087e-12,0,0
34.8263,121.501,-1.14434e-10,-4.57044e-12,0,0
35.8263,121.501,-5.83595e-11,-2.28522e-12,0,0
36.8263,121.501,-2.9751e-11,-1.14261e-12,0,0
37.8263,121.501,-1.51612e-11,-5.71305e-13,0,0
38.8263,121.501,-7.72341e-12,-2.85652e-13,0,0
39.8263,121.501,-3.93312e-12,-1.42826e-13,0,0
40.8263,121.501,-2.00227e-12,-7.14131e-14,0,0
41.8263,121.501,-1.01899e-12,-3.57065e-14,0,0
42.8263,121.501,-5.1842e-13,-1.78533e-14,0,0
43.8263,121.501,-2.63673e-13,-8.92663e-15,0,0
44.8263,121.501,-1.34068e-13,-4.46332e-15,0,0
45.8263,121.501,-6.815e-14,-2.23166e-15,0,0
46.8263,121.501,-3.46329e-14,-1.11583e-15,0,0
47.8263,121.501,-1.75954e-14,-5.57915e-16,0,0
48.8263,121.501,-8.93718e-15,-2.78957e-16,0,0
49.8263,121.501,-4.53833e-15,-1.39479e-16,0,0
50.8263,121.501,-2.30404e-15,-6.97393e-17,0,0
51.8263,121.501,-1.16945e-15,-3.48697e-17,0,0
52.8263,121.501,-5.93444e-16,-1.74348e-17,0,0
53.8263,121.501,-3.01081e-16,-8.71742e-18,0,0
54.8263,121.501,-1.5272e-16,-4.35871e-18,0,0
55.8263,121.501,-7.74495e-17,-2.17935e-18,0,0
56.8263,121.501,-3.92696e-17,-1.08968e-18,0,0
57.8263,121.501,-1.99072e-17,-5.44839e-19,0,0
58.8263,121.501,-1.00898e-17,-2.72419e-19,0,0
59.8263,121.501,-5.11301e-18,-1.3621e-19,0,0
60.8263,121.501,-2.59056e-18,-6.81048e-20,0,0
61.8263,121.501,-1.31231e-18,-3.40524e-20,0,0
62.8263,121.501,-6.64666e-19,-1.70262e-20,0,0
63.8263,121.501,-3.36589e-19,-8.5131e-21,0,0
64.8263,121.501,-1.70423e-19,-4.25655e-21,0,0
65.8263,121.501,-8.62756e-20,-2.12828e-21,0,0
66.8263,121.501,-4.36699e-20,-1.06414e-21,0,0
67.8263,121.501,-2.2101e-20,-5.32069e-22,0,0
68.8263,121.501,-1.11835e-20,-2.66034e-22,0,0
69.8263,121.501,-5.65826e-21,-1.33017e-22,0,0
70.8263,121.501,-2.86239e-21,-6.65086e-23,0,0
71.8263,121.501,-1.44782e-21,-3.32543e-23,0,0
72.8263,121.501,-7.32223e-22,-1.66272e-23,0,0
73.8263,121.501,-3.70269e-22,-8.31358e-24,0,0
74.8263,121.501,-1.87213e-22,-4.15679e-24,0,0
75.8263,121.501,-9.46455e-23,-2.07839e-24,0,0
76.8263,121.501,-4.78424e-23,-1.0392e-24,0,0
77.8263,121.501,-2.4181e-23,-5.19598e-25,0,0
78.8263,121.501,-1.22204e-23,-2.59799e-25,0,0
79.8263,121.501,-6.17514e-24,-1.299e-25,0,0
80.8263,121.501,-3.12005e-24,-6.49498e-26,0,0
81.8263,121.501,-1.57626e-24,-3.24749e-26,0,0
82.8263,121.501,-7.96249e-25,-1.62375e-26,0,0
83.8263,121.501,-4.02184e-25,-8.11873e-27,0,0
84.8263,121.501,-2.03122e-25,-4.05936e-27,0,0
85.8263,121.501,-1.02576e-25,-2.02968e-27,0,0
86.8263,121.501,-5.17953e-26,-1.01484e-27,0,0
87.8263,121.501,-2.61513e-26,-5.0742e-28,0,0
88.8263,121.501,-1.32025e-26,-2.5371e-28,0,0
89.8263,121.501,-6.66469e-27,-1.26855e-28,0,0
90.8263,121.501,-3.36406e-27,-6.34275e-29,0,0
91.8263,121.501,-1.69789e-27,-3.17138e-29,0,0
92.8263,121.501,-8.56872e-28,-1.58569e-29,0,0
93.8263,121.501,-4.324e-28,-7.92844e-30,0,0
94.8263,121.501,-2.18182e-28,-3.96422e-30,0,0
95.8263,121.501,-1.10082e-28,-1.98211e-30,0,0
96.8263,121.501,-5.55366e-29,-9.91055e-31,0,0
97.8263,121.501,-2.80161e-29,-4.95528e-31,0,0
98.8263,121.501,-1.41319e-29,-2.47764e-31,0,0
99.8263,121.501,-7.1279e-30,-1.23882e-31,0,0
100,121.501,-6.08848e-30,-1.05546e-31,0,0
