#Time,E,D,C,B,A
0,0,22.019,112.01,0,0
3.1e-5,0.000682661,22.0218,112.007,0,0
0.000406,0.00894926,22.0555,111.965,0,0
0.00101348,0.0223648,22.1101,111.897,0,0
0.00403391,0.0895554,22.3804,111.56,0,0
0.0129037,0.291544,23.1635,110.574,0,0
0.0217734,0.50041,23.9311,109.598,0,0
0.0330296,0.775162,24.8831,108.371,0,0
0.0708543,1.77438,27.9064,104.349,0,0
0.113396,3.02846,30.9984,100.003,0,0
0.160968,4.57824,34.0945,95.3567,0,0
0.21473,6.49582,37.1682,90.3655,0,0
0.272537,8.72878,40.0108,85.2899,0,0
0.335122,11.3164,42.5975,80.1157,0,0
0.402935,14.2854,44.8812,74.8629,0,0
0.476143,17.6448,46.8065,69.5781,0,0
0.555009,21.3998,48.3281,64.3016,0,0
0.639829,25.5487,49.4083,59.0725,0,0
0.730955,30.0829,50.0191,53.9275,0,0
0.828804,34.9874,50.1413,48.9007,0,0
0.931342,40.1143,49.7801,44.1351,0,0
1.03388,45.1825,49.0131,39.8339,0,0
1.16288,51.4186,47.5979,35.013,0,0
1.396,62.1315,44.1656,27.7324,0,0
1.6285,71.9368,40.1136,21.9791,0,0
1.88393,81.5847,35.4202,17.0246,0,0
2.13935,90.038,30.8044,13.187,0,0
2.39478,97.3452,26.4698,10.2145,0,0
2.65324,103.662,22.4799,7.88801,0,0
2.91776,109.118,18.8566,6.0546,0,0
3.18228,113.679,15.7031,4.64733,0,0
3.4468,117.465,12.9969,3.56715,0,0
3.75913,121.094,10.3257,2.61024,0,0
4.14146,124.523,7.72572,1.78089,0,0
4.61703,127.594,5.32818,1.1069,0,0
4.9198,129.028,4.18389,0.817735,0,0
5.23694,130.198,3.23568,0.595493,0,0
5.58316,131.174,2.43461,0.42122,0,0
5.92938,131.906,1.8253,0.297949,0,0
6.27559,132.455,1.3641,0.210753,0,0
6.64626,132.888,0.99552,0.145474,0,0
7.0271,133.212,0.718076,0.0993979,0,0
7.41872,133.451,0.511702,0.0671875,0,0
7.81535,133.622,0.362081,0.0451878,0,0
8.22201,133.746,0.253331,0.030088,0,0
8.65503,133.837,0.172743,0.0195126,0,0
9.09958,133.901,0.116307,0.0125092,0,0
9.57752,133.946,0.0758213,0.00775575,0,0
10.084,133.977,0.0480561,0.00467328,0,0
10.6195,133.997,0.029594,0.00273526,0,0
11.2197,134.011,0.017136,0.00150038,0,0
11.8613,134.019,0.00952624,0.000789593,0,0
12.5785,134.024,0.00492436,0.000385138,0,0
13.3996,134.027,0.00230366,0.000169204,0,0
14.2987,134.028,0.000997811,6.86859e-5,0,0
15.2987,134.029,0.000390992,2.51318e-5,0,0
16.2987,134.029,0.000152472,9.19445e-6,0,0
17.2987,134.029,6.12544e-5,3.52434e-6,0,0
18.2987,134.029,2.51599e-5,1.39429e-6,0,0
19.2987,134.029,1.01203e-5,5.35102e-7,0,0
20.2987,134.029,4.09198e-6,2.07142e-7,0,0
21.2987,134.029,1.39339e-6,6.57474e-8,0,0
22.2987,134.029,3.00783e-7,1.11695e-8,0,0
23.2987,134.029,-3.97369e-8,-4.21386e-9,0,0
24.2987,134.029,-9.41882e-8,-5.60499e-9,0,0
25.2987,134.029,-6.88597e-8,-3.64122e-9,0,0
26.2987,134.029,-3.69669e-8,-1.79198e-9,0,0
27.2987,134.029,-1.89314e-8,-8.95989e-10,0,0
28.2987,134.029,-9.68972e-9,-4.47995e-10,0,0
29.2987,134.029,-4.95686e-9,-2.23997e-10,0,0
30.2987,134.029,-2.53443e-9,-1.11999e-10,0,0
31.2987,134.029,-1.29521e-9,-5.59993e-11,0,0
32.2987,134.029,-6.61607e-10,-2.79997e-11,0,0
33.2987,134.029,-3.37803e-10,-1.39998e-11,0,0
34.2987,134.029,-1.72402e-10,-6.99992e-12,0,0
35.2987,134.029,-8.79508e-11,-3.49996e-12,0,0
36.2987,134.029,-4.48504e-11,-1.74998e-12,0,0
37.2987,134.029,-2.28627e-11,-8.7499e-13,0,0
38.2987,134.029,-1.16501e-11,-4.37495e-13,0,0
39.2987,134.029,-5.93442e-12,-2.18747e-13,0,0
40.2987,134.029,-3.0219e-12,-1.09374e-13,0,0
41.2987,134.029,-1.53829e-12,-5.46868e-14,0,0
42.2987,134.029,-7.82817e-13,-2.73434e-14,0,0
43.2987,134.029,-3.98245e-13,-1.36717e-14,0,0
44.2987,134.029,-2.0254e-13,-6.83586e-15,0,0
45.2987,134.029,-1.02979e-13,-3.41793e-15,0,0
46.2987,134.029,-5.2344e-14,-1.70896e-15,0,0
47.2987,134.029,-2.65992e-14,-8.54482e-16,0,0
48.2987,134.029,-1.35132e-14,-4.27241e-16,0,0
49.2987,134.029,-6.86343e-15,-2.1362e-16,0,0
50.2987,134.029,-3.48512e-15,-1.0681e-16,0,0
51.2987,134.029,-1.76926e-15,-5.34051e-17,0,0
52.2987,134.029,-8.97983e-16,-2.67026e-17,0,0
53.2987,134.029,-4.55667e-16,-1.33513e-17,0,0
54.2987,134.029,-2.31171e-16,-6.67564e-18,0,0
55.2987,134.029,-1.17255e-16,-3.33782e-18,0,0
56.2987,134.029,-5.94617e-17,-1.66891e-18,0,0
57.2987,134.029,-3.01481e-17,-8.34455e-19,0,0
58.2987,134.029,-1.52827e-17,-4.17228e-19,0,0
59.2987,134.029,-7.74564e-18,-2.08614e-19,0,0
60.2987,134.029,-3.92497e-18,-1.04307e-19,0,0
61.2987,134.029,-1.98856e-18,-5.21534e-20,0,0
62.2987,134.029,-1.00732e-18,-2.60767e-20,0,0
63.2987,134.029,-5.10179e-19,-1.30384e-20,0,0
64.2987,134.029,-2.58349e-19,-6.51918e-21,0,0
65.2987,134.029,-1.30804e-19,-3.25959e-21,0,0
66.2987,134.029,-6.62171e-20,-1.62979e-21,0,0
67.2987,134.029,-3.3516e-20,-8.14897e-22,0,0
68.2987,134.029,-1.69617e-20,-4.07449e-22,0,0
69.2987,134.029,-8.58272e-21,-2.03724e-22,0,0
70.2987,134.029,-4.34229e-21,-1.01862e-22,0,0
71.2987,134.029,-2.19661e-21,-5.09311e-23,0,0
72.2987,134.029,-1.11104e-21,-2.54655e-23,0,0
73.2987,134.029,-5.61886e-22,-1.27328e-23,0,0
74.2987,134.029,-2.84126e-22,-6.36639e-24,0,0
75.2987,134.029,-1.43655e-22,-3.18319e-24,0,0
76.2987,134.029,-7.26231e-23,-1.5916e-24,0,0
77.2987,134.029,-3.67095e-23,-7.95798e-25,0,0
78.2987,134.029,-1.85537e-23,-3.97899e-25,0,0
79.2987,134.029,-9.37631e-24,-1.9895e-25,0,0
80.2987,134.029,-4.73789e-24,-9.94748e-26,0,0
81.2987,134.029,-2.39382e-24,-4.97374e-26,0,0
82.2987,134.029,-1.20934e-24,-2.48687e-26,0,0
83.2987,134.029,-6.10888e-25,-1.24343e-26,0,0
84.2987,134.029,-3.08553e-25,-6.21717e-27,0,0
85.2987,134.029,-1.55831e-25,-3.10859e-27,0,0
86.2987,134.029,-7.86925e-26,-1.55429e-27,0,0
87.2987,134.029,-3.97348e-26,-7.77147e-28,0,0
88.2987,134.029,-2.00617e-26,-3.88573e-28,0,0
89.2987,134.029,-1.0128e-26,-1.94287e-28,0,0
90.2987,134.029,-5.11257e-27,-9.71434e-29,0,0
91.2987,134.029,-2.58057e-27,-4.85717e-29,0,0
92.2987,134.029,-1.30243e-27,-2.42858e-29,0,0
93.2987,134.029,-6.57285e-28,-1.21429e-29,0,0
94.2987,134.029,-3.31678e-28,-6.07146e-30,0,0
95.2987,134.029,-1.67357e-28,-3.03573e-30,0,0
96.2987,134.029,-8.44374e-29,-1.51786e-30,0,0
97.2987,134.029,-4.25982e-29,-7.58932e-31,0,0
98.2987,134.029,-2.14888e-29,-3.79466e-31,0,0
99.2987,134.029,-1.08393e-29,-1.89733e-31,0,0
100,134.029,-6.41706e-30,-1.11521e-31,0,0
