#Time,E,D,C,B,A
0,44.8114,0,100.665,0,95.2453
3.1e-5,44.8114,0.00312047,100.662,0.00295245,95.2424
0.000300534,44.8114,0.0302418,100.635,0.0286135,95.2167
0.000721693,44.8114,0.072594,100.593,0.0686853,95.1766
0.00278626,44.8118,0.279697,100.386,0.264637,94.9803
0.0106649,44.8171,1.06222,99.603,1.00501,94.235
0.0182798,44.828,1.80692,98.8577,1.70954,93.5201
0.0262865,44.8456,2.57779,98.0859,2.43872,92.7743
0.0350766,44.8719,3.40998,97.2523,3.22575,91.9624
0.0446583,44.9088,4.30059,96.3596,4.06775,91.0854
0.0546358,44.9563,5.21,95.4477,4.92715,90.1811
0.0687934,45.039,6.46961,94.1836,6.11669,88.9134
0.11771,45.4571,10.5565,90.0735,9.96636,84.6687
0.169261,46.1034,14.4505,86.1427,13.611,80.4146
0.224294,47.0034,18.1852,82.3543,17.0707,76.1087
0.283843,48.1957,21.7855,78.6783,20.3539,71.7088
0.347647,49.6967,25.1903,75.1705,23.3883,67.2764
0.414776,51.4953,28.3257,71.8999,26.0928,62.9085
0.485687,53.6084,31.2007,68.849,28.4621,58.6021
0.562243,56.1017,33.8648,65.9525,30.5201,54.2832
0.642761,58.9269,36.2401,63.28,32.1916,50.0837
0.727369,62.0843,38.3301,60.8138,33.4736,46.0206
0.816195,65.5721,40.1405,58.5317,34.3688,42.1091
0.911908,69.4924,41.7162,56.3539,34.8942,38.2656
1.00992,73.6459,42.9864,54.3601,35.0366,34.6931
1.11252,78.111,44.0002,52.4684,34.8325,31.3101
1.21512,82.6657,44.7385,50.7262,34.3349,28.2569
1.32571,87.6448,45.2707,48.97,33.538,25.2988
1.43629,92.6695,45.5684,47.3024,32.5316,22.6503
1.55435,98.0571,45.6636,45.5882,31.2852,20.128
1.77416,108.069,45.3316,42.5024,28.6632,16.1562
1.99931,118.184,44.4374,39.4131,25.7889,12.8991
2.26021,129.583,42.8598,35.8836,22.4593,9.93688
2.5211,140.51,40.8411,32.4177,19.299,7.65494
2.782,150.865,38.5012,29.0528,16.4057,5.89703
3.0429,160.58,35.9425,25.833,13.8236,4.54281
3.30975,169.807,33.1913,22.7313,11.5143,3.47883
3.57957,178.38,30.3537,19.8245,9.50803,2.65613
3.8494,186.188,27.5305,17.1689,7.80673,2.02798
4.12893,193.483,24.6819,14.692,6.33159,1.53342
4.41175,200.071,21.9285,12.4685,5.09869,1.15566
4.70114,206.029,19.2832,10.4764,4.06789,0.865263
4.99968,211.405,16.764,8.70205,3.20962,0.641935
5.30705,216.189,14.4086,7.14711,2.5054,0.472064
5.63488,220.538,12.1683,5.75941,1.91659,0.340109
5.97555,224.328,10.1315,4.57509,1.44567,0.241914
6.32956,227.584,8.31264,3.58097,1.07478,0.16979
6.71452,230.454,6.64993,2.72688,0.775837,0.115535
7.11101,232.802,5.24235,2.04733,0.552694,0.0777151
7.51791,234.689,4.07552,1.51693,0.388982,0.0517341
7.93094,236.17,3.13344,1.11288,0.271502,0.0342283
8.35623,237.334,2.37363,0.804843,0.186959,0.0223699
8.81266,238.269,1.74908,0.565435,0.124912,0.0141713
9.27513,238.962,1.27468,0.393399,0.0827851,0.00892349
9.75348,239.481,0.912655,0.269004,0.0539543,0.00553038
10.2382,239.855,0.646324,0.182168,0.0348768,0.00340554
10.7358,240.126,0.450734,0.121561,0.0222339,0.00207032
11.2721,240.325,0.303673,0.0782497,0.0136535,0.0012108
11.8147,240.461,0.202371,0.0498899,0.00831722,0.000703668
12.3573,240.551,0.134081,0.0316802,0.00505585,0.000408943
12.9365,240.614,0.0858894,0.0194288,0.00296519,0.000229084
13.5319,240.655,0.0540245,0.0117068,0.00170979,0.000126273
14.177,240.682,0.0324913,0.00673306,0.000939493,6.62187e-5
14.8654,240.699,0.018763,0.00371459,0.000494716,3.32493e-5
15.5981,240.71,0.0103883,0.00196305,0.000249331,1.5966e-5
16.4447,240.716,0.00520476,0.000934217,0.000112603,6.83587e-6
17.3497,240.719,0.00246473,0.000419796,4.79702e-5,2.75819e-6
18.3497,240.721,0.00106849,0.00017218,1.85965e-5,1.00955e-6
19.3497,240.722,0.000459041,7.01797e-5,7.18561e-6,3.69486e-7
20.3497,240.722,0.000197759,2.88688e-5,2.82347e-6,1.38761e-7
21.3497,240.722,8.38144e-5,1.16368e-5,1.07984e-6,5.01896e-8
22.3497,240.722,3.67869e-5,4.90458e-6,4.35677e-7,1.92832e-8
23.3497,240.722,1.46526e-5,1.85585e-6,1.56472e-7,6.56992e-9
24.3497,240.722,5.40726e-6,6.41383e-7,5.04382e-8,1.96687e-9
25.3497,240.722,1.90769e-6,2.09838e-7,1.51749e-8,5.38443e-10
26.3497,240.722,1.00554e-6,1.0847e-7,7.69874e-9,2.68364e-10
27.3497,240.722,5.30866e-7,5.61934e-8,3.91646e-9,1.34182e-10
28.3497,240.722,2.79979e-7,2.90926e-8,1.99178e-9,6.7091e-11
29.3497,240.722,1.47516e-7,1.50526e-8,1.01266e-9,3.35455e-11
30.3497,240.722,7.76498e-8,7.78366e-9,5.14717e-10,1.67728e-11
31.3497,240.722,4.08362e-8,4.02261e-9,2.61552e-10,8.38638e-12
32.3497,240.722,2.1457e-8,2.07774e-9,1.32872e-10,4.19319e-12
33.3497,240.722,1.12648e-8,1.07261e-9,6.74845e-11,2.09659e-12
34.3497,240.722,5.90912e-9,5.53439e-10,3.42664e-11,1.0483e-12
35.3497,240.722,3.09727e-9,2.85417e-10,1.73953e-11,5.24149e-13
36.3497,240.722,1.62219e-9,1.47123e-10,8.82867e-12,2.62074e-13
37.3497,240.722,8.48998e-10,7.58014e-11,4.47985e-12,1.31037e-13
38.3497,240.722,4.44018e-10,3.90371e-11,2.27269e-12,6.55186e-14
39.3497,240.722,2.32056e-10,2.00949e-11,1.15272e-12,3.27593e-14
40.3497,240.722,1.21198e-10,1.03397e-11,5.84551e-13,1.63796e-14
41.3497,240.722,6.3258e-11,5.31805e-12,2.96371e-13,8.18982e-15
42.3497,240.722,3.29961e-11,2.73414e-12,1.50233e-13,4.09491e-15
43.3497,240.722,1.72006e-11,1.40514e-12,7.61401e-14,2.04746e-15
44.3497,240.722,8.96123e-12,7.21861e-13,3.85819e-14,1.02373e-15
45.3497,240.722,4.66597e-12,3.70704e-13,1.95469e-14,5.11864e-16
46.3497,240.722,2.42814e-12,1.90303e-13,9.90141e-15,2.55932e-16
47.3497,240.722,1.2629e-12,9.76587e-14,5.01469e-15,1.27966e-16
48.3497,240.722,6.56498e-13,5.0099e-14,2.53934e-15,6.3983e-17
49.3497,240.722,3.41095e-13,2.56923e-14,1.28566e-15,3.19915e-17
50.3497,240.722,1.77133e-13,1.31716e-14,6.5083e-16,1.59957e-17
51.3497,240.722,9.19419e-14,6.7505e-15,3.29414e-16,7.99787e-18
52.3497,240.722,4.77003e-14,3.4586e-15,1.66706e-16,3.99894e-18
53.3497,240.722,2.47359e-14,1.77148e-15,8.43529e-17,1.99947e-18
54.3497,240.722,1.28215e-14,9.07077e-16,4.26763e-17,9.99734e-19
55.3497,240.722,6.6429e-15,4.64332e-16,2.15881e-17,4.99867e-19
56.3497,240.722,3.44026e-15,2.37626e-16,1.0919e-17,2.49934e-19
57.3497,240.722,1.78092e-15,1.21574e-16,5.52199e-18,1.24967e-19
58.3497,240.722,9.21551e-16,6.2183e-17,2.79224e-18,6.24834e-20
59.3497,240.722,4.76674e-16,3.17974e-17,1.41174e-18,3.12417e-20
60.3497,240.722,2.46465e-16,1.62555e-17,7.1368e-19,1.56208e-20
61.3497,240.722,1.27387e-16,8.30814e-18,3.60745e-19,7.81042e-21
62.3497,240.722,6.58159e-17,4.24523e-18,1.82325e-19,3.90521e-21
63.3497,240.722,3.39923e-17,2.16869e-18,9.21389e-20,1.95261e-21
64.3497,240.722,1.755e-17,1.10762e-18,4.65576e-20,9.76303e-22
65.3497,240.722,9.05776e-18,5.65572e-19,2.35229e-20,4.88151e-22
66.3497,240.722,4.67325e-18,2.88728e-19,1.18835e-20,2.44076e-22
67.3497,240.722,2.41031e-18,1.47365e-19,6.00276e-21,1.22038e-22
68.3497,240.722,1.24275e-18,7.51986e-20,3.03189e-21,6.10189e-23
69.3497,240.722,6.40558e-19,3.83649e-20,1.5312e-21,3.05095e-23
70.3497,240.722,3.30064e-19,1.95691e-20,7.73227e-22,1.52547e-23
71.3497,240.722,1.70022e-19,9.97975e-21,3.90427e-22,7.62737e-24
72.3497,240.722,8.75551e-20,5.08843e-21,1.9712e-22,3.81368e-24
73.3497,240.722,4.50745e-20,2.59397e-21,9.95136e-23,1.90684e-24
74.3497,240.722,2.31983e-20,1.3221e-21,5.02335e-23,9.53421e-25
75.3497,240.722,1.1936e-20,6.73729e-22,2.53551e-23,4.7671e-25
76.3497,240.722,6.13964e-21,3.43263e-22,1.27967e-23,2.38355e-25
77.3497,240.722,3.15725e-21,1.7486e-22,6.45796e-24,1.19178e-25
78.3497,240.722,1.62316e-21,8.90596e-23,3.25877e-24,5.95888e-26
79.3497,240.722,8.34254e-22,4.5352e-23,1.64428e-24,2.97944e-26
80.3497,240.722,4.28672e-22,2.30908e-23,8.2959e-25,1.48972e-26
81.3497,240.722,2.20213e-22,1.17546e-23,4.18519e-25,7.4486e-27
82.3497,240.722,1.13098e-22,5.98288e-24,2.11122e-25,3.7243e-27
83.3497,240.722,5.80714e-23,3.04469e-24,1.06492e-25,1.86215e-27
84.3497,240.722,2.98103e-23,1.5492e-24,5.37115e-26,9.31075e-28
85.3497,240.722,1.52992e-23,7.88144e-25,2.70885e-26,4.65537e-28
86.3497,240.722,7.85007e-24,4.00902e-25,1.36607e-26,2.32769e-28
87.3497,240.722,4.02698e-24,2.03895e-25,6.88852e-27,1.16384e-28
88.3497,240.722,2.06533e-24,1.03684e-25,3.47336e-27,5.81922e-29
89.3497,240.722,1.05903e-24,5.27178e-26,1.75123e-27,2.90961e-29
90.3497,240.722,5.42913e-25,2.68004e-26,8.82887e-28,1.4548e-29
91.3497,240.722,2.78268e-25,1.36227e-26,4.45081e-28,7.27402e-30
92.3497,240.722,1.42596e-25,6.92354e-27,2.24359e-28,3.63701e-30
93.3497,240.722,7.3057e-26,3.51831e-27,1.13089e-28,1.81851e-30
94.3497,240.722,3.74223e-26,1.78766e-27,5.69989e-29,9.09253e-31
95.3497,240.722,1.91653e-26,9.08191e-28,2.87268e-29,4.54626e-31
96.3497,240.722,9.81329e-27,4.61334e-28,1.4477e-29,2.27313e-31
97.3497,240.722,5.0238e-27,2.34315e-28,7.29535e-30,1.13657e-31
98.3497,240.722,2.5714e-27,1.18995e-28,3.67609e-30,5.68283e-32
99.3497,240.722,1.31591e-27,6.04238e-29,1.85225e-30,2.84142e-32
100,240.722,8.11964e-28,3.7058e-29,1.12913e-30,1.72172e-32
