#Time,E,D,C,B,A
0,101.983,12.6031,0,380.77,148.631
3.1e-5,101.984,12.6027,0.0118034,380.763,148.626
0.000186144,101.986,12.6007,0.070865,380.727,148.603
0.000432082,101.989,12.5977,0.164464,380.67,148.567
0.00167062,102.004,12.5826,0.635264,380.383,148.383
0.00886793,102.095,12.5066,3.35263,378.715,147.319
0.0177017,102.205,12.4406,6.6449,376.674,146.023
0.0270159,102.32,12.4028,10.0655,374.53,144.669
0.0372911,102.448,12.3979,13.7792,372.172,143.19
0.0475663,102.575,12.4308,17.4309,369.824,141.727
0.071931,102.881,12.6535,25.8462,364.292,138.315
0.109027,103.362,13.3593,38.0181,355.97,133.278
0.1532,103.98,14.723,51.5447,346.221,127.519
0.198628,104.691,16.65,64.4107,336.381,121.856
0.244055,105.5,19.0402,76.2725,326.731,116.444
0.323646,107.212,24.1544,94.7932,310.293,107.535
0.44071,110.558,33.2737,117.288,287.212,95.6558
0.570479,115.609,44.7467,136.457,263.161,84.0144
0.713064,122.933,58.0262,151.6,238.578,72.85
0.869201,133.124,72.4138,162.311,213.82,62.3189
1.03433,146.274,86.6244,168.258,189.998,52.8332
1.21694,163.39,100.448,169.813,166.322,44.0146
1.41001,183.986,112.44,167.149,144.126,36.2867
1.61969,208.646,122.203,160.683,123.034,29.4229
1.84842,237.455,129.063,150.83,103.232,23.407
2.09036,269.16,132.393,138.564,85.494,18.3769
2.35401,304.107,132.101,124.259,69.4027,14.118
2.61765,338.528,128.54,109.896,56.178,10.8461
2.88129,371.67,122.535,96.0953,45.3554,8.33243
3.14494,402.99,114.831,83.2341,36.5319,6.40135
3.40858,432.126,106.068,71.5147,29.3621,4.91781
3.76506,467.7,93.4427,57.6169,21.7848,3.44313
4.13233,499.615,80.4145,45.6092,15.9645,2.3848
4.56167,531.014,66.0697,34.2935,11.0584,1.55237
5.0256,558.396,52.3139,24.895,7.4065,0.976148
5.44807,578.176,41.6224,18.4247,5.12469,0.639792
5.91637,595.291,31.819,13.0815,3.396,0.400558
6.44157,609.628,23.165,8.82444,2.13295,0.236907
6.92491,619.287,17.0732,6.0951,1.38606,0.146107
7.46802,627.098,11.9626,3.99072,0.851322,0.0848816
8.03531,632.739,8.14639,2.54458,0.510062,0.0481341
8.59167,636.499,5.52789,1.62574,0.307768,0.0275953
9.17552,639.14,3.64235,1.00961,0.180648,0.0153921
9.79774,640.962,2.31132,0.603845,0.102106,0.00826209
10.4161,642.108,1.45725,0.36023,0.0577693,0.00445185
11.0957,642.882,0.86954,0.203001,0.0308149,0.00225666
11.7804,643.345,0.512259,0.113272,0.0163184,0.00113803
12.4869,643.623,0.294259,0.0617149,0.00844836,0.000561553
13.1995,643.783,0.166939,0.033288,0.00433961,0.000275422
13.9428,643.876,0.0917299,0.0174001,0.00216116,0.000130993
14.7379,643.93,0.0479832,0.00865248,0.00102309,5.91685e-5
15.5728,643.959,0.0241152,0.00413484,0.000465516,2.56863e-5
16.5229,643.975,0.0109293,0.00177515,0.000189583,9.94395e-6
17.5224,643.982,0.00471299,0.000725379,7.35036e-5,3.6648e-6
18.5224,643.985,0.00201624,0.000295019,2.84583e-5,1.35324e-6
19.5224,643.987,0.000852898,0.000118608,1.08703e-5,4.90923e-7
20.5224,643.987,0.000359522,4.79599e-5,4.24017e-6,1.86302e-7
21.5224,643.988,0.000152529,1.9003e-5,1.51757e-6,5.65488e-8
22.5224,643.988,6.47655e-5,7.79364e-6,6.07645e-7,2.26637e-8
23.5224,643.988,2.7723e-5,3.24764e-6,2.49643e-7,9.40518e-9
24.5224,643.988,1.17713e-5,1.33119e-6,9.85108e-8,3.542e-9
25.5224,643.988,5.04125e-6,5.5118e-7,3.92915e-8,1.34925e-9
26.5224,643.988,1.85882e-6,1.9292e-7,1.30405e-8,4.24775e-10
27.5224,643.988,4.96865e-7,4.51407e-8,2.60206e-9,6.99702e-11
28.5224,643.988,2.46528e-8,-2.68661e-9,-5.38038e-10,-2.89789e-11
29.5224,643.988,-8.42762e-8,-1.15637e-8,-9.65713e-10,-3.71772e-11
30.5224,643.988,-7.59449e-8,-8.98347e-9,-6.74541e-10,-2.3946e-11
31.5224,643.988,-4.59065e-8,-5.0145e-9,-3.51179e-10,-1.17213e-11
32.5224,643.988,-2.42515e-8,-2.59651e-9,-1.7852e-10,-5.86066e-12
33.5224,643.988,-1.27976e-8,-1.34362e-9,-9.0725e-11,-2.93033e-12
34.5224,643.988,-6.74621e-9,-6.94857e-10,-4.60951e-11,-1.46517e-12
35.5224,643.988,-3.55267e-9,-3.59135e-10,-2.34138e-11,-7.32583e-13
36.5224,643.988,-1.86909e-9,-1.85513e-10,-1.18901e-11,-3.66292e-13
37.5224,643.988,-9.82434e-10,-9.57747e-11,-6.03661e-12,-1.83146e-13
38.5224,643.988,-5.15926e-10,-4.94194e-11,-3.06409e-12,-9.15729e-14
39.5224,643.988,-2.70707e-10,-2.54872e-11,-1.55494e-12,-4.57864e-14
40.5224,643.988,-1.41922e-10,-1.3138e-11,-7.88916e-13,-2.28932e-14
41.5224,643.988,-7.43458e-11,-6.76911e-12,-4.00181e-13,-1.14466e-14
42.5224,643.988,-3.89159e-11,-3.48603e-12,-2.02952e-13,-5.7233e-15
43.5224,643.988,-2.03552e-11,-1.79447e-12,-1.02907e-13,-2.86165e-15
44.5224,643.988,-1.06393e-11,-9.23319e-13,-5.21689e-14,-1.43083e-15
45.5224,643.988,-5.55707e-12,-4.7488e-13,-2.64421e-14,-7.15413e-16
46.5224,643.988,-2.9006e-12,-2.4414e-13,-1.33999e-14,-3.57707e-16
47.5224,643.988,-1.51303e-12,-1.25465e-13,-6.78939e-15,-1.78853e-16
48.5224,643.988,-7.88743e-13,-6.44521e-14,-3.43941e-15,-8.94266e-17
49.5224,643.988,-4.1092e-13,-3.30971e-14,-1.74206e-15,-4.47133e-17
50.5224,643.988,-2.13955e-13,-1.69896e-14,-8.82209e-16,-2.23567e-17
51.5224,643.988,-1.11337e-13,-8.71817e-15,-4.46694e-16,-1.11783e-17
52.5224,643.988,-5.79043e-14,-4.47216e-15,-2.26141e-16,-5.58916e-18
53.5224,643.988,-3.00988e-14,-2.29331e-15,-1.14468e-16,-2.79458e-18
54.5224,643.988,-1.56372e-14,-1.17562e-15,-5.79326e-17,-1.39729e-18
55.5224,643.988,-8.11985e-15,-6.02469e-16,-2.93156e-17,-6.98646e-19
56.5224,643.988,-4.21425e-15,-3.08651e-16,-1.48325e-17,-3.49323e-19
57.5224,643.988,-2.18616e-15,-1.58077e-16,-7.50357e-18,-1.74661e-19
58.5224,643.988,-1.13355e-15,-8.09363e-17,-3.79545e-18,-8.73307e-20
59.5224,643.988,-5.87489e-16,-4.14279e-17,-1.91956e-18,-4.36654e-20
60.5224,643.988,-3.04344e-16,-2.11993e-17,-9.70695e-19,-2.18327e-20
61.5224,643.988,-1.57595e-16,-1.08451e-17,-4.90806e-19,-1.09163e-20
62.5224,643.988,-8.15706e-17,-5.54659e-18,-2.48132e-19,-5.45817e-21
63.5224,643.988,-4.22033e-17,-2.83601e-18,-1.25431e-19,-2.72908e-21
64.5224,643.988,-2.18265e-17,-1.44971e-18,-6.33975e-20,-1.36454e-21
65.5224,643.988,-1.12837e-17,-7.40873e-19,-3.20399e-20,-6.82271e-22
66.5224,643.988,-5.83111e-18,-3.78532e-19,-1.61905e-20,-3.41136e-22
67.5224,643.988,-3.01223e-18,-1.93356e-19,-8.18054e-21,-1.70568e-22
68.5224,643.988,-1.55549e-18,-9.87445e-20,-4.13291e-21,-8.52839e-23
69.5224,643.988,-8.02952e-19,-5.04161e-20,-2.08778e-21,-4.26419e-23
70.5224,643.988,-4.14344e-19,-2.57353e-20,-1.05455e-21,-2.1321e-23
71.5224,643.988,-2.13739e-19,-1.3134e-20,-5.32605e-22,-1.06605e-23
72.5224,643.988,-1.1022e-19,-6.70147e-21,-2.68968e-22,-5.33024e-24
73.5224,643.988,-5.68194e-20,-3.41864e-21,-1.35816e-22,-2.66512e-24
74.5224,643.988,-2.92815e-20,-1.74361e-21,-6.85745e-23,-1.33256e-24
75.5224,643.988,-1.50853e-20,-8.89115e-22,-3.46204e-23,-6.6628e-25
76.5224,643.988,-7.7693e-21,-4.53296e-22,-1.74768e-23,-3.3314e-25
77.5224,643.988,-4.00018e-21,-2.31059e-22,-8.82166e-24,-1.6657e-25
78.5224,643.988,-2.05897e-21,-1.17756e-22,-4.45247e-24,-8.3285e-26
79.5224,643.988,-1.05948e-21,-6.00013e-23,-2.24706e-24,-4.16425e-26
80.5224,643.988,-5.45026e-22,-3.05676e-23,-1.13394e-24,-2.08213e-26
81.5224,643.988,-2.80298e-22,-1.55699e-23,-5.72175e-25,-1.04106e-26
82.5224,643.988,-1.44114e-22,-7.9293e-24,-2.8869e-25,-5.20532e-27
83.5224,643.988,-7.40756e-23,-4.03747e-24,-1.45646e-25,-2.60266e-27
84.5224,643.988,-3.80655e-23,-2.05547e-24,-7.34739e-26,-1.30133e-27
85.5224,643.988,-1.95559e-23,-1.04627e-24,-3.70623e-26,-6.50664e-28
86.5224,643.988,-1.00442e-23,-5.32481e-25,-1.86938e-26,-3.25332e-28
87.5224,643.988,-5.15757e-24,-2.70954e-25,-9.42824e-27,-1.62666e-28
88.5224,643.988,-2.64771e-24,-1.37855e-25,-4.75478e-27,-8.13331e-29
89.5224,643.988,-1.35892e-24,-7.01262e-26,-2.39773e-27,-4.06665e-29
90.5224,643.988,-6.97294e-25,-3.56676e-26,-1.20903e-27,-2.03333e-29
91.5224,643.988,-3.57716e-25,-1.81386e-26,-6.09598e-28,-1.01666e-29
92.5224,643.988,-1.8347e-25,-9.22297e-27,-3.07341e-28,-5.08332e-30
93.5224,643.988,-9.40792e-26,-4.68895e-27,-1.54941e-28,-2.54166e-30
94.5224,643.988,-4.82314e-26,-2.38353e-27,-7.8106e-29,-1.27083e-30
95.5224,643.988,-2.47214e-26,-1.21145e-27,-3.93707e-29,-6.35414e-31
96.5224,643.988,-1.26685e-26,-6.15647e-28,-1.98442e-29,-3.17707e-31
97.5224,643.988,-6.49068e-27,-3.12824e-28,-1.00015e-29,-1.58854e-31
98.5224,643.988,-3.32481e-27,-1.58932e-28,-5.04048e-30,-7.94268e-32
99.5224,643.988,-1.70277e-27,-8.07363e-29,-2.5401e-30,-3.97134e-32
100,643.988,-1.17022e-27,-5.51978e-29,-1.72773e-30,-2.68766e-32
