#Time,E,D,C,B,A
0,0,30.4172,0,0,80.5723
3.1e-5,0.000942909,30.4163,6.49364e-8,0.00249761,80.5698
0.000332178,0.0101018,30.4071,5.68661e-6,0.0267529,80.5455
0.000802123,0.024388,30.3928,2.74414e-5,0.064574,80.5077
0.00308913,0.093817,30.3234,0.000384888,0.248127,80.3238
0.0105806,0.320136,30.0971,0.00446115,0.843531,79.7243
0.0179522,0.541183,29.8761,0.0127476,1.42072,79.1388
0.0271368,0.814329,29.6032,0.0288674,2.12794,78.4152
0.0541324,1.60281,28.8165,0.111829,4.13174,76.3267
0.083696,2.44233,27.9823,0.259549,6.20214,74.1032
0.117557,3.37415,27.063,0.494996,8.42128,71.636
0.151417,4.27552,26.1833,0.793875,10.4858,69.251
0.187212,5.19674,25.2971,1.17091,12.5087,66.8161
0.225008,6.13596,24.4106,1.62868,14.4765,64.3378
0.264874,7.09139,23.5307,2.16874,16.3754,61.8233
0.308293,8.09341,22.6366,2.81319,18.2498,59.1965
0.354274,9.11388,21.7622,3.54797,20.0293,56.5362
0.402915,10.1515,20.917,4.37124,21.6978,53.852
0.454315,11.2056,20.1108,5.27921,23.24,51.154
0.510147,12.3062,19.3332,6.29502,24.6789,48.3762
0.569144,13.4252,18.6177,7.38635,25.9556,45.6047
0.631427,14.5641,17.9748,8.54244,27.0572,42.851
0.697113,15.7258,17.414,9.75024,27.9727,40.1267
0.768322,16.9479,16.932,11.0298,28.7111,37.3687
0.843548,18.2065,16.5524,12.332,29.2378,34.6608
0.923,19.5101,16.2811,13.6367,29.5482,32.0135
1.00689,20.8683,16.1214,14.9223,29.64,29.4375
1.09823,22.3378,16.0744,16.2029,29.5067,26.8678
1.19527,23.9001,16.1446,17.4178,29.144,24.3831
1.30004,25.6004,16.3303,18.5556,28.5455,21.9577
1.40997,27.4105,16.6167,19.5541,27.7363,19.6719
1.5253,29.3477,16.9851,20.3911,26.7366,17.5291
1.64064,31.3299,17.393,21.0215,25.6255,15.6196
1.76468,33.5154,17.8459,21.4832,24.3475,13.7975
1.88872,35.7566,18.2874,21.7386,23.019,12.188
2.02123,38.2092,18.7221,21.8061,21.5767,10.6754
2.26286,42.8143,19.3556,21.4646,18.9711,8.38389
2.50674,47.5861,19.7265,20.6399,16.4675,6.56939
2.79471,53.2843,19.7786,19.2353,13.7657,4.92563
3.08267,58.9382,19.4255,17.5478,11.3849,3.69316
3.37063,64.438,18.7187,15.7301,9.33369,2.76908
3.6586,69.6917,17.7298,13.8956,7.5962,2.07621
3.94656,74.6294,16.5362,12.1234,6.14384,1.55671
4.23452,79.2028,15.2119,10.465,4.9427,1.1672
4.52249,83.3841,13.8223,8.94999,3.958,0.875149
4.82207,87.3065,12.3658,7.54097,3.12768,0.648588
5.13356,90.9268,10.8899,6.25922,2.43854,0.474995
5.45657,94.2078,9.44171,5.11967,1.8765,0.343878
5.79959,97.1998,8.02623,4.10416,1.4153,0.244019
6.15269,99.7985,6.71982,3.24498,1.05479,0.171424
6.53519,102.127,5.48436,2.49734,0.764252,0.116933
6.94004,104.116,4.3756,1.87872,0.541392,0.0780013
7.36777,105.774,3.40973,1.38053,0.374728,0.0508534
7.7955,107.059,2.63088,1.00762,0.258496,0.0331543
8.22938,108.059,2.00414,0.727627,0.176821,0.0214827
8.69066,108.859,1.48726,0.511612,0.117726,0.0135433
9.1739,109.474,1.07844,0.351615,0.0766453,0.00835263
9.67944,109.936,0.763729,0.236098,0.0487754,0.00503757
10.185,110.261,0.536483,0.157668,0.0309549,0.00303824
10.7122,110.497,0.368303,0.102943,0.0192153,0.00179307
11.267,110.666,0.245995,0.0653862,0.0116035,0.0010294
11.8485,110.782,0.159885,0.040419,0.00682028,0.000575311
12.4301,110.857,0.103171,0.0248649,0.00399917,0.000321535
13.0363,110.907,0.0649003,0.0149157,0.00228728,0.000175332
13.682,110.94,0.0393256,0.00861202,0.00125818,9.18825e-5
14.3651,110.961,0.0229823,0.0047938,0.00066697,4.63844e-5
15.1037,110.974,0.0127583,0.00253096,0.00033485,2.21424e-5
15.9253,110.982,0.00657241,0.00123637,0.000155084,9.72184e-6
16.8053,110.986,0.00320098,0.000570465,6.77761e-5,4.02368e-6
17.8053,110.988,0.00139828,0.000235039,2.63296e-5,1.47335e-6
18.8053,110.989,0.00060483,9.61928e-5,1.01929e-5,5.394e-7
19.8053,110.989,0.000258811,3.90226e-5,3.91823e-6,1.96381e-7
20.8053,110.989,0.000108653,1.54816e-5,1.46495e-6,6.89419e-8
21.8053,110.989,4.56293e-5,6.19087e-6,5.57792e-7,2.50012e-8
22.8053,110.989,1.89343e-5,2.44437e-6,2.09195e-7,8.88414e-9
23.8053,110.99,7.72512e-6,9.4541e-7,7.63904e-8,3.04727e-9
24.8053,110.99,3.68865e-6,4.62816e-7,3.93488e-8,1.70194e-9
25.8053,110.99,2.29884e-6,3.15242e-7,2.97866e-8,1.44177e-9
26.8053,110.99,1.46317e-6,2.07064e-7,2.00414e-8,9.84052e-10
27.8053,110.99,8.05137e-7,1.10417e-7,1.02492e-8,4.78877e-10
28.8053,110.99,3.64466e-7,4.57194e-8,3.80124e-9,1.55697e-10
29.8053,110.99,1.36966e-7,1.4654e-8,9.66149e-10,2.71037e-11
30.8053,110.99,4.83375e-8,4.37857e-9,2.17274e-10,2.60848e-12
31.8053,110.99,1.15024e-8,5.63753e-10,-2.07438e-11,-3.33395e-12
32.8053,110.99,-6.45304e-10,-4.49241e-10,-6.13255e-11,-3.18886e-12
33.8053,110.99,-3.01288e-9,-4.90409e-10,-4.56653e-11,-1.8843e-12
34.8053,110.99,-2.40617e-9,-3.12325e-10,-2.4615e-11,-8.69666e-13
35.8053,110.99,-1.2843e-9,-1.62425e-10,-1.25249e-11,-4.34833e-13
36.8053,110.99,-6.84349e-10,-8.43982e-11,-6.37118e-12,-2.17416e-13
37.8053,110.99,-3.64084e-10,-4.38191e-11,-3.23994e-12,-1.08708e-13
38.8053,110.99,-1.93409e-10,-2.27331e-11,-1.64715e-12,-5.43541e-14
39.8053,110.99,-1.02597e-10,-1.17851e-11,-8.37163e-13,-2.71771e-14
40.8053,110.99,-5.4351e-11,-6.10525e-12,-4.25376e-13,-1.35885e-14
41.8053,110.99,-2.87559e-11,-3.16067e-12,-2.16085e-13,-6.79426e-15
42.8053,110.99,-1.51955e-11,-1.63521e-12,-1.09741e-13,-3.39713e-15
43.8053,110.99,-8.0205e-12,-8.45463e-13,-5.57198e-14,-1.69857e-15
44.8053,110.99,-4.22868e-12,-4.36874e-13,-2.82845e-14,-8.49283e-16
45.8053,110.99,-2.22715e-12,-2.25614e-13,-1.43546e-14,-4.24642e-16
46.8053,110.99,-1.1718e-12,-1.16449e-13,-7.28346e-15,-2.12321e-16
47.8053,110.99,-6.15935e-13,-6.00718e-14,-3.69481e-15,-1.0616e-16
48.8053,110.99,-3.23454e-13,-3.09729e-14,-1.87394e-15,-5.30802e-17
49.8053,110.99,-1.69708e-13,-1.59616e-14,-9.50242e-16,-2.65401e-17
50.8053,110.99,-8.89648e-14,-8.22166e-15,-4.81756e-16,-1.327e-17
51.8053,110.99,-4.65988e-14,-4.23293e-15,-2.44196e-16,-6.63502e-18
52.8053,110.99,-2.43886e-14,-2.17834e-15,-1.23757e-16,-3.31751e-18
53.8053,110.99,-1.27546e-14,-1.12052e-15,-6.27076e-17,-1.65876e-18
54.8053,110.99,-6.66535e-15,-5.76146e-16,-3.17685e-17,-8.29378e-19
55.8053,110.99,-3.48074e-15,-2.96119e-16,-1.60916e-17,-4.14689e-19
56.8053,110.99,-1.81643e-15,-1.52134e-16,-8.14947e-18,-2.07344e-19
57.8053,110.99,-9.47283e-16,-7.81304e-17,-4.12657e-18,-1.03672e-19
58.8053,110.99,-4.93696e-16,-4.01098e-17,-2.0892e-18,-5.18361e-20
59.8053,110.99,-2.5714e-16,-2.05837e-17,-1.05756e-18,-2.59181e-20
60.8053,110.99,-1.3385e-16,-1.05595e-17,-5.3526e-19,-1.2959e-20
61.8053,110.99,-6.96324e-17,-5.41517e-18,-2.7087e-19,-6.47952e-21
62.8053,110.99,-3.62043e-17,-2.77611e-18,-1.37055e-19,-3.23976e-21
63.8053,110.99,-1.88135e-17,-1.42273e-18,-6.93373e-20,-1.61988e-21
64.8053,110.99,-9.7712e-18,-7.28899e-19,-3.50736e-20,-8.09939e-22
65.8053,110.99,-5.07226e-18,-3.73319e-19,-1.77393e-20,-4.0497e-22
66.8053,110.99,-2.6317e-18,-1.91145e-19,-8.97089e-21,-2.02485e-22
67.8053,110.99,-1.36477e-18,-9.78406e-20,-4.53607e-21,-1.01242e-22
68.8053,110.99,-7.07419e-19,-5.0067e-20,-2.29334e-21,-5.06212e-23
69.8053,110.99,-3.66516e-19,-2.56131e-20,-1.15933e-21,-2.53106e-23
70.8053,110.99,-1.89808e-19,-1.30996e-20,-5.85991e-22,-1.26553e-23
71.8053,110.99,-9.82529e-20,-6.69786e-21,-2.9616e-22,-6.32765e-24
72.8053,110.99,-5.08383e-20,-3.42376e-21,-1.49662e-22,-3.16383e-24
73.8053,110.99,-2.6294e-20,-1.74969e-21,-7.56218e-23,-1.58191e-24
74.8053,110.99,-1.3594e-20,-8.93949e-22,-3.82064e-23,-7.90956e-25
75.8053,110.99,-7.0253e-21,-4.56625e-22,-1.93009e-23,-3.95478e-25
76.8053,110.99,-3.62924e-21,-2.33187e-22,-9.74933e-24,-1.97739e-25
77.8053,110.99,-1.87415e-21,-1.19056e-22,-4.9241e-24,-9.88696e-26
78.8053,110.99,-9.67461e-22,-6.07712e-23,-2.48677e-24,-4.94348e-26
79.8053,110.99,-4.99237e-22,-3.10135e-23,-1.25574e-24,-2.47174e-26
80.8053,110.99,-2.5753e-22,-1.58238e-23,-6.34051e-25,-1.23587e-26
81.8053,110.99,-1.32801e-22,-8.07194e-24,-3.20115e-25,-6.17935e-27
82.8053,110.99,-6.8459e-23,-4.11677e-24,-1.61602e-25,-3.08967e-27
83.8053,110.99,-3.52791e-23,-2.09917e-24,-8.15736e-26,-1.54484e-27
84.8053,110.99,-1.81746e-23,-1.07017e-24,-4.1173e-26,-7.72418e-28
85.8053,110.99,-9.36005e-24,-5.45476e-25,-2.07796e-26,-3.86209e-28
86.8053,110.99,-4.81902e-24,-2.77981e-25,-1.04864e-26,-1.93105e-28
87.8053,110.99,-2.48033e-24,-1.41636e-25,-5.29145e-27,-9.65523e-29
88.8053,110.99,-1.27624e-24,-7.21531e-26,-2.66987e-27,-4.82762e-29
89.8053,110.99,-6.56495e-25,-3.67501e-26,-1.347e-27,-2.41381e-29
90.8053,110.99,-3.37605e-25,-1.87148e-26,-6.79535e-28,-1.2069e-29
91.8053,110.99,-1.73567e-25,-9.52879e-27,-3.42785e-28,-6.03452e-30
92.8053,110.99,-8.92088e-26,-4.85085e-27,-1.72901e-28,-3.01726e-30
93.8053,110.99,-4.58389e-26,-2.46903e-27,-8.72049e-29,-1.50863e-30
94.8053,110.99,-2.35477e-26,-1.2565e-27,-4.39796e-29,-7.54315e-31
95.8053,110.99,-1.20935e-26,-6.3934e-28,-2.21784e-29,-3.77157e-31
96.8053,110.99,-6.20939e-27,-3.25262e-28,-1.11835e-29,-1.88579e-31
97.8053,110.99,-3.18742e-27,-1.6545e-28,-5.63888e-30,-9.42894e-32
98.8053,110.99,-1.63578e-27,-8.41467e-29,-2.84301e-30,-4.71447e-32
99.8053,110.99,-8.39287e-28,-4.279e-29,-1.43329e-30,-2.35723e-32
100,110.99,-7.08381e-28,-3.60128e-29,-1.20293e-30,-1.97309e-32
