#Time,E,D,C,B,A
0,236.475,0,14.1605,39.2575,155.318
3.1e-5,236.475,0.000438984,14.1613,39.2611,155.313
0.000926157,236.475,0.0131213,14.1838,39.3648,155.174
0.00208139,236.475,0.0295015,14.2129,39.4984,154.995
0.00387124,236.475,0.0549062,14.2584,39.7047,154.718
0.0109128,236.476,0.155205,14.4397,40.5079,153.632
0.0220239,236.478,0.314671,14.7347,41.7484,151.935
0.0331351,236.483,0.47569,15.0398,42.9567,150.256
0.0486348,236.492,0.703074,15.4819,44.5891,147.945
0.0878997,236.531,1.29497,16.6788,48.4576,142.248
0.127275,236.594,1.91385,17.9752,51.9715,136.756
0.169472,236.69,2.60792,19.4517,55.3563,131.105
0.215388,236.827,3.40169,21.1384,58.6217,125.222
0.265342,237.02,4.31247,23.0428,61.7157,119.12
0.319761,237.283,5.36117,25.17,64.586,112.811
0.380742,237.647,6.60508,27.5839,67.2374,106.137
0.446749,238.13,8.02947,30.1931,69.5008,99.3575
0.522317,238.801,9.75123,33.1285,71.404,92.126
0.599776,239.628,11.6041,36.0337,72.6859,85.2595
0.681016,240.652,13.6258,38.9259,73.4003,78.6069
0.768785,241.946,15.8773,41.8334,73.5521,72.0018
0.861561,243.532,18.305,44.6287,73.1232,65.6223
0.959746,245.456,20.8941,47.25,72.1253,59.4854
1.06626,247.83,23.686,49.6857,70.5335,53.4751
1.17783,250.633,26.5473,51.7766,68.4235,47.8301
1.28939,253.75,29.3022,53.4048,65.973,42.7809
1.40973,257.447,32.1125,54.6635,63.0573,37.9306
1.53006,261.47,34.7186,55.4372,59.9548,33.6301
1.65618,266.008,37.1982,55.7697,56.5896,29.6455
1.78518,270.954,39.4431,55.6535,53.1021,26.0577
1.91418,276.171,41.3765,55.1296,49.6298,22.9041
2.04897,281.865,43.055,54.2056,46.0693,20.0159
2.29745,292.859,45.2371,51.6902,39.8128,15.612
2.56692,305.225,46.3329,48.1072,33.6217,11.9241
2.8364,317.724,46.2516,43.9941,28.1339,9.10739
3.10587,330.063,45.1838,39.645,23.3627,6.95605
3.37534,342.005,43.3354,35.2815,19.2758,5.31289
3.64481,353.367,40.9082,31.0621,15.816,4.05788
3.91428,364.017,38.0868,27.0925,12.9152,3.09932
4.18962,374.078,34.964,23.3612,10.4547,2.35337
4.58432,386.967,30.3402,18.6469,7.67115,1.5859
5.04813,399.8,25.0549,14.0715,5.28682,0.997347
5.44524,408.909,20.8872,10.9239,3.82037,0.670478
5.92363,417.815,16.4629,7.9507,2.56658,0.415554
6.43835,425.232,12.4941,5.57435,1.66181,0.248367
6.93581,430.652,9.41163,3.91097,1.08563,0.151027
7.55011,435.494,6.50565,2.49213,0.63755,0.0817133
8.15434,438.767,4.44347,1.58062,0.375405,0.044658
8.77293,441.028,2.96006,0.981186,0.217118,0.0240591
9.4098,442.56,1.92006,0.594713,0.12295,0.0127267
10.0767,443.584,1.20353,0.34882,0.0674717,0.00653355
10.7994,444.263,0.715342,0.193825,0.0350462,0.00317201
11.544,444.674,0.412999,0.104868,0.0177678,0.00150679
12.3215,444.917,0.229792,0.0547534,0.00870491,0.000692661
13.1226,445.054,0.124112,0.0278076,0.0041569,0.000310995
13.9692,445.131,0.0639766,0.0134839,0.00189609,0.000133438
14.8426,445.172,0.0319413,0.00634397,0.000840634,5.5747e-5
15.7971,445.193,0.0147817,0.00276212,0.000344368,2.14886e-5
16.7971,445.203,0.00652026,0.00114729,0.000134697,7.91561e-6
17.7971,445.207,0.0028475,0.000473532,5.25519e-5,2.91985e-6
18.7971,445.209,0.00123042,0.000193673,2.03258e-5,1.06669e-6
19.7971,445.21,0.000530477,7.99515e-5,8.08706e-6,4.12797e-7
20.7971,445.211,0.000223544,3.15633e-5,2.93968e-6,1.34352e-7
21.7971,445.211,9.64746e-5,1.35866e-5,1.32697e-6,6.86867e-8
22.7971,445.211,3.83816e-5,4.42017e-6,2.6106e-7,-1.50218e-11
23.7971,445.211,1.7546e-5,2.52049e-6,2.87417e-7,1.96973e-8
24.7971,445.211,7.22806e-6,1.02676e-6,1.15423e-7,7.61074e-9
25.7971,445.211,2.42382e-6,3.33268e-7,3.57365e-8,2.14139e-9
26.7971,445.211,5.18846e-7,6.34949e-8,5.58091e-9,1.90967e-10
27.7971,445.211,-7.64777e-8,-1.69748e-8,-2.79277e-9,-2.75506e-10
28.7971,445.211,-1.76016e-7,-2.76603e-8,-3.45384e-9,-2.58598e-10
29.7971,445.211,-1.33373e-7,-1.96394e-8,-2.26523e-9,-1.51777e-10
30.7971,445.211,-7.57507e-8,-1.06392e-8,-1.14929e-9,-6.97021e-11
31.7971,445.211,-3.58357e-8,-4.77408e-9,-4.76553e-10,-2.54063e-11
32.7971,445.211,-1.42196e-8,-1.753e-9,-1.53937e-10,-6.3846e-12
33.7971,445.211,-4.39203e-9,-4.58727e-10,-2.78498e-11,-2.64234e-14
34.7971,445.211,-6.74816e-10,-1.2777e-11,9.00994e-12,1.25578e-12
35.7971,445.211,3.73271e-10,8.67966e-11,1.31819e-11,1.00991e-12
36.7971,445.211,4.63812e-10,7.55791e-11,8.96622e-12,5.56771e-13
37.7971,445.211,2.51956e-10,4.01007e-11,4.6223e-12,2.78386e-13
38.7971,445.211,1.36599e-10,2.12407e-11,2.38075e-12,1.39193e-13
39.7971,445.211,7.39157e-11,1.1233e-11,1.22517e-12,6.95964e-14
40.7971,445.211,3.99236e-11,5.93147e-12,6.29985e-13,3.47982e-14
41.7971,445.211,2.15256e-11,3.12758e-12,3.23692e-13,1.73991e-14
42.7971,445.211,1.15862e-11,1.64689e-12,1.66196e-13,8.69955e-15
43.7971,445.211,6.22616e-12,8.66081e-13,8.52728e-14,4.34978e-15
44.7971,445.211,3.34053e-12,4.54902e-13,4.37238e-14,2.17489e-15
45.7971,445.211,1.78959e-12,2.38654e-13,2.24056e-14,1.08744e-15
46.7971,445.211,9.57328e-13,1.25064e-13,1.14747e-14,5.43722e-16
47.7971,445.211,5.11399e-13,6.54688e-14,5.87327e-15,2.71861e-16
48.7971,445.211,2.72818e-13,3.42367e-14,3.0046e-15,1.35931e-16
49.7971,445.211,1.45352e-13,1.78865e-14,1.53628e-15,6.79653e-17
50.7971,445.211,7.73439e-14,9.33581e-15,7.85133e-16,3.39826e-17
51.7971,445.211,4.11062e-14,4.86844e-15,4.01062e-16,1.69913e-17
52.7971,445.211,2.18214e-14,2.53661e-15,2.04779e-16,8.49566e-18
53.7971,445.211,1.1571e-14,1.32056e-15,1.04513e-16,4.24783e-18
54.7971,445.211,6.12896e-15,6.8694e-16,5.33186e-17,2.12391e-18
55.7971,445.211,3.24301e-15,3.57065e-16,2.71903e-17,1.06196e-18
56.7971,445.211,1.71424e-15,1.85463e-16,1.38606e-17,5.30979e-19
57.7971,445.211,9.0525e-16,9.62629e-17,7.06306e-18,2.65489e-19
58.7971,445.211,4.7759e-16,4.99304e-17,3.5979e-18,1.32745e-19
59.7971,445.211,2.51736e-16,2.58813e-17,1.83214e-18,6.63723e-20
60.7971,445.211,1.32571e-16,1.3407e-17,9.32662e-19,3.31862e-20
61.7971,445.211,6.97561e-17,6.9408e-18,4.74628e-19,1.65931e-20
62.7971,445.211,3.66736e-17,3.59113e-18,2.41462e-19,8.29654e-21
63.7971,445.211,1.92653e-17,1.85697e-18,1.22805e-19,4.14827e-21
64.7971,445.211,1.01125e-17,9.59704e-19,6.24397e-20,2.07414e-21
65.7971,445.211,5.30411e-18,4.95721e-19,3.17384e-20,1.03707e-21
66.7971,445.211,2.78002e-18,2.55925e-19,1.61285e-20,5.18534e-22
67.7971,445.211,1.45604e-18,1.32059e-19,8.19386e-21,2.59267e-22
68.7971,445.211,7.62074e-19,6.81105e-20,4.16175e-21,1.29633e-22
69.7971,445.211,3.98593e-19,3.51119e-20,2.11328e-21,6.48167e-23
70.7971,445.211,2.08343e-19,1.80924e-20,1.07284e-21,3.24084e-23
71.7971,445.211,1.08831e-19,9.31845e-21,5.44525e-22,1.62042e-23
72.7971,445.211,5.6814e-20,4.79738e-21,2.76313e-22,8.10209e-24
73.7971,445.211,2.96414e-20,2.46878e-21,1.40182e-22,4.05105e-24
74.7971,445.211,1.54557e-20,1.26994e-21,7.11038e-23,2.02552e-24
75.7971,445.211,8.05433e-21,6.53001e-22,3.60583e-23,1.01276e-24
76.7971,445.211,4.19499e-21,3.35641e-22,1.82823e-23,5.06381e-25
77.7971,445.211,2.18372e-21,1.72455e-22,9.26777e-24,2.5319e-25
78.7971,445.211,1.13615e-21,8.85759e-23,4.69718e-24,1.26595e-25
79.7971,445.211,5.90813e-22,4.54781e-23,2.38024e-24,6.32976e-26
80.7971,445.211,3.07078e-22,2.3342e-23,1.20594e-24,3.16488e-26
81.7971,445.211,1.59527e-22,1.19764e-23,6.10884e-25,1.58244e-26
82.7971,445.211,8.2835e-23,6.14292e-24,3.09398e-25,7.9122e-27
83.7971,445.211,4.29924e-23,3.1498e-24,1.56677e-25,3.9561e-27
84.7971,445.211,2.23035e-23,1.61456e-24,7.93276e-26,1.97805e-27
85.7971,445.211,1.15654e-23,8.27361e-25,4.01583e-26,9.89025e-28
86.7971,445.211,5.99463e-24,4.23844e-25,2.03264e-26,4.94512e-28
87.7971,445.211,3.10585e-24,2.17065e-25,1.02868e-26,2.47256e-28
88.7971,445.211,1.60849e-24,1.11135e-25,5.20523e-27,1.23628e-28
89.7971,445.211,8.32688e-25,5.68844e-26,2.63352e-27,6.18141e-29
90.7971,445.211,4.30898e-25,2.91083e-26,1.33221e-27,3.0907e-29
91.7971,445.211,2.22895e-25,1.48911e-26,6.73834e-28,1.54535e-29
92.7971,445.211,1.15255e-25,7.61592e-27,3.4078e-28,7.72676e-30
93.7971,445.211,5.95747e-26,3.89412e-27,1.72322e-28,3.86338e-30
94.7971,445.211,3.07827e-26,1.99062e-27,8.71268e-29,1.93169e-30
95.7971,445.211,1.59e-26,1.01734e-27,4.40463e-29,9.65845e-31
96.7971,445.211,8.2099e-27,5.198e-28,2.22646e-29,4.82922e-31
97.7971,445.211,4.23771e-27,2.65527e-28,1.1253e-29,2.41461e-31
98.7971,445.211,2.18666e-27,1.35607e-28,5.68689e-30,1.20731e-31
99.7971,445.211,1.12795e-27,6.92402e-29,2.87363e-30,6.03653e-32
100,445.211,9.47472e-28,5.79656e-29,2.39739e-30,5.01833e-32
