#Time,E,D,C,B,A
0,0,70.3766,0,3.93436,27.3713
3.1e-5,0.00218162,70.3744,0.000121981,3.93509,27.3705
0.000406,0.0285654,70.348,0.00159942,3.94387,27.3602
0.00106962,0.0752337,70.3013,0.00422001,3.9594,27.342
0.00455927,0.320133,70.0565,0.01814,4.04069,27.2468
0.0167633,1.16992,69.2072,0.0686353,4.32017,26.9163
0.0289674,2.0094,68.3689,0.121862,4.59227,26.5898
0.0437364,3.01174,67.3689,0.189761,4.9119,26.2
0.0833907,5.63113,64.7609,0.389392,5.71948,25.1814
0.126386,8.35696,62.0569,0.630867,6.51589,24.1216
0.174675,11.2832,59.1681,0.927742,7.31861,22.9845
0.222964,14.0737,56.4301,1.24629,8.03117,21.901
0.275661,16.9723,53.6068,1.61267,8.71378,20.7767
0.331148,19.8684,50.8112,2.0133,9.33406,19.6553
0.389605,22.7571,48.0527,2.44532,9.8878,18.5393
0.451211,25.6329,45.3417,2.90506,10.3709,17.4316
0.517891,28.5644,42.6205,3.40086,10.7893,16.3072
0.603059,32.0567,39.4444,4.0214,11.1839,14.9758
0.754054,37.6323,34.5554,5.05663,11.5609,12.877
0.910247,42.6917,30.3617,6.00436,11.6096,11.0149
1.0903,47.7911,26.4281,6.90998,11.3531,9.19996
1.2781,52.4352,23.1528,7.62837,10.8412,7.62469
1.48307,56.8798,20.3302,8.15537,10.1052,6.21162
1.70783,61.1664,17.9152,8.45311,9.18625,4.96129
1.94386,65.152,15.935,8.4974,8.17972,3.91818
2.19398,68.9219,14.2709,8.30558,7.13278,3.05111
2.4471,72.3547,12.8955,7.92583,6.13733,2.36881
2.72057,75.7052,11.6396,7.37364,5.1617,1.80203
2.9975,78.7716,10.527,6.72606,4.29146,1.36612
3.28589,81.6545,9.48123,6.0111,3.51159,1.02386
3.57841,84.2832,8.50433,5.28597,2.84454,0.764184
3.87917,86.6989,7.57001,4.57186,2.27582,0.565685
4.1998,88.9757,6.64442,3.86841,1.78317,0.410511
4.52817,91.012,5.7703,3.22322,1.38113,0.295603
4.8777,92.8783,4.92342,2.62552,1.04657,0.208404
5.245,94.5376,4.12796,2.09442,0.777869,0.144337
5.63031,95.984,3.39718,1.63589,0.566968,0.0981815
6.05274,97.2705,2.7136,1.23497,0.398801,0.0643502
6.49318,98.3312,2.12255,0.912115,0.274973,0.0414238
6.98288,99.2363,1.59515,0.644518,0.180933,0.0253826
7.47257,99.9125,1.18454,0.45113,0.118492,0.0155533
7.97439,100.423,0.863449,0.31031,0.0764608,0.00941544
8.50576,100.811,0.61094,0.207061,0.0478818,0.00553361
9.0682,101.097,0.418894,0.133828,0.029055,0.00315254
9.66695,101.303,0.277135,0.083405,0.0170009,0.00173185
10.2734,101.44,0.180431,0.0512709,0.00984137,0.000944058
10.9174,101.533,0.113196,0.0303569,0.00548701,0.000495634
11.5696,101.591,0.0698937,0.01773,0.00302588,0.000258069
12.2383,101.628,0.0422362,0.010149,0.0016383,0.000132158
12.9633,101.652,0.0242301,0.00550635,0.000839532,6.39617e-5
13.7152,101.665,0.0134872,0.00290123,0.000418245,3.01279e-5
14.5511,101.674,0.00696025,0.00141293,0.000192024,1.30383e-5
15.4752,101.678,0.00331162,0.000632695,8.08486e-5,5.16062e-6
16.4752,101.68,0.0014645,0.000262937,3.15441e-5,1.88967e-6
17.4752,101.681,0.000640348,0.000108396,1.22505e-5,6.91083e-7
18.4752,101.682,0.000276858,4.43109e-5,4.73216e-6,2.52253e-7
19.4752,101.682,0.000117413,1.77148e-5,1.77806e-6,8.87816e-8
20.4752,101.682,4.97428e-5,7.128e-6,6.79153e-7,3.21836e-8
21.4752,101.682,2.07938e-5,2.82765e-6,2.55187e-7,1.143e-8
22.4752,101.682,8.61056e-6,1.11231e-6,9.50873e-8,4.01646e-9
23.4752,101.682,3.96215e-6,5.11297e-7,4.45167e-8,1.97488e-9
24.4752,101.682,2.28935e-6,3.1434e-7,2.97895e-8,1.47352e-9
25.4752,101.682,1.40997e-6,1.99889e-7,1.95093e-8,9.87204e-10
26.4752,101.682,7.8551e-7,1.0902e-7,1.02989e-8,4.97512e-10
27.4752,101.682,3.71558e-7,4.80524e-8,4.14352e-9,1.77496e-10
28.4752,101.682,1.49476e-7,1.71184e-8,1.24448e-9,4.06897e-11
29.4752,101.682,5.59624e-8,5.63108e-9,3.38392e-10,7.64566e-12
30.4752,101.682,2.47571e-8,2.61979e-9,1.89551e-10,7.43567e-12
31.4752,101.682,1.48306e-8,1.86701e-9,1.71001e-10,8.61237e-12
32.4752,101.682,9.63743e-9,1.29566e-9,1.22667e-10,6.08194e-12
33.4752,101.682,5.51735e-9,7.13774e-10,6.26253e-11,2.755e-12
34.4752,101.682,2.58938e-9,2.97142e-10,2.17362e-11,7.10424e-13
35.4752,101.682,1.0068e-9,9.69069e-11,4.87083e-12,1.73399e-14
36.4752,101.682,2.94721e-10,1.78964e-11,-5.01859e-13,-1.28213e-13
37.4752,101.682,3.21647e-11,-5.63146e-12,-1.41807e-12,-1.06038e-13
38.4752,101.682,-3.66155e-11,-8.50756e-12,-1.05776e-12,-5.91881e-14
39.4752,101.682,-2.05706e-11,-4.52562e-12,-5.43676e-13,-2.9594e-14
40.4752,101.682,-1.14865e-11,-2.40243e-12,-2.79237e-13,-1.4797e-14
41.4752,101.682,-6.37969e-12,-1.27287e-12,-1.43318e-13,-7.39851e-15
42.4752,101.682,-3.52644e-12,-6.7319e-13,-7.35084e-14,-3.69925e-15
43.4752,101.682,-1.94094e-12,-3.55435e-13,-3.7679e-14,-1.84963e-15
44.4752,101.682,-1.06415e-12,-1.87368e-13,-1.93019e-14,-9.24814e-16
45.4752,101.682,-5.81389e-13,-9.86252e-14,-9.88217e-15,-4.62407e-16
46.4752,101.682,-3.16615e-13,-5.1841e-14,-5.05668e-15,-2.31203e-16
47.4752,101.682,-1.71914e-13,-2.72135e-14,-2.58614e-15,-1.15602e-16
48.4752,101.682,-9.3091e-14,-1.42678e-14,-1.32197e-15,-5.78009e-17
49.4752,101.682,-5.02813e-14,-7.4716e-15,-6.75436e-16,-2.89004e-17
50.4752,101.682,-2.70948e-14,-3.90827e-15,-3.44943e-16,-1.44502e-17
51.4752,101.682,-1.45685e-14,-2.04218e-15,-1.76084e-16,-7.22511e-18
52.4752,101.682,-7.81725e-15,-1.06601e-15,-8.98484e-17,-3.61255e-18
53.4752,101.682,-4.18658e-15,-5.5592e-16,-4.58273e-17,-1.80628e-18
54.4752,101.682,-2.23811e-15,-2.89643e-16,-2.33652e-17,-9.03138e-19
55.4752,101.682,-1.19444e-15,-1.50776e-16,-1.19084e-17,-4.51569e-19
56.4752,101.682,-6.36433e-16,-7.84213e-17,-6.06709e-18,-2.25785e-19
57.4752,101.682,-3.38594e-16,-4.07557e-17,-3.08999e-18,-1.12892e-19
58.4752,101.682,-1.79879e-16,-2.11644e-17,-1.57322e-18,-5.64461e-20
59.4752,101.682,-9.5431e-17,-1.09826e-17,-8.00721e-19,-2.82231e-20
60.4752,101.682,-5.0563e-17,-5.695e-18,-4.07416e-19,-1.41115e-20
61.4752,101.682,-2.6757e-17,-2.95112e-18,-2.07236e-19,-7.05577e-21
62.4752,101.682,-1.41426e-17,-1.52825e-18,-1.05382e-19,-3.52788e-21
63.4752,101.682,-7.46678e-18,-7.90911e-19,-5.35729e-20,-1.76394e-21
64.4752,101.682,-3.93792e-18,-4.09069e-19,-2.72275e-20,-8.81971e-22
65.4752,101.682,-2.07469e-18,-2.11452e-19,-1.38342e-20,-4.40986e-22
66.4752,101.682,-1.09196e-18,-1.0924e-19,-7.02736e-21,-2.20493e-22
67.4752,101.682,-5.74184e-19,-5.64042e-20,-3.5688e-21,-1.10246e-22
68.4752,101.682,-3.01646e-19,-2.91081e-20,-1.81196e-21,-5.51232e-23
69.4752,101.682,-1.5833e-19,-1.50139e-20,-9.19762e-22,-2.75616e-23
70.4752,101.682,-8.30352e-20,-7.74034e-21,-4.66771e-22,-1.37808e-23
71.4752,101.682,-4.35119e-20,-3.98859e-21,-2.36831e-22,-6.8904e-24
72.4752,101.682,-2.27831e-20,-2.05436e-21,-1.20138e-22,-3.4452e-24
73.4752,101.682,-1.19204e-20,-1.05765e-21,-6.09303e-23,-1.7226e-24
74.4752,101.682,-6.23233e-21,-5.44271e-22,-3.08958e-23,-8.613e-25
75.4752,101.682,-3.25615e-21,-2.79967e-22,-1.56632e-23,-4.3065e-25
76.4752,101.682,-1.70005e-21,-1.43953e-22,-7.93928e-24,-2.15325e-25
77.4752,101.682,-8.87019e-22,-7.39884e-23,-4.02347e-24,-1.07662e-25
78.4752,101.682,-4.62516e-22,-3.80135e-23,-2.03865e-24,-5.38312e-26
79.4752,101.682,-2.4102e-22,-1.95231e-23,-1.03278e-24,-2.69156e-26
80.4752,101.682,-1.25521e-22,-1.00231e-23,-5.23121e-25,-1.34578e-26
81.4752,101.682,-6.53327e-23,-5.14403e-24,-2.64925e-25,-6.7289e-27
82.4752,101.682,-3.39859e-23,-2.63909e-24,-1.34145e-25,-3.36445e-27
83.4752,101.682,-1.76697e-23,-1.3535e-24,-6.79134e-26,-1.68223e-27
84.4752,101.682,-9.18182e-24,-6.93939e-25,-3.43773e-26,-8.41113e-28
85.4752,101.682,-4.76875e-24,-3.55669e-25,-1.73989e-26,-4.20557e-28
86.4752,101.682,-2.47549e-24,-1.82237e-25,-8.80459e-27,-2.10278e-28
87.4752,101.682,-1.28442e-24,-9.33458e-26,-4.45487e-27,-1.05139e-28
88.4752,101.682,-6.66109e-25,-4.77997e-26,-2.25372e-27,-5.25696e-29
89.4752,101.682,-3.45289e-25,-2.44699e-26,-1.14e-27,-2.62848e-29
90.4752,101.682,-1.78906e-25,-1.25232e-26,-5.76572e-28,-1.31424e-29
91.4752,101.682,-9.26569e-26,-6.4074e-27,-2.91572e-28,-6.5712e-30
92.4752,101.682,-4.79671e-26,-3.27741e-27,-1.47429e-28,-3.2856e-30
93.4752,101.682,-2.48216e-26,-1.67597e-27,-7.45357e-29,-1.6428e-30
94.4752,101.682,-1.28392e-26,-8.56826e-28,-3.76785e-29,-8.214e-31
95.4752,101.682,-6.63856e-27,-4.37935e-28,-1.90446e-29,-4.107e-31
96.4752,101.682,-3.43117e-27,-2.2378e-28,-9.62499e-30,-2.0535e-31
97.4752,101.682,-1.77275e-27,-1.14322e-28,-4.86383e-30,-1.02675e-31
98.4752,101.682,-9.15568e-28,-5.83898e-29,-2.45758e-30,-5.13375e-32
99.4752,101.682,-4.72692e-28,-2.98157e-29,-1.24163e-30,-2.56687e-32
100,101.682,-3.16837e-28,-1.98366e-29,-8.20102e-31,-1.68346e-32
