#Time,D,C,E,B,X,A
0,0,100.213,151.284,23.0805,14.9229,96.1401
1.87248e-5,0.0273327,100.205,151.264,23.1073,14.8961,96.1133
5.68993e-5,0.083046,100.19,151.223,23.1618,14.8416,96.0588
0.000115841,0.169045,100.166,151.161,23.2455,14.7578,95.975
0.000420883,0.613618,100.044,150.838,23.6704,14.3329,95.5502
0.000813395,1.18444,99.8872,150.425,24.1966,13.8067,95.024
0.00120591,1.75388,99.7305,150.012,24.7008,13.3025,94.5198
0.00171832,2.4952,99.5263,149.475,25.3277,12.6757,93.8929
0.00287466,4.15951,99.067,148.27,26.6231,11.3802,92.5975
0.00400678,5.77748,98.6194,147.099,27.749,10.2543,91.4716
0.00521533,7.49226,98.1438,145.86,28.8161,9.18721,90.4044
0.00729952,10.4196,97.329,143.748,30.3811,7.62226,88.8395
0.00949377,13.4612,96.4785,141.557,31.7215,6.2818,87.499
0.0119375,16.8005,95.54,139.156,32.9231,5.08022,86.2975
0.0144949,20.2418,94.5677,136.687,33.9238,4.07954,85.2968
0.017251,23.8904,93.5308,134.075,34.7745,3.2288,84.446
0.0200071,27.4778,92.5054,131.513,35.4425,2.56081,83.778
0.0228626,31.1311,91.4548,128.91,35.9858,2.01757,83.2348
0.0258855,34.9294,90.3556,126.211,36.4335,1.56985,82.7871
0.0289872,38.7542,89.2415,123.501,36.7883,1.21504,82.4323
0.0323066,42.7678,88.0644,120.664,37.0787,0.924636,82.1419
0.0357473,46.8431,86.8607,117.792,37.3061,0.697272,81.9145
0.0393156,50.9798,85.6297,114.887,37.4826,0.520714,81.7379
0.0431446,55.3197,84.3282,111.848,37.6225,0.380887,81.5981
0.0470876,59.6842,83.0086,108.803,37.7272,0.276156,81.4934
0.0513466,64.2822,81.6065,105.608,37.8081,0.195206,81.4124
0.0558398,69.0058,80.1529,102.338,37.8679,0.135419,81.3526
0.0605738,73.8449,78.6494,99.0019,37.9112,0.092142,81.3094
0.0658085,79.0367,77.0197,95.4398,37.9431,0.0602041,81.2774
0.0712741,84.2847,75.3541,91.8574,37.9647,0.0386105,81.2558
0.0774097,89.9732,73.5273,87.9957,37.9799,0.0234511,81.2407
0.0840676,95.9125,71.595,83.9887,37.9897,0.0136523,81.2309
0.0915297,102.292,69.4895,79.7142,37.9959,0.00744447,81.2247
0.0999948,109.192,67.176,75.1279,37.9996,0.00374107,81.221
0.10924,116.339,64.7372,70.4201,38.0016,0.00176395,81.219
0.120425,124.475,61.9045,65.1165,38.0026,0.000709229,81.2179
0.133014,133.007,58.8646,59.6241,38.0031,0.000253975,81.2175
0.148972,142.95,55.2245,53.3221,38.0033,6.8093e-5,81.2173
0.168778,154.059,51.0182,46.4191,38.0033,1.28364e-5,81.2172
0.194332,166.619,46.0609,38.8158,38.0033,7.54325e-7,81.2172
0.231316,181.807,39.727,29.9623,38.0033,-2.87897e-7,81.2172
0.26655,193.578,34.5047,23.4132,38.0033,1.02273e-8,81.2172
0.306828,204.465,29.3703,17.6608,38.0033,-1.39207e-8,81.2172
0.347106,213.175,24.9999,13.3218,38.0033,3.01785e-9,81.2172
0.387384,220.168,21.2798,10.0488,38.0033,7.95542e-10,81.2172
0.440622,227.375,17.1982,6.92256,38.0033,4.63603e-10,81.2172
0.496207,233.035,13.7696,4.69122,38.0033,2.16942e-10,81.2172
0.556968,237.632,10.7987,3.066,38.0033,1.10986e-11,81.2172
0.617729,241.024,8.46872,2.00382,38.0033,-4.33752e-11,81.2172
0.678489,243.545,6.64149,1.30962,38.0033,6.08624e-12,81.2172
0.740308,245.46,5.18652,0.849601,38.0033,1.01779e-11,81.2172
0.803512,246.922,4.02791,0.54585,38.0033,-3.55315e-12,81.2172
0.871051,248.082,3.07434,0.340217,38.0033,-1.63221e-12,81.2172
0.94115,248.965,2.32262,0.208285,38.0033,1.73362e-12,81.2172
1.01696,249.659,1.71507,0.122518,38.0033,2.13398e-13,81.2172
1.09833,250.188,1.23859,0.0693172,38.0033,-4.7543e-13,81.2172
1.18657,250.589,0.870231,0.0373774,38.0033,-1.69307e-13,81.2172
1.28605,250.893,0.584559,0.0186317,38.0033,2.23761e-13,81.2172
1.39207,251.105,0.382516,0.00887215,38.0033,6.14669e-13,81.2172
1.51841,251.262,0.230772,0.00366663,38.0033,-1.25196e-13,81.2172
1.64953,251.358,0.13659,0.00146557,38.0033,-1.23783e-13,81.2172
1.79428,251.419,0.0765554,0.00053311,38.0033,-3.20238e-14,81.2172
1.94458,251.454,0.0419668,0.000186445,38.0033,3.63518e-14,81.2172
2.11689,251.475,0.0210682,5.62008e-5,38.0033,1.71912e-13,81.2172
2.30126,251.486,0.0100789,1.55596e-5,38.0033,4.07195e-13,81.2172
2.51511,251.492,0.00428738,3.58084e-6,38.0033,-2.6831e-12,81.2172
2.75743,251.495,0.00162831,7.16302e-7,38.0033,-2.26276e-12,81.2172
3.03397,251.496,0.000540784,1.17239e-7,38.0033,-5.64519e-13,81.2172
3.37634,251.496,0.000139647,4.08061e-8,38.0033,-1.18748e-12,81.2172
3.75069,251.496,3.1747e-5,-4.21039e-9,38.0033,1.03795e-12,81.2172
4.32567,251.496,4.10888e-6,-4.3514e-9,38.0033,6.73847e-14,81.2172
4.89375,251.496,2.88495e-7,2.83793e-9,38.0033,9.54056e-14,81.2172
5.69495,251.496,5.22654e-7,-2.03243e-9,38.0033,3.05529e-14,81.2172
6.69495,251.496,3.66598e-7,1.78019e-9,38.0033,-5.95715e-14,81.2172
7.69495,251.496,-5.06839e-7,-1.73391e-11,38.0033,1.66389e-13,81.2172
8.56379,251.496,4.51324e-7,1.07598e-9,38.0033,-3.76639e-14,81.2172
9.56379,251.496,-1.38918e-7,1.2166e-9,38.0033,-7.83659e-14,81.2172
10.5638,251.496,5.70096e-8,-3.25099e-10,38.0033,-4.49131e-15,81.2172
11.5638,251.496,-1.46234e-7,1.07376e-9,38.0033,2.14613e-14,81.2172
12.5638,251.496,5.45747e-8,-8.06318e-10,38.0033,-3.1448e-14,81.2172
13.5638,251.496,-2.00831e-7,6.20251e-9,38.0033,-3.01812e-13,81.2172
14.5638,251.496,-1.84955e-7,4.39146e-9,38.0033,-1.49787e-13,81.2172
15.5638,251.496,-4.03591e-8,4.07756e-10,38.0033,-8.57843e-17,81.2172
16.5638,251.496,2.13806e-9,-1.62379e-10,38.0033,9.03341e-16,81.2172
17.5638,251.496,4.44649e-9,-6.21924e-11,38.0033,2.23602e-17,81.2172
18.5638,251.496,1.42254e-9,-5.08182e-12,38.0033,-4.91977e-18,81.2172
19.5638,251.496,1.1306e-10,2.46265e-12,38.0033,-2.54114e-19,81.2172
20.5638,251.496,2.26119e-11,3.07832e-13,38.0033,-3.09077e-21,81.2172
21.5638,251.496,4.52238e-12,3.8479e-14,38.0033,-3.75927e-23,81.2172
22.5638,251.496,9.04476e-13,4.80987e-15,38.0033,-4.57236e-25,81.2172
23.5638,251.496,1.80895e-13,6.01234e-16,38.0033,-5.56132e-27,81.2172
24.5638,251.496,3.6179e-14,7.51542e-17,38.0033,-6.76418e-29,81.2172
25.5638,251.496,7.23581e-15,9.39428e-18,38.0033,-8.2272e-31,81.2172
26.5638,251.496,1.44716e-15,1.17428e-18,38.0033,-1.00067e-32,81.2172
27.5638,251.496,2.89432e-16,1.46786e-19,38.0033,-1.2171e-34,81.2172
28.5638,251.496,5.78865e-17,1.83482e-20,38.0033,-1.48035e-36,81.2172
29.5638,251.496,1.15773e-17,2.29352e-21,38.0033,-1.80053e-38,81.2172
30.5638,251.496,2.31546e-18,2.86691e-22,38.0033,-2.18997e-40,81.2172
31.5638,251.496,4.63092e-19,3.58363e-23,38.0033,-2.66364e-42,81.2172
32.5638,251.496,9.26184e-20,4.47954e-24,38.0033,-3.23976e-44,81.2172
33.5638,251.496,1.85237e-20,5.59943e-25,38.0033,-3.94048e-46,81.2172
34.5638,251.496,3.70473e-21,6.99928e-26,38.0033,-4.79277e-48,81.2172
35.5638,251.496,7.40947e-22,8.7491e-27,38.0033,-5.8294e-50,81.2172
36.5638,251.496,1.48189e-22,1.09364e-27,38.0033,-7.09024e-52,81.2172
37.5638,251.496,2.96379e-23,1.36705e-28,38.0033,-8.62379e-54,81.2172
38.5638,251.496,5.92758e-24,1.70881e-29,38.0033,-1.0489e-55,81.2172
39.5638,251.496,1.18552e-24,2.13601e-30,38.0033,-1.27577e-57,81.2172
40.5638,251.496,2.37103e-25,2.67001e-31,38.0033,-1.55171e-59,81.2172
41.5638,251.496,4.74206e-26,3.33752e-32,38.0033,-1.88733e-61,81.2172
42.5638,251.496,9.48412e-27,4.1719e-33,38.0033,-2.29554e-63,81.2172
43.5638,251.496,1.89682e-27,5.21487e-34,38.0033,-2.79204e-65,81.2172
44.5638,251.496,3.79365e-28,6.51859e-35,38.0033,-3.39593e-67,81.2172
45.5638,251.496,7.5873e-29,8.14824e-36,38.0033,-4.13043e-69,81.2172
46.5638,251.496,1.51746e-29,1.01853e-36,38.0033,-5.0238e-71,81.2172
47.5638,251.496,3.03492e-30,1.27316e-37,38.0033,-6.1104e-73,81.2172
48.5638,251.496,6.06984e-31,1.59145e-38,38.0033,-7.43202e-75,81.2172
49.5638,251.496,1.21397e-31,1.98932e-39,38.0033,-9.03949e-77,81.2172
50.5638,251.496,2.42793e-32,2.48664e-40,38.0033,-1.09946e-78,81.2172
51.5638,251.496,4.85587e-33,3.10831e-41,38.0033,-1.33727e-80,81.2172
52.5638,251.496,9.71174e-34,3.88538e-42,38.0033,-1.62651e-82,81.2172
53.5638,251.496,1.94235e-34,4.85673e-43,38.0033,-1.9783e-84,81.2172
54.5638,251.496,3.8847e-35,6.07091e-44,38.0033,-2.40619e-86,81.2172
55.5638,251.496,7.76939e-36,7.58864e-45,38.0033,-2.92662e-88,81.2172
56.5638,251.496,1.55388e-36,9.4858e-46,38.0033,-3.55962e-90,81.2172
57.5638,251.496,3.10776e-37,1.18572e-46,38.0033,-4.32954e-92,81.2172
58.5638,251.496,6.21551e-38,1.48216e-47,38.0033,-5.26597e-94,81.2172
59.5638,251.496,1.2431e-38,1.85269e-48,38.0033,-6.40495e-96,81.2172
60.5638,251.496,2.48621e-39,2.31587e-49,38.0033,-7.79028e-98,81.2172
61.5638,251.496,4.97241e-40,2.89484e-50,38.0033,-9.47523e-100,81.2172
62.5638,251.496,9.94482e-41,3.61854e-51,38.0033,-1.15246e-101,81.2172
63.5638,251.496,1.98896e-41,4.52318e-52,38.0033,-1.40173e-103,81.2172
64.5638,251.496,3.97793e-42,5.65398e-53,38.0033,-1.70491e-105,81.2172
65.5638,251.496,7.95586e-43,7.06747e-54,38.0033,-2.07367e-107,81.2172
66.5638,251.496,1.59117e-43,8.83434e-55,38.0033,-2.52218e-109,81.2172
67.5638,251.496,3.18234e-44,1.10429e-55,38.0033,-3.0677e-111,81.2172
68.5638,251.496,6.36469e-45,1.38037e-56,38.0033,-3.73121e-113,81.2172
69.5638,251.496,1.27294e-45,1.72546e-57,38.0033,-4.53824e-115,81.2172
70.5638,251.496,2.54587e-46,2.15682e-58,38.0033,-5.51981e-117,81.2172
71.5638,251.496,5.09175e-47,2.69603e-59,38.0033,-6.71369e-119,81.2172
72.5638,251.496,1.01835e-47,3.37003e-60,38.0033,-8.1658e-121,81.2172
73.5638,251.496,2.0367e-48,4.21254e-61,38.0033,-9.93198e-123,81.2172
74.5638,251.496,4.0734e-49,5.26567e-62,38.0033,-1.20802e-124,81.2172
75.5638,251.496,8.1468e-50,6.58209e-63,38.0033,-1.4693e-126,81.2172
76.5638,251.496,1.62936e-50,8.22762e-64,38.0033,-1.78709e-128,81.2172
77.5638,251.496,3.25872e-51,1.02845e-64,38.0033,-2.17362e-130,81.2172
78.5638,251.496,6.51744e-52,1.28557e-65,38.0033,-2.64376e-132,81.2172
79.5638,251.496,1.30349e-52,1.60696e-66,38.0033,-3.21558e-134,81.2172
80.5638,251.496,2.60698e-53,2.0087e-67,38.0033,-3.91107e-136,81.2172
81.5638,251.496,5.21395e-54,2.51087e-68,38.0033,-4.757e-138,81.2172
82.5638,251.496,1.04279e-54,3.13859e-69,38.0033,-5.78589e-140,81.2172
83.5638,251.496,2.08558e-55,3.92323e-70,38.0033,-7.03732e-142,81.2172
84.5638,251.496,4.17116e-56,4.90404e-71,38.0033,-8.55943e-144,81.2172
85.5638,251.496,8.34232e-57,6.13005e-72,38.0033,-1.04107e-145,81.2172
86.5638,251.496,1.66846e-57,7.66257e-73,38.0033,-1.26625e-147,81.2172
87.5638,251.496,3.33693e-58,9.57821e-74,38.0033,-1.54013e-149,81.2172
88.5638,251.496,6.67386e-59,1.19728e-74,38.0033,-1.87324e-151,81.2172
89.5638,251.496,1.33477e-59,1.49659e-75,38.0033,-2.2784e-153,81.2172
90.5638,251.496,2.66954e-60,1.87074e-76,38.0033,-2.7712e-155,81.2172
91.5638,251.496,5.33909e-61,2.33843e-77,38.0033,-3.37058e-157,81.2172
92.5638,251.496,1.06782e-61,2.92304e-78,38.0033,-4.0996e-159,81.2172
93.5638,251.496,2.13563e-62,3.6538e-79,38.0033,-4.98631e-161,81.2172
94.5638,251.496,4.27127e-63,4.56724e-80,38.0033,-6.0648e-163,81.2172
95.5638,251.496,8.54254e-64,5.70906e-81,38.0033,-7.37655e-165,81.2172
96.5638,251.496,1.70851e-64,7.13632e-82,38.0033,-8.97203e-167,81.2172
97.5638,251.496,3.41701e-65,8.9204e-83,38.0033,-1.09126e-168,81.2172
98.5638,251.496,6.83403e-66,1.11505e-83,38.0033,-1.32729e-170,81.2172
99.5638,251.496,1.36681e-66,1.39381e-84,38.0033,-1.61437e-172,81.2172
100,251.496,4.97958e-67,3.43859e-85,38.0033,-4.43174e-174,81.2172
