#Time,D,C,E,B,X,A
0,0,87.3727,0,41.9896,382.905,212.501
3.0e-6,0.00104846,87.3717,0,42.2334,382.661,212.257
8.21483e-6,0.00287096,87.3698,0,42.6562,382.238,211.835
3.8708e-5,0.013527,87.3592,0,45.1032,379.791,209.388
9.22123e-5,0.0322214,87.3405,0,49.2922,375.602,205.199
0.000145717,0.0509118,87.3218,0,53.353,371.541,201.138
0.000211785,0.0739854,87.2987,0,58.1987,366.696,196.292
0.000370106,0.129253,87.2435,0,69.1075,355.787,185.383
0.000536638,0.187349,87.1854,0,79.6169,345.278,174.874
0.000719521,0.251104,87.1216,0,90.157,334.737,164.334
0.000915808,0.319481,87.0532,0,100.449,324.445,154.042
0.0011296,0.393893,86.9788,0,110.613,314.282,143.878
0.00136141,0.474508,86.8982,0,120.565,304.33,133.926
0.00161299,0.561909,86.8108,0,130.281,294.614,124.21
0.00188271,0.655519,86.7172,0,139.622,285.273,114.869
0.00215971,0.751548,86.6212,0,148.22,276.674,106.27
0.00245126,0.852507,86.5202,0,156.337,268.557,98.1533
0.00275746,0.958413,86.4143,0,163.978,260.917,90.5129
0.00307099,1.06672,86.306,0,170.994,253.901,83.4969
0.00340769,1.18288,86.1898,0,177.746,247.148,76.7445
0.00375243,1.30165,86.0711,0,183.937,240.957,70.5534
0.00411325,1.42578,85.9469,0,189.743,235.151,64.7476
0.00447947,1.55159,85.8211,0,195.027,229.867,59.4638
0.00510519,1.76612,85.6066,0,202.863,222.031,51.6275
0.00577363,1.99471,85.378,0,209.877,215.018,44.6142
0.00658338,2.2708,85.1019,0,216.896,207.999,37.5951
0.0073772,2.5406,84.8321,0,222.544,202.35,31.9468
0.00829396,2.85111,84.5216,0,227.886,197.009,26.6049
0.00921072,3.16048,84.2122,0,232.236,192.658,22.2545
0.0101952,3.49144,83.8813,0,236.045,188.849,18.4455
0.0112051,3.82963,83.5431,0,239.223,185.671,15.2678
0.0122909,4.19168,83.181,0,241.991,182.903,12.4996
0.0134182,4.5659,82.8068,0,244.306,180.588,10.1845
0.0145893,4.95289,82.4198,0,246.238,178.657,8.25281
0.0158326,5.36178,82.0109,0,247.875,177.02,6.61588
0.0170914,5.77367,81.599,0,249.192,175.703,5.29893
0.0184487,6.21548,81.1572,0,250.313,174.582,4.17793
0.0198222,6.66015,80.7126,0,251.202,173.693,3.28923
0.0212475,7.11901,80.2537,0,251.922,172.973,2.56924
0.0227091,7.58683,79.7859,0,252.495,172.4,1.99617
0.024212,8.06501,79.3077,0,252.95,171.945,1.54109
0.0258174,8.57267,78.8,0,253.321,171.573,1.16971
0.0274459,9.08432,78.2884,0,253.606,171.288,0.884772
0.0291207,9.60704,77.7657,0,253.827,171.068,0.664238
0.03092,10.1647,77.208,0,254.002,170.892,0.48834
0.032765,10.7324,76.6403,0,254.134,170.76,0.356318
0.0347313,11.3329,76.0399,0,254.236,170.658,0.254715
0.0367966,11.9584,75.4143,0,254.312,170.583,0.179066
0.0389623,12.6089,74.7638,0,254.367,170.527,0.123763
0.0413357,13.3153,74.0574,0,254.408,170.486,0.0825709
0.0438054,14.0433,73.3294,0,254.437,170.458,0.0541958
0.0465543,14.8452,72.5275,0,254.457,170.438,0.0339194
0.0495199,15.7005,71.6722,0,254.47,170.424,0.0204595
0.0527485,16.6201,70.7526,0,254.479,170.415,0.0117996
0.0564318,17.6549,69.7178,0,254.484,170.41,0.00629674
0.0604623,18.7699,68.6028,0,254.488,170.407,0.0031666
0.0651062,20.0324,67.3403,0,254.489,170.405,0.00143338
0.0706158,21.5003,65.8724,0,254.49,170.404,0.000558959
0.0768018,23.1102,64.2625,0,254.491,170.404,0.000193661
0.0849505,25.1711,62.2016,0,254.491,170.404,4.67655e-5
0.0944962,27.5013,59.8714,0,254.491,170.404,8.61174e-6
0.108881,30.8492,56.5235,0,254.491,170.404,-4.77009e-7
0.130228,35.4752,51.8975,0,254.491,170.404,6.82327e-8
0.175939,44.1474,43.2253,0,254.491,170.404,-3.31306e-7
0.234043,53.1117,34.261,0,254.491,170.404,8.38058e-8
0.301568,61.2212,26.1515,0,254.491,170.404,2.34898e-8
0.369092,67.4112,19.9615,0,254.491,170.404,-6.44539e-10
0.436617,72.1361,15.2366,0,254.491,170.404,-1.11032e-9
0.504141,75.7426,11.6301,0,254.491,170.404,-1.38132e-10
0.589904,79.1199,8.2528,0,254.491,170.404,9.82353e-11
0.686758,81.7706,5.60209,0,254.491,170.404,5.73339e-11
0.790435,83.6723,3.70038,0,254.491,170.404,8.46397e-12
0.895866,84.9456,2.42715,0,254.491,170.404,-1.02467e-11
1.0013,85.7807,1.59202,0,254.491,170.404,-9.60326e-12
1.10765,86.3323,1.04037,0,254.491,170.404,-4.84164e-12
1.21753,86.7023,0.670378,0,254.491,170.404,-1.16584e-12
1.3326,86.9496,0.423086,0,254.491,170.404,1.05621e-12
1.45156,87.1098,0.262888,0,254.491,170.404,4.4958e-13
1.58128,87.2162,0.156471,0,254.491,170.404,1.58223e-13
1.71562,87.2813,0.0914268,0,254.491,170.404,5.60803e-14
1.86833,87.3231,0.0496393,0,254.491,170.404,-1.56583e-13
2.02935,87.3466,0.0260691,0,254.491,170.404,-8.76368e-13
2.21297,87.3602,0.0125095,0,254.491,170.404,-1.39019e-12
2.41606,87.3672,0.0055537,0,254.491,170.404,1.32487e-12
2.64646,87.3705,0.00221217,0,254.491,170.404,1.14052e-12
2.92339,87.372,0.000733083,0,254.491,170.404,-6.13117e-12
3.2064,87.3725,0.000236678,0,254.491,170.404,3.55527e-11
3.62472,87.3727,4.72846e-5,0,254.491,170.404,4.85789e-12
4.03967,87.3727,8.20734e-6,0,254.491,170.404,9.32245e-12
4.55935,87.3727,1.97174e-6,0,254.491,170.404,-1.185e-12
5.3786,87.3727,-3.15362e-7,0,254.491,170.404,1.22763e-11
6.3786,87.3727,-2.35827e-7,0,254.491,170.404,-4.31086e-11
7.3786,87.3727,4.34193e-7,0,254.491,170.404,-4.81084e-11
8.3786,87.3727,-4.35816e-7,0,254.491,170.404,1.80431e-10
9.3786,87.3727,1.9191e-7,0,254.491,170.404,1.52483e-12
10.3786,87.3727,-5.12813e-7,0,254.491,170.404,-5.01353e-13
11.3786,87.3727,-2.15361e-8,0,254.491,170.404,-5.94817e-13
12.3786,87.3727,2.26391e-8,0,254.491,170.404,-7.02509e-14
13.3786,87.3727,-6.07435e-8,0,254.491,170.404,-1.49478e-13
14.3786,87.3727,4.13063e-8,0,254.491,170.404,6.86097e-12
15.3786,87.3727,2.05426e-8,0,254.491,170.404,8.02582e-14
16.3786,87.3727,3.71492e-9,0,254.491,170.404,-1.90221e-14
17.3786,87.3727,-5.16628e-10,0,254.491,170.404,-4.5475e-16
18.3786,87.3727,-5.25585e-10,0,254.491,170.404,5.0037e-17
19.3786,87.3727,-1.44156e-10,0,254.491,170.404,1.90484e-18
20.3786,87.3727,-2.88311e-11,0,254.491,170.404,1.11132e-20
21.3786,87.3727,-5.76622e-12,0,254.491,170.404,6.48363e-23
22.3786,87.3727,-1.15324e-12,0,254.491,170.404,3.78267e-25
23.3786,87.3727,-2.30649e-13,0,254.491,170.404,2.20688e-27
24.3786,87.3727,-4.61298e-14,0,254.491,170.404,1.28753e-29
25.3786,87.3727,-9.22596e-15,0,254.491,170.404,7.51169e-32
26.3786,87.3727,-1.84519e-15,0,254.491,170.404,4.38246e-34
27.3786,87.3727,-3.69038e-16,0,254.491,170.404,2.5568e-36
28.3786,87.3727,-7.38077e-17,0,254.491,170.404,1.49168e-38
29.3786,87.3727,-1.47615e-17,0,254.491,170.404,8.70276e-41
30.3786,87.3727,-2.95231e-18,0,254.491,170.404,5.07735e-43
31.3786,87.3727,-5.90461e-19,0,254.491,170.404,2.96221e-45
32.3786,87.3727,-1.18092e-19,0,254.491,170.404,1.72821e-47
33.3786,87.3727,-2.36185e-20,0,254.491,170.404,1.00827e-49
34.3786,87.3727,-4.72369e-21,0,254.491,170.404,5.88242e-52
35.3786,87.3727,-9.44738e-22,0,254.491,170.404,3.43191e-54
36.3786,87.3727,-1.88948e-22,0,254.491,170.404,2.00224e-56
37.3786,87.3727,-3.77895e-23,0,254.491,170.404,1.16814e-58
38.3786,87.3727,-7.5579e-24,0,254.491,170.404,6.81515e-61
39.3786,87.3727,-1.51158e-24,0,254.491,170.404,3.97608e-63
40.3786,87.3727,-3.02316e-25,0,254.491,170.404,2.31972e-65
41.3786,87.3727,-6.04632e-26,0,254.491,170.404,1.35336e-67
42.3786,87.3727,-1.20926e-26,0,254.491,170.404,7.89577e-70
43.3786,87.3727,-2.41853e-27,0,254.491,170.404,4.60653e-72
44.3786,87.3727,-4.83706e-28,0,254.491,170.404,2.68753e-74
45.3786,87.3727,-9.67412e-29,0,254.491,170.404,1.56796e-76
46.3786,87.3727,-1.93482e-29,0,254.491,170.404,9.14774e-79
47.3786,87.3727,-3.86965e-30,0,254.491,170.404,5.33695e-81
48.3786,87.3727,-7.73929e-31,0,254.491,170.404,3.11367e-83
49.3786,87.3727,-1.54786e-31,0,254.491,170.404,1.81657e-85
50.3786,87.3727,-3.09572e-32,0,254.491,170.404,1.05982e-87
51.3786,87.3727,-6.19144e-33,0,254.491,170.404,6.18319e-90
52.3786,87.3727,-1.23829e-33,0,254.491,170.404,3.60738e-92
53.3786,87.3727,-2.47657e-34,0,254.491,170.404,2.10461e-94
54.3786,87.3727,-4.95315e-35,0,254.491,170.404,1.22787e-96
55.3786,87.3727,-9.9063e-36,0,254.491,170.404,7.16361e-99
56.3786,87.3727,-1.98126e-36,0,254.491,170.404,4.17938e-101
57.3786,87.3727,-3.96252e-37,0,254.491,170.404,2.43832e-103
58.3786,87.3727,-7.92504e-38,0,254.491,170.404,1.42256e-105
59.3786,87.3727,-1.58501e-38,0,254.491,170.404,8.29948e-108
60.3786,87.3727,-3.17001e-39,0,254.491,170.404,4.84207e-110
61.3786,87.3727,-6.34003e-40,0,254.491,170.404,2.82495e-112
62.3786,87.3727,-1.26801e-40,0,254.491,170.404,1.64813e-114
63.3786,87.3727,-2.53601e-41,0,254.491,170.404,9.61547e-117
64.3786,87.3727,-5.07202e-42,0,254.491,170.404,5.60984e-119
65.3786,87.3727,-1.0144e-42,0,254.491,170.404,3.27288e-121
66.3786,87.3727,-2.02881e-43,0,254.491,170.404,1.90946e-123
67.3786,87.3727,-4.05762e-44,0,254.491,170.404,1.11401e-125
68.3786,87.3727,-8.11524e-45,0,254.491,170.404,6.49934e-128
69.3786,87.3727,-1.62305e-45,0,254.491,170.404,3.79183e-130
70.3786,87.3727,-3.2461e-46,0,254.491,170.404,2.21222e-132
71.3786,87.3727,-6.49219e-47,0,254.491,170.404,1.29065e-134
72.3786,87.3727,-1.29844e-47,0,254.491,170.404,7.52989e-137
73.3786,87.3727,-2.59688e-48,0,254.491,170.404,4.39307e-139
74.3786,87.3727,-5.19375e-49,0,254.491,170.404,2.563e-141
75.3786,87.3727,-1.03875e-49,0,254.491,170.404,1.4953e-143
76.3786,87.3727,-2.0775e-50,0,254.491,170.404,8.72384e-146
77.3786,87.3727,-4.155e-51,0,254.491,170.404,5.08965e-148
78.3786,87.3727,-8.31e-52,0,254.491,170.404,2.96939e-150
79.3786,87.3727,-1.662e-52,0,254.491,170.404,1.7324e-152
80.3786,87.3727,-3.324e-53,0,254.491,170.404,1.01071e-154
81.3786,87.3727,-6.648e-54,0,254.491,170.404,5.89667e-157
82.3786,87.3727,-1.3296e-54,0,254.491,170.404,3.44022e-159
83.3786,87.3727,-2.6592e-55,0,254.491,170.404,2.00709e-161
84.3786,87.3727,-5.3184e-56,0,254.491,170.404,1.17097e-163
85.3786,87.3727,-1.06368e-56,0,254.491,170.404,6.83166e-166
86.3786,87.3727,-2.12736e-57,0,254.491,170.404,3.98571e-168
87.3786,87.3727,-4.25472e-58,0,254.491,170.404,2.32534e-170
88.3786,87.3727,-8.50944e-59,0,254.491,170.404,1.35664e-172
89.3786,87.3727,-1.70189e-59,0,254.491,170.404,7.9149e-175
90.3786,87.3727,-3.40378e-60,0,254.491,170.404,4.61769e-177
91.3786,87.3727,-6.80756e-61,0,254.491,170.404,2.69405e-179
92.3786,87.3727,-1.36151e-61,0,254.491,170.404,1.57175e-181
93.3786,87.3727,-2.72302e-62,0,254.491,170.404,9.1699e-184
94.3786,87.3727,-5.44604e-63,0,254.491,170.404,5.34988e-186
95.3786,87.3727,-1.08921e-63,0,254.491,170.404,3.12122e-188
96.3786,87.3727,-2.17842e-64,0,254.491,170.404,1.82098e-190
97.3786,87.3727,-4.35684e-65,0,254.491,170.404,1.06239e-192
98.3786,87.3727,-8.71367e-66,0,254.491,170.404,6.19817e-195
99.3786,87.3727,-1.74273e-66,0,254.491,170.404,3.61612e-197
100,87.3727,-4.99981e-67,0,254.491,170.404,3.38307e-199
