#Time,D,C,E,B,X,A
0,74.5408,106.085,66.9976,42.5804,191.341,0
3.1e-5,74.5685,106.071,66.983,42.5804,191.341,0
0.000406,74.903,105.912,66.8075,42.5804,191.341,0
0.00107671,75.4996,105.629,66.4946,42.5804,191.341,0
0.00495558,78.9071,104.002,64.7134,42.5804,191.341,0
0.0114872,84.4815,101.32,61.821,42.5804,191.341,0
0.0180189,89.8576,98.7074,59.0579,42.5804,191.341,0
0.0260912,96.2385,95.5711,55.8133,42.5804,191.341,0
0.0447338,109.934,88.7036,48.9851,42.5804,191.341,0
0.0632309,122.209,82.3775,43.0361,42.5804,191.341,0
0.082866,133.958,76.1551,37.5096,42.5804,191.341,0
0.117529,151.899,66.2954,29.4282,42.5804,191.341,0
0.154968,167.905,57.0748,22.6435,42.5804,191.341,0
0.192408,181.063,49.1366,17.423,42.5804,191.341,0
0.230403,192.06,42.2086,13.3541,42.5804,191.341,0
0.283451,204.272,34.1387,9.21189,42.5804,191.341,0
0.344767,214.912,26.7134,5.99713,42.5804,191.341,0
0.39675,221.757,21.6984,4.16787,42.5804,191.341,0
0.456616,227.804,17.0777,2.74106,42.5804,191.341,0
0.521759,232.725,13.1602,1.73733,42.5804,191.341,0
0.576715,235.877,10.5632,1.18253,42.5804,191.341,0
0.641976,238.738,8.13629,0.748895,42.5804,191.341,0
0.717522,241.167,6.01435,0.441327,42.5804,191.341,0
0.783184,242.719,4.62511,0.278703,42.5804,191.341,0
0.866547,244.154,3.31364,0.155496,42.5804,191.341,0
0.956526,245.228,2.31205,0.0828319,42.5804,191.341,0
1.03388,245.878,1.69678,0.0482001,42.5804,191.341,0
1.13559,246.47,1.12964,0.023655,42.5804,191.341,0
1.23763,246.86,0.751058,0.0115799,42.5804,191.341,0
1.34915,247.137,0.480777,0.00530689,42.5804,191.341,0
1.47585,247.331,0.289639,0.0021872,42.5804,191.341,0
1.60275,247.448,0.174342,0.000899895,42.5804,191.341,0
1.74191,247.523,0.0999284,0.00034029,42.5804,191.341,0
1.90296,247.57,0.0524733,0.000110336,42.5804,191.341,0
2.06647,247.596,0.0272836,3.51052e-5,42.5804,191.341,0
2.24675,247.61,0.0132681,1.00123e-5,42.5804,191.341,0
2.46868,247.617,0.00546388,2.1383e-6,42.5804,191.341,0
2.68148,247.621,0.00233261,4.66249e-7,42.5804,191.341,0
2.95822,247.622,0.000774111,7.72305e-8,42.5804,191.341,0
3.24441,247.623,0.000245988,1.59273e-9,42.5804,191.341,0
3.61985,247.623,5.70975e-5,2.75679e-9,42.5804,191.341,0
4.08955,247.623,9.66571e-6,2.54287e-10,42.5804,191.341,0
4.62389,247.623,1.53025e-6,-8.83479e-10,42.5804,191.341,0
5.44125,247.623,-5.4275e-7,-2.43712e-9,42.5804,191.341,0
6.44125,247.623,-1.12826e-7,-2.86523e-10,42.5804,191.341,0
7.44125,247.623,8.66573e-7,3.36492e-9,42.5804,191.341,0
8.44125,247.623,-2.40835e-7,-7.19031e-10,42.5804,191.341,0
9.44125,247.623,5.67261e-7,3.4982e-9,42.5804,191.341,0
10.4412,247.623,-4.76126e-7,-4.20154e-9,42.5804,191.341,0
11.4412,247.623,5.12339e-7,5.85335e-9,42.5804,191.341,0
12.4412,247.623,-7.41408e-8,-4.9193e-10,42.5804,191.341,0
13.4412,247.623,-4.03799e-8,-1.06963e-10,42.5804,191.341,0
14.4412,247.623,1.76338e-8,1.29103e-10,42.5804,191.341,0
15.4412,247.623,1.00832e-8,3.66693e-11,42.5804,191.341,0
16.4412,247.623,2.01664e-9,4.58366e-12,42.5804,191.341,0
17.4412,247.623,4.03327e-10,5.72957e-13,42.5804,191.341,0
18.4412,247.623,8.06655e-11,7.16196e-14,42.5804,191.341,0
19.4412,247.623,1.61331e-11,8.95246e-15,42.5804,191.341,0
20.4412,247.623,3.22662e-12,1.11906e-15,42.5804,191.341,0
21.4412,247.623,6.45324e-13,1.39882e-16,42.5804,191.341,0
22.4412,247.623,1.29065e-13,1.74853e-17,42.5804,191.341,0
23.4412,247.623,2.58129e-14,2.18566e-18,42.5804,191.341,0
24.4412,247.623,5.16259e-15,2.73207e-19,42.5804,191.341,0
25.4412,247.623,1.03252e-15,3.41509e-20,42.5804,191.341,0
26.4412,247.623,2.06504e-16,4.26886e-21,42.5804,191.341,0
27.4412,247.623,4.13007e-17,5.33608e-22,42.5804,191.341,0
28.4412,247.623,8.26014e-18,6.6701e-23,42.5804,191.341,0
29.4412,247.623,1.65203e-18,8.33762e-24,42.5804,191.341,0
30.4412,247.623,3.30406e-19,1.0422e-24,42.5804,191.341,0
31.4412,247.623,6.60811e-20,1.30275e-25,42.5804,191.341,0
32.4412,247.623,1.32162e-20,1.62844e-26,42.5804,191.341,0
33.4412,247.623,2.64325e-21,2.03555e-27,42.5804,191.341,0
34.4412,247.623,5.28649e-22,2.54444e-28,42.5804,191.341,0
35.4412,247.623,1.0573e-22,3.18055e-29,42.5804,191.341,0
36.4412,247.623,2.1146e-23,3.97569e-30,42.5804,191.341,0
37.4412,247.623,4.22919e-24,4.96961e-31,42.5804,191.341,0
38.4412,247.623,8.45839e-25,6.21201e-32,42.5804,191.341,0
39.4412,247.623,1.69168e-25,7.76502e-33,42.5804,191.341,0
40.4412,247.623,3.38335e-26,9.70627e-34,42.5804,191.341,0
41.4412,247.623,6.76671e-27,1.21328e-34,42.5804,191.341,0
42.4412,247.623,1.35334e-27,1.5166e-35,42.5804,191.341,0
43.4412,247.623,2.70668e-28,1.89576e-36,42.5804,191.341,0
44.4412,247.623,5.41337e-29,2.3697e-37,42.5804,191.341,0
45.4412,247.623,1.08267e-29,2.96212e-38,42.5804,191.341,0
46.4412,247.623,2.16535e-30,3.70265e-39,42.5804,191.341,0
47.4412,247.623,4.33069e-31,4.62831e-40,42.5804,191.341,0
48.4412,247.623,8.66139e-32,5.78539e-41,42.5804,191.341,0
49.4412,247.623,1.73228e-32,7.23174e-42,42.5804,191.341,0
50.4412,247.623,3.46456e-33,9.03967e-43,42.5804,191.341,0
51.4412,247.623,6.92911e-34,1.12996e-43,42.5804,191.341,0
52.4412,247.623,1.38582e-34,1.41245e-44,42.5804,191.341,0
53.4412,247.623,2.77164e-35,1.76556e-45,42.5804,191.341,0
54.4412,247.623,5.54329e-36,2.20695e-46,42.5804,191.341,0
55.4412,247.623,1.10866e-36,2.75869e-47,42.5804,191.341,0
56.4412,247.623,2.21732e-37,3.44836e-48,42.5804,191.341,0
57.4412,247.623,4.43463e-38,4.31045e-49,42.5804,191.341,0
58.4412,247.623,8.86926e-39,5.38806e-50,42.5804,191.341,0
59.4412,247.623,1.77385e-39,6.73508e-51,42.5804,191.341,0
60.4412,247.623,3.5477e-40,8.41885e-52,42.5804,191.341,0
61.4412,247.623,7.09541e-41,1.05236e-52,42.5804,191.341,0
62.4412,247.623,1.41908e-41,1.31545e-53,42.5804,191.341,0
63.4412,247.623,2.83816e-42,1.64431e-54,42.5804,191.341,0
64.4412,247.623,5.67633e-43,2.05538e-55,42.5804,191.341,0
65.4412,247.623,1.13527e-43,2.56923e-56,42.5804,191.341,0
66.4412,247.623,2.27053e-44,3.21154e-57,42.5804,191.341,0
67.4412,247.623,4.54106e-45,4.01442e-58,42.5804,191.341,0
68.4412,247.623,9.08212e-46,5.01802e-59,42.5804,191.341,0
69.4412,247.623,1.81642e-46,6.27253e-60,42.5804,191.341,0
70.4412,247.623,3.63285e-47,7.84066e-61,42.5804,191.341,0
71.4412,247.623,7.2657e-48,9.80083e-62,42.5804,191.341,0
72.4412,247.623,1.45314e-48,1.2251e-62,42.5804,191.341,0
73.4412,247.623,2.90628e-49,1.53138e-63,42.5804,191.341,0
74.4412,247.623,5.81256e-50,1.91422e-64,42.5804,191.341,0
75.4412,247.623,1.16251e-50,2.39278e-65,42.5804,191.341,0
76.4412,247.623,2.32502e-51,2.99098e-66,42.5804,191.341,0
77.4412,247.623,4.65005e-52,3.73872e-67,42.5804,191.341,0
78.4412,247.623,9.30009e-53,4.6734e-68,42.5804,191.341,0
79.4412,247.623,1.86002e-53,5.84175e-69,42.5804,191.341,0
80.4412,247.623,3.72004e-54,7.30219e-70,42.5804,191.341,0
81.4412,247.623,7.44008e-55,9.12773e-71,42.5804,191.341,0
82.4412,247.623,1.48802e-55,1.14097e-71,42.5804,191.341,0
83.4412,247.623,2.97603e-56,1.42621e-72,42.5804,191.341,0
84.4412,247.623,5.95206e-57,1.78276e-73,42.5804,191.341,0
85.4412,247.623,1.19041e-57,2.22845e-74,42.5804,191.341,0
86.4412,247.623,2.38082e-58,2.78556e-75,42.5804,191.341,0
87.4412,247.623,4.76165e-59,3.48195e-76,42.5804,191.341,0
88.4412,247.623,9.5233e-60,4.35244e-77,42.5804,191.341,0
89.4412,247.623,1.90466e-60,5.44055e-78,42.5804,191.341,0
90.4412,247.623,3.80932e-61,6.80069e-79,42.5804,191.341,0
91.4412,247.623,7.61864e-62,8.50086e-80,42.5804,191.341,0
92.4412,247.623,1.52373e-62,1.06261e-80,42.5804,191.341,0
93.4412,247.623,3.04745e-63,1.32826e-81,42.5804,191.341,0
94.4412,247.623,6.09491e-64,1.66033e-82,42.5804,191.341,0
95.4412,247.623,1.21898e-64,2.07541e-83,42.5804,191.341,0
96.4412,247.623,2.43796e-65,2.59426e-84,42.5804,191.341,0
97.4412,247.623,4.87593e-66,3.24282e-85,42.5804,191.341,0
98.4412,247.623,9.75186e-67,4.05353e-86,42.5804,191.341,0
99.4412,247.623,1.95037e-67,5.06691e-87,42.5804,191.341,0
100,247.623,6.02897e-68,1.03169e-87,42.5804,191.341,0
