#Time,D,C,E,B,X,A
0,24.7332,56.5449,102.761,8.76709,15.7632,30.4427
3.1e-5,24.7625,56.5379,102.739,8.78195,15.7484,30.4279
0.000106,24.8334,56.521,102.685,8.8178,15.7125,30.392
0.000227271,24.9479,56.4936,102.598,8.87555,15.6548,30.3343
0.000800637,25.4883,56.3641,102.187,9.14429,15.386,30.0655
0.00170443,26.3361,56.1607,101.542,9.55398,14.9763,29.6558
0.00255595,27.1305,55.9698,100.939,9.92515,14.6052,29.2847
0.00370781,28.1984,55.7125,100.128,10.4057,14.1246,28.8042
0.00643422,30.6955,55.1082,98.2355,11.4534,13.0769,27.7564
0.00920121,33.1865,54.5016,96.3511,12.4039,12.1264,26.806
0.0121847,35.8244,53.8551,94.3597,13.3203,11.21,25.8895
0.0152449,38.4795,53.1999,92.3599,14.1605,10.3698,25.0493
0.0184586,41.2135,52.5204,90.3054,14.9502,9.58011,24.2596
0.0218459,44.0363,51.8136,88.1893,15.6946,8.83571,23.5152
0.02532,46.8702,51.0985,86.0705,16.3779,8.15244,22.832
0.0290745,49.8644,50.3369,83.8379,17.0381,7.4922,22.1717
0.0329281,52.8657,49.5669,81.6066,17.6435,6.88683,21.5663
0.0369803,55.9449,48.77,79.3243,18.2123,6.31798,20.9975
0.0412428,59.1013,47.9455,76.9924,18.7465,5.78379,20.4633
0.0456106,62.2501,47.1151,74.674,19.2353,5.29504,19.9745
0.0503124,65.5456,46.2373,72.2563,19.7045,4.82583,19.5053
0.0551318,68.8254,45.3545,69.8594,20.1328,4.39749,19.077
0.0601863,72.1616,44.4467,67.4309,20.5329,3.9974,18.6769
0.0654888,75.5514,43.5139,64.9739,20.9061,3.62416,18.3037
0.0709153,78.9075,42.5796,62.5521,21.2457,3.28458,17.9641
0.0767339,82.3837,41.6,60.0556,21.5689,2.96144,17.641
0.0826901,85.8155,40.6206,57.6031,21.8618,2.66845,17.348
0.0889216,89.2742,39.6206,55.1445,22.1332,2.3971,17.0766
0.0952476,92.6528,38.6306,52.7558,22.377,2.15335,16.8329
0.10619,98.1972,36.9763,48.8658,22.7356,1.79473,16.4742
0.11785,103.712,35.2913,45.0358,23.0465,1.48384,16.1634
0.132101,109.943,33.3358,40.76,23.3491,1.18121,15.8607
0.1461,115.563,31.5205,36.9553,23.5827,0.947618,15.6271
0.162437,121.551,29.5264,32.9616,23.7949,0.735419,15.4149
0.179015,127.057,27.6321,29.3504,23.9599,0.570393,15.2499
0.196909,132.421,25.7234,25.8949,24.0956,0.434721,15.1142
0.215969,137.544,23.8351,22.6605,24.204,0.32626,15.0058
0.236226,142.395,21.9799,19.6646,24.2893,0.240956,14.9205
0.258697,147.146,20.0905,16.8024,24.3578,0.172454,14.852
0.28216,151.491,18.2908,14.2576,24.4085,0.121788,14.8013
0.308381,155.703,16.4695,11.8668,24.4476,0.0826559,14.7622
0.336547,159.581,14.7147,9.74327,24.4757,0.0545585,14.7341
0.366751,163.113,13.0402,7.88648,24.4953,0.0349704,14.7145
0.401507,166.508,11.3476,6.1833,24.5093,0.0209728,14.7005
0.43798,169.442,9.80719,4.79004,24.518,0.0122689,14.6918
0.476286,171.962,8.41394,3.6634,24.5233,0.00698799,14.6865
0.514593,174.019,7.21863,2.80174,24.5263,0.00398078,14.6835
0.552899,175.703,6.19312,2.14276,24.528,0.00226789,14.6818
0.592684,177.135,5.28196,1.62189,24.529,0.00126429,14.6808
0.632923,178.319,4.49669,1.22374,24.5296,0.000700156,14.6802
0.674067,179.307,3.81433,0.917503,24.5299,0.000382627,14.6799
0.731436,180.393,3.0322,0.614054,24.5301,0.000164973,14.6797
0.790447,181.238,2.39467,0.406265,24.5302,6.94016e-5,14.6796
0.864322,182.015,1.78202,0.242233,24.5303,2.35025e-5,14.6795
0.944997,182.611,1.29052,0.137717,24.5303,7.19924e-6,14.6795
1.02025,183.003,0.955079,0.0813242,24.5303,2.38491e-6,14.6795
1.11628,183.347,0.650448,0.0415257,24.5303,5.89798e-7,14.6795
1.21713,183.584,0.43453,0.0205009,24.5303,1.36506e-7,14.6795
1.31769,183.738,0.29063,0.0101426,24.5303,3.13488e-8,14.6795
1.44966,183.864,0.171435,0.00403064,24.5303,5.88617e-9,14.6795
1.58133,183.936,0.101243,0.00160345,24.5303,1.66087e-10,14.6795
1.72612,183.982,0.0567353,0.000583184,24.5303,5.57026e-12,14.6795
1.89686,184.01,0.0286607,0.00017717,24.5303,1.17971e-10,14.6795
2.07533,184.025,0.0140384,5.09986e-5,24.5303,-2.88951e-12,14.6795
2.29042,184.033,0.00594228,1.18324e-5,24.5303,1.15123e-11,14.6795
2.51524,184.037,0.00241914,2.47108e-6,24.5303,2.78277e-11,14.6795
2.7971,184.038,0.000786929,4.8869e-7,24.5303,-5.42304e-12,14.6795
3.10299,184.039,0.000232486,6.91792e-8,24.5303,4.74611e-12,14.6795
3.47818,184.039,5.36536e-5,1.97223e-8,24.5303,5.98185e-12,14.6795
3.8864,184.039,1.08404e-5,3.22035e-8,24.5303,-1.28023e-11,14.6795
4.39037,184.039,1.8761e-6,-3.59791e-8,24.5303,1.52253e-11,14.6795
5.2848,184.039,1.48071e-6,1.99817e-7,24.5303,-5.50901e-11,14.6795
6.27423,184.039,-4.85094e-7,-5.19778e-8,24.5303,2.16527e-12,14.6795
7.27423,184.039,3.8354e-7,7.74579e-8,24.5303,-2.91225e-11,14.6795
8.27423,184.039,-6.23301e-7,4.24345e-8,24.5303,-1.10224e-11,14.6795
9.16563,184.039,4.80172e-7,-2.07144e-9,24.5303,-6.719e-11,14.6795
10.1656,184.039,-1.79508e-7,-1.83315e-8,24.5303,1.08942e-10,14.6795
11.1656,184.039,8.66809e-8,-4.77929e-9,24.5303,5.49723e-12,14.6795
12.1656,184.039,-2.18676e-7,2.28561e-8,24.5303,1.42275e-11,14.6795
13.1656,184.039,1.34096e-9,-2.17931e-9,24.5303,3.49503e-12,14.6795
14.1656,184.039,-4.72935e-9,1.68683e-8,24.5303,4.19404e-11,14.6795
15.1656,184.039,2.95836e-9,-2.59034e-8,24.5303,-1.52042e-10,14.6795
16.1656,184.039,1.50571e-9,-7.08717e-9,24.5303,-2.00905e-11,14.6795
17.1656,184.039,2.78588e-10,-1.43839e-10,24.5303,2.21516e-12,14.6795
18.1656,184.039,-3.55776e-11,3.83048e-10,24.5303,8.94686e-13,14.6795
19.1656,184.039,-3.82635e-11,9.85901e-11,24.5303,4.21394e-14,14.6795
20.1656,184.039,-1.06797e-11,6.65431e-13,24.5303,-2.24398e-14,14.6795
21.1656,184.039,-2.13594e-12,8.31789e-14,24.5303,-1.43115e-15,14.6795
22.1656,184.039,-4.27187e-13,1.03974e-14,24.5303,-9.12753e-17,14.6795
23.1656,184.039,-8.54374e-14,1.29967e-15,24.5303,-5.82131e-18,14.6795
24.1656,184.039,-1.70875e-14,1.62459e-16,24.5303,-3.71269e-19,14.6795
25.1656,184.039,-3.4175e-15,2.03073e-17,24.5303,-2.36786e-20,14.6795
26.1656,184.039,-6.83499e-16,2.53842e-18,24.5303,-1.51016e-21,14.6795
27.1656,184.039,-1.367e-16,3.17302e-19,24.5303,-9.63143e-23,14.6795
28.1656,184.039,-2.734e-17,3.96628e-20,24.5303,-6.14269e-24,14.6795
29.1656,184.039,-5.468e-18,4.95785e-21,24.5303,-3.91765e-25,14.6795
30.1656,184.039,-1.0936e-18,6.19731e-22,24.5303,-2.49858e-26,14.6795
31.1656,184.039,-2.1872e-19,7.74663e-23,24.5303,-1.59353e-27,14.6795
32.1656,184.039,-4.3744e-20,9.68329e-24,24.5303,-1.01632e-28,14.6795
33.1656,184.039,-8.74879e-21,1.21041e-24,24.5303,-6.48181e-30,14.6795
34.1656,184.039,-1.74976e-21,1.51301e-25,24.5303,-4.13394e-31,14.6795
35.1656,184.039,-3.49952e-22,1.89127e-26,24.5303,-2.63652e-32,14.6795
36.1656,184.039,-6.99903e-23,2.36409e-27,24.5303,-1.68151e-33,14.6795
37.1656,184.039,-1.39981e-23,2.95511e-28,24.5303,-1.07242e-34,14.6795
38.1656,184.039,-2.79961e-24,3.69388e-29,24.5303,-6.83965e-36,14.6795
39.1656,184.039,-5.59923e-25,4.61735e-30,24.5303,-4.36216e-37,14.6795
40.1656,184.039,-1.11985e-25,5.77169e-31,24.5303,-2.78208e-38,14.6795
41.1656,184.039,-2.23969e-26,7.21462e-32,24.5303,-1.77434e-39,14.6795
42.1656,184.039,-4.47938e-27,9.01827e-33,24.5303,-1.13163e-40,14.6795
43.1656,184.039,-8.95876e-28,1.12728e-33,24.5303,-7.21725e-42,14.6795
44.1656,184.039,-1.79175e-28,1.4091e-34,24.5303,-4.60298e-43,14.6795
45.1656,184.039,-3.58351e-29,1.76138e-35,24.5303,-2.93567e-44,14.6795
46.1656,184.039,-7.16701e-30,2.20173e-36,24.5303,-1.87229e-45,14.6795
47.1656,184.039,-1.4334e-30,2.75216e-37,24.5303,-1.1941e-46,14.6795
48.1656,184.039,-2.8668e-31,3.4402e-38,24.5303,-7.61569e-48,14.6795
49.1656,184.039,-5.73361e-32,4.30025e-39,24.5303,-4.8571e-49,14.6795
50.1656,184.039,-1.14672e-32,5.37531e-40,24.5303,-3.09774e-50,14.6795
51.1656,184.039,-2.29344e-33,6.71913e-41,24.5303,-1.97566e-51,14.6795
52.1656,184.039,-4.58689e-34,8.39892e-42,24.5303,-1.26003e-52,14.6795
53.1656,184.039,-9.17377e-35,1.04986e-42,24.5303,-8.03613e-54,14.6795
54.1656,184.039,-1.83475e-35,1.31233e-43,24.5303,-5.12524e-55,14.6795
55.1656,184.039,-3.66951e-36,1.64041e-44,24.5303,-3.26875e-56,14.6795
56.1656,184.039,-7.33902e-37,2.05052e-45,24.5303,-2.08473e-57,14.6795
57.1656,184.039,-1.4678e-37,2.56315e-46,24.5303,-1.32959e-58,14.6795
58.1656,184.039,-2.93561e-38,3.20393e-47,24.5303,-8.47978e-60,14.6795
59.1656,184.039,-5.87122e-39,4.00492e-48,24.5303,-5.40819e-61,14.6795
60.1656,184.039,-1.17424e-39,5.00615e-49,24.5303,-3.44921e-62,14.6795
61.1656,184.039,-2.34849e-40,6.25768e-50,24.5303,-2.19982e-63,14.6795
62.1656,184.039,-4.69697e-41,7.8221e-51,24.5303,-1.40299e-64,14.6795
63.1656,184.039,-9.39395e-42,9.77763e-52,24.5303,-8.94792e-66,14.6795
64.1656,184.039,-1.87879e-42,1.2222e-52,24.5303,-5.70676e-67,14.6795
65.1656,184.039,-3.75758e-43,1.52775e-53,24.5303,-3.63963e-68,14.6795
66.1656,184.039,-7.51516e-44,1.90969e-54,24.5303,-2.32127e-69,14.6795
67.1656,184.039,-1.50303e-44,2.38712e-55,24.5303,-1.48045e-70,14.6795
68.1656,184.039,-3.00606e-45,2.9839e-56,24.5303,-9.44191e-72,14.6795
69.1656,184.039,-6.01213e-46,3.72987e-57,24.5303,-6.02181e-73,14.6795
70.1656,184.039,-1.20243e-46,4.66234e-58,24.5303,-3.84056e-74,14.6795
71.1656,184.039,-2.40485e-47,5.82792e-59,24.5303,-2.44941e-75,14.6795
72.1656,184.039,-4.8097e-48,7.2849e-60,24.5303,-1.56218e-76,14.6795
73.1656,184.039,-9.6194e-49,9.10613e-61,24.5303,-9.96317e-78,14.6795
74.1656,184.039,-1.92388e-49,1.13827e-61,24.5303,-6.35426e-79,14.6795
75.1656,184.039,-3.84776e-50,1.42283e-62,24.5303,-4.05259e-80,14.6795
76.1656,184.039,-7.69552e-51,1.77854e-63,24.5303,-2.58464e-81,14.6795
77.1656,184.039,-1.5391e-51,2.22318e-64,24.5303,-1.64842e-82,14.6795
78.1656,184.039,-3.07821e-52,2.77897e-65,24.5303,-1.05132e-83,14.6795
79.1656,184.039,-6.15642e-53,3.47371e-66,24.5303,-6.70506e-85,14.6795
80.1656,184.039,-1.23128e-53,4.34214e-67,24.5303,-4.27632e-86,14.6795
81.1656,184.039,-2.46257e-54,5.42767e-68,24.5303,-2.72733e-87,14.6795
82.1656,184.039,-4.92513e-55,6.78459e-69,24.5303,-1.73942e-88,14.6795
83.1656,184.039,-9.85027e-56,8.48074e-70,24.5303,-1.10936e-89,14.6795
84.1656,184.039,-1.97005e-56,1.06009e-70,24.5303,-7.07522e-91,14.6795
85.1656,184.039,-3.94011e-57,1.32512e-71,24.5303,-4.5124e-92,14.6795
86.1656,184.039,-7.88021e-58,1.65639e-72,24.5303,-2.8779e-93,14.6795
87.1656,184.039,-1.57604e-58,2.07049e-73,24.5303,-1.83545e-94,14.6795
88.1656,184.039,-3.15209e-59,2.58812e-74,24.5303,-1.1706e-95,14.6795
89.1656,184.039,-6.30417e-60,3.23515e-75,24.5303,-7.46582e-97,14.6795
90.1656,184.039,-1.26083e-60,4.04393e-76,24.5303,-4.76151e-98,14.6795
91.1656,184.039,-2.52167e-61,5.05492e-77,24.5303,-3.03677e-99,14.6795
92.1656,184.039,-5.04334e-62,6.31864e-78,24.5303,-1.93678e-100,14.6795
93.1656,184.039,-1.00867e-62,7.8983e-79,24.5303,-1.23523e-101,14.6795
94.1656,184.039,-2.01733e-63,9.87288e-80,24.5303,-7.87799e-103,14.6795
95.1656,184.039,-4.03467e-64,1.23411e-80,24.5303,-5.02438e-104,14.6795
96.1656,184.039,-8.06934e-65,1.54264e-81,24.5303,-3.20443e-105,14.6795
97.1656,184.039,-1.61387e-65,1.9283e-82,24.5303,-2.0437e-106,14.6795
98.1656,184.039,-3.22774e-66,2.41037e-83,24.5303,-1.30342e-107,14.6795
99.1656,184.039,-6.45547e-67,3.01296e-84,24.5303,-8.3129e-109,14.6795
100,184.039,7.08333e-68,-1.73706e-84,24.5303,1.39693e-108,14.6795
