#Time,D,C,E,B,X,A
0,0,8.22141,73.5548,1.29978,9.55137,49.6294
1.75336e-5,0.00960351,8.22084,73.5458,1.30808,9.54306,49.6211
5.21345e-5,0.0285516,8.2197,73.528,1.32444,9.5267,49.6047
0.000105801,0.0579322,8.21793,73.5004,1.34976,9.50138,49.5794
0.000390252,0.213482,8.20859,73.3542,1.48264,9.3685,49.4465
0.000894779,0.488639,8.19204,73.0956,1.71294,9.1382,49.2162
0.00197568,1.07496,8.1567,72.5446,2.18414,8.667,48.745
0.00350423,1.89676,8.10698,71.7725,2.80257,8.04857,48.1266
0.00530657,2.85482,8.04874,70.8727,3.46678,7.38436,47.4624
0.00720603,3.85184,7.98782,69.9366,4.09924,6.7519,46.8299
0.00925136,4.91109,7.92274,68.9424,4.71202,6.13912,46.2171
0.0114668,6.04191,7.85284,67.8815,5.30577,5.54537,45.6234
0.0137967,7.21287,7.77999,66.7834,5.86167,4.98947,45.0675
0.0162564,8.42906,7.70382,65.6434,6.38228,4.46886,44.5469
0.018781,9.65633,7.62642,64.4935,6.85518,3.99596,44.074
0.0213384,10.8782,7.5488,63.3492,7.27914,3.572,43.65
0.0256654,12.8978,7.41927,61.4592,7.88988,2.96126,43.0393
0.0303601,15.0227,7.28124,59.4723,8.42849,2.42265,42.5006
0.0362139,17.5789,7.11273,57.0846,8.95904,1.8921,41.9701
0.0422766,20.1213,6.94232,54.7126,9.38217,1.46897,41.547
0.0483394,22.561,6.77598,52.4393,9.70809,1.14305,41.221
0.0546223,24.9855,6.60781,50.1829,9.96815,0.882989,40.961
0.0611318,27.3907,6.43798,47.9476,10.1743,0.676799,40.7548
0.068249,29.9016,6.25728,45.6173,10.3444,0.506709,40.5847
0.0755913,32.368,6.07618,43.332,10.4748,0.376323,40.4543
0.0835293,34.9,5.88628,40.9899,10.5781,0.273073,40.3511
0.0919154,37.4312,5.69211,38.653,10.6564,0.194744,40.2727
0.100761,39.9498,5.49423,36.3322,10.7147,0.136415,40.2144
0.110507,42.5559,5.28416,33.9362,10.7589,0.0922005,40.1702
0.120665,45.0954,5.07377,31.607,10.7898,0.0613178,40.1393
0.131996,47.7305,4.84893,29.1968,10.8122,0.0389121,40.1169
0.144215,50.3553,4.61763,26.8033,10.8273,0.0238339,40.1018
0.157512,52.9768,4.37844,24.421,10.8372,0.0139822,40.092
0.172643,55.6882,4.1213,21.9667,10.8435,0.00762119,40.0856
0.189162,58.3505,3.85778,19.568,10.8472,0.00392882,40.0819
0.208116,61.0634,3.57612,17.1367,10.8493,0.00183608,40.0798
0.230459,63.8504,3.27037,14.6555,10.8504,0.000748171,40.0787
0.255435,66.512,2.95945,12.3048,10.8509,0.000273752,40.0783
0.288186,69.3964,2.59607,9.78378,10.8511,7.20024e-5,40.0781
0.324463,71.9412,2.24542,7.58966,10.8511,1.61756e-5,40.078
0.362226,74.019,1.93061,5.82662,10.8511,3.36518e-6,40.078
0.39999,75.6432,1.65994,4.47313,10.8511,7.11628e-7,40.078
0.450972,77.2919,1.35372,3.13059,10.8511,1.35732e-7,40.078
0.503654,78.5147,1.0965,2.16505,10.8511,1.22923e-8,40.078
0.565186,79.5116,0.857272,1.40738,10.8511,1.86139e-10,40.078
0.632468,80.2425,0.654994,0.878764,10.8511,-2.78546e-9,40.078
0.693396,80.6893,0.513327,0.57365,10.8511,-2.24115e-9,40.078
0.766691,81.0499,0.382884,0.343426,10.8511,1.76405e-10,40.078
0.843203,81.2933,0.281938,0.201021,10.8511,-1.26188e-9,40.078
0.915332,81.4436,0.211277,0.12133,10.8511,-1.41861e-10,40.078
1.0002,81.5588,0.150461,0.0669872,10.8511,1.05127e-10,40.078
1.09895,81.6413,0.101361,0.0335583,10.8511,-1.48958e-10,40.078
1.19135,81.6886,0.0700425,0.0175762,10.8511,6.26696e-11,40.078
1.30998,81.725,0.0435796,0.00766464,10.8511,4.79937e-11,40.078
1.43377,81.7465,0.0265608,0.00322213,10.8511,-4.43548e-10,40.078
1.57486,81.7599,0.0151065,0.00120211,10.8511,-9.43192e-11,40.078
1.75263,81.7685,0.00742001,0.000347996,10.8511,6.46728e-11,40.078
1.93327,81.7725,0.00360285,9.81898e-5,10.8511,9.96832e-12,40.078
2.17952,81.7749,0.00134767,1.93115e-5,10.8511,-4.99204e-11,40.078
2.44922,81.7758,0.000459484,3.11143e-6,10.8511,-2.10531e-12,40.078
2.80087,81.7761,0.000115079,1.11478e-6,10.8511,5.5269e-12,40.078
3.17445,81.7762,2.54235e-5,-2.4452e-7,10.8511,-2.55772e-11,40.078
3.7101,81.7762,4.63181e-6,-5.49155e-8,10.8511,4.69907e-11,40.078
4.34689,81.7762,2.93498e-7,6.4497e-8,10.8511,2.15828e-11,40.078
5.23455,81.7762,5.40658e-7,8.81824e-8,10.8511,4.71165e-11,40.078
6.23455,81.7762,2.32012e-8,3.4728e-8,10.8511,-3.21011e-11,40.078
7.23455,81.7762,1.38036e-7,-6.01621e-8,10.8511,5.18671e-11,40.078
8.23455,81.7762,-4.0502e-7,8.2335e-8,10.8511,5.17654e-10,40.078
9.23455,81.7762,3.05094e-7,9.88423e-9,10.8511,1.18099e-8,40.078
10.2345,81.7762,2.10986e-7,-9.44224e-8,10.8511,8.69654e-10,40.078
11.2345,81.7762,-4.99055e-7,2.28109e-7,10.8511,2.24048e-8,40.078
12.2345,81.7762,2.5489e-7,-1.6119e-7,10.8511,-3.37952e-8,40.078
13.2345,81.7762,-1.37904e-7,1.28962e-7,10.8511,1.27338e-8,40.078
14.2345,81.7762,2.20968e-8,-3.24504e-8,10.8511,-4.56006e-9,40.078
15.2345,81.7762,-5.37952e-10,1.37625e-8,10.8511,3.94257e-9,40.078
16.2345,81.7762,-1.89889e-9,-3.94858e-8,10.8511,1.11719e-8,40.078
17.2345,81.7762,-6.41601e-10,-1.01003e-8,10.8511,4.89984e-10,40.078
18.2345,81.7762,-6.0683e-11,-5.38558e-11,10.8511,-1.1078e-10,40.078
19.2345,81.7762,3.62608e-11,5.81466e-10,10.8511,-1.12211e-11,40.078
20.2345,81.7762,1.87024e-11,1.39984e-10,10.8511,7.92428e-13,40.078
21.2345,81.7762,3.50443e-12,-1.26658e-12,10.8511,1.73058e-13,40.078
22.2345,81.7762,7.00886e-13,-1.58323e-13,10.8511,4.21291e-15,40.078
23.2345,81.7762,1.40177e-13,-1.97904e-14,10.8511,1.02559e-16,40.078
24.2345,81.7762,2.80354e-14,-2.4738e-15,10.8511,2.49669e-18,40.078
25.2345,81.7762,5.60709e-15,-3.09225e-16,10.8511,6.07792e-20,40.078
26.2345,81.7762,1.12142e-15,-3.86531e-17,10.8511,1.4796e-21,40.078
27.2345,81.7762,2.24284e-16,-4.83164e-18,10.8511,3.60194e-23,40.078
28.2345,81.7762,4.48567e-17,-6.03955e-19,10.8511,8.76854e-25,40.078
29.2345,81.7762,8.97134e-18,-7.54943e-20,10.8511,2.13461e-26,40.078
30.2345,81.7762,1.79427e-18,-9.43679e-21,10.8511,5.19647e-28,40.078
31.2345,81.7762,3.58854e-19,-1.1796e-21,10.8511,1.26503e-29,40.078
32.2345,81.7762,7.17708e-20,-1.4745e-22,10.8511,3.07957e-31,40.078
33.2345,81.7762,1.43542e-20,-1.84312e-23,10.8511,7.49689e-33,40.078
34.2345,81.7762,2.87083e-21,-2.3039e-24,10.8511,1.82504e-34,40.078
35.2345,81.7762,5.74166e-22,-2.87988e-25,10.8511,4.44286e-36,40.078
36.2345,81.7762,1.14833e-22,-3.59985e-26,10.8511,1.08157e-37,40.078
37.2345,81.7762,2.29666e-23,-4.49981e-27,10.8511,2.63296e-39,40.078
38.2345,81.7762,4.59333e-24,-5.62477e-28,10.8511,6.40966e-41,40.078
39.2345,81.7762,9.18666e-25,-7.03096e-29,10.8511,1.56036e-42,40.078
40.2345,81.7762,1.83733e-25,-8.7887e-30,10.8511,3.79854e-44,40.078
41.2345,81.7762,3.67466e-26,-1.09859e-30,10.8511,9.24713e-46,40.078
42.2345,81.7762,7.34932e-27,-1.37323e-31,10.8511,2.25112e-47,40.078
43.2345,81.7762,1.46986e-27,-1.71654e-32,10.8511,5.4801e-49,40.078
44.2345,81.7762,2.93973e-28,-2.14568e-33,10.8511,1.33407e-50,40.078
45.2345,81.7762,5.87946e-29,-2.6821e-34,10.8511,3.24766e-52,40.078
46.2345,81.7762,1.17589e-29,-3.35262e-35,10.8511,7.90607e-54,40.078
47.2345,81.7762,2.35178e-30,-4.19078e-36,10.8511,1.92465e-55,40.078
48.2345,81.7762,4.70357e-31,-5.23847e-37,10.8511,4.68535e-57,40.078
49.2345,81.7762,9.40714e-32,-6.54809e-38,10.8511,1.1406e-58,40.078
50.2345,81.7762,1.88143e-32,-8.18511e-39,10.8511,2.77667e-60,40.078
51.2345,81.7762,3.76285e-33,-1.02314e-39,10.8511,6.7595e-62,40.078
52.2345,81.7762,7.52571e-34,-1.27892e-40,10.8511,1.64553e-63,40.078
53.2345,81.7762,1.50514e-34,-1.59865e-41,10.8511,4.00586e-65,40.078
54.2345,81.7762,3.01028e-35,-1.99832e-42,10.8511,9.75185e-67,40.078
55.2345,81.7762,6.02057e-36,-2.4979e-43,10.8511,2.37398e-68,40.078
56.2345,81.7762,1.20411e-36,-3.12237e-44,10.8511,5.77921e-70,40.078
57.2345,81.7762,2.40823e-37,-3.90297e-45,10.8511,1.40689e-71,40.078
58.2345,81.7762,4.81645e-38,-4.87871e-46,10.8511,3.42492e-73,40.078
59.2345,81.7762,9.63291e-39,-6.09838e-47,10.8511,8.3376e-75,40.078
60.2345,81.7762,1.92658e-39,-7.62298e-48,10.8511,2.0297e-76,40.078
61.2345,81.7762,3.85316e-40,-9.52873e-49,10.8511,4.94109e-78,40.078
62.2345,81.7762,7.70633e-41,-1.19109e-49,10.8511,1.20285e-79,40.078
63.2345,81.7762,1.54127e-41,-1.48886e-50,10.8511,2.92822e-81,40.078
64.2345,81.7762,3.08253e-42,-1.86108e-51,10.8511,7.12844e-83,40.078
65.2345,81.7762,6.16506e-43,-2.32635e-52,10.8511,1.73534e-84,40.078
66.2345,81.7762,1.23301e-43,-2.90794e-53,10.8511,4.22451e-86,40.078
67.2345,81.7762,2.46602e-44,-3.63492e-54,10.8511,1.02841e-87,40.078
68.2345,81.7762,4.93205e-45,-4.54365e-55,10.8511,2.50356e-89,40.078
69.2345,81.7762,9.8641e-46,-5.67956e-56,10.8511,6.09465e-91,40.078
70.2345,81.7762,1.97282e-46,-7.09945e-57,10.8511,1.48368e-92,40.078
71.2345,81.7762,3.94564e-47,-8.87432e-58,10.8511,3.61185e-94,40.078
72.2345,81.7762,7.89128e-48,-1.10929e-58,10.8511,8.79267e-96,40.078
73.2345,81.7762,1.57826e-48,-1.38661e-59,10.8511,2.14048e-97,40.078
74.2345,81.7762,3.15651e-49,-1.73327e-60,10.8511,5.21077e-99,40.078
75.2345,81.7762,6.31302e-50,-2.16658e-61,10.8511,1.26851e-100,40.078
76.2345,81.7762,1.2626e-50,-2.70823e-62,10.8511,3.08805e-102,40.078
77.2345,81.7762,2.52521e-51,-3.38528e-63,10.8511,7.51752e-104,40.078
78.2345,81.7762,5.05042e-52,-4.2316e-64,10.8511,1.83006e-105,40.078
79.2345,81.7762,1.01008e-52,-5.28951e-65,10.8511,4.45509e-107,40.078
80.2345,81.7762,2.02017e-53,-6.61188e-66,10.8511,1.08454e-108,40.078
81.2345,81.7762,4.04033e-54,-8.26485e-67,10.8511,2.6402e-110,40.078
82.2345,81.7762,8.08067e-55,-1.03311e-67,10.8511,6.4273e-112,40.078
83.2345,81.7762,1.61613e-55,-1.29138e-68,10.8511,1.56466e-113,40.078
84.2345,81.7762,3.23227e-56,-1.61423e-69,10.8511,3.80899e-115,40.078
85.2345,81.7762,6.46453e-57,-2.01779e-70,10.8511,9.27258e-117,40.078
86.2345,81.7762,1.29291e-57,-2.52223e-71,10.8511,2.25731e-118,40.078
87.2345,81.7762,2.58581e-58,-3.15279e-72,10.8511,5.49518e-120,40.078
88.2345,81.7762,5.17163e-59,-3.94099e-73,10.8511,1.33774e-121,40.078
89.2345,81.7762,1.03433e-59,-4.92624e-74,10.8511,3.25659e-123,40.078
90.2345,81.7762,2.06865e-60,-6.15779e-75,10.8511,7.92783e-125,40.078
91.2345,81.7762,4.1373e-61,-7.69724e-76,10.8511,1.92995e-126,40.078
92.2345,81.7762,8.2746e-62,-9.62155e-77,10.8511,4.69825e-128,40.078
93.2345,81.7762,1.65492e-62,-1.20269e-77,10.8511,1.14374e-129,40.078
94.2345,81.7762,3.30984e-63,-1.50337e-78,10.8511,2.78431e-131,40.078
95.2345,81.7762,6.61968e-64,-1.87921e-79,10.8511,6.7781e-133,40.078
96.2345,81.7762,1.32394e-64,-2.34901e-80,10.8511,1.65006e-134,40.078
97.2345,81.7762,2.64787e-65,-2.93627e-81,10.8511,4.01689e-136,40.078
98.2345,81.7762,5.29575e-66,-3.67033e-82,10.8511,9.77869e-138,40.078
99.2345,81.7762,1.05915e-66,-4.58791e-83,10.8511,2.38052e-139,40.078
100,81.7762,2.60758e-67,-7.21579e-84,10.8511,7.51479e-141,40.078
