#Time,D,C,E,B,X,A
0,27.6902,13.7202,6.76659,11.0107,60.389,27.2559
1.76223e-5,27.6921,13.7192,6.76576,11.0397,60.36,27.2269
5.24891e-5,27.6956,13.7173,6.76411,11.0969,60.3028,27.1697
0.000106557,27.7011,13.7143,6.76155,11.1852,60.2144,27.0814
0.000388813,27.73,13.6988,6.7482,11.6399,59.7598,26.6267
0.000808965,27.7728,13.6758,6.72838,12.2966,59.1031,25.97
0.0012031,27.8129,13.6543,6.70984,12.8916,58.5081,25.375
0.00173973,27.8673,13.625,6.68469,13.6708,57.7289,24.5959
0.00306337,28.0009,13.5531,6.62304,15.4527,55.9469,22.8139
0.00440316,28.1352,13.4806,6.56121,17.0768,54.3229,21.1898
0.00584862,28.2789,13.4029,6.49516,18.6542,52.7455,19.6124
0.00740773,28.4328,13.3196,6.42466,20.1806,51.2191,18.086
0.00904398,28.5928,13.2327,6.35149,21.6146,49.7851,16.652
0.0107188,28.7552,13.1443,6.27746,22.9295,48.4701,15.3371
0.0125231,28.9285,13.0498,6.19868,24.1974,47.2023,14.0692
0.0143714,29.1043,12.9537,6.119,25.3587,46.041,12.9079
0.0163078,29.2866,12.8538,6.03661,26.447,44.9527,11.8196
0.0187846,29.5171,12.727,5.93285,27.6759,43.7238,10.5907
0.0223573,29.8442,12.5465,5.78632,29.1824,42.2173,9.08423
0.0264698,30.2131,12.3418,5.62212,30.6071,40.7926,7.65951
0.0304742,30.5647,12.1456,5.46672,31.7462,39.6535,6.52047
0.0352386,30.9732,11.9164,5.2874,32.8539,38.5458,5.4127
0.0401315,31.3822,11.6854,5.10938,33.7738,37.6259,4.4928
0.0452584,31.7995,11.4482,4.92926,34.5544,36.8453,3.71225
0.0505966,32.2222,11.2064,4.74847,35.2117,36.188,3.05495
0.0564181,32.6697,10.9484,4.55885,35.7877,35.612,2.47894
0.0624263,33.1175,10.6884,4.37109,36.2622,35.1375,2.00439
0.0689249,33.5861,10.4142,4.17671,36.6692,34.7305,1.59738
0.0757478,34.0613,10.1338,3.98192,37.0048,34.3949,1.26187
0.0829068,34.542,9.84772,3.78729,37.2792,34.1205,0.987454
0.0906558,35.0425,9.54716,3.58733,37.5079,33.8918,0.758734
0.0986602,35.5388,9.24633,3.39185,37.6877,33.712,0.57889
0.107347,36.0547,8.93056,3.19175,37.8344,33.5653,0.432214
0.116499,36.5738,8.60953,2.99368,37.9486,33.4511,0.318068
0.126132,37.0945,8.28409,2.79846,38.0361,33.3636,0.230547
0.136691,37.6364,7.94149,2.59908,38.1045,33.2952,0.162151
0.147665,38.1697,7.60045,2.40691,38.1541,33.2456,0.112554
0.1598,38.7258,7.24034,2.2109,38.1914,33.2083,0.0752046
0.172787,39.2844,6.87382,2.01877,38.2178,33.1819,0.0488652
0.186661,39.8423,6.50274,1.83193,38.2358,33.1639,0.0308383
0.202401,40.4303,6.10595,1.64081,38.2483,33.1514,0.0182969
0.219293,41.0122,5.707,1.45782,38.2562,33.1435,0.0104501
0.238319,41.6122,5.2888,1.27604,38.2611,33.1386,0.00556065
0.260159,42.2355,4.84638,1.09514,38.2639,33.1358,0.00269473
0.284128,42.8477,4.40331,0.925985,38.2654,33.1343,0.00121633
0.313615,43.5103,3.91339,0.753284,38.2662,33.1335,0.00045602
0.346971,44.156,3.42459,0.596423,38.2665,33.1332,0.000149906
0.390212,44.8557,2.88066,0.440652,38.2666,33.1331,3.43166e-5
0.436443,45.4639,2.3943,0.31882,38.2666,33.1331,7.12741e-6
0.485254,45.9808,1.96964,0.226544,38.2666,33.1331,1.28963e-6
0.537435,46.4212,1.59859,0.15722,38.2666,33.1331,2.09349e-7
0.591429,46.7812,1.28807,0.107734,38.2666,33.1331,3.04892e-8
0.650702,47.0897,1.01618,0.0711449,38.2666,33.1331,2.83289e-9
0.713853,47.3419,0.789342,0.0457234,38.2666,33.1331,2.84027e-10
0.781028,47.5451,0.60335,0.0285687,38.2666,33.1331,-4.28284e-11
0.85714,47.7153,0.444985,0.0167665,38.2666,33.1331,5.85177e-12
0.936733,47.8438,0.323649,0.0096028,38.2666,33.1331,-1.76563e-12
1.024,47.9435,0.228284,0.00521169,38.2666,33.1331,-1.22973e-14
1.11313,48.0144,0.159816,0.00279164,38.2666,33.1331,1.64093e-13
1.21071,48.0674,0.108169,0.00140923,38.2666,33.1331,-7.20097e-14
1.31346,48.1046,0.071712,0.000685988,38.2666,33.1331,2.07441e-14
1.42172,48.1302,0.0465051,0.000321182,38.2666,33.1331,-2.8268e-15
1.54333,48.1483,0.0285895,0.000136863,38.2666,33.1331,1.37543e-16
1.67099,48.1598,0.0171551,5.58735e-5,38.2666,33.1331,3.93012e-16
1.81999,48.1675,0.00945018,1.9575e-5,38.2666,33.1331,-1.55766e-16
1.98007,48.172,0.00497963,6.33711e-6,38.2666,33.1331,-7.42883e-17
2.16292,48.1746,0.00239429,1.72648e-6,38.2666,33.1331,3.01719e-17
2.37541,48.176,0.00102167,3.74067e-7,38.2666,33.1331,-6.34981e-18
2.61197,48.1766,0.000395242,6.47062e-8,38.2666,33.1331,-2.69005e-18
2.91744,48.1769,0.000114839,4.16692e-9,38.2666,33.1331,5.09651e-18
3.26675,48.177,2.7693e-5,3.11637e-10,38.2666,33.1331,2.32563e-17
3.76076,48.177,2.54879e-6,-5.53342e-10,38.2666,33.1331,-2.72622e-18
4.39464,48.177,-5.66713e-8,2.28941e-10,38.2666,33.1331,5.11118e-18
5.39464,48.177,-4.86809e-7,2.392e-11,38.2666,33.1331,-5.11072e-19
6.39464,48.177,2.31606e-7,-7.51673e-12,38.2666,33.1331,4.28386e-19
7.39464,48.177,-2.4058e-7,2.37093e-11,38.2666,33.1331,1.6466e-19
8.39464,48.177,-3.66523e-8,-3.10079e-12,38.2666,33.1331,-1.34044e-19
9.39464,48.177,4.08537e-8,-3.21673e-12,38.2666,33.1331,1.3934e-20
10.3946,48.177,-8.50869e-9,3.2356e-12,38.2666,33.1331,8.08035e-20
11.3946,48.177,-6.80804e-9,9.50538e-13,38.2666,33.1331,4.4651e-21
12.3946,48.177,-1.70213e-9,3.33264e-14,38.2666,33.1331,-9.08714e-22
13.3946,48.177,-4.49605e-14,-4.80725e-14,38.2666,33.1331,-1.1694e-22
14.3946,48.177,-8.9921e-15,-6.00906e-15,38.2666,33.1331,-3.42599e-24
15.3946,48.177,-1.79842e-15,-7.51132e-16,38.2666,33.1331,-1.00372e-25
16.3946,48.177,-3.59684e-16,-9.38916e-17,38.2666,33.1331,-2.9406e-27
17.3946,48.177,-7.19368e-17,-1.17364e-17,38.2666,33.1331,-8.6151e-29
18.3946,48.177,-1.43874e-17,-1.46706e-18,38.2666,33.1331,-2.52397e-30
19.3946,48.177,-2.87747e-18,-1.83382e-19,38.2666,33.1331,-7.39451e-32
20.3946,48.177,-5.75495e-19,-2.29227e-20,38.2666,33.1331,-2.16638e-33
21.3946,48.177,-1.15099e-19,-2.86534e-21,38.2666,33.1331,-6.34686e-35
22.3946,48.177,-2.30198e-20,-3.58168e-22,38.2666,33.1331,-1.85945e-36
23.3946,48.177,-4.60396e-21,-4.4771e-23,38.2666,33.1331,-5.44764e-38
24.3946,48.177,-9.20791e-22,-5.59637e-24,38.2666,33.1331,-1.596e-39
25.3946,48.177,-1.84158e-22,-6.99547e-25,38.2666,33.1331,-4.67582e-41
26.3946,48.177,-3.68317e-23,-8.74433e-26,38.2666,33.1331,-1.36988e-42
27.3946,48.177,-7.36633e-24,-1.09304e-26,38.2666,33.1331,-4.01335e-44
28.3946,48.177,-1.47327e-24,-1.3663e-27,38.2666,33.1331,-1.17579e-45
29.3946,48.177,-2.94653e-25,-1.70788e-28,38.2666,33.1331,-3.44474e-47
30.3946,48.177,-5.89307e-26,-2.13485e-29,38.2666,33.1331,-1.00921e-48
31.3946,48.177,-1.17861e-26,-2.66856e-30,38.2666,33.1331,-2.95669e-50
32.3946,48.177,-2.35723e-27,-3.3357e-31,38.2666,33.1331,-8.66223e-52
33.3946,48.177,-4.71445e-28,-4.16962e-32,38.2666,33.1331,-2.53778e-53
34.3946,48.177,-9.4289e-29,-5.21203e-33,38.2666,33.1331,-7.43497e-55
35.3946,48.177,-1.88578e-29,-6.51504e-34,38.2666,33.1331,-2.17823e-56
36.3946,48.177,-3.77156e-30,-8.14379e-35,38.2666,33.1331,-6.38158e-58
37.3946,48.177,-7.54312e-31,-1.01797e-35,38.2666,33.1331,-1.86962e-59
38.3946,48.177,-1.50862e-31,-1.27247e-36,38.2666,33.1331,-5.47744e-61
39.3946,48.177,-3.01725e-32,-1.59058e-37,38.2666,33.1331,-1.60473e-62
40.3946,48.177,-6.0345e-33,-1.98823e-38,38.2666,33.1331,-4.7014e-64
41.3946,48.177,-1.2069e-33,-2.48529e-39,38.2666,33.1331,-1.37737e-65
42.3946,48.177,-2.4138e-34,-3.10661e-40,38.2666,33.1331,-4.03531e-67
43.3946,48.177,-4.8276e-35,-3.88326e-41,38.2666,33.1331,-1.18223e-68
44.3946,48.177,-9.6552e-36,-4.85408e-42,38.2666,33.1331,-3.46358e-70
45.3946,48.177,-1.93104e-36,-6.0676e-43,38.2666,33.1331,-1.01473e-71
46.3946,48.177,-3.86208e-37,-7.5845e-44,38.2666,33.1331,-2.97286e-73
47.3946,48.177,-7.72416e-38,-9.48062e-45,38.2666,33.1331,-8.70963e-75
48.3946,48.177,-1.54483e-38,-1.18508e-45,38.2666,33.1331,-2.55167e-76
49.3946,48.177,-3.08966e-39,-1.48135e-46,38.2666,33.1331,-7.47565e-78
50.3946,48.177,-6.17933e-40,-1.85168e-47,38.2666,33.1331,-2.19015e-79
51.3946,48.177,-1.23587e-40,-2.31461e-48,38.2666,33.1331,-6.4165e-81
52.3946,48.177,-2.47173e-41,-2.89326e-49,38.2666,33.1331,-1.87985e-82
53.3946,48.177,-4.94346e-42,-3.61657e-50,38.2666,33.1331,-5.50741e-84
54.3946,48.177,-9.88692e-43,-4.52071e-51,38.2666,33.1331,-1.61351e-85
55.3946,48.177,-1.97738e-43,-5.65089e-52,38.2666,33.1331,-4.72712e-87
56.3946,48.177,-3.95477e-44,-7.06362e-53,38.2666,33.1331,-1.38491e-88
57.3946,48.177,-7.90954e-45,-8.82952e-54,38.2666,33.1331,-4.05738e-90
58.3946,48.177,-1.58191e-45,-1.10369e-54,38.2666,33.1331,-1.1887e-91
59.3946,48.177,-3.16382e-46,-1.37961e-55,38.2666,33.1331,-3.48253e-93
60.3946,48.177,-6.32763e-47,-1.72452e-56,38.2666,33.1331,-1.02028e-94
61.3946,48.177,-1.26553e-47,-2.15564e-57,38.2666,33.1331,-2.98913e-96
62.3946,48.177,-2.53105e-48,-2.69456e-58,38.2666,33.1331,-8.75728e-98
63.3946,48.177,-5.0621e-49,-3.36819e-59,38.2666,33.1331,-2.56563e-99
64.3946,48.177,-1.01242e-49,-4.21024e-60,38.2666,33.1331,-7.51655e-101
65.3946,48.177,-2.02484e-50,-5.2628e-61,38.2666,33.1331,-2.20213e-102
66.3946,48.177,-4.04968e-51,-6.5785e-62,38.2666,33.1331,-6.45161e-104
67.3946,48.177,-8.09937e-52,-8.22313e-63,38.2666,33.1331,-1.89013e-105
68.3946,48.177,-1.61987e-52,-1.02789e-63,38.2666,33.1331,-5.53755e-107
69.3946,48.177,-3.23975e-53,-1.28486e-64,38.2666,33.1331,-1.62234e-108
70.3946,48.177,-6.47949e-54,-1.60608e-65,38.2666,33.1331,-4.75299e-110
71.3946,48.177,-1.2959e-54,-2.0076e-66,38.2666,33.1331,-1.39249e-111
72.3946,48.177,-2.5918e-55,-2.5095e-67,38.2666,33.1331,-4.07958e-113
73.3946,48.177,-5.1836e-56,-3.13688e-68,38.2666,33.1331,-1.1952e-114
74.3946,48.177,-1.03672e-56,-3.92109e-69,38.2666,33.1331,-3.50159e-116
75.3946,48.177,-2.07344e-57,-4.90137e-70,38.2666,33.1331,-1.02586e-117
76.3946,48.177,-4.14688e-58,-6.12671e-71,38.2666,33.1331,-3.00548e-119
77.3946,48.177,-8.29375e-59,-7.65839e-72,38.2666,33.1331,-8.8052e-121
78.3946,48.177,-1.65875e-59,-9.57298e-73,38.2666,33.1331,-2.57967e-122
79.3946,48.177,-3.3175e-60,-1.19662e-73,38.2666,33.1331,-7.55768e-124
80.3946,48.177,-6.635e-61,-1.49578e-74,38.2666,33.1331,-2.21418e-125
81.3946,48.177,-1.327e-61,-1.86972e-75,38.2666,33.1331,-6.48691e-127
82.3946,48.177,-2.654e-62,-2.33715e-76,38.2666,33.1331,-1.90048e-128
83.3946,48.177,-5.308e-63,-2.92144e-77,38.2666,33.1331,-5.56784e-130
84.3946,48.177,-1.0616e-63,-3.6518e-78,38.2666,33.1331,-1.63122e-131
85.3946,48.177,-2.1232e-64,-4.56475e-79,38.2666,33.1331,-4.77899e-133
86.3946,48.177,-4.2464e-65,-5.70594e-80,38.2666,33.1331,-1.40011e-134
87.3946,48.177,-8.4928e-66,-7.13243e-81,38.2666,33.1331,-4.10191e-136
88.3946,48.177,-1.69856e-66,-8.91554e-82,38.2666,33.1331,-1.20174e-137
89.3946,48.177,-3.39712e-67,-1.11444e-82,38.2666,33.1331,-3.52075e-139
90.3946,48.177,-6.79424e-68,-1.39305e-83,38.2666,33.1331,-1.03148e-140
91.3946,48.177,-1.35885e-68,-1.74132e-84,38.2666,33.1331,-3.02193e-142
92.3946,48.177,-2.7177e-69,-2.17664e-85,38.2666,33.1331,-8.85337e-144
93.3946,48.177,-5.43539e-70,-2.72081e-86,38.2666,33.1331,-2.59378e-145
94.3946,48.177,-1.08708e-70,-3.40101e-87,38.2666,33.1331,-7.59903e-147
95.3946,48.177,-2.17416e-71,-4.25126e-88,38.2666,33.1331,-2.2263e-148
96.3946,48.177,-4.34831e-72,-5.31407e-89,38.2666,33.1331,-6.5224e-150
97.3946,48.177,-8.69663e-73,-6.64259e-90,38.2666,33.1331,-1.91087e-151
98.3946,48.177,-1.73933e-73,-8.30324e-91,38.2666,33.1331,-5.59831e-153
99.3946,48.177,-3.47865e-74,-1.03791e-91,38.2666,33.1331,-1.64014e-154
100,48.177,-1.01673e-74,-1.98168e-92,38.2666,33.1331,-7.78894e-156
