#Time,D,C,E,B,X,A
0,70.5535,5.88045,95.0622,0,0,15.056
3.1e-5,70.5749,5.87972,95.0416,0,0,15.056
0.000406,70.8328,5.87091,94.7926,0,0,15.056
0.00107496,71.2913,5.85523,94.3497,0,0,15.056
0.00506724,73.9843,5.76246,91.7495,0,0,15.056
0.0112438,78.0075,5.62184,87.8669,0,0,15.056
0.0169865,81.5975,5.49417,84.4046,0,0,15.056
0.0247262,86.2162,5.32668,79.9534,0,0,15.056
0.0441241,96.7653,4.92901,69.802,0,0,15.056
0.0625938,105.582,4.57798,61.3366,0,0,15.056
0.0820628,113.739,4.235,53.5222,0,0,15.056
0.101532,120.875,3.91771,46.7034,0,0,15.056
0.124677,128.207,3.57129,39.7179,0,0,15.056
0.161802,137.79,3.07844,30.6281,0,0,15.056
0.198928,145.224,2.65361,23.6186,0,0,15.056
0.236054,150.996,2.28741,18.2133,0,0,15.056
0.279138,156.1,1.9253,13.4713,0,0,15.056
0.330973,160.559,1.56478,9.37197,0,0,15.056
0.392389,164.175,1.22394,6.09712,0,0,15.056
0.45713,166.676,0.944701,3.8753,0,0,15.056
0.513739,168.136,0.753278,2.60744,0,0,15.056
0.58372,169.329,0.569358,1.5976,0,0,15.056
0.645959,170.019,0.443879,1.03338,0,0,15.056
0.712453,170.507,0.340215,0.64881,0,0,15.056
0.780752,170.835,0.258884,0.402244,0,0,15.056
0.850976,171.055,0.195485,0.246043,0,0,15.056
0.926058,171.206,0.144772,0.145468,0,0,15.056
1.00381,171.306,0.106076,0.0844132,0,0,15.056
1.09221,171.376,0.074482,0.0454672,0,0,15.056
1.1854,171.421,0.0513051,0.0236821,0,0,15.056
1.292,171.451,0.0334949,0.011232,0,0,15.056
1.40999,171.47,0.0208941,0.00491965,0,0,15.056
1.5445,171.482,0.0122002,0.0019211,0,0,15.056
1.70682,171.489,0.00637423,0.000619559,0,0,15.056
1.87311,171.493,0.00327785,0.000193198,0,0,15.056
2.11189,171.495,0.00126329,3.9339e-5,0,0,15.056
2.32942,171.496,0.000528594,7.39922e-6,0,0,15.056
2.60783,171.496,0.000174601,1.68628e-6,0,0,15.056
2.98405,171.496,4.02605e-5,5.24215e-7,0,0,15.056
3.41168,171.496,8.03129e-6,-2.46147e-7,0,0,15.056
4.08361,171.496,2.17566e-6,5.03015e-7,0,0,15.056
4.80629,171.496,-6.32977e-7,-7.74566e-8,0,0,15.056
5.76881,171.496,3.87612e-7,-4.67487e-8,0,0,15.056
6.76881,171.496,-5.74148e-8,2.26582e-8,0,0,15.056
7.76881,171.496,4.46758e-7,1.94374e-7,0,0,15.056
8.76881,171.496,-3.82992e-7,-1.4242e-7,0,0,15.056
9.76881,171.496,4.38134e-7,2.01241e-7,0,0,15.056
10.7688,171.496,-4.51844e-7,-1.58208e-7,0,0,15.056
11.7688,171.496,2.37241e-7,9.30631e-8,0,0,15.056
12.7688,171.496,-7.41375e-8,-1.13485e-7,0,0,15.056
13.7688,171.496,-2.48714e-8,-1.20241e-8,0,0,15.056
14.7688,171.496,1.1006e-8,1.6677e-8,0,0,15.056
15.7688,171.496,6.26323e-9,4.63131e-9,0,0,15.056
16.7688,171.496,1.25265e-9,5.78913e-10,0,0,15.056
17.7688,171.496,2.50529e-10,7.23642e-11,0,0,15.056
18.7688,171.496,5.01058e-11,9.04552e-12,0,0,15.056
19.7688,171.496,1.00212e-11,1.13069e-12,0,0,15.056
20.7688,171.496,2.00423e-12,1.41336e-13,0,0,15.056
21.7688,171.496,4.00846e-13,1.7667e-14,0,0,15.056
22.7688,171.496,8.01693e-14,2.20838e-15,0,0,15.056
23.7688,171.496,1.60339e-14,2.76047e-16,0,0,15.056
24.7688,171.496,3.20677e-15,3.45059e-17,0,0,15.056
25.7688,171.496,6.41354e-16,4.31324e-18,0,0,15.056
26.7688,171.496,1.28271e-16,5.39155e-19,0,0,15.056
27.7688,171.496,2.56542e-17,6.73944e-20,0,0,15.056
28.7688,171.496,5.13083e-18,8.4243e-21,0,0,15.056
29.7688,171.496,1.02617e-18,1.05304e-21,0,0,15.056
30.7688,171.496,2.05233e-19,1.3163e-22,0,0,15.056
31.7688,171.496,4.10467e-20,1.64537e-23,0,0,15.056
32.7688,171.496,8.20934e-21,2.05671e-24,0,0,15.056
33.7688,171.496,1.64187e-21,2.57089e-25,0,0,15.056
34.7688,171.496,3.28373e-22,3.21362e-26,0,0,15.056
35.7688,171.496,6.56747e-23,4.01702e-27,0,0,15.056
36.7688,171.496,1.31349e-23,5.02127e-28,0,0,15.056
37.7688,171.496,2.62699e-24,6.27659e-29,0,0,15.056
38.7688,171.496,5.25397e-25,7.84574e-30,0,0,15.056
39.7688,171.496,1.05079e-25,9.80718e-31,0,0,15.056
40.7688,171.496,2.10159e-26,1.2259e-31,0,0,15.056
41.7688,171.496,4.20318e-27,1.53237e-32,0,0,15.056
42.7688,171.496,8.40636e-28,1.91546e-33,0,0,15.056
43.7688,171.496,1.68127e-28,2.39433e-34,0,0,15.056
44.7688,171.496,3.36254e-29,2.99291e-35,0,0,15.056
45.7688,171.496,6.72509e-30,3.74114e-36,0,0,15.056
46.7688,171.496,1.34502e-30,4.67643e-37,0,0,15.056
47.7688,171.496,2.69003e-31,5.84553e-38,0,0,15.056
48.7688,171.496,5.38007e-32,7.30692e-39,0,0,15.056
49.7688,171.496,1.07601e-32,9.13364e-40,0,0,15.056
50.7688,171.496,2.15203e-33,1.14171e-40,0,0,15.056
51.7688,171.496,4.30406e-34,1.42713e-41,0,0,15.056
52.7688,171.496,8.60811e-35,1.78391e-42,0,0,15.056
53.7688,171.496,1.72162e-35,2.22989e-43,0,0,15.056
54.7688,171.496,3.44324e-36,2.78737e-44,0,0,15.056
55.7688,171.496,6.88649e-37,3.48421e-45,0,0,15.056
56.7688,171.496,1.3773e-37,4.35526e-46,0,0,15.056
57.7688,171.496,2.7546e-38,5.44408e-47,0,0,15.056
58.7688,171.496,5.50919e-39,6.8051e-48,0,0,15.056
59.7688,171.496,1.10184e-39,8.50637e-49,0,0,15.056
60.7688,171.496,2.20368e-40,1.0633e-49,0,0,15.056
61.7688,171.496,4.40735e-41,1.32912e-50,0,0,15.056
62.7688,171.496,8.81471e-42,1.6614e-51,0,0,15.056
63.7688,171.496,1.76294e-42,2.07675e-52,0,0,15.056
64.7688,171.496,3.52588e-43,2.59594e-53,0,0,15.056
65.7688,171.496,7.05177e-44,3.24492e-54,0,0,15.056
66.7688,171.496,1.41035e-44,4.05615e-55,0,0,15.056
67.7688,171.496,2.82071e-45,5.07019e-56,0,0,15.056
68.7688,171.496,5.64141e-46,6.33774e-57,0,0,15.056
69.7688,171.496,1.12828e-46,7.92217e-58,0,0,15.056
70.7688,171.496,2.25656e-47,9.90272e-59,0,0,15.056
71.7688,171.496,4.51313e-48,1.23784e-59,0,0,15.056
72.7688,171.496,9.02626e-49,1.5473e-60,0,0,15.056
73.7688,171.496,1.80525e-49,1.93412e-61,0,0,15.056
74.7688,171.496,3.6105e-50,2.41766e-62,0,0,15.056
75.7688,171.496,7.22101e-51,3.02207e-63,0,0,15.056
76.7688,171.496,1.4442e-51,3.77759e-64,0,0,15.056
77.7688,171.496,2.8884e-52,4.72198e-65,0,0,15.056
78.7688,171.496,5.77681e-53,5.90248e-66,0,0,15.056
79.7688,171.496,1.15536e-53,7.3781e-67,0,0,15.056
80.7688,171.496,2.31072e-54,9.22262e-68,0,0,15.056
81.7688,171.496,4.62144e-55,1.15283e-68,0,0,15.056
82.7688,171.496,9.24289e-56,1.44103e-69,0,0,15.056
83.7688,171.496,1.84858e-56,1.80129e-70,0,0,15.056
84.7688,171.496,3.69716e-57,2.25162e-71,0,0,15.056
85.7688,171.496,7.39431e-58,2.81452e-72,0,0,15.056
86.7688,171.496,1.47886e-58,3.51815e-73,0,0,15.056
87.7688,171.496,2.95772e-59,4.39769e-74,0,0,15.056
88.7688,171.496,5.91545e-60,5.49711e-75,0,0,15.056
89.7688,171.496,1.18309e-60,6.87139e-76,0,0,15.056
90.7688,171.496,2.36618e-61,8.58924e-77,0,0,15.056
91.7688,171.496,4.73236e-62,1.07365e-77,0,0,15.056
92.7688,171.496,9.46472e-63,1.34207e-78,0,0,15.056
93.7688,171.496,1.89294e-63,1.67759e-79,0,0,15.056
94.7688,171.496,3.78589e-64,2.09698e-80,0,0,15.056
95.7688,171.496,7.57178e-65,2.62123e-81,0,0,15.056
96.7688,171.496,1.51436e-65,3.27653e-82,0,0,15.056
97.7688,171.496,3.02871e-66,4.09567e-83,0,0,15.056
98.7688,171.496,6.05742e-67,5.11958e-84,0,0,15.056
99.7688,171.496,1.21148e-67,6.39948e-85,0,0,15.056
100,171.496,6.29422e-68,2.44411e-85,0,0,15.056
