#Time,D,C,E,B,X,A
0,4.43941,13.5236,0,0,31.543,3.09056
2.79136e-5,4.44092,13.5221,0,0.00271901,31.5403,3.08784
9.36545e-5,4.44448,13.5186,0,0.00911192,31.5339,3.08145
0.000195578,4.44999,13.5131,0,0.0189978,31.524,3.07157
0.000736799,4.47921,13.4839,0,0.0709167,31.4721,3.01965
0.00168275,4.53013,13.4329,0,0.15937,31.3837,2.93119
0.00371209,4.63873,13.3243,0,0.33972,31.2033,2.75084
0.00658565,4.79101,13.1721,0,0.574771,30.9683,2.51579
0.00996701,4.96797,12.9951,0,0.823911,30.7191,2.26665
0.0134447,5.14749,12.8156,0,1.05274,30.4903,2.03782
0.0172484,5.341,12.6221,0,1.2751,30.2679,1.81546
0.0213316,5.54548,12.4176,0,1.48546,30.0576,1.60511
0.0257158,5.76134,12.2017,0,1.683,29.86,1.40757
0.0300999,5.97345,11.9896,0,1.85523,29.6878,1.23533
0.035638,6.23613,11.7269,0,2.04196,29.5011,1.0486
0.0448453,6.66017,11.3029,0,2.29043,29.2526,0.800133
0.0544222,7.08497,10.8781,0,2.48534,29.0577,0.605224
0.0651764,7.54299,10.4201,0,2.64737,28.8957,0.443194
0.0759306,7.98172,9.98134,0,2.76554,28.7775,0.325029
0.087153,8.41987,9.54319,0,2.85512,28.6879,0.235446
0.099001,8.86159,9.10147,0,2.9229,28.6201,0.167669
0.112085,9.32568,8.63738,0,2.97523,28.5678,0.115337
0.125906,9.79021,8.17285,0,3.01283,28.5302,0.0777333
0.140982,10.2685,7.69456,0,3.04,28.503,0.0505685
0.157563,10.7623,7.20077,0,3.05904,28.484,0.0315255
0.175242,11.2539,6.70914,0,3.07151,28.4715,0.0190532
0.195424,11.7743,6.18881,0,3.07984,28.4632,0.010724
0.21727,12.2921,5.67098,0,3.08481,28.4582,0.0057572
0.242159,12.8295,5.13358,0,3.08773,28.4553,0.00283339
0.27111,13.3908,4.57223,0,3.08932,28.4537,0.00124144
0.303231,13.9421,4.02095,0,3.09007,28.453,0.000496311
0.343912,14.546,3.41709,0,3.09041,28.4526,0.000154321
0.390819,15.1306,2.83251,0,3.09052,28.4525,3.98127e-5
0.455268,15.7742,2.18882,0,3.09056,28.4525,5.41276e-6
0.523641,16.298,1.66507,0,3.09056,28.4525,7.28737e-7
0.595064,16.7118,1.25128,0,3.09056,28.4525,7.60933e-8
0.667306,17.0258,0.93725,0,3.09056,28.4525,5.6433e-9
0.741186,17.2656,0.697445,0,3.09056,28.4525,8.31188e-10
0.817605,17.4493,0.513751,0,3.09056,28.4525,-3.04519e-10
0.896746,17.5887,0.374341,0,3.09056,28.4525,6.75553e-11
0.981345,17.6962,0.266869,0,3.09056,28.4525,-2.80826e-11
1.06839,17.7747,0.188396,0,3.09056,28.4525,4.45759e-12
1.16261,17.8338,0.12924,0,3.09056,28.4525,-8.70824e-13
1.26211,17.8763,0.0868026,0,3.09056,28.4525,-3.31688e-14
1.36706,17.906,0.0570419,0,3.09056,28.4525,5.40435e-14
1.48405,17.9273,0.035722,0,3.09056,28.4525,-3.18268e-14
1.60662,17.9412,0.0218762,0,3.09056,28.4525,1.02598e-14
1.74567,17.9505,0.0125407,0,3.09056,28.4525,-1.26296e-15
1.89982,17.9563,0.0067674,0,3.09056,28.4525,-8.63512e-16
2.06763,17.9596,0.00345691,0,3.09056,28.4525,4.5101e-16
2.26722,17.9615,0.00155382,0,3.09056,28.4525,-1.82892e-16
2.48934,17.9624,0.000637659,0,3.09056,28.4525,-5.58573e-17
2.75644,17.9628,0.000217493,0,3.09056,28.4525,2.83282e-17
3.08961,17.963,5.6164e-5,0,3.09056,28.4525,8.81991e-17
3.48973,17.9631,1.05814e-5,0,3.09056,28.4525,-1.32898e-16
4.08567,17.9631,-3.96811e-7,0,3.09056,28.4525,1.11567e-16
4.81956,17.9631,-1.69761e-7,0,3.09056,28.4525,4.2598e-17
5.81956,17.9631,-9.43226e-8,0,3.09056,28.4525,-2.42683e-18
6.81956,17.9631,8.66637e-7,0,3.09056,28.4525,-4.19501e-18
7.81956,17.9631,-4.85035e-7,0,3.09056,28.4525,8.44648e-17
8.81956,17.9631,1.16492e-7,0,3.09056,28.4525,-6.29833e-17
9.81956,17.9631,-2.16188e-7,0,3.09056,28.4525,-3.55691e-16
10.8196,17.9631,-1.84892e-7,0,3.09056,28.4525,-1.27838e-16
11.8196,17.9631,-3.28395e-8,0,3.09056,28.4525,4.26037e-18
12.8196,17.9631,1.83012e-8,0,3.09056,28.4525,2.83876e-18
13.8196,17.9631,7.29123e-9,0,3.09056,28.4525,-1.33683e-18
14.8196,17.9631,-2.83279e-9,0,3.09056,28.4525,-2.26129e-19
15.8196,17.9631,-2.28597e-9,0,3.09056,28.4525,7.50551e-20
16.8196,17.9631,-3.05676e-11,0,3.09056,28.4525,3.92097e-21
17.8196,17.9631,4.10226e-10,0,3.09056,28.4525,-5.81777e-21
18.8196,17.9631,8.8207e-11,0,3.09056,28.4525,5.55904e-23
19.8196,17.9631,-6.18699e-11,0,3.09056,28.4525,3.36805e-22
20.8196,17.9631,-3.10591e-11,0,3.09056,28.4525,-3.34225e-23
21.8196,17.9631,4.97655e-12,0,3.09056,28.4525,-1.93802e-23
22.8196,17.9631,7.01057e-12,0,3.09056,28.4525,3.44259e-24
23.8196,17.9631,5.50947e-13,0,3.09056,28.4525,9.33019e-25
24.8196,17.9631,-1.235e-12,0,3.09056,28.4525,-2.91387e-25
25.8196,17.9631,-4.99177e-13,0,3.09056,28.4525,-3.50316e-26
26.8196,17.9631,-6.92462e-14,0,3.09056,28.4525,2.52501e-27
27.8196,17.9631,2.01993e-14,0,3.09056,28.4525,7.53388e-28
28.8196,17.9631,1.36403e-14,0,3.09056,28.4525,8.15527e-30
29.8196,17.9631,2.72806e-15,0,3.09056,28.4525,2.76896e-31
30.8196,17.9631,5.45612e-16,0,3.09056,28.4525,9.40145e-33
31.8196,17.9631,1.09122e-16,0,3.09056,28.4525,3.19207e-34
32.8196,17.9631,2.18245e-17,0,3.09056,28.4525,1.0838e-35
33.8196,17.9631,4.3649e-18,0,3.09056,28.4525,3.67984e-37
34.8196,17.9631,8.7298e-19,0,3.09056,28.4525,1.24942e-38
35.8196,17.9631,1.74596e-19,0,3.09056,28.4525,4.24215e-40
36.8196,17.9631,3.49192e-20,0,3.09056,28.4525,1.44034e-41
37.8196,17.9631,6.98384e-21,0,3.09056,28.4525,4.89037e-43
38.8196,17.9631,1.39677e-21,0,3.09056,28.4525,1.66043e-44
39.8196,17.9631,2.79354e-22,0,3.09056,28.4525,5.63765e-46
40.8196,17.9631,5.58707e-23,0,3.09056,28.4525,1.91415e-47
41.8196,17.9631,1.11741e-23,0,3.09056,28.4525,6.49912e-49
42.8196,17.9631,2.23483e-24,0,3.09056,28.4525,2.20665e-50
43.8196,17.9631,4.46966e-25,0,3.09056,28.4525,7.49223e-52
44.8196,17.9631,8.93931e-26,0,3.09056,28.4525,2.54384e-53
45.8196,17.9631,1.78786e-26,0,3.09056,28.4525,8.63709e-55
46.8196,17.9631,3.57573e-27,0,3.09056,28.4525,2.93255e-56
47.8196,17.9631,7.15145e-28,0,3.09056,28.4525,9.9569e-58
48.8196,17.9631,1.43029e-28,0,3.09056,28.4525,3.38067e-59
49.8196,17.9631,2.86058e-29,0,3.09056,28.4525,1.14784e-60
50.8196,17.9631,5.72116e-30,0,3.09056,28.4525,3.89725e-62
51.8196,17.9631,1.14423e-30,0,3.09056,28.4525,1.32323e-63
52.8196,17.9631,2.28846e-31,0,3.09056,28.4525,4.49278e-65
53.8196,17.9631,4.57693e-32,0,3.09056,28.4525,1.52543e-66
54.8196,17.9631,9.15386e-33,0,3.09056,28.4525,5.1793e-68
55.8196,17.9631,1.83077e-33,0,3.09056,28.4525,1.75853e-69
56.8196,17.9631,3.66154e-34,0,3.09056,28.4525,5.97073e-71
57.8196,17.9631,7.32308e-35,0,3.09056,28.4525,2.02724e-72
58.8196,17.9631,1.46462e-35,0,3.09056,28.4525,6.8831e-74
59.8196,17.9631,2.92923e-36,0,3.09056,28.4525,2.33702e-75
60.8196,17.9631,5.85847e-37,0,3.09056,28.4525,7.93488e-77
61.8196,17.9631,1.17169e-37,0,3.09056,28.4525,2.69413e-78
62.8196,17.9631,2.34339e-38,0,3.09056,28.4525,9.14738e-80
63.8196,17.9631,4.68677e-39,0,3.09056,28.4525,3.10581e-81
64.8196,17.9631,9.37355e-40,0,3.09056,28.4525,1.05452e-82
65.8196,17.9631,1.87471e-40,0,3.09056,28.4525,3.5804e-84
66.8196,17.9631,3.74942e-41,0,3.09056,28.4525,1.21565e-85
67.8196,17.9631,7.49884e-42,0,3.09056,28.4525,4.12751e-87
68.8196,17.9631,1.49977e-42,0,3.09056,28.4525,1.40141e-88
69.8196,17.9631,2.99954e-43,0,3.09056,28.4525,4.75822e-90
70.8196,17.9631,5.99907e-44,0,3.09056,28.4525,1.61556e-91
71.8196,17.9631,1.19981e-44,0,3.09056,28.4525,5.4853e-93
72.8196,17.9631,2.39963e-45,0,3.09056,28.4525,1.86242e-94
73.8196,17.9631,4.79926e-46,0,3.09056,28.4525,6.32349e-96
74.8196,17.9631,9.59851e-47,0,3.09056,28.4525,2.14702e-97
75.8196,17.9631,1.9197e-47,0,3.09056,28.4525,7.28976e-99
76.8196,17.9631,3.83941e-48,0,3.09056,28.4525,2.47509e-100
77.8196,17.9631,7.67881e-49,0,3.09056,28.4525,8.40368e-102
78.8196,17.9631,1.53576e-49,0,3.09056,28.4525,2.8533e-103
79.8196,17.9631,3.07152e-50,0,3.09056,28.4525,9.68782e-105
80.8196,17.9631,6.14305e-51,0,3.09056,28.4525,3.28931e-106
81.8196,17.9631,1.22861e-51,0,3.09056,28.4525,1.11682e-107
82.8196,17.9631,2.45722e-52,0,3.09056,28.4525,3.79193e-109
83.8196,17.9631,4.91444e-53,0,3.09056,28.4525,1.28747e-110
84.8196,17.9631,9.82888e-54,0,3.09056,28.4525,4.37136e-112
85.8196,17.9631,1.96578e-54,0,3.09056,28.4525,1.48421e-113
86.8196,17.9631,3.93155e-55,0,3.09056,28.4525,5.03934e-115
87.8196,17.9631,7.8631e-56,0,3.09056,28.4525,1.71101e-116
88.8196,17.9631,1.57262e-56,0,3.09056,28.4525,5.80938e-118
89.8196,17.9631,3.14524e-57,0,3.09056,28.4525,1.97246e-119
90.8196,17.9631,6.29048e-58,0,3.09056,28.4525,6.69709e-121
91.8196,17.9631,1.2581e-58,0,3.09056,28.4525,2.27386e-122
92.8196,17.9631,2.51619e-59,0,3.09056,28.4525,7.72045e-124
93.8196,17.9631,5.03239e-60,0,3.09056,28.4525,2.62132e-125
94.8196,17.9631,1.00648e-60,0,3.09056,28.4525,8.90018e-127
95.8196,17.9631,2.01295e-61,0,3.09056,28.4525,3.02188e-128
96.8196,17.9631,4.02591e-62,0,3.09056,28.4525,1.02602e-129
97.8196,17.9631,8.05182e-63,0,3.09056,28.4525,3.48364e-131
98.8196,17.9631,1.61036e-63,0,3.09056,28.4525,1.1828e-132
99.8196,17.9631,3.22073e-64,0,3.09056,28.4525,4.01596e-134
100,17.9631,1.87058e-64,0,3.09056,28.4525,6.54698e-135
