#Time,D,C,E,B,X,A
0,62.6577,180.984,0,0,0,0
3.1e-5,62.6801,180.961,0,0,0,0
0.00053388,63.0436,180.598,0,0,0,0
0.0011007,63.4525,180.189,0,0,0,0
0.00198006,64.0851,179.556,0,0,0,0
0.00654025,67.3307,176.311,0,0,0,0
0.0152695,73.381,170.26,0,0,0,0
0.0239988,79.2236,164.418,0,0,0,0
0.0351132,86.3732,157.268,0,0,0,0
0.0651683,104.187,139.454,0,0,0,0
0.0964927,120.61,123.031,0,0,0,0
0.130909,136.432,107.209,0,0,0,0
0.165325,150.22,93.4213,0,0,0,0
0.205831,164.194,79.4473,0,0,0,0
0.269842,182.141,61.5006,0,0,0,0
0.334622,196.18,47.4617,0,0,0,0
0.400941,207.239,36.4026,0,0,0,0
0.476458,216.729,26.9121,0,0,0,0
0.573575,225.392,18.249,0,0,0,0
0.672315,231.347,12.2946,0,0,0,0
0.774297,235.465,8.17622,0,0,0,0
0.87628,238.204,5.43741,0,0,0,0
0.978263,240.025,3.61603,0,0,0,0
1.08025,241.237,2.40476,0,0,0,0
1.18399,242.053,1.58801,0,0,0,0
1.28954,242.6,1.04112,0,0,0,0
1.40008,242.972,0.669059,0,0,0,0
1.51307,243.216,0.425785,0,0,0,0
1.63545,243.38,0.260971,0,0,0,0
1.76264,243.484,0.156914,0,0,0,0
1.90102,243.551,0.0902163,0,0,0,0
2.05021,243.592,0.0496746,0,0,0,0
2.21105,243.615,0.0261072,0,0,0,0
2.3968,243.629,0.0124217,0,0,0,0
2.59426,243.636,0.00564026,0,0,0,0
2.83542,243.639,0.00215244,0,0,0,0
3.09147,243.641,0.000774134,0,0,0,0
3.41355,243.641,0.000215797,0,0,0,0
3.82099,243.641,4.38811e-5,0,0,0,0
4.26236,243.641,7.98277e-6,0,0,0,0
4.95415,243.641,1.51621e-7,0,0,0,0
5.95415,243.641,3.40335e-7,0,0,0,0
6.95415,243.641,2.2312e-7,0,0,0,0
7.95415,243.641,-4.26821e-7,0,0,0,0
8.95415,243.641,1.78592e-7,0,0,0,0
9.95415,243.641,-2.06961e-7,0,0,0,0
10.9542,243.641,5.23519e-7,0,0,0,0
11.9542,243.641,1.46058e-8,0,0,0,0
12.9542,243.641,-1.5233e-8,0,0,0,0
13.9542,243.641,5.5833e-8,0,0,0,0
14.9542,243.641,4.17809e-8,0,0,0,0
15.9542,243.641,6.2598e-9,0,0,0,0
16.9542,243.641,-4.33387e-9,0,0,0,0
17.9542,243.641,-1.45103e-9,0,0,0,0
18.9542,243.641,7.25882e-10,0,0,0,0
19.9542,243.641,4.98783e-10,0,0,0,0
20.9542,243.641,-1.30543e-11,0,0,0,0
21.9542,243.641,-9.34933e-11,0,0,0,0
22.9542,243.641,-1.62235e-11,0,0,0,0
23.9542,243.641,1.49516e-11,0,0,0,0
24.9542,243.641,6.91183e-12,0,0,0,0
25.9542,243.641,1.15415e-12,0,0,0,0
26.9542,243.641,-2.08657e-13,0,0,0,0
27.9542,243.641,-1.80798e-13,0,0,0,0
28.9542,243.641,-3.61596e-14,0,0,0,0
29.9542,243.641,-7.23192e-15,0,0,0,0
30.9542,243.641,-1.44638e-15,0,0,0,0
31.9542,243.641,-2.89277e-16,0,0,0,0
32.9542,243.641,-5.78553e-17,0,0,0,0
33.9542,243.641,-1.15711e-17,0,0,0,0
34.9542,243.641,-2.31421e-18,0,0,0,0
35.9542,243.641,-4.62843e-19,0,0,0,0
36.9542,243.641,-9.25685e-20,0,0,0,0
37.9542,243.641,-1.85137e-20,0,0,0,0
38.9542,243.641,-3.70274e-21,0,0,0,0
39.9542,243.641,-7.40548e-22,0,0,0,0
40.9542,243.641,-1.4811e-22,0,0,0,0
41.9542,243.641,-2.96219e-23,0,0,0,0
42.9542,243.641,-5.92439e-24,0,0,0,0
43.9542,243.641,-1.18488e-24,0,0,0,0
44.9542,243.641,-2.36975e-25,0,0,0,0
45.9542,243.641,-4.73951e-26,0,0,0,0
46.9542,243.641,-9.47902e-27,0,0,0,0
47.9542,243.641,-1.8958e-27,0,0,0,0
48.9542,243.641,-3.79161e-28,0,0,0,0
49.9542,243.641,-7.58321e-29,0,0,0,0
50.9542,243.641,-1.51664e-29,0,0,0,0
51.9542,243.641,-3.03329e-30,0,0,0,0
52.9542,243.641,-6.06657e-31,0,0,0,0
53.9542,243.641,-1.21331e-31,0,0,0,0
54.9542,243.641,-2.42663e-32,0,0,0,0
55.9542,243.641,-4.85326e-33,0,0,0,0
56.9542,243.641,-9.70651e-34,0,0,0,0
57.9542,243.641,-1.9413e-34,0,0,0,0
58.9542,243.641,-3.88261e-35,0,0,0,0
59.9542,243.641,-7.76521e-36,0,0,0,0
60.9542,243.641,-1.55304e-36,0,0,0,0
61.9542,243.641,-3.10608e-37,0,0,0,0
62.9542,243.641,-6.21217e-38,0,0,0,0
63.9542,243.641,-1.24243e-38,0,0,0,0
64.9542,243.641,-2.48487e-39,0,0,0,0
65.9542,243.641,-4.96974e-40,0,0,0,0
66.9542,243.641,-9.93947e-41,0,0,0,0
67.9542,243.641,-1.98789e-41,0,0,0,0
68.9542,243.641,-3.97579e-42,0,0,0,0
69.9542,243.641,-7.95158e-43,0,0,0,0
70.9542,243.641,-1.59032e-43,0,0,0,0
71.9542,243.641,-3.18063e-44,0,0,0,0
72.9542,243.641,-6.36126e-45,0,0,0,0
73.9542,243.641,-1.27225e-45,0,0,0,0
74.9542,243.641,-2.5445e-46,0,0,0,0
75.9542,243.641,-5.08901e-47,0,0,0,0
76.9542,243.641,-1.0178e-47,0,0,0,0
77.9542,243.641,-2.0356e-48,0,0,0,0
78.9542,243.641,-4.07121e-49,0,0,0,0
79.9542,243.641,-8.14241e-50,0,0,0,0
80.9542,243.641,-1.62848e-50,0,0,0,0
81.9542,243.641,-3.25697e-51,0,0,0,0
82.9542,243.641,-6.51393e-52,0,0,0,0
83.9542,243.641,-1.30279e-52,0,0,0,0
84.9542,243.641,-2.60557e-53,0,0,0,0
85.9542,243.641,-5.21115e-54,0,0,0,0
86.9542,243.641,-1.04223e-54,0,0,0,0
87.9542,243.641,-2.08446e-55,0,0,0,0
88.9542,243.641,-4.16892e-56,0,0,0,0
89.9542,243.641,-8.33783e-57,0,0,0,0
90.9542,243.641,-1.66757e-57,0,0,0,0
91.9542,243.641,-3.33513e-58,0,0,0,0
92.9542,243.641,-6.67027e-59,0,0,0,0
93.9542,243.641,-1.33405e-59,0,0,0,0
94.9542,243.641,-2.66811e-60,0,0,0,0
95.9542,243.641,-5.33621e-61,0,0,0,0
96.9542,243.641,-1.06724e-61,0,0,0,0
97.9542,243.641,-2.13449e-62,0,0,0,0
98.9542,243.641,-4.26897e-63,0,0,0,0
99.9542,243.641,-8.53794e-64,0,0,0,0
100,243.641,-7.21484e-64,0,0,0,0
