#Time,D,C,E,B,X,A
0,0,114.694,0,0,5.58337,98.9977
1.1e-5,0.00504637,114.689,0,0.00607518,5.57729,98.9917
2.6e-5,0.0119274,114.682,0,0.0143481,5.56902,98.9834
5.01511e-5,0.0230056,114.671,0,0.0276438,5.55573,98.9701
0.000175227,0.0803614,114.613,0,0.0959695,5.4874,98.9018
0.00044625,0.204546,114.489,0,0.241002,5.34237,98.7567
0.000717273,0.328596,114.365,0,0.382001,5.20137,98.6157
0.00106348,0.48686,114.207,0,0.556432,5.02694,98.4413
0.00202232,0.924048,113.77,0,1.0082,4.57516,97.9895
0.00302806,1.38082,113.313,0,1.43667,4.14669,97.5611
0.00414137,1.88431,112.809,0,1.86257,3.7208,97.1352
0.00532057,2.41515,112.279,0,2.26444,3.31893,96.7333
0.00659155,2.98452,111.709,0,2.64767,2.9357,96.3501
0.00795347,3.59142,111.102,0,3.00803,2.57534,95.9897
0.00934615,4.20862,110.485,0,3.32976,2.25361,95.668
0.0107994,4.84902,109.845,0,3.62185,1.96152,95.3759
0.0133423,5.96066,108.733,0,4.04344,1.53993,94.9543
0.0159863,7.10454,107.589,0,4.38477,1.19859,94.613
0.0192185,8.48658,106.207,0,4.70011,0.883264,94.2976
0.0224506,9.85086,104.843,0,4.93191,0.651464,94.0658
0.0256828,11.1976,103.496,0,5.10256,0.480807,93.8952
0.0290439,12.5797,102.114,0,5.23261,0.350759,93.7651
0.0325319,13.9946,100.699,0,5.33042,0.252954,93.6673
0.0363264,15.5114,99.1824,0,5.40605,0.177314,93.5917
0.0402514,17.0564,97.6374,0,5.46056,0.122813,93.5372
0.0445453,18.7191,95.9747,0,5.50117,0.0821945,93.4966
0.0491255,20.4614,94.2324,0,5.5298,0.0535641,93.4679
0.0540012,22.2814,92.4124,0,5.54941,0.0339586,93.4483
0.0595057,24.2939,90.3999,0,5.56307,0.0203012,93.4347
0.0654016,26.4009,88.2929,0,5.57167,0.0117008,93.4261
0.0720183,28.7071,85.9867,0,5.57707,0.00630393,93.4207
0.0795871,31.2713,83.4225,0,5.58026,0.00310641,93.4175
0.0878752,33.9917,80.7021,0,5.58194,0.0014306,93.4158
0.0980127,37.1987,77.4951,0,5.58282,0.000553084,93.4149
0.109464,40.6683,74.0255,0,5.58318,0.000188665,93.4145
0.124132,44.8867,69.8071,0,5.58332,4.662e-5,93.4144
0.142571,49.8499,64.8439,0,5.58336,7.60362e-6,93.4144
0.166813,55.8426,58.8512,0,5.58337,-1.33405e-8,93.4144
0.2104,65.2586,49.4352,0,5.58337,-6.62101e-7,93.4144
0.268102,75.4476,39.2462,0,5.58337,4.94512e-8,93.4144
0.334913,84.6515,30.0423,0,5.58337,-4.96838e-8,93.4144
0.403476,91.8575,22.8363,0,5.58337,6.96903e-9,93.4144
0.472038,97.3351,17.3587,0,5.58337,1.58515e-9,93.4144
0.540601,101.499,13.1951,0,5.58337,-7.74793e-10,93.4144
0.634284,105.623,9.0713,0,5.58337,1.77224e-10,93.4144
0.731338,108.541,6.15277,0,5.58337,4.188e-10,93.4144
0.836798,110.659,4.03525,0,5.58337,1.29673e-10,93.4144
0.942259,112.047,2.64649,0,5.58337,-6.40599e-11,93.4144
1.04772,112.958,1.73568,0,5.58337,-5.43696e-11,93.4144
1.15318,113.555,1.13833,0,5.58337,1.89636e-13,93.4144
1.26224,113.958,0.73589,0,5.58337,1.58907e-11,93.4144
1.37419,114.224,0.470252,0,5.58337,3.0301e-12,93.4144
1.49427,114.403,0.2909,0,5.58337,-2.51762e-12,93.4144
1.61861,114.517,0.176912,0,5.58337,-1.43203e-12,93.4144
1.7547,114.591,0.10265,0,5.58337,-1.41667e-13,93.4144
1.90042,114.636,0.0573101,0,5.58337,6.35714e-13,93.4144
2.0608,114.664,0.0301752,0,5.58337,2.31766e-12,93.4144
2.23967,114.679,0.014757,0,5.58337,4.80765e-12,93.4144
2.43319,114.687,0.00680683,0,5.58337,-1.58849e-12,93.4144
2.66522,114.691,0.00269342,0,5.58337,-2.62297e-12,93.4144
2.91266,114.693,0.00100258,0,5.58337,4.78032e-12,93.4144
3.22545,114.694,0.000289806,0,5.58337,1.74383e-11,93.4144
3.5636,114.694,7.48577e-5,0,5.58337,-2.67785e-12,93.4144
3.99771,114.694,1.44076e-5,0,5.58337,4.58965e-13,93.4144
4.5387,114.694,2.00983e-6,0,5.58337,1.43214e-11,93.4144
5.24953,114.694,3.91875e-7,0,5.58337,4.36799e-11,93.4144
6.09499,114.694,3.23056e-8,0,5.58337,3.0899e-12,93.4144
7.09499,114.694,6.01383e-7,0,5.58337,-1.22953e-11,93.4144
8.02083,114.694,-4.31594e-7,0,5.58337,1.14107e-11,93.4144
9.02083,114.694,8.90136e-8,0,5.58337,-4.64794e-11,93.4144
10.0208,114.694,-1.70968e-7,0,5.58337,-2.87659e-11,93.4144
11.0208,114.694,4.05763e-7,0,5.58337,1.07031e-10,93.4144
12.0208,114.694,-1.0602e-7,0,5.58337,-7.67813e-11,93.4144
13.0208,114.694,2.62047e-7,0,5.58337,-3.09356e-10,93.4144
14.0208,114.694,2.17358e-7,0,5.58337,-1.08185e-10,93.4144
15.0208,114.694,3.83425e-8,0,5.58337,1.19569e-12,93.4144
16.0208,114.694,-2.1199e-8,0,5.58337,6.58759e-13,93.4144
17.0208,114.694,-8.34138e-9,0,5.58337,-3.76689e-13,93.4144
18.0208,114.694,3.35232e-9,0,5.58337,-1.80544e-14,93.4144
19.0208,114.694,2.65761e-9,0,5.58337,7.66902e-15,93.4144
20.0208,114.694,6.61646e-10,0,5.58337,2.56708e-16,93.4144
21.0208,114.694,-1.00211e-12,0,5.58337,-3.49904e-17,93.4144
22.0208,114.694,-6.0514e-11,0,5.58337,-2.08962e-18,93.4144
23.0208,114.694,-2.1914e-11,0,5.58337,1.40295e-19,93.4144
24.0208,114.694,-4.3828e-12,0,5.58337,1.48595e-21,93.4144
25.0208,114.694,-8.7656e-13,0,5.58337,1.57386e-23,93.4144
26.0208,114.694,-1.75312e-13,0,5.58337,1.66697e-25,93.4144
27.0208,114.694,-3.50624e-14,0,5.58337,1.76559e-27,93.4144
28.0208,114.694,-7.01248e-15,0,5.58337,1.87004e-29,93.4144
29.0208,114.694,-1.4025e-15,0,5.58337,1.98068e-31,93.4144
30.0208,114.694,-2.80499e-16,0,5.58337,2.09785e-33,93.4144
31.0208,114.694,-5.60998e-17,0,5.58337,2.22197e-35,93.4144
32.0208,114.694,-1.122e-17,0,5.58337,2.35342e-37,93.4144
33.0208,114.694,-2.24399e-18,0,5.58337,2.49265e-39,93.4144
34.0208,114.694,-4.48799e-19,0,5.58337,2.64012e-41,93.4144
35.0208,114.694,-8.97597e-20,0,5.58337,2.79631e-43,93.4144
36.0208,114.694,-1.79519e-20,0,5.58337,2.96174e-45,93.4144
37.0208,114.694,-3.59039e-21,0,5.58337,3.13696e-47,93.4144
38.0208,114.694,-7.18078e-22,0,5.58337,3.32255e-49,93.4144
39.0208,114.694,-1.43616e-22,0,5.58337,3.51912e-51,93.4144
40.0208,114.694,-2.87231e-23,0,5.58337,3.72731e-53,93.4144
41.0208,114.694,-5.74462e-24,0,5.58337,3.94782e-55,93.4144
42.0208,114.694,-1.14892e-24,0,5.58337,4.18138e-57,93.4144
43.0208,114.694,-2.29785e-25,0,5.58337,4.42875e-59,93.4144
44.0208,114.694,-4.5957e-26,0,5.58337,4.69076e-61,93.4144
45.0208,114.694,-9.1914e-27,0,5.58337,4.96827e-63,93.4144
46.0208,114.694,-1.83828e-27,0,5.58337,5.2622e-65,93.4144
47.0208,114.694,-3.67656e-28,0,5.58337,5.57352e-67,93.4144
48.0208,114.694,-7.35312e-29,0,5.58337,5.90325e-69,93.4144
49.0208,114.694,-1.47062e-29,0,5.58337,6.25249e-71,93.4144
50.0208,114.694,-2.94125e-30,0,5.58337,6.6224e-73,93.4144
51.0208,114.694,-5.88249e-31,0,5.58337,7.01418e-75,93.4144
52.0208,114.694,-1.1765e-31,0,5.58337,7.42915e-77,93.4144
53.0208,114.694,-2.353e-32,0,5.58337,7.86867e-79,93.4144
54.0208,114.694,-4.70599e-33,0,5.58337,8.33418e-81,93.4144
55.0208,114.694,-9.41199e-34,0,5.58337,8.82724e-83,93.4144
56.0208,114.694,-1.8824e-34,0,5.58337,9.34947e-85,93.4144
57.0208,114.694,-3.7648e-35,0,5.58337,9.90259e-87,93.4144
58.0208,114.694,-7.52959e-36,0,5.58337,1.04884e-88,93.4144
59.0208,114.694,-1.50592e-36,0,5.58337,1.11089e-90,93.4144
60.0208,114.694,-3.01184e-37,0,5.58337,1.17662e-92,93.4144
61.0208,114.694,-6.02367e-38,0,5.58337,1.24623e-94,93.4144
62.0208,114.694,-1.20473e-38,0,5.58337,1.31995e-96,93.4144
63.0208,114.694,-2.40947e-39,0,5.58337,1.39804e-98,93.4144
64.0208,114.694,-4.81894e-40,0,5.58337,1.48075e-100,93.4144
65.0208,114.694,-9.63788e-41,0,5.58337,1.56835e-102,93.4144
66.0208,114.694,-1.92758e-41,0,5.58337,1.66114e-104,93.4144
67.0208,114.694,-3.85515e-42,0,5.58337,1.75941e-106,93.4144
68.0208,114.694,-7.7103e-43,0,5.58337,1.8635e-108,93.4144
69.0208,114.694,-1.54206e-43,0,5.58337,1.97375e-110,93.4144
70.0208,114.694,-3.08412e-44,0,5.58337,2.09052e-112,93.4144
71.0208,114.694,-6.16824e-45,0,5.58337,2.2142e-114,93.4144
72.0208,114.694,-1.23365e-45,0,5.58337,2.34519e-116,93.4144
73.0208,114.694,-2.4673e-46,0,5.58337,2.48393e-118,93.4144
74.0208,114.694,-4.93459e-47,0,5.58337,2.63088e-120,93.4144
75.0208,114.694,-9.86919e-48,0,5.58337,2.78653e-122,93.4144
76.0208,114.694,-1.97384e-48,0,5.58337,2.95138e-124,93.4144
77.0208,114.694,-3.94767e-49,0,5.58337,3.12599e-126,93.4144
78.0208,114.694,-7.89535e-50,0,5.58337,3.31093e-128,93.4144
79.0208,114.694,-1.57907e-50,0,5.58337,3.5068e-130,93.4144
80.0208,114.694,-3.15814e-51,0,5.58337,3.71427e-132,93.4144
81.0208,114.694,-6.31628e-52,0,5.58337,3.93401e-134,93.4144
82.0208,114.694,-1.26326e-52,0,5.58337,4.16675e-136,93.4144
83.0208,114.694,-2.52651e-53,0,5.58337,4.41326e-138,93.4144
84.0208,114.694,-5.05302e-54,0,5.58337,4.67435e-140,93.4144
85.0208,114.694,-1.0106e-54,0,5.58337,4.95089e-142,93.4144
86.0208,114.694,-2.02121e-55,0,5.58337,5.24379e-144,93.4144
87.0208,114.694,-4.04242e-56,0,5.58337,5.55402e-146,93.4144
88.0208,114.694,-8.08484e-57,0,5.58337,5.8826e-148,93.4144
89.0208,114.694,-1.61697e-57,0,5.58337,6.23062e-150,93.4144
90.0208,114.694,-3.23393e-58,0,5.58337,6.59922e-152,93.4144
91.0208,114.694,-6.46787e-59,0,5.58337,6.98964e-154,93.4144
92.0208,114.694,-1.29357e-59,0,5.58337,7.40315e-156,93.4144
93.0208,114.694,-2.58715e-60,0,5.58337,7.84113e-158,93.4144
94.0208,114.694,-5.1743e-61,0,5.58337,8.30502e-160,93.4144
95.0208,114.694,-1.03486e-61,0,5.58337,8.79635e-162,93.4144
96.0208,114.694,-2.06972e-62,0,5.58337,9.31675e-164,93.4144
97.0208,114.694,-4.13944e-63,0,5.58337,9.86794e-166,93.4144
98.0208,114.694,-8.27887e-64,0,5.58337,1.04517e-167,93.4144
99.0208,114.694,-1.65577e-64,0,5.58337,1.10701e-169,93.4144
100,114.694,-2.5067e-65,0,5.58337,-2.0525e-169,93.4144
