#Time,D,C,E,B,X,A
0,0,376.175,98.446,0,56.3492,141.087
3.0e-6,0.0065814,376.171,98.4439,0.023841,56.3253,141.063
7.72813e-6,0.0169538,376.164,98.4406,0.0613898,56.2878,141.025
3.12549e-5,0.0685624,376.128,98.4244,0.247713,56.1015,140.839
0.000110283,0.241876,376.009,98.37,0.86732,55.4818,140.219
0.000189312,0.415122,375.89,98.3156,1.47742,54.8717,139.609
0.00026834,0.5883,375.772,98.2612,2.07821,54.271,139.009
0.000354663,0.777387,375.642,98.2019,2.72406,53.6251,138.363
0.000655934,1.43667,375.19,97.995,4.89645,51.4527,136.19
0.00103014,2.2542,374.628,97.7386,7.42947,48.9197,133.657
0.00145211,3.17428,373.997,97.4504,10.0859,46.2633,131.001
0.00190637,4.16259,373.318,97.141,12.732,43.6172,128.355
0.0024062,5.24753,372.572,96.8017,15.4146,40.9346,125.672
0.00295051,6.42595,371.762,96.4336,18.0928,38.2564,122.994
0.00354431,7.70791,370.88,96.0336,20.7585,35.5906,120.328
0.00418988,9.09739,369.923,95.6006,23.3901,32.9591,117.697
0.00489066,10.6007,368.888,95.1327,25.9714,30.3777,115.115
0.0056504,12.2246,367.768,94.6282,28.4881,27.861,112.599
0.00646895,13.9674,366.566,94.0875,30.9154,25.4337,110.171
0.0072875,15.7033,365.368,93.5499,33.0876,23.2616,107.999
0.00817379,17.5748,364.075,92.9713,35.1908,21.1584,105.896
0.00906007,19.4383,362.787,92.3963,37.0698,19.2793,104.017
0.0100126,21.4319,361.407,91.7823,38.8731,17.4761,102.214
0.0109652,23.4163,360.033,91.1724,40.482,15.8672,100.605
0.0121657,25.904,358.308,90.4094,42.2717,14.0775,98.8151
0.0140521,29.7836,355.614,89.2234,44.6388,11.7103,96.448
0.0160536,33.8605,352.779,87.9821,46.6742,9.67496,94.4126
0.0183027,38.3945,349.619,86.6077,48.5085,7.84068,92.5783
0.0205519,42.8787,346.488,85.2548,49.9715,6.37767,91.1153
0.0228011,47.3137,343.384,83.923,51.1462,5.20299,89.9406
0.0252378,52.0637,340.054,82.5037,52.1648,4.18438,88.922
0.0277359,56.8749,336.673,81.0735,52.9947,3.35447,88.0921
0.0303913,61.925,333.116,79.5805,53.6918,2.65737,87.395
0.0331471,67.0974,329.464,78.06,54.2589,2.09028,86.8279
0.0360067,72.3913,325.717,76.513,54.7174,1.63181,86.3694
0.0390414,77.9295,321.787,74.9048,55.0929,1.2563,85.9939
0.0421508,83.5197,317.809,73.2921,55.3872,0.961996,85.6996
0.0454575,89.3726,313.633,71.6151,55.6243,0.724898,85.4625
0.0488978,95.3631,309.347,69.911,55.8088,0.540417,85.278
0.0524753,101.487,304.952,68.182,55.9507,0.398424,85.1361
0.0563227,107.956,300.295,66.3702,56.062,0.287199,85.0248
0.0602916,114.504,295.565,64.5517,56.1442,0.204973,84.9426
0.0646011,121.474,290.514,62.6335,56.207,0.142158,84.8798
0.0691645,128.698,285.259,60.6644,56.2527,0.0965138,84.8341
0.0739892,136.165,279.807,58.6498,56.2851,0.0640992,84.8017
0.0793642,144.282,273.855,56.4841,56.3085,0.0406349,84.7783
0.0849941,152.563,267.757,54.3013,56.324,0.0252114,84.7628
0.0913707,161.677,261.013,51.9308,56.3345,0.0146827,84.7523
0.0984237,171.439,253.753,49.4292,56.3411,0.00807433,84.7457
0.106087,181.681,246.093,46.8476,56.345,0.0042159,84.7418
0.115154,193.327,237.327,43.9667,56.3472,0.00195326,84.7396
0.125218,205.682,227.963,40.9759,56.3483,0.000831108,84.7385
0.13723,219.681,217.269,37.6713,56.3489,0.000298768,84.7379
0.152098,235.95,204.724,33.9477,56.3491,8.33941e-5,84.7377
0.169351,253.463,191.072,30.0857,56.3492,1.85056e-5,84.7376
0.195198,277.21,172.304,25.1063,56.3492,7.34901e-7,84.7376
0.225675,301.809,152.529,20.2829,56.3492,-9.06851e-8,84.7376
0.265762,329.369,129.932,15.3202,56.3492,-8.97642e-8,84.7376
0.305848,352.367,110.682,11.5717,56.3492,8.71388e-9,84.7376
0.345934,371.596,94.2846,8.74036,56.3492,1.07661e-9,84.7376
0.39019,389.221,78.9878,6.41193,56.3492,-7.4008e-9,84.7376
0.44473,406.738,63.5061,4.37711,56.3492,-2.5076e-10,84.7376
0.503202,421.452,50.2619,2.9069,56.3492,1.21142e-10,84.7376
0.564909,433.466,39.2683,1.88729,56.3492,-2.85838e-10,84.7376
0.626616,442.716,30.6794,1.22532,56.3492,4.82135e-12,84.7376
0.688724,449.897,23.9306,0.793302,56.3492,7.59076e-11,84.7376
0.753301,455.633,18.483,0.504807,56.3492,-1.14802e-11,84.7376
0.820732,460.193,14.1134,0.314873,56.3492,-2.46082e-11,84.7376
0.892016,463.818,10.6121,0.191176,56.3492,7.42291e-12,84.7376
0.969376,466.722,7.78775,0.111242,56.3492,3.40065e-12,84.7376
1.05015,468.92,5.63762,0.0632015,56.3492,-2.38091e-12,84.7376
1.1423,470.689,3.89949,0.0331596,56.3492,-2.27636e-12,84.7376
1.23877,471.953,2.65117,0.0168812,56.3492,1.82403e-13,84.7376
1.34665,472.891,1.72194,0.00793462,56.3492,2.95275e-12,84.7376
1.45454,473.499,1.1184,0.00372922,56.3492,-1.7634e-13,84.7376
1.56376,473.897,0.722546,0.00173658,56.3492,-8.21117e-13,84.7376
1.67829,474.163,0.457,0.000779236,56.3492,-8.1588e-14,84.7376
1.79608,474.336,0.285296,0.000341781,56.3492,1.64811e-13,84.7376
1.92462,474.45,0.170611,0.0001391,56.3492,9.6239e-14,84.7376
2.05765,474.521,0.100215,5.486e-5,56.3492,1.62612e-18,84.7376
2.20838,474.566,0.0548412,1.91493e-5,56.3492,-1.03242e-13,84.7376
2.36669,474.592,0.0291157,6.33658e-6,56.3492,-4.25339e-14,84.7376
2.54729,474.607,0.0141409,1.80782e-6,56.3492,6.6041e-15,84.7376
2.74611,474.615,0.00638564,4.55706e-7,56.3492,1.23612e-14,84.7376
2.97249,474.619,0.00258445,9.76196e-8,56.3492,3.04884e-14,84.7376
3.24142,474.62,0.000884076,1.89887e-8,56.3492,-4.89003e-13,84.7376
3.51764,474.621,0.000293041,1.38298e-10,56.3492,1.5914e-12,84.7376
3.90931,474.621,6.37256e-5,1.08358e-9,56.3492,9.6544e-13,84.7376
4.31267,474.621,1.16408e-5,-6.48053e-10,56.3492,7.98357e-13,84.7376
4.82074,474.621,2.40357e-6,-2.3894e-10,56.3492,3.95915e-13,84.7376
5.65091,474.621,2.46373e-6,1.94397e-9,56.3492,-1.18749e-13,84.7376
6.39591,474.621,-8.4457e-7,-4.45438e-10,56.3492,-1.94233e-13,84.7376
7.34666,474.621,4.92868e-7,-1.35752e-10,56.3492,-1.93834e-14,84.7376
8.34666,474.621,-5.61308e-8,-6.16642e-12,56.3492,-1.02621e-15,84.7376
9.34666,474.621,3.12643e-7,6.9253e-12,56.3492,6.31632e-15,84.7376
10.3467,474.621,-2.62483e-7,-1.46611e-11,56.3492,-9.22055e-15,84.7376
11.3467,474.621,1.83274e-7,1.61782e-11,56.3492,1.29873e-14,84.7376
12.3467,474.621,-4.34852e-7,-8.65212e-11,56.3492,-2.12376e-14,84.7376
13.3467,474.621,2.43921e-7,1.00397e-10,56.3492,3.95563e-14,84.7376
14.3467,474.621,-6.02387e-8,-6.93818e-11,56.3492,-1.17301e-13,84.7376
15.3467,474.621,1.52159e-8,7.12895e-11,56.3492,-3.43208e-12,84.7376
16.3467,474.621,1.10093e-8,2.08553e-11,56.3492,-7.89159e-14,84.7376
17.3467,474.621,2.20186e-9,2.60691e-12,56.3492,-9.20435e-16,84.7376
18.3467,474.621,4.40371e-10,3.25864e-13,56.3492,-1.07355e-17,84.7376
19.3467,474.621,8.80743e-11,4.0733e-14,56.3492,-1.25213e-19,84.7376
20.3467,474.621,1.76149e-11,5.09162e-15,56.3492,-1.46042e-21,84.7376
21.3467,474.621,3.52297e-12,6.36453e-16,56.3492,-1.70336e-23,84.7376
22.3467,474.621,7.04594e-13,7.95566e-17,56.3492,-1.98672e-25,84.7376
23.3467,474.621,1.40919e-13,9.94457e-18,56.3492,-2.3172e-27,84.7376
24.3467,474.621,2.81838e-14,1.24307e-18,56.3492,-2.70267e-29,84.7376
25.3467,474.621,5.63675e-15,1.55384e-19,56.3492,-3.15225e-31,84.7376
26.3467,474.621,1.12735e-15,1.9423e-20,56.3492,-3.67663e-33,84.7376
27.3467,474.621,2.2547e-16,2.42787e-21,56.3492,-4.28823e-35,84.7376
28.3467,474.621,4.5094e-17,3.03484e-22,56.3492,-5.00158e-37,84.7376
29.3467,474.621,9.0188e-18,3.79355e-23,56.3492,-5.83358e-39,84.7376
30.3467,474.621,1.80376e-18,4.74194e-24,56.3492,-6.80399e-41,84.7376
31.3467,474.621,3.60752e-19,5.92743e-25,56.3492,-7.93583e-43,84.7376
32.3467,474.621,7.21504e-20,7.40928e-26,56.3492,-9.25595e-45,84.7376
33.3467,474.621,1.44301e-20,9.2616e-27,56.3492,-1.07957e-46,84.7376
34.3467,474.621,2.88602e-21,1.1577e-27,56.3492,-1.25915e-48,84.7376
35.3467,474.621,5.77203e-22,1.44713e-28,56.3492,-1.46861e-50,84.7376
36.3467,474.621,1.15441e-22,1.80891e-29,56.3492,-1.71291e-52,84.7376
37.3467,474.621,2.30881e-23,2.26113e-30,56.3492,-1.99785e-54,84.7376
38.3467,474.621,4.61763e-24,2.82642e-31,56.3492,-2.33019e-56,84.7376
39.3467,474.621,9.23526e-25,3.53302e-32,56.3492,-2.71782e-58,84.7376
40.3467,474.621,1.84705e-25,4.41628e-33,56.3492,-3.16993e-60,84.7376
41.3467,474.621,3.6941e-26,5.52035e-34,56.3492,-3.69724e-62,84.7376
42.3467,474.621,7.3882e-27,6.90043e-35,56.3492,-4.31227e-64,84.7376
43.3467,474.621,1.47764e-27,8.62554e-36,56.3492,-5.02961e-66,84.7376
44.3467,474.621,2.95528e-28,1.07819e-36,56.3492,-5.86629e-68,84.7376
45.3467,474.621,5.91056e-29,1.34774e-37,56.3492,-6.84214e-70,84.7376
46.3467,474.621,1.18211e-29,1.68468e-38,56.3492,-7.98032e-72,84.7376
47.3467,474.621,2.36423e-30,2.10584e-39,56.3492,-9.30784e-74,84.7376
48.3467,474.621,4.72845e-31,2.63231e-40,56.3492,-1.08562e-75,84.7376
49.3467,474.621,9.4569e-32,3.29038e-41,56.3492,-1.26621e-77,84.7376
50.3467,474.621,1.89138e-32,4.11298e-42,56.3492,-1.47684e-79,84.7376
51.3467,474.621,3.78276e-33,5.14122e-43,56.3492,-1.72251e-81,84.7376
52.3467,474.621,7.56552e-34,6.42653e-44,56.3492,-2.00905e-83,84.7376
53.3467,474.621,1.5131e-34,8.03316e-45,56.3492,-2.34326e-85,84.7376
54.3467,474.621,3.02621e-35,1.00415e-45,56.3492,-2.73306e-87,84.7376
55.3467,474.621,6.05242e-36,1.25518e-46,56.3492,-3.1877e-89,84.7376
56.3467,474.621,1.21048e-36,1.56898e-47,56.3492,-3.71797e-91,84.7376
57.3467,474.621,2.42097e-37,1.96122e-48,56.3492,-4.33645e-93,84.7376
58.3467,474.621,4.84193e-38,2.45153e-49,56.3492,-5.05781e-95,84.7376
59.3467,474.621,9.68387e-39,3.06441e-50,56.3492,-5.89917e-97,84.7376
60.3467,474.621,1.93677e-39,3.83051e-51,56.3492,-6.88049e-99,84.7376
61.3467,474.621,3.87355e-40,4.78814e-52,56.3492,-8.02506e-101,84.7376
62.3467,474.621,7.74709e-41,5.98517e-53,56.3492,-9.36002e-103,84.7376
63.3467,474.621,1.54942e-41,7.48146e-54,56.3492,-1.0917e-104,84.7376
64.3467,474.621,3.09884e-42,9.35183e-55,56.3492,-1.27331e-106,84.7376
65.3467,474.621,6.19768e-43,1.16898e-55,56.3492,-1.48512e-108,84.7376
66.3467,474.621,1.23954e-43,1.46122e-56,56.3492,-1.73217e-110,84.7376
67.3467,474.621,2.47907e-44,1.82653e-57,56.3492,-2.02032e-112,84.7376
68.3467,474.621,4.95814e-45,2.28316e-58,56.3492,-2.35639e-114,84.7376
69.3467,474.621,9.91628e-46,2.85395e-59,56.3492,-2.74838e-116,84.7376
70.3467,474.621,1.98326e-46,3.56744e-60,56.3492,-3.20557e-118,84.7376
71.3467,474.621,3.96651e-47,4.4593e-61,56.3492,-3.73881e-120,84.7376
72.3467,474.621,7.93302e-48,5.57413e-62,56.3492,-4.36076e-122,84.7376
73.3467,474.621,1.5866e-48,6.96766e-63,56.3492,-5.08616e-124,84.7376
74.3467,474.621,3.17321e-49,8.70957e-64,56.3492,-5.93224e-126,84.7376
75.3467,474.621,6.34642e-50,1.0887e-64,56.3492,-6.91907e-128,84.7376
76.3467,474.621,1.26928e-50,1.36087e-65,56.3492,-8.07005e-130,84.7376
77.3467,474.621,2.53857e-51,1.70109e-66,56.3492,-9.41249e-132,84.7376
78.3467,474.621,5.07714e-52,2.12636e-67,56.3492,-1.09782e-133,84.7376
79.3467,474.621,1.01543e-52,2.65795e-68,56.3492,-1.28045e-135,84.7376
80.3467,474.621,2.03085e-53,3.32244e-69,56.3492,-1.49345e-137,84.7376
81.3467,474.621,4.06171e-54,4.15305e-70,56.3492,-1.74188e-139,84.7376
82.3467,474.621,8.12342e-55,5.19131e-71,56.3492,-2.03164e-141,84.7376
83.3467,474.621,1.62468e-55,6.48914e-72,56.3492,-2.3696e-143,84.7376
84.3467,474.621,3.24937e-56,8.11142e-73,56.3492,-2.76378e-145,84.7376
85.3467,474.621,6.49873e-57,1.01393e-73,56.3492,-3.22354e-147,84.7376
86.3467,474.621,1.29975e-57,1.26741e-74,56.3492,-3.75977e-149,84.7376
87.3467,474.621,2.59949e-58,1.58426e-75,56.3492,-4.3852e-151,84.7376
88.3467,474.621,5.19899e-59,1.98033e-76,56.3492,-5.11468e-153,84.7376
89.3467,474.621,1.0398e-59,2.47541e-77,56.3492,-5.9655e-155,84.7376
90.3467,474.621,2.07959e-60,3.09426e-78,56.3492,-6.95786e-157,84.7376
91.3467,474.621,4.15919e-61,3.86783e-79,56.3492,-8.11529e-159,84.7376
92.3467,474.621,8.31838e-62,4.83478e-80,56.3492,-9.46526e-161,84.7376
93.3467,474.621,1.66368e-62,6.04348e-81,56.3492,-1.10398e-162,84.7376
94.3467,474.621,3.32735e-63,7.55435e-82,56.3492,-1.28763e-164,84.7376
95.3467,474.621,6.6547e-64,9.44294e-83,56.3492,-1.50182e-166,84.7376
96.3467,474.621,1.33094e-64,1.18037e-83,56.3492,-1.75165e-168,84.7376
97.3467,474.621,2.66188e-65,1.47546e-84,56.3492,-2.04303e-170,84.7376
98.3467,474.621,5.32376e-66,1.84432e-85,56.3492,-2.38289e-172,84.7376
99.3467,474.621,1.06475e-66,2.3054e-86,56.3492,-2.77928e-174,84.7376
100,474.621,2.94671e-67,4.13646e-87,56.3492,-4.93109e-176,84.7376
