#Time,D,C,E,B,X,A
0,0,83.5427,0.962681,30.6624,171.076,61.1888
1.0189e-5,0.00347343,83.5393,0.962612,30.7688,170.97,61.0823
2.39725e-5,0.00817199,83.5347,0.962519,30.9125,170.826,60.9387
4.53645e-5,0.0154637,83.5276,0.962375,31.1346,170.604,60.7165
0.000155858,0.0531168,83.4906,0.961631,32.2647,169.474,59.5864
0.000320724,0.109267,83.4356,0.960522,33.8988,167.84,57.9523
0.000476466,0.162275,83.3836,0.959475,35.3875,166.351,56.4636
0.000687512,0.234053,83.3133,0.958059,37.3242,164.414,54.5269
0.00120455,0.40964,83.1412,0.954598,41.7099,160.029,50.1412
0.0017284,0.587167,82.9671,0.951103,45.6929,156.046,46.1583
0.00229361,0.778285,82.7798,0.947348,49.5426,152.196,42.3086
0.00285882,0.968965,82.5928,0.943607,52.9913,148.747,38.8599
0.00347159,1.1752,82.3906,0.939568,56.3394,145.399,35.5117
0.00408436,1.38092,82.1889,0.935547,59.3361,142.402,32.5151
0.00474558,1.60233,81.9718,0.931227,62.229,139.51,29.6221
0.00543664,1.8331,81.7456,0.926733,64.9259,136.813,26.9252
0.00663268,2.23098,81.3554,0.919006,68.9337,132.805,22.9175
0.00788687,2.64613,80.9483,0.910973,72.4063,129.332,19.4448
0.00929423,3.10947,80.4939,0.902043,75.6045,126.134,16.2467
0.0107804,3.5959,80.0168,0.892707,78.3532,123.385,13.498
0.0123953,4.12113,79.5016,0.882673,80.7693,120.969,11.0818
0.01403,4.64934,78.9834,0.87263,82.7426,118.996,9.10859
0.0157046,5.18679,78.4561,0.862461,84.3776,117.361,7.47353
0.0175255,5.7671,77.8868,0.851537,85.8075,115.931,6.04363
0.0193741,6.35183,77.313,0.840589,86.9679,114.771,4.88325
0.0213804,6.98152,76.695,0.828867,87.9682,113.77,3.88291
0.0234133,7.61436,76.0739,0.817155,88.7674,112.971,3.08373
0.0255899,8.28618,75.4144,0.804799,89.4378,112.301,2.41332
0.0277912,8.95962,74.7533,0.792493,89.9653,111.773,1.88588
0.0301483,9.67408,74.0518,0.779524,90.4013,111.337,1.44985
0.0325318,10.3896,73.3491,0.766626,90.7388,111,1.11238
0.0350875,11.1492,72.6031,0.753033,91.0132,110.725,0.837933
0.0376726,11.9096,71.8563,0.739529,91.2216,110.517,0.629538
0.0404666,12.7225,71.0577,0.725206,91.3887,110.35,0.4624
0.0433298,13.5461,70.2485,0.710816,91.5139,110.225,0.337194
0.0463821,14.4136,69.396,0.69579,91.6102,110.128,0.240896
0.0495967,15.3157,68.5094,0.680307,91.682,110.057,0.169092
0.0529756,16.2513,67.5897,0.664405,91.7346,110.004,0.116588
0.0566863,17.2641,66.5939,0.64737,91.7736,109.965,0.0775171
0.0605512,18.303,65.5723,0.630091,91.8005,109.938,0.0506788
0.064863,19.443,64.451,0.611357,91.8196,109.919,0.0315457
0.0695204,20.6522,63.2615,0.591747,91.8322,109.906,0.018905
0.0745981,21.9448,61.9895,0.571083,91.8403,109.898,0.0108177
0.0804037,23.3905,60.5666,0.54834,91.8454,109.893,0.00571329
0.0867679,24.9367,59.0442,0.524448,91.8483,109.89,0.00283722
0.0941094,26.6717,57.3355,0.498177,91.8499,109.889,0.00126441
0.10286,28.6734,55.3635,0.468579,91.8507,109.888,0.00048176
0.112704,30.8423,53.2257,0.437376,91.851,109.888,0.000162158
0.125907,33.619,50.4877,0.398764,91.8511,109.887,3.66583e-5
0.141209,36.6571,47.4901,0.358259,91.8511,109.887,6.1287e-6
0.164938,41.0121,43.1899,0.303432,91.8511,109.887,-7.95031e-7
0.197959,46.4187,37.8459,0.24081,91.8511,109.887,3.27524e-8
0.251972,53.8483,30.4921,0.16499,91.8511,109.887,-9.1183e-9
0.308441,60.0672,24.3271,0.111117,91.8511,109.887,-3.14976e-8
0.371669,65.5432,18.8908,0.0713732,91.8511,109.887,5.97e-9
0.43578,69.8422,14.6176,0.0455628,91.8511,109.887,2.71066e-9
0.501657,73.2452,11.2315,0.0287284,91.8511,109.887,-9.05375e-10
0.567533,75.8576,8.6297,0.018114,91.8511,109.887,-2.70474e-10
0.63341,77.8633,6.63063,0.0114213,91.8511,109.887,1.29485e-10
0.70055,79.4293,5.06896,0.00713826,91.8511,109.887,5.82373e-11
0.795529,81.0349,3.46678,0.0036722,91.8511,109.887,2.97456e-11
0.906572,82.2803,2.22345,0.00168817,91.8511,109.887,6.01166e-11
1.00081,82.9793,1.52519,0.000872815,91.8511,109.887,1.26755e-11
1.11201,83.5274,0.977586,0.000400852,91.8511,109.887,-6.79677e-12
1.23926,83.9176,0.587611,0.000164505,91.8511,109.887,1.05284e-11
1.35051,84.1288,0.37656,7.54843e-5,91.8511,109.887,-2.81882e-12
1.48914,84.2891,0.21628,2.86118e-5,91.8511,109.887,8.62337e-13
1.63838,84.3863,0.119064,1.00696e-5,91.8511,109.887,-2.29132e-12
1.76698,84.4342,0.0711822,4.09282e-6,91.8511,109.887,-1.04619e-12
1.93409,84.4689,0.0364852,1.27609e-6,91.8511,109.887,3.85399e-13
2.10347,84.4869,0.0185301,3.88504e-7,91.8511,109.887,-2.81246e-12
2.28792,84.4965,0.00886295,1.07894e-7,91.8511,109.887,-3.30194e-12
2.52326,84.5019,0.00345945,2.04937e-8,91.8511,109.887,8.24439e-12
2.76969,84.5041,0.00129124,3.46076e-9,91.8511,109.887,-1.1016e-11
3.07408,84.505,0.000384542,4.93908e-10,91.8511,109.887,-1.2879e-12
3.40686,84.5053,0.000102291,7.29545e-12,91.8511,109.887,2.2744e-11
3.79417,84.5054,2.26583e-5,-5.96709e-12,91.8511,109.887,-1.53413e-10
4.37845,84.5054,4.41189e-6,-6.51202e-11,91.8511,109.887,-1.16199e-9
5.03998,84.5054,-1.51077e-6,3.52303e-11,91.8511,109.887,5.71926e-11
5.82381,84.5054,1.40373e-6,-1.50176e-11,91.8511,109.887,-7.80575e-10
6.80826,84.5054,-1.51493e-7,-4.89774e-12,91.8511,109.887,-7.97657e-9
7.80826,84.5054,1.29184e-6,-1.66701e-11,91.8511,109.887,2.62785e-10
8.80826,84.5054,-3.87809e-7,1.19079e-11,91.8511,109.887,9.48352e-9
9.78592,84.5054,8.28131e-8,-7.39817e-12,91.8511,109.887,-4.47397e-10
10.7859,84.5054,1.96276e-7,1.4836e-11,91.8511,109.887,1.58629e-9
11.7859,84.5054,2.97094e-7,1.97892e-11,91.8511,109.887,8.01906e-8
12.0798,84.5054,4.00304e-7,2.75596e-11,91.8511,109.887,1.56402e-8
12.8226,84.5054,2.65894e-9,-3.61548e-12,91.8511,109.887,-2.45752e-9
13.8226,84.5054,-1.26994e-8,-2.85566e-13,91.8511,109.887,9.11455e-10
14.8226,84.5054,-2.53987e-9,-3.56958e-14,91.8511,109.887,8.21964e-12
15.8226,84.5054,-5.07975e-10,-4.46198e-15,91.8511,109.887,7.4126e-14
16.8226,84.5054,-1.01595e-10,-5.57747e-16,91.8511,109.887,6.68481e-16
17.8226,84.5054,-2.0319e-11,-6.97184e-17,91.8511,109.887,6.02847e-18
18.8226,84.5054,-4.0638e-12,-8.7148e-18,91.8511,109.887,5.43657e-20
19.8226,84.5054,-8.1276e-13,-1.08935e-18,91.8511,109.887,4.90278e-22
20.8226,84.5054,-1.62552e-13,-1.36169e-19,91.8511,109.887,4.42141e-24
21.8226,84.5054,-3.25104e-14,-1.70211e-20,91.8511,109.887,3.9873e-26
22.8226,84.5054,-6.50208e-15,-2.12764e-21,91.8511,109.887,3.59581e-28
23.8226,84.5054,-1.30042e-15,-2.65955e-22,91.8511,109.887,3.24276e-30
24.8226,84.5054,-2.60083e-16,-3.32443e-23,91.8511,109.887,2.92437e-32
25.8226,84.5054,-5.20166e-17,-4.15554e-24,91.8511,109.887,2.63725e-34
26.8226,84.5054,-1.04033e-17,-5.19442e-25,91.8511,109.887,2.37831e-36
27.8226,84.5054,-2.08067e-18,-6.49303e-26,91.8511,109.887,2.1448e-38
28.8226,84.5054,-4.16133e-19,-8.11629e-27,91.8511,109.887,1.93421e-40
29.8226,84.5054,-8.32266e-20,-1.01454e-27,91.8511,109.887,1.7443e-42
30.8226,84.5054,-1.66453e-20,-1.26817e-28,91.8511,109.887,1.57304e-44
31.8226,84.5054,-3.32906e-21,-1.58521e-29,91.8511,109.887,1.41859e-46
32.8226,84.5054,-6.65813e-22,-1.98152e-30,91.8511,109.887,1.27931e-48
33.8226,84.5054,-1.33163e-22,-2.47689e-31,91.8511,109.887,1.1537e-50
34.8226,84.5054,-2.66325e-23,-3.09612e-32,91.8511,109.887,1.04043e-52
35.8226,84.5054,-5.3265e-24,-3.87015e-33,91.8511,109.887,9.38274e-55
36.8226,84.5054,-1.0653e-24,-4.83768e-34,91.8511,109.887,8.4615e-57
37.8226,84.5054,-2.1306e-25,-6.04711e-35,91.8511,109.887,7.63072e-59
38.8226,84.5054,-4.2612e-26,-7.55888e-36,91.8511,109.887,6.8815e-61
39.8226,84.5054,-8.52241e-27,-9.4486e-37,91.8511,109.887,6.20584e-63
40.8226,84.5054,-1.70448e-27,-1.18108e-37,91.8511,109.887,5.59653e-65
41.8226,84.5054,-3.40896e-28,-1.47634e-38,91.8511,109.887,5.04703e-67
42.8226,84.5054,-6.81792e-29,-1.84543e-39,91.8511,109.887,4.55149e-69
43.8226,84.5054,-1.36358e-29,-2.30679e-40,91.8511,109.887,4.10461e-71
44.8226,84.5054,-2.72717e-30,-2.88348e-41,91.8511,109.887,3.7016e-73
45.8226,84.5054,-5.45434e-31,-3.60436e-42,91.8511,109.887,3.33816e-75
46.8226,84.5054,-1.09087e-31,-4.50544e-43,91.8511,109.887,3.0104e-77
47.8226,84.5054,-2.18174e-32,-5.63181e-44,91.8511,109.887,2.71483e-79
48.8226,84.5054,-4.36347e-33,-7.03976e-45,91.8511,109.887,2.44828e-81
49.8226,84.5054,-8.72694e-34,-8.7997e-46,91.8511,109.887,2.20789e-83
50.8226,84.5054,-1.74539e-34,-1.09996e-46,91.8511,109.887,1.99111e-85
51.8226,84.5054,-3.49078e-35,-1.37495e-47,91.8511,109.887,1.79562e-87
52.8226,84.5054,-6.98156e-36,-1.71869e-48,91.8511,109.887,1.61931e-89
53.8226,84.5054,-1.39631e-36,-2.14836e-49,91.8511,109.887,1.46032e-91
54.8226,84.5054,-2.79262e-37,-2.68545e-50,91.8511,109.887,1.31694e-93
55.8226,84.5054,-5.58524e-38,-3.35682e-51,91.8511,109.887,1.18764e-95
56.8226,84.5054,-1.11705e-38,-4.19602e-52,91.8511,109.887,1.07103e-97
57.8226,84.5054,-2.2341e-39,-5.24503e-53,91.8511,109.887,9.65872e-100
58.8226,84.5054,-4.4682e-40,-6.55629e-54,91.8511,109.887,8.71039e-102
59.8226,84.5054,-8.93639e-41,-8.19536e-55,91.8511,109.887,7.85516e-104
60.8226,84.5054,-1.78728e-41,-1.02442e-55,91.8511,109.887,7.08391e-106
61.8226,84.5054,-3.57456e-42,-1.28052e-56,91.8511,109.887,6.38838e-108
62.8226,84.5054,-7.14911e-43,-1.60066e-57,91.8511,109.887,5.76114e-110
63.8226,84.5054,-1.42982e-43,-2.00082e-58,91.8511,109.887,5.19548e-112
64.8226,84.5054,-2.85964e-44,-2.50102e-59,91.8511,109.887,4.68537e-114
65.8226,84.5054,-5.71929e-45,-3.12628e-60,91.8511,109.887,4.22534e-116
66.8226,84.5054,-1.14386e-45,-3.90785e-61,91.8511,109.887,3.81048e-118
67.8226,84.5054,-2.28772e-46,-4.88481e-62,91.8511,109.887,3.43635e-120
68.8226,84.5054,-4.57543e-47,-6.10602e-63,91.8511,109.887,3.09895e-122
69.8226,84.5054,-9.15086e-48,-7.63252e-64,91.8511,109.887,2.79468e-124
70.8226,84.5054,-1.83017e-48,-9.54065e-65,91.8511,109.887,2.52029e-126
71.8226,84.5054,-3.66035e-49,-1.19258e-65,91.8511,109.887,2.27283e-128
72.8226,84.5054,-7.32069e-50,-1.49073e-66,91.8511,109.887,2.04968e-130
73.8226,84.5054,-1.46414e-50,-1.86341e-67,91.8511,109.887,1.84843e-132
74.8226,84.5054,-2.92828e-51,-2.32926e-68,91.8511,109.887,1.66694e-134
75.8226,84.5054,-5.85655e-52,-2.91158e-69,91.8511,109.887,1.50328e-136
76.8226,84.5054,-1.17131e-52,-3.63947e-70,91.8511,109.887,1.35568e-138
77.8226,84.5054,-2.34262e-53,-4.54934e-71,91.8511,109.887,1.22257e-140
78.8226,84.5054,-4.68524e-54,-5.68667e-72,91.8511,109.887,1.10253e-142
79.8226,84.5054,-9.37048e-55,-7.10834e-73,91.8511,109.887,9.94282e-145
80.8226,84.5054,-1.8741e-55,-8.88542e-74,91.8511,109.887,8.96659e-147
81.8226,84.5054,-3.74819e-56,-1.11068e-74,91.8511,109.887,8.08621e-149
82.8226,84.5054,-7.49639e-57,-1.38835e-75,91.8511,109.887,7.29227e-151
83.8226,84.5054,-1.49928e-57,-1.73543e-76,91.8511,109.887,6.57628e-153
84.8226,84.5054,-2.99856e-58,-2.16929e-77,91.8511,109.887,5.93059e-155
85.8226,84.5054,-5.99711e-59,-2.71162e-78,91.8511,109.887,5.3483e-157
86.8226,84.5054,-1.19942e-59,-3.38952e-79,91.8511,109.887,4.82318e-159
87.8226,84.5054,-2.39884e-60,-4.2369e-80,91.8511,109.887,4.34962e-161
88.8226,84.5054,-4.79769e-61,-5.29612e-81,91.8511,109.887,3.92256e-163
89.8226,84.5054,-9.59538e-62,-6.62016e-82,91.8511,109.887,3.53742e-165
90.8226,84.5054,-1.91908e-62,-8.2752e-83,91.8511,109.887,3.1901e-167
91.8226,84.5054,-3.83815e-63,-1.0344e-83,91.8511,109.887,2.87688e-169
92.8226,84.5054,-7.6763e-64,-1.293e-84,91.8511,109.887,2.59442e-171
93.8226,84.5054,-1.53526e-64,-1.61625e-85,91.8511,109.887,2.33969e-173
94.8226,84.5054,-3.07052e-65,-2.02031e-86,91.8511,109.887,2.10997e-175
95.8226,84.5054,-6.14104e-66,-2.52539e-87,91.8511,109.887,1.9028e-177
96.8226,84.5054,-1.22821e-66,-3.15674e-88,91.8511,109.887,1.71597e-179
97.8226,84.5054,-2.45642e-67,-3.94592e-89,91.8511,109.887,1.54749e-181
98.8226,84.5054,-4.91283e-68,-4.9324e-90,91.8511,109.887,1.39555e-183
99.8226,84.5054,-9.82567e-69,-6.1655e-91,91.8511,109.887,1.25853e-185
100,84.5054,-5.74769e-69,-2.75047e-91,91.8511,109.887,6.14181e-187
