#Time,D,C,E,B,X,A
0,102.331,3.3459,355.277,181.604,64.6476,136.235
1.37558e-5,102.365,3.34572,355.243,181.725,64.5267,136.114
3.70233e-5,102.424,3.3454,355.185,181.928,64.323,135.911
7.29925e-5,102.513,3.34492,355.095,182.242,64.0097,135.597
0.000233165,102.914,3.34278,354.697,183.61,62.6413,134.229
0.000467426,103.498,3.33965,354.116,185.536,60.7159,132.303
0.000689442,104.051,3.33669,353.566,187.282,58.9697,130.557
0.000982833,104.78,3.33277,352.841,189.479,56.7721,128.36
0.00162347,106.367,3.32424,351.262,193.886,52.3659,123.953
0.00225241,107.919,3.31589,349.719,197.753,48.4987,120.086
0.00292763,109.577,3.30695,348.07,201.473,44.7787,116.366
0.004108,112.456,3.29137,345.206,207.086,39.1652,110.753
0.00534983,115.46,3.27506,342.218,212.011,34.2401,105.828
0.00675999,118.84,3.25664,338.857,216.658,29.5931,101.181
0.00827076,122.425,3.23702,335.292,220.772,25.4797,97.0673
0.00993439,126.328,3.21555,331.41,224.502,21.7497,93.3372
0.0116312,130.263,3.1938,327.497,227.636,18.615,90.2026
0.013466,134.466,3.17044,323.318,230.434,15.8173,87.4049
0.0154049,138.849,3.14595,318.959,232.867,13.3842,84.9717
0.01745,143.408,3.12032,314.426,234.977,11.2742,82.8618
0.0196657,148.275,3.09279,309.586,236.848,9.40329,80.9908
0.0219549,153.224,3.0646,304.665,238.425,7.82655,79.4141
0.0244355,158.499,3.03434,299.42,239.813,6.43856,78.0261
0.0270284,163.916,3.00303,294.035,240.984,5.26753,76.8551
0.029739,169.475,2.97065,288.509,241.969,4.28286,75.8704
0.0326444,175.317,2.93632,282.7,242.812,3.43994,75.0275
0.0356299,181.199,2.90147,276.853,243.499,2.75253,74.3401
0.0388205,187.35,2.86467,270.739,244.078,2.1734,73.7609
0.0421356,193.598,2.82694,264.528,244.548,1.70331,73.2909
0.0455799,199.939,2.78826,258.227,244.927,1.3242,72.9118
0.049249,206.527,2.74763,251.679,245.237,1.01398,72.6015
0.0530144,213.115,2.70656,245.132,245.48,0.771803,72.3594
0.0570352,219.962,2.66338,238.329,245.674,0.577202,72.1648
0.0612323,226.906,2.61904,231.428,245.825,0.426507,72.0141
0.0656106,233.937,2.57357,224.443,245.94,0.311247,71.8988
0.0703458,241.303,2.52528,217.126,246.03,0.221482,71.809
0.075242,248.667,2.47631,209.81,246.096,0.155852,71.7434
0.0805915,256.431,2.42388,202.099,246.145,0.10619,71.6937
0.0862792,264.374,2.36936,194.21,246.181,0.0706347,71.6582
0.0923164,272.467,2.31283,186.174,246.206,0.0458298,71.6334
0.099093,281.154,2.25098,177.549,246.223,0.0282047,71.6158
0.106214,289.851,2.18776,168.915,246.235,0.0169355,71.6045
0.11455,299.497,2.11601,159.341,246.242,0.00932108,71.5969
0.123507,309.255,2.04154,149.657,246.247,0.00490693,71.5925
0.13375,319.692,1.95959,139.302,246.249,0.00235494,71.5899
0.145655,330.921,1.86846,128.164,246.25,0.00100252,71.5886
0.158921,342.383,1.7719,116.799,246.251,0.000386461,71.5879
0.176072,355.714,1.65442,103.585,246.251,0.000111536,71.5877
0.19566,369.111,1.52974,90.3128,246.251,2.66954e-5,71.5876
0.223516,385.273,1.36844,74.3127,246.251,2.33613e-6,71.5876
0.25691,400.934,1.19733,58.8224,246.251,8.55675e-8,71.5876
0.297225,415.576,1.01901,44.3589,246.251,-6.67596e-8,71.5875
0.33754,426.635,0.867253,33.4518,246.251,-4.41838e-9,71.5875
0.377855,434.989,0.738094,25.2265,246.251,2.17238e-9,71.5876
0.41817,441.302,0.62817,19.0238,246.251,-1.26667e-9,71.5875
0.470946,447.297,0.508622,13.1478,246.251,1.62571e-9,71.5876
0.526469,451.633,0.407327,8.91382,246.251,3.10026e-10,71.5876
0.585378,454.73,0.321815,5.90171,246.251,-3.08401e-10,71.5875
0.644287,456.792,0.254256,3.90743,246.251,4.9472e-11,71.5876
0.703197,458.166,0.200879,2.58705,246.251,6.01688e-11,71.5876
0.762106,459.082,0.158708,1.71285,246.251,-3.02891e-11,71.5875
0.822518,459.707,0.124639,1.12219,246.251,-5.22779e-12,71.5875
0.884478,460.129,0.0972785,0.727287,246.251,9.27727e-12,71.5876
0.950094,460.419,0.0748223,0.459446,246.251,-2.69948e-12,71.5875
1.01755,460.61,0.057127,0.286521,246.251,-1.9162e-12,71.5875
1.09103,460.74,0.042579,0.17131,246.251,1.0758e-12,71.5876
1.16698,460.822,0.0314246,0.100676,246.251,3.94266e-13,71.5876
1.25212,460.876,0.0223541,0.0554753,246.251,-4.41697e-13,71.5875
1.34346,460.909,0.0155127,0.029272,246.251,-4.81702e-13,71.5875
1.44576,460.929,0.0103031,0.0143062,246.251,2.35681e-13,71.5876
1.5602,460.941,0.00651897,0.00642357,246.251,2.78086e-14,71.5875
1.68737,460.947,0.00391986,0.00263958,246.251,-6.27859e-14,71.5875
1.84326,460.951,0.00210135,0.000889176,246.251,-3.14126e-13,71.5875
2.00137,460.952,0.00111648,0.000294331,246.251,3.69168e-13,71.5876
2.21869,460.953,0.00046846,6.69777e-5,246.251,5.63046e-13,71.5876
2.44706,460.953,0.000187901,1.26778e-5,246.251,1.96782e-13,71.5875
2.74351,460.954,5.78573e-5,2.78659e-6,246.251,-2.87212e-13,71.5875
3.15749,460.954,1.17342e-5,7.3754e-7,246.251,4.91298e-13,71.5876
3.69498,460.954,2.42259e-6,1.80077e-7,246.251,-4.37192e-14,71.5875
4.37384,460.954,3.79174e-7,3.86607e-7,246.251,1.80042e-13,71.5875
5.25801,460.954,1.60537e-7,-1.26997e-8,246.251,6.1936e-13,71.5876
6.25801,460.954,-1.04205e-7,4.61392e-8,246.251,2.16046e-14,71.5875
7.25801,460.954,1.06408e-7,7.02044e-8,246.251,9.52283e-14,71.5875
8.25801,460.954,-3.64339e-8,5.97937e-9,246.251,1.36123e-12,71.5876
9.25801,460.954,1.48365e-8,-1.47794e-8,246.251,-7.92074e-14,71.5875
10.258,460.954,-6.3806e-9,-1.07758e-9,246.251,-2.96116e-14,71.5875
11.258,460.954,6.99176e-8,7.71428e-8,246.251,-2.44453e-13,71.5875
12.258,460.954,9.32284e-8,8.34624e-8,246.251,-2.15686e-13,71.5875
13.258,460.954,3.4846e-8,2.28147e-8,246.251,-4.28438e-14,71.5875
14.258,460.954,-7.47657e-9,-6.16538e-9,246.251,2.13312e-15,71.5875
15.258,460.954,-2.23924e-8,-2.04998e-8,246.251,6.38499e-14,71.5875
16.258,460.954,-8.41362e-9,-1.67508e-9,246.251,-3.5333e-14,71.5875
17.258,460.954,-2.1294e-9,-4.27123e-9,246.251,5.95819e-14,71.5875
18.258,460.954,3.368e-9,6.56484e-9,246.251,-8.93282e-14,71.5875
19.258,460.954,6.16459e-10,-3.70727e-9,246.251,1.16211e-13,71.5875
20.258,460.954,-8.20152e-11,-1.25847e-9,246.251,3.79116e-15,71.5875
21.258,460.954,-8.58655e-11,-7.8035e-11,246.251,-6.9127e-16,71.5875
22.258,460.954,-2.37679e-11,5.56662e-11,246.251,-4.4852e-17,71.5875
23.258,460.954,-8.36913e-13,1.76882e-11,246.251,3.50171e-18,71.5875
24.258,460.954,-1.67383e-13,2.21103e-12,246.251,4.82412e-20,71.5875
25.258,460.954,-3.34765e-14,2.76378e-13,246.251,6.64593e-22,71.5875
26.258,460.954,-6.69531e-15,3.45473e-14,246.251,9.15574e-24,71.5875
27.258,460.954,-1.33906e-15,4.31841e-15,246.251,1.26134e-25,71.5875
28.258,460.954,-2.67812e-16,5.39802e-16,246.251,1.73768e-27,71.5875
29.258,460.954,-5.35625e-17,6.74752e-17,246.251,2.39391e-29,71.5875
30.258,460.954,-1.07125e-17,8.4344e-18,246.251,3.29796e-31,71.5875
31.258,460.954,-2.1425e-18,1.0543e-18,246.251,4.54342e-33,71.5875
32.258,460.954,-4.285e-19,1.31788e-19,246.251,6.25923e-35,71.5875
33.258,460.954,-8.56999e-20,1.64734e-20,246.251,8.623e-37,71.5875
34.258,460.954,-1.714e-20,2.05918e-21,246.251,1.18795e-38,71.5875
35.258,460.954,-3.428e-21,2.57398e-22,246.251,1.63657e-40,71.5875
36.258,460.954,-6.85599e-22,3.21747e-23,246.251,2.25461e-42,71.5875
37.258,460.954,-1.3712e-22,4.02184e-24,246.251,3.10606e-44,71.5875
38.258,460.954,-2.7424e-23,5.0273e-25,246.251,4.27906e-46,71.5875
39.258,460.954,-5.4848e-24,6.28412e-26,246.251,5.89503e-48,71.5875
40.258,460.954,-1.09696e-24,7.85515e-27,246.251,8.12126e-50,71.5875
41.258,460.954,-2.19392e-25,9.81894e-28,246.251,1.11882e-51,71.5875
42.258,460.954,-4.38784e-26,1.22737e-28,246.251,1.54134e-53,71.5875
43.258,460.954,-8.77567e-27,1.53421e-29,246.251,2.12343e-55,71.5875
44.258,460.954,-1.75513e-27,1.91776e-30,246.251,2.92533e-57,71.5875
45.258,460.954,-3.51027e-28,2.3972e-31,246.251,4.03007e-59,71.5875
46.258,460.954,-7.02054e-29,2.9965e-32,246.251,5.55202e-61,71.5875
47.258,460.954,-1.40411e-29,3.74563e-33,246.251,7.64872e-63,71.5875
48.258,460.954,-2.80822e-30,4.68203e-34,246.251,1.05372e-64,71.5875
49.258,460.954,-5.61643e-31,5.85254e-35,246.251,1.45166e-66,71.5875
50.258,460.954,-1.12329e-31,7.31568e-36,246.251,1.99987e-68,71.5875
51.258,460.954,-2.24657e-32,9.1446e-37,246.251,2.75512e-70,71.5875
52.258,460.954,-4.49314e-33,1.14307e-37,246.251,3.79558e-72,71.5875
53.258,460.954,-8.98629e-34,1.42884e-38,246.251,5.22897e-74,71.5875
54.258,460.954,-1.79726e-34,1.78605e-39,246.251,7.20367e-76,71.5875
55.258,460.954,-3.59452e-35,2.23257e-40,246.251,9.92411e-78,71.5875
56.258,460.954,-7.18903e-36,2.79071e-41,246.251,1.36719e-79,71.5875
57.258,460.954,-1.43781e-36,3.48839e-42,246.251,1.88351e-81,71.5875
58.258,460.954,-2.87561e-37,4.36048e-43,246.251,2.59481e-83,71.5875
59.258,460.954,-5.75122e-38,5.4506e-44,246.251,3.57473e-85,71.5875
60.258,460.954,-1.15024e-38,6.81326e-45,246.251,4.92471e-87,71.5875
61.258,460.954,-2.30049e-39,8.51657e-46,246.251,6.78451e-89,71.5875
62.258,460.954,-4.60098e-40,1.06457e-46,246.251,9.34666e-91,71.5875
63.258,460.954,-9.20196e-41,1.33071e-47,246.251,1.28764e-92,71.5875
64.258,460.954,-1.84039e-41,1.66339e-48,246.251,1.77391e-94,71.5875
65.258,460.954,-3.68078e-42,2.07924e-49,246.251,2.44383e-96,71.5875
66.258,460.954,-7.36157e-43,2.59905e-50,246.251,3.36673e-98,71.5875
67.258,460.954,-1.47231e-43,3.24881e-51,246.251,4.63816e-100,71.5875
68.258,460.954,-2.94463e-44,4.06102e-52,246.251,6.38975e-102,71.5875
69.258,460.954,-5.88925e-45,5.07627e-53,246.251,8.80282e-104,71.5875
70.258,460.954,-1.17785e-45,6.34534e-54,246.251,1.21272e-105,71.5875
71.258,460.954,-2.3557e-46,7.93167e-55,246.251,1.6707e-107,71.5875
72.258,460.954,-4.7114e-47,9.91459e-56,246.251,2.30163e-109,71.5875
73.258,460.954,-9.42281e-48,1.23932e-56,246.251,3.17083e-111,71.5875
74.258,460.954,-1.88456e-48,1.54916e-57,246.251,4.36829e-113,71.5875
75.258,460.954,-3.76912e-49,1.93644e-58,246.251,6.01795e-115,71.5875
76.258,460.954,-7.53825e-50,2.42055e-59,246.251,8.29061e-117,71.5875
77.258,460.954,-1.50765e-50,3.02569e-60,246.251,1.14215e-118,71.5875
78.258,460.954,-3.0153e-51,3.78212e-61,246.251,1.57348e-120,71.5875
79.258,460.954,-6.0306e-52,4.72765e-62,246.251,2.16771e-122,71.5875
80.258,460.954,-1.20612e-52,5.90956e-63,246.251,2.98633e-124,71.5875
81.258,460.954,-2.41224e-53,7.38695e-64,246.251,4.11411e-126,71.5875
82.258,460.954,-4.82448e-54,9.23368e-65,246.251,5.66779e-128,71.5875
83.258,460.954,-9.64895e-55,1.15421e-65,246.251,7.80821e-130,71.5875
84.258,460.954,-1.92979e-55,1.44276e-66,246.251,1.0757e-131,71.5875
85.258,460.954,-3.85958e-56,1.80345e-67,246.251,1.48193e-133,71.5875
86.258,460.954,-7.71916e-57,2.25432e-68,246.251,2.04158e-135,71.5875
87.258,460.954,-1.54383e-57,2.8179e-69,246.251,2.81257e-137,71.5875
88.258,460.954,-3.08767e-58,3.52237e-70,246.251,3.87473e-139,71.5875
89.258,460.954,-6.17533e-59,4.40296e-71,246.251,5.338e-141,71.5875
90.258,460.954,-1.23507e-59,5.5037e-72,246.251,7.35388e-143,71.5875
91.258,460.954,-2.47013e-60,6.87963e-73,246.251,1.01311e-144,71.5875
92.258,460.954,-4.94026e-61,8.59954e-74,246.251,1.3957e-146,71.5875
93.258,460.954,-9.88053e-62,1.07494e-74,246.251,1.92278e-148,71.5875
94.258,460.954,-1.97611e-62,1.34368e-75,246.251,2.64892e-150,71.5875
95.258,460.954,-3.95221e-63,1.6796e-76,246.251,3.64927e-152,71.5875
96.258,460.954,-7.90442e-64,2.0995e-77,246.251,5.02741e-154,71.5875
97.258,460.954,-1.58088e-64,2.62437e-78,246.251,6.92599e-156,71.5875
98.258,460.954,-3.16177e-65,3.28046e-79,246.251,9.54157e-158,71.5875
99.258,460.954,-6.32354e-66,4.10058e-80,246.251,1.31449e-159,71.5875
100,460.954,-1.59364e-66,6.6203e-81,246.251,2.42896e-161,71.5875
