#Time,D,C,E,B,X,A
0,32.4314,5.77268,129.708,40.2655,19.8417,34.8697
3.1e-5,32.4603,5.77196,129.68,40.2869,19.8203,34.8483
0.000106,32.53,5.77023,129.612,40.3386,19.7686,34.7966
0.000235839,32.6508,5.76723,129.494,40.4276,19.6797,34.7076
0.000854405,33.2245,5.75298,128.935,40.8431,19.2641,34.2921
0.00173633,34.0383,5.73272,128.141,41.4123,18.6949,33.7229
0.00341877,35.577,5.69427,126.641,42.4281,17.6791,32.7071
0.00560881,37.5533,5.64461,124.714,43.6281,16.4791,31.5071
0.00796715,39.6483,5.59161,122.672,44.7868,15.3204,30.3483
0.0110224,42.3119,5.52369,120.077,46.1145,13.9927,29.0207
0.0154061,46.0366,5.42768,116.448,47.7408,12.3664,27.3944
0.0205292,50.2487,5.31759,112.346,49.3152,10.792,25.8199
0.0255379,54.2249,5.21211,108.475,50.5932,9.51406,24.542
0.0316329,58.8812,5.08657,103.945,51.8817,8.22551,23.2535
0.0379175,63.4811,4.9603,99.4709,52.9749,7.13235,22.1603
0.0446907,68.2198,4.82772,94.8648,53.948,6.15918,21.1871
0.0517282,72.9138,4.69371,90.3048,54.7851,5.32212,20.3501
0.0595693,77.8818,4.54878,85.4817,55.5559,4.55134,19.5793
0.0678967,82.8713,4.39976,80.6413,56.2294,3.8778,18.9058
0.076741,87.8653,4.24683,75.8002,56.8177,3.28953,18.3175
0.0865201,93.0434,4.08391,70.785,57.3498,2.75744,17.7854
0.0966945,98.0723,3.92104,65.9189,57.8008,2.30646,17.3344
0.107924,103.228,3.74881,60.9355,58.2043,1.90293,16.9309
0.119832,108.275,3.57444,56.0625,58.5484,1.5588,16.5868
0.132451,113.191,3.39849,51.3224,58.8404,1.2668,16.2948
0.14634,118.13,3.21483,46.5676,59.0951,1.01209,16.04
0.160778,122.786,3.03443,42.0913,59.3031,0.80412,15.8321
0.176697,127.412,2.84723,37.6529,59.4813,0.6259,15.6539
0.193597,131.799,2.66113,33.452,59.6262,0.481023,15.509
0.211522,135.928,2.477,29.5072,59.7425,0.364672,15.3926
0.231365,139.944,2.28799,25.6804,59.8383,0.268954,15.2969
0.25205,143.587,2.10631,22.2187,59.9111,0.196155,15.2241
0.275045,147.076,1.92121,18.9153,59.9689,0.138311,15.1663
0.299651,150.249,1.74113,15.9224,60.0119,0.0952845,15.1232
0.325939,153.099,1.56734,13.2463,60.0432,0.064053,15.092
0.355549,155.753,1.39228,10.7665,60.0662,0.0409822,15.0689
0.386676,158.024,1.22928,8.65858,60.0816,0.0256428,15.0536
0.423015,160.135,1.06298,6.71387,60.0924,0.0148391,15.0428
0.460216,161.822,0.916011,5.17463,60.0987,0.00847912,15.0364
0.498302,163.162,0.78657,3.96362,60.1024,0.00478162,15.0327
0.536389,164.201,0.675421,3.03602,60.1045,0.0026968,15.0307
0.581322,165.131,0.564308,2.21669,60.1058,0.00137278,15.0293
0.636388,165.952,0.452749,1.50766,60.1066,0.000600509,15.0286
0.702517,166.616,0.34752,0.949012,60.107,0.000222488,15.0282
0.764983,167.029,0.270685,0.612871,60.1071,8.69519e-5,15.028
0.830613,167.317,0.208188,0.38713,60.1072,3.2477e-5,15.028
0.906676,167.531,0.153575,0.227315,60.1072,1.03602e-5,15.028
0.980681,167.663,0.114225,0.135409,60.1072,3.39949e-6,15.028
1.06487,167.756,0.0815652,0.0751146,60.1072,9.66449e-7,15.028
1.15683,167.816,0.0564622,0.0394636,60.1072,2.4513e-7,15.028
1.25632,167.855,0.0379248,0.0196697,60.1072,5.59536e-8,15.028
1.36742,167.879,0.024318,0.00904013,60.1072,1.19314e-8,15.028
1.48542,167.893,0.0151691,0.00395953,60.1072,1.95903e-9,15.028
1.63098,167.902,0.00847439,0.00143219,60.1072,6.48977e-10,15.028
1.78616,167.907,0.00455569,0.000484281,60.1072,1.2875e-10,15.028
1.98164,167.91,0.00208501,0.000125257,60.1072,3.72399e-11,15.028
2.2471,167.912,0.000722549,2.05313e-5,60.1072,2.32337e-10,15.028
2.53175,167.912,0.000232365,3.09018e-6,60.1072,-3.79466e-11,15.028
2.95086,167.912,4.53852e-5,4.06705e-7,60.1072,6.22581e-11,15.028
3.41194,167.912,7.08016e-6,-1.54659e-7,60.1072,8.34663e-11,15.028
4.08662,167.912,1.97322e-6,-1.30735e-7,60.1072,-5.86095e-11,15.028
4.871,167.912,5.36373e-9,1.02087e-7,60.1072,3.3784e-10,15.028
5.871,167.912,2.53442e-7,-2.69638e-9,60.1072,1.73589e-11,15.028
6.871,167.912,-3.53647e-7,2.70883e-9,60.1072,-4.50239e-11,15.028
7.871,167.912,9.75026e-8,1.86796e-8,60.1072,1.37118e-10,15.028
8.871,167.912,7.74679e-8,-3.99851e-9,60.1072,3.30653e-11,15.028
9.871,167.912,-9.41549e-8,3.80347e-9,60.1072,-1.22135e-11,15.028
10.871,167.912,6.53962e-7,-2.38829e-8,60.1072,-3.24271e-12,15.028
11.871,167.912,-4.71127e-7,1.12004e-8,60.1072,2.32363e-12,15.028
12.871,167.912,5.63959e-7,-1.54445e-8,60.1072,2.76486e-12,15.028
13.871,167.912,-4.5761e-7,8.8912e-9,60.1072,5.58726e-13,15.028
14.871,167.912,2.62641e-7,-6.53228e-9,60.1072,3.00894e-13,15.028
15.871,167.912,-4.38001e-8,1.63608e-9,60.1072,7.03484e-13,15.028
16.871,167.912,-3.90796e-8,7.15147e-10,60.1072,1.01141e-13,15.028
17.871,167.912,-1.02289e-8,7.20298e-11,60.1072,-9.0428e-15,15.028
18.871,167.912,-1.66922e-10,-2.51193e-11,60.1072,-4.15395e-15,15.028
19.871,167.912,8.69205e-10,-1.01475e-11,60.1072,-2.29097e-16,15.028
20.871,167.912,1.73841e-10,-1.26843e-12,60.1072,-1.42936e-17,15.028
21.871,167.912,3.47682e-11,-1.58554e-13,60.1072,-8.9179e-19,15.028
22.871,167.912,6.95364e-12,-1.98193e-14,60.1072,-5.56396e-20,15.028
23.871,167.912,1.39073e-12,-2.47741e-15,60.1072,-3.47141e-21,15.028
24.871,167.912,2.78145e-13,-3.09676e-16,60.1072,-2.16585e-22,15.028
25.871,167.912,5.56291e-14,-3.87095e-17,60.1072,-1.35129e-23,15.028
26.871,167.912,1.11258e-14,-4.83869e-18,60.1072,-8.43085e-25,15.028
27.871,167.912,2.22516e-15,-6.04836e-19,60.1072,-5.26009e-26,15.028
28.871,167.912,4.45033e-16,-7.56045e-20,60.1072,-3.28182e-27,15.028
29.871,167.912,8.90066e-17,-9.45057e-21,60.1072,-2.04756e-28,15.028
30.871,167.912,1.78013e-17,-1.18132e-21,60.1072,-1.27749e-29,15.028
31.871,167.912,3.56026e-18,-1.47665e-22,60.1072,-7.9704e-31,15.028
32.871,167.912,7.12052e-19,-1.84581e-23,60.1072,-4.97281e-32,15.028
33.871,167.912,1.4241e-19,-2.30727e-24,60.1072,-3.10258e-33,15.028
34.871,167.912,2.84821e-20,-2.88408e-25,60.1072,-1.93573e-34,15.028
35.871,167.912,5.69642e-21,-3.60511e-26,60.1072,-1.20772e-35,15.028
36.871,167.912,1.13928e-21,-4.50638e-27,60.1072,-7.53509e-37,15.028
37.871,167.912,2.27857e-22,-5.63298e-28,60.1072,-4.70122e-38,15.028
38.871,167.912,4.55714e-23,-7.04122e-29,60.1072,-2.93314e-39,15.028
39.871,167.912,9.11427e-24,-8.80153e-30,60.1072,-1.83001e-40,15.028
40.871,167.912,1.82285e-24,-1.10019e-30,60.1072,-1.14176e-41,15.028
41.871,167.912,3.64571e-25,-1.37524e-31,60.1072,-7.12357e-43,15.028
42.871,167.912,7.29142e-26,-1.71905e-32,60.1072,-4.44446e-44,15.028
43.871,167.912,1.45828e-26,-2.14881e-33,60.1072,-2.77294e-45,15.028
44.871,167.912,2.91657e-27,-2.68601e-34,60.1072,-1.73007e-46,15.028
45.871,167.912,5.83313e-28,-3.35752e-35,60.1072,-1.0794e-47,15.028
46.871,167.912,1.16663e-28,-4.1969e-36,60.1072,-6.73451e-49,15.028
47.871,167.912,2.33325e-29,-5.24612e-37,60.1072,-4.20173e-50,15.028
48.871,167.912,4.66651e-30,-6.55765e-38,60.1072,-2.6215e-51,15.028
49.871,167.912,9.33301e-31,-8.19706e-39,60.1072,-1.63558e-52,15.028
50.871,167.912,1.8666e-31,-1.02463e-39,60.1072,-1.02045e-53,15.028
51.871,167.912,3.73321e-32,-1.28079e-40,60.1072,-6.36671e-55,15.028
52.871,167.912,7.46641e-33,-1.60099e-41,60.1072,-3.97225e-56,15.028
53.871,167.912,1.49328e-33,-2.00124e-42,60.1072,-2.47833e-57,15.028
54.871,167.912,2.98656e-34,-2.50154e-43,60.1072,-1.54625e-58,15.028
55.871,167.912,5.97313e-35,-3.12693e-44,60.1072,-9.64721e-60,15.028
56.871,167.912,1.19463e-35,-3.90866e-45,60.1072,-6.01899e-61,15.028
57.871,167.912,2.38925e-36,-4.88583e-46,60.1072,-3.75531e-62,15.028
58.871,167.912,4.7785e-37,-6.10729e-47,60.1072,-2.34297e-63,15.028
59.871,167.912,9.55701e-38,-7.63411e-48,60.1072,-1.4618e-64,15.028
60.871,167.912,1.9114e-38,-9.54263e-49,60.1072,-9.12033e-66,15.028
61.871,167.912,3.8228e-39,-1.19283e-49,60.1072,-5.69026e-67,15.028
62.871,167.912,7.6456e-40,-1.49104e-50,60.1072,-3.55021e-68,15.028
63.871,167.912,1.52912e-40,-1.8638e-51,60.1072,-2.21501e-69,15.028
64.871,167.912,3.05824e-41,-2.32974e-52,60.1072,-1.38197e-70,15.028
65.871,167.912,6.11648e-42,-2.91218e-53,60.1072,-8.62223e-72,15.028
66.871,167.912,1.2233e-42,-3.64023e-54,60.1072,-5.37949e-73,15.028
67.871,167.912,2.44659e-43,-4.55028e-55,60.1072,-3.35632e-74,15.028
68.871,167.912,4.89319e-44,-5.68785e-56,60.1072,-2.09404e-75,15.028
69.871,167.912,9.78637e-45,-7.10982e-57,60.1072,-1.30649e-76,15.028
70.871,167.912,1.95727e-45,-8.88727e-58,60.1072,-8.15132e-78,15.028
71.871,167.912,3.91455e-46,-1.11091e-58,60.1072,-5.08569e-79,15.028
72.871,167.912,7.8291e-47,-1.38864e-59,60.1072,-3.17301e-80,15.028
73.871,167.912,1.56582e-47,-1.7358e-60,60.1072,-1.97967e-81,15.028
74.871,167.912,3.13164e-48,-2.16974e-61,60.1072,-1.23514e-82,15.028
75.871,167.912,6.26328e-49,-2.71218e-62,60.1072,-7.70614e-84,15.028
76.871,167.912,1.25266e-49,-3.39022e-63,60.1072,-4.80794e-85,15.028
77.871,167.912,2.50531e-50,-4.23778e-64,60.1072,-2.99972e-86,15.028
78.871,167.912,5.01062e-51,-5.29723e-65,60.1072,-1.87155e-87,15.028
79.871,167.912,1.00212e-51,-6.62153e-66,60.1072,-1.16768e-88,15.028
80.871,167.912,2.00425e-52,-8.27692e-67,60.1072,-7.28527e-90,15.028
81.871,167.912,4.0085e-53,-1.03461e-67,60.1072,-4.54535e-91,15.028
82.871,167.912,8.017e-54,-1.29327e-68,60.1072,-2.83589e-92,15.028
83.871,167.912,1.6034e-54,-1.61659e-69,60.1072,-1.76934e-93,15.028
84.871,167.912,3.2068e-55,-2.02073e-70,60.1072,-1.10391e-94,15.028
85.871,167.912,6.4136e-56,-2.52591e-71,60.1072,-6.88739e-96,15.028
86.871,167.912,1.28272e-56,-3.15739e-72,60.1072,-4.29711e-97,15.028
87.871,167.912,2.56544e-57,-3.94674e-73,60.1072,-2.68101e-98,15.028
88.871,167.912,5.13088e-58,-4.93343e-74,60.1072,-1.67271e-99,15.028
89.871,167.912,1.02618e-58,-6.16678e-75,60.1072,-1.04362e-100,15.028
90.871,167.912,2.05235e-59,-7.70848e-76,60.1072,-6.51123e-102,15.028
91.871,167.912,4.1047e-60,-9.6356e-77,60.1072,-4.06242e-103,15.028
92.871,167.912,8.20941e-61,-1.20445e-77,60.1072,-2.53458e-104,15.028
93.871,167.912,1.64188e-61,-1.50556e-78,60.1072,-1.58135e-105,15.028
94.871,167.912,3.28376e-62,-1.88195e-79,60.1072,-9.86621e-107,15.028
95.871,167.912,6.56752e-63,-2.35244e-80,60.1072,-6.15562e-108,15.028
96.871,167.912,1.3135e-63,-2.94055e-81,60.1072,-3.84055e-109,15.028
97.871,167.912,2.62701e-64,-3.67569e-82,60.1072,-2.39616e-110,15.028
98.871,167.912,5.25402e-65,-4.59461e-83,60.1072,-1.49499e-111,15.028
99.871,167.912,1.0508e-65,-5.74326e-84,60.1072,-9.32736e-113,15.028
100,167.912,6.93146e-66,-3.01802e-84,60.1072,-3.1741e-113,15.028
