#Time,D,C,E,B,X,A
0,101.745,11.4093,0,0,536.205,67.0582
0,101.745,11.4093,0,0.00719052,536.198,67.051
0,101.745,11.4093,0,0.01705,536.188,67.0411
0,101.745,11.4093,0,0.0269079,536.178,67.0313
0,101.745,11.4093,0,0.0367642,536.168,67.0214
0,101.745,11.4093,0,0.0466188,536.158,67.0116
0,101.745,11.4092,0,0.0564718,536.148,67.0017
0,101.745,11.4092,0,0.0663232,536.138,66.9919
0,101.745,11.4092,0,0.0761729,536.129,66.982
0,101.745,11.4092,0,0.086021,536.119,66.9722
0,101.745,11.4092,0,0.0958675,536.109,66.9623
0,101.745,11.4092,0,0.105712,536.099,66.9525
0,101.745,11.4092,0,0.115556,536.089,66.9426
0,101.745,11.4092,0,0.125397,536.079,66.9328
0,101.745,11.4091,0,0.135237,536.07,66.923
0,101.745,11.4091,0,0.145075,536.06,66.9131
0,101.745,11.4091,0,0.154912,536.05,66.9033
0,101.745,11.4091,0,0.164747,536.04,66.8934
0,101.745,11.4091,0,0.174581,536.03,66.8836
0,101.745,11.4091,0,0.184413,536.02,66.8738
0,101.745,11.4091,0,0.194243,536.011,66.8639
0,101.745,11.4091,0,0.204071,536.001,66.8541
0,101.745,11.409,0,0.213898,535.991,66.8443
0,101.745,11.409,0,0.223724,535.981,66.8345
0,101.745,11.409,0,0.233547,535.971,66.8246
0,101.745,11.409,0,0.243369,535.961,66.8148
0,101.745,11.409,0,0.25319,535.952,66.805
0,101.745,11.409,0,0.263009,535.942,66.7952
0,101.745,11.409,0,0.272826,535.932,66.7854
0,101.745,11.409,0,0.282642,535.922,66.7755
0,101.745,11.4089,0,0.292456,535.912,66.7657
0,101.745,11.4089,0,0.302268,535.903,66.7559
0,101.745,11.4089,0,0.312079,535.893,66.7461
0,101.745,11.4089,0,0.321888,535.883,66.7363
0,101.745,11.4089,0,0.331695,535.873,66.7265
0,101.745,11.4089,0,0.341501,535.863,66.7167
0,101.745,11.4089,0,0.351305,535.853,66.7069
0,101.745,11.4089,0,0.361108,535.844,66.6971
0,101.745,11.4088,0,0.370909,535.834,66.6873
0,101.745,11.4088,0,0.380708,535.824,66.6775
0,101.745,11.4088,0,0.390506,535.814,66.6677
0,101.745,11.4088,0,0.400302,535.804,66.6579
0,101.745,11.4088,0,0.410097,535.795,66.6481
0,101.745,11.4088,0,0.41989,535.785,66.6383
0,101.745,11.4088,0,0.429681,535.775,66.6285
0,101.745,11.4088,0,0.439471,535.765,66.6187
0,101.745,11.4087,0,0.449259,535.756,66.6089
0,101.745,11.4087,0,0.459045,535.746,66.5991
0,101.745,11.4087,0,0.46883,535.736,66.5894
0,101.745,11.4087,0,0.478613,535.726,66.5796
0,101.745,11.4087,0,0.488395,535.716,66.5698
0,101.745,11.4087,0,0.498175,535.707,66.56
0,101.745,11.4087,0,0.507953,535.697,66.5502
0,101.745,11.4086,0,0.51773,535.687,66.5405
0,101.745,11.4086,0,0.527505,535.677,66.5307
0,101.745,11.4086,0,0.537279,535.668,66.5209
0,101.745,11.4086,0,0.547051,535.658,66.5111
0,101.745,11.4086,0,0.556821,535.648,66.5014
0,101.745,11.4086,0,0.56659,535.638,66.4916
0,101.745,11.4086,0,0.576357,535.628,66.4818
0,101.745,11.4086,0,0.586122,535.619,66.4721
0,101.745,11.4085,0,0.595886,535.609,66.4623
0,101.745,11.4085,0,0.605648,535.599,66.4525
0,101.745,11.4085,0,0.615409,535.589,66.4428
0,101.746,11.4085,0,0.627843,535.577,66.4303
0,101.746,11.4085,0,0.640275,535.565,66.4179
0,101.746,11.4085,0,0.652705,535.552,66.4055
0,101.746,11.4085,0,0.665132,535.54,66.3931
0,101.746,11.4084,0,0.677556,535.527,66.3806
0,101.746,11.4084,0,0.689977,535.515,66.3682
0,101.746,11.4084,0,0.702396,535.502,66.3558
0,101.746,11.4084,0,0.714813,535.49,66.3434
0,101.746,11.4084,0,0.727227,535.478,66.331
0,101.746,11.4084,0,0.739638,535.465,66.3186
0,101.746,11.4083,0,0.752046,535.453,66.3061
0,101.746,11.4083,0,0.764452,535.44,66.2937
0,101.746,11.4083,0,0.776855,535.428,66.2813
0,101.746,11.4083,0,0.789256,535.416,66.2689
0,101.746,11.4083,0,0.801654,535.403,66.2565
0,101.746,11.4083,0,0.81405,535.391,66.2441
0,101.746,11.4083,0,0.826443,535.378,66.2317
0,101.746,11.4082,0,0.838833,535.366,66.2194
0,101.746,11.4082,0,0.851221,535.354,66.207
0,101.746,11.4082,0,0.863606,535.341,66.1946
0,101.746,11.4082,0,0.875988,535.329,66.1822
0,101.746,11.4082,0,0.888368,535.316,66.1698
0,101.746,11.4082,0,0.900745,535.304,66.1574
0,101.746,11.4081,0,0.91312,535.292,66.1451
0,101.746,11.4081,0,0.925492,535.279,66.1327
0,101.746,11.4081,0,0.937861,535.267,66.1203
0,101.746,11.4081,0,0.950228,535.255,66.108
0,101.746,11.4081,0,0.962593,535.242,66.0956
0,101.746,11.4081,0,0.974954,535.23,66.0832
0,101.746,11.408,0,0.987313,535.217,66.0709
0,101.746,11.408,0,0.99967,535.205,66.0585
0,101.746,11.408,0,1.01202,535.193,66.0462
0,101.746,11.408,0,1.02437,535.18,66.0338
0,101.746,11.408,0,1.03672,535.168,66.0215
0,101.746,11.408,0,1.04907,535.156,66.0091
0,101.746,11.408,0,1.06141,535.143,65.9968
0,101.746,11.4079,0,1.07375,535.131,65.9844
0,101.746,11.4079,0,1.08609,535.119,65.9721
0,101.746,11.4079,0,1.09843,535.106,65.9598
0,101.746,11.4079,0,1.11076,535.094,65.9474
0,101.746,11.4079,0,1.12309,535.082,65.9351
0,101.746,11.4079,0,1.13542,535.069,65.9228
0,101.746,11.4078,0,1.14775,535.057,65.9104
0,101.746,11.4078,0,1.16007,535.045,65.8981
0,101.746,11.4078,0,1.17239,535.032,65.8858
0,101.746,11.4078,0,1.18471,535.02,65.8735
0,101.746,11.4078,0,1.19702,535.008,65.8612
0,101.746,11.4078,0,1.20933,534.995,65.8489
0,101.746,11.4077,0,1.22164,534.983,65.8365
0,101.746,11.4077,0,1.23395,534.971,65.8242
0,101.746,11.4077,0,1.24625,534.959,65.8119
0,101.746,11.4077,0,1.25856,534.946,65.7996
0,101.746,11.4077,0,1.27086,534.934,65.7873
0,101.746,11.4077,0,1.28315,534.922,65.775
0,101.746,11.4076,0,1.29545,534.909,65.7627
0,101.746,11.4076,0,1.30774,534.897,65.7505
0,101.746,11.4076,0,1.32003,534.885,65.7382
0,101.746,11.4076,0,1.33232,534.872,65.7259
0,101.746,11.4076,0,1.3446,534.86,65.7136
0,101.746,11.4076,0,1.35688,534.848,65.7013
0,101.746,11.4076,0,1.36916,534.836,65.689
0,101.746,11.4075,0,1.38144,534.823,65.6768
0,101.746,11.4075,0,1.39371,534.811,65.6645
0,101.747,11.4075,0,1.40598,534.799,65.6522
0,101.747,11.4075,0,1.41825,534.787,65.6399
0,101.747,11.4075,0,1.43052,534.774,65.6277
0,101.747,11.4075,0,1.44278,534.762,65.6154
0,101.747,11.4074,0,1.45504,534.75,65.6032
0,101.747,11.4074,0,1.4673,534.738,65.5909
0,101.747,11.4074,0,1.47955,534.725,65.5786
0,101.747,11.4074,0,1.49181,534.713,65.5664
0,101.747,11.4074,0,1.50406,534.701,65.5541
0,101.747,11.4074,0,1.51631,534.688,65.5419
0,101.747,11.4073,0,1.52855,534.676,65.5296
0,101.747,11.4073,0,1.54079,534.664,65.5174
0,101.747,11.4073,0,1.55303,534.652,65.5052
0,101.747,11.4073,0,1.56527,534.64,65.4929
0,101.747,11.4073,0,1.57751,534.627,65.4807
0,101.747,11.4073,0,1.59311,534.612,65.4651
0,101.747,11.4072,0,1.60871,534.596,65.4495
0,101.747,11.4072,0,1.6243,534.58,65.4339
0,101.747,11.4072,0,1.63989,534.565,65.4183
0,101.747,11.4072,0,1.65548,534.549,65.4027
0,101.747,11.4072,0,1.67106,534.534,65.3871
0,101.747,11.4071,0,1.68664,534.518,65.3716
0,101.747,11.4071,0,1.70221,534.503,65.356
0,101.747,11.4071,0,1.71778,534.487,65.3404
0,101.747,11.4071,0,1.73335,534.471,65.3248
0,101.747,11.4071,0,1.74891,534.456,65.3093
0,101.747,11.407,0,1.76447,534.44,65.2937
0,101.747,11.407,0,1.78002,534.425,65.2782
0,101.747,11.407,0,1.79557,534.409,65.2626
0,101.747,11.407,0,1.81111,534.394,65.2471
0,101.747,11.407,0,1.82665,534.378,65.2315
0,101.747,11.4069,0,1.84219,534.363,65.216
0,101.747,11.4069,0,1.85772,534.347,65.2005
0,101.747,11.4069,0,1.87325,534.332,65.1849
0,101.747,11.4069,0,1.88877,534.316,65.1694
0,101.747,11.4069,0,1.90429,534.301,65.1539
0,101.747,11.4068,0,1.91981,534.285,65.1384
0,101.747,11.4068,0,1.93532,534.269,65.1229
0,101.747,11.4068,0,1.95083,534.254,65.1074
0,101.747,11.4068,0,1.96633,534.238,65.0919
0,101.747,11.4068,0,1.98183,534.223,65.0764
0,101.747,11.4067,0,1.99732,534.207,65.0609
0,101.747,11.4067,0,2.01281,534.192,65.0454
0,101.747,11.4067,0,2.0283,534.176,65.0299
0,101.747,11.4067,0,2.04378,534.161,65.0144
0,101.747,11.4067,0,2.05926,534.146,64.9989
0,101.747,11.4066,0,2.07474,534.13,64.9835
0,101.747,11.4066,0,2.09021,534.115,64.968
0,101.747,11.4066,0,2.10567,534.099,64.9525
0,101.747,11.4066,0,2.12113,534.084,64.9371
0,101.747,11.4065,0,2.13659,534.068,64.9216
0,101.747,11.4065,0,2.15204,534.053,64.9061
0,101.748,11.4065,0,2.16749,534.037,64.8907
0,101.748,11.4065,0,2.18294,534.022,64.8753
0,101.748,11.4065,0,2.19838,534.006,64.8598
0,101.748,11.4064,0,2.21382,533.991,64.8444
0,101.748,11.4064,0,2.22925,533.976,64.8289
0,101.748,11.4064,0,2.24468,533.96,64.8135
0,101.748,11.4064,0,2.2601,533.945,64.7981
0,101.748,11.4064,0,2.27552,533.929,64.7827
0,101.748,11.4063,0,2.29094,533.914,64.7673
0,101.748,11.4063,0,2.30635,533.898,64.7518
0,101.748,11.4063,0,2.32176,533.883,64.7364
0,101.748,11.4063,0,2.33716,533.868,64.721
0,101.748,11.4063,0,2.35256,533.852,64.7056
0,101.748,11.4062,0,2.36796,533.837,64.6902
0,101.748,11.4062,0,2.38335,533.821,64.6748
0,101.748,11.4062,0,2.39874,533.806,64.6595
0,101.748,11.4062,0,2.41412,533.791,64.6441
0,101.748,11.4062,0,2.4295,533.775,64.6287
0,101.748,11.4061,0,2.44488,533.76,64.6133
0,101.748,11.4061,0,2.46025,533.745,64.5979
0,101.748,11.4061,0,2.47562,533.729,64.5826
0,101.748,11.4061,0,2.49098,533.714,64.5672
0,101.748,11.4061,0,2.50634,533.698,64.5519
0,101.748,11.406,0,2.52169,533.683,64.5365
0,101.748,11.406,0,2.53704,533.668,64.5211
0,101.748,11.406,0,2.55239,533.652,64.5058
0,101.748,11.406,0,2.56773,533.637,64.4905
0,101.748,11.406,0,2.58307,533.622,64.4751
0,101.748,11.4059,0,2.59841,533.606,64.4598
0,101.748,11.4059,0,2.61374,533.591,64.4445
0,101.748,11.4059,0,2.62906,533.576,64.4291
0,101.748,11.4059,0,2.64438,533.56,64.4138
0,101.748,11.4059,0,2.6597,533.545,64.3985
0,101.748,11.4058,0,2.67502,533.53,64.3832
0,101.748,11.4058,0,2.69033,533.514,64.3679
0,101.748,11.4058,0,2.70563,533.499,64.3526
0,101.748,11.4058,0,2.72093,533.484,64.3373
0,101.748,11.4058,0,2.73623,533.469,64.322
0,101.748,11.4057,0,2.75152,533.453,64.3067
0,101.748,11.4057,0,2.76681,533.438,64.2914
0,101.748,11.4057,0,2.7821,533.423,64.2761
0,101.748,11.4057,0,2.79738,533.407,64.2608
0,101.748,11.4057,0,2.81266,533.392,64.2455
0,101.748,11.4056,0,2.82793,533.377,64.2303
0,101.748,11.4056,0,2.8432,533.362,64.215
0,101.748,11.4056,0,2.85847,533.346,64.1997
0,101.748,11.4056,0,2.87373,533.331,64.1845
0,101.748,11.4056,0,2.88898,533.316,64.1692
0,101.748,11.4055,0,2.90424,533.301,64.154
0,101.748,11.4055,0,2.91949,533.285,64.1387
0,101.749,11.4055,0,2.93473,533.27,64.1235
0,101.749,11.4055,0,2.94997,533.255,64.1082
0,101.749,11.4055,0,2.96521,533.24,64.093
0,101.749,11.4054,0,2.98044,533.224,64.0777
0,101.749,11.4054,0,2.99567,533.209,64.0625
0,101.749,11.4054,0,3.01089,533.194,64.0473
0,101.749,11.4054,0,3.02611,533.179,64.0321
0,101.749,11.4053,0,3.04133,533.163,64.0169
0,101.749,11.4053,0,3.05654,533.148,64.0016
0,101.749,11.4053,0,3.07591,533.129,63.9823
0,101.749,11.4053,0,3.09528,533.11,63.9629
0,101.749,11.4053,0,3.11464,533.09,63.9436
0,101.749,11.4052,0,3.13399,533.071,63.9242
0,101.749,11.4052,0,3.15333,533.051,63.9049
0,101.749,11.4052,0,3.17267,533.032,63.8855
0,101.749,11.4051,0,3.192,533.013,63.8662
0,101.749,11.4051,0,3.21133,532.993,63.8469
0,101.749,11.4051,0,3.23065,532.974,63.8275
0,101.749,11.4051,0,3.24996,532.955,63.8082
0,101.749,11.405,0,3.26927,532.936,63.7889
0,101.749,11.405,0,3.28857,532.916,63.7696
0,101.749,11.405,0,3.30786,532.897,63.7503
0,101.749,11.405,0,3.32714,532.878,63.731
0,101.749,11.4049,0,3.34642,532.858,63.7118
0,101.749,11.4049,0,3.3657,532.839,63.6925
0,101.749,11.4049,0,3.38496,532.82,63.6732
0,101.749,11.4049,0,3.40422,532.801,63.654
0,101.749,11.4048,0,3.42348,532.781,63.6347
0,101.749,11.4048,0,3.44273,532.762,63.6155
0,101.749,11.4048,0,3.46197,532.743,63.5962
0,101.749,11.4048,0,3.4812,532.724,63.577
0,101.749,11.4047,0,3.50043,532.704,63.5578
0,101.749,11.4047,0,3.51965,532.685,63.5385
0,101.749,11.4047,0,3.53886,532.666,63.5193
0,101.749,11.4047,0,3.55807,532.647,63.5001
0,101.749,11.4046,0,3.57727,532.628,63.4809
0,101.749,11.4046,0,3.59647,532.608,63.4617
0,101.749,11.4046,0,3.61566,532.589,63.4425
0,101.749,11.4046,0,3.63484,532.57,63.4234
0,101.749,11.4045,0,3.65401,532.551,63.4042
0,101.75,11.4045,0,3.67318,532.532,63.385
0,101.75,11.4045,0,3.69235,532.512,63.3658
0,101.75,11.4044,0,3.7115,532.493,63.3467
0,101.75,11.4044,0,3.73065,532.474,63.3275
0,101.75,11.4044,0,3.74979,532.455,63.3084
0,101.75,11.4044,0,3.76893,532.436,63.2893
0,101.75,11.4043,0,3.78806,532.417,63.2701
0,101.75,11.4043,0,3.80718,532.398,63.251
0,101.75,11.4043,0,3.8263,532.378,63.2319
0,101.75,11.4043,0,3.84541,532.359,63.2128
0,101.75,11.4042,0,3.86452,532.34,63.1937
0,101.75,11.4042,0,3.88361,532.321,63.1746
0,101.75,11.4042,0,3.90271,532.302,63.1555
0,101.75,11.4042,0,3.92179,532.283,63.1364
0,101.75,11.4041,0,3.94087,532.264,63.1173
0,101.75,11.4041,0,3.95994,532.245,63.0982
0,101.75,11.4041,0,3.97901,532.226,63.0792
0,101.75,11.4041,0,3.99807,532.207,63.0601
0,101.75,11.404,0,4.01712,532.188,63.0411
0,101.75,11.404,0,4.03617,532.169,63.022
0,101.75,11.404,0,4.05521,532.15,63.003
0,101.75,11.404,0,4.07424,532.131,62.984
0,101.75,11.4039,0,4.09327,532.112,62.9649
0,101.75,11.4039,0,4.11229,532.093,62.9459
0,101.75,11.4039,0,4.1313,532.073,62.9269
0,101.75,11.4039,0,4.15031,532.054,62.9079
0,101.75,11.4038,0,4.16931,532.035,62.8889
0,101.75,11.4038,0,4.1883,532.016,62.8699
0,101.75,11.4038,0,4.20729,531.998,62.8509
0,101.75,11.4037,0,4.22627,531.979,62.8319
0,101.75,11.4037,0,4.24525,531.96,62.8129
0,101.75,11.4037,0,4.26422,531.941,62.794
0,101.75,11.4037,0,4.28318,531.922,62.775
0,101.75,11.4036,0,4.30214,531.903,62.7561
0,101.75,11.4036,0,4.32109,531.884,62.7371
0,101.75,11.4036,0,4.34003,531.865,62.7182
0,101.75,11.4036,0,4.35897,531.846,62.6992
0,101.75,11.4035,0,4.3779,531.827,62.6803
0,101.75,11.4035,0,4.39683,531.808,62.6614
0,101.751,11.4035,0,4.41574,531.789,62.6424
0,101.751,11.4035,0,4.43465,531.77,62.6235
0,101.751,11.4034,0,4.45356,531.751,62.6046
0,101.751,11.4034,0,4.47246,531.732,62.5857
0,101.751,11.4034,0,4.49135,531.713,62.5668
0,101.751,11.4034,0,4.51024,531.695,62.548
0,101.751,11.4033,0,4.52912,531.676,62.5291
0,101.751,11.4033,0,4.54799,531.657,62.5102
0,101.751,11.4033,0,4.56686,531.638,62.4913
0,101.751,11.4033,0,4.58572,531.619,62.4725
0,101.751,11.4032,0,4.60457,531.6,62.4536
0,101.751,11.4032,0,4.62342,531.581,62.4348
0,101.751,11.4032,0,4.64226,531.563,62.4159
0,101.751,11.4032,0,4.6611,531.544,62.3971
0,101.751,11.4031,0,4.67993,531.525,62.3783
0,101.751,11.4031,0,4.69875,531.506,62.3594
0,101.751,11.4031,0,4.71757,531.487,62.3406
0,101.751,11.403,0,4.73638,531.468,62.3218
0,101.751,11.403,0,4.75518,531.45,62.303
0,101.751,11.403,0,4.77398,531.431,62.2842
0,101.751,11.403,0,4.79277,531.412,62.2654
0,101.751,11.4029,0,4.81155,531.393,62.2466
0,101.751,11.4029,0,4.83033,531.374,62.2279
0,101.751,11.4029,0,4.8491,531.356,62.2091
0,101.751,11.4029,0,4.86787,531.337,62.1903
0,101.751,11.4028,0,4.88663,531.318,62.1716
0,101.751,11.4028,0,4.90538,531.299,62.1528
0,101.751,11.4028,0,4.92413,531.281,62.1341
0,101.751,11.4028,0,4.94287,531.262,62.1153
0,101.751,11.4027,0,4.9616,531.243,62.0966
0,101.751,11.4027,0,4.98033,531.224,62.0779
0,101.751,11.4027,0,4.99905,531.206,62.0591
0,101.751,11.4027,0,5.01776,531.187,62.0404
0,101.751,11.4026,0,5.03647,531.168,62.0217
0,101.751,11.4026,0,5.05518,531.15,62.003
0,101.751,11.4026,0,5.07387,531.131,61.9843
0,101.751,11.4026,0,5.09256,531.112,61.9656
0,101.751,11.4025,0,5.11125,531.094,61.9469
0,101.752,11.4025,0,5.12992,531.075,61.9283
0,101.752,11.4025,0,5.14859,531.056,61.9096
0,101.752,11.4025,0,5.16726,531.038,61.8909
0,101.752,11.4024,0,5.18592,531.019,61.8723
0,101.752,11.4024,0,5.20457,531,61.8536
0,101.752,11.4024,0,5.22321,530.982,61.835
0,101.752,11.4023,0,5.24185,530.963,61.8163
0,101.752,11.4023,0,5.26049,530.944,61.7977
0,101.752,11.4023,0,5.27911,530.926,61.7791
0,101.752,11.4023,0,5.30283,530.902,61.7554
0,101.752,11.4022,0,5.32654,530.878,61.7317
0,101.752,11.4022,0,5.35023,530.855,61.708
0,101.752,11.4022,0,5.37392,530.831,61.6843
0,101.752,11.4021,0,5.39759,530.807,61.6606
0,101.752,11.4021,0,5.42126,530.784,61.6369
0,101.752,11.4021,0,5.44491,530.76,61.6133
0,101.752,11.402,0,5.46855,530.736,61.5896
0,101.752,11.402,0,5.49219,530.713,61.566
0,101.752,11.402,0,5.51581,530.689,61.5424
0,101.752,11.4019,0,5.53943,530.665,61.5188
0,101.752,11.4019,0,5.56303,530.642,61.4952
0,101.752,11.4019,0,5.58662,530.618,61.4716
0,101.752,11.4018,0,5.61021,530.595,61.448
0,101.752,11.4018,0,5.63378,530.571,61.4244
0,101.752,11.4018,0,5.65735,530.547,61.4008
0,101.752,11.4017,0,5.6809,530.524,61.3773
0,101.752,11.4017,0,5.70444,530.5,61.3537
0,101.752,11.4017,0,5.72798,530.477,61.3302
0,101.752,11.4016,0,5.7515,530.453,61.3067
0,101.752,11.4016,0,5.77501,530.43,61.2832
0,101.752,11.4016,0,5.79852,530.406,61.2597
0,101.752,11.4015,0,5.82201,530.383,61.2362
0,101.753,11.4015,0,5.84549,530.359,61.2127
0,101.753,11.4015,0,5.86897,530.336,61.1892
0,101.753,11.4014,0,5.89243,530.312,61.1658
0,101.753,11.4014,0,5.91588,530.289,61.1423
0,101.753,11.4014,0,5.93932,530.265,61.1189
0,101.753,11.4013,0,5.96276,530.242,61.0954
0,101.753,11.4013,0,5.98618,530.219,61.072
0,101.753,11.4013,0,6.00959,530.195,61.0486
0,101.753,11.4012,0,6.033,530.172,61.0252
0,101.753,11.4012,0,6.05639,530.148,61.0018
0,101.753,11.4012,0,6.07977,530.125,60.9784
0,101.753,11.4011,0,6.10314,530.102,60.955
0,101.753,11.4011,0,6.12651,530.078,60.9317
0,101.753,11.4011,0,6.14986,530.055,60.9083
0,101.753,11.401,0,6.1732,530.032,60.885
0,101.753,11.401,0,6.19654,530.008,60.8617
0,101.753,11.401,0,6.21986,529.985,60.8383
0,101.753,11.4009,0,6.24317,529.962,60.815
0,101.753,11.4009,0,6.26647,529.938,60.7917
0,101.753,11.4009,0,6.28977,529.915,60.7684
0,101.753,11.4008,0,6.31305,529.892,60.7451
0,101.753,11.4008,0,6.33632,529.868,60.7219
0,101.753,11.4008,0,6.35959,529.845,60.6986
0,101.753,11.4007,0,6.38284,529.822,60.6753
0,101.753,11.4007,0,6.40608,529.799,60.6521
0,101.753,11.4007,0,6.42932,529.775,60.6289
0,101.753,11.4006,0,6.45254,529.752,60.6056
0,101.753,11.4006,0,6.47575,529.729,60.5824
0,101.753,11.4006,0,6.49896,529.706,60.5592
0,101.753,11.4005,0,6.52215,529.683,60.536
0,101.753,11.4005,0,6.54534,529.659,60.5129
0,101.754,11.4005,0,6.56851,529.636,60.4897
0,101.754,11.4004,0,6.59167,529.613,60.4665
0,101.754,11.4004,0,6.61483,529.59,60.4434
0,101.754,11.4004,0,6.63797,529.567,60.4202
0,101.754,11.4004,0,6.66111,529.544,60.3971
0,101.754,11.4003,0,6.68423,529.521,60.374
0,101.754,11.4003,0,6.70735,529.497,60.3508
0,101.754,11.4003,0,6.73045,529.474,60.3277
0,101.754,11.4002,0,6.75355,529.451,60.3046
0,101.754,11.4002,0,6.77663,529.428,60.2816
0,101.754,11.4002,0,6.79971,529.405,60.2585
0,101.754,11.4001,0,6.82277,529.382,60.2354
0,101.754,11.4001,0,6.84583,529.359,60.2124
0,101.754,11.4001,0,6.86888,529.336,60.1893
0,101.754,11.4,0,6.89191,529.313,60.1663
0,101.754,11.4,0,6.91494,529.29,60.1433
0,101.754,11.4,0,6.93795,529.267,60.1202
0,101.754,11.3999,0,6.96096,529.244,60.0972
0,101.754,11.3999,0,6.98396,529.221,60.0742
0,101.754,11.3999,0,7.00694,529.198,60.0512
0,101.754,11.3998,0,7.02992,529.175,60.0283
0,101.754,11.3998,0,7.05289,529.152,60.0053
0,101.754,11.3998,0,7.07585,529.129,59.9823
0,101.754,11.3997,0,7.0988,529.106,59.9594
0,101.754,11.3997,0,7.12173,529.083,59.9365
0,101.754,11.3997,0,7.14466,529.06,59.9135
0,101.754,11.3996,0,7.16758,529.037,59.8906
0,101.754,11.3996,0,7.19049,529.014,59.8677
0,101.754,11.3996,0,7.21339,528.991,59.8448
0,101.754,11.3995,0,7.23628,528.969,59.8219
0,101.755,11.3995,0,7.25916,528.946,59.799
0,101.755,11.3995,0,7.28203,528.923,59.7762
0,101.755,11.3994,0,7.30489,528.9,59.7533
0,101.755,11.3994,0,7.32774,528.877,59.7305
0,101.755,11.3994,0,7.35058,528.854,59.7076
0,101.755,11.3993,0,7.37341,528.831,59.6848
0,101.755,11.3993,0,7.39623,528.809,59.662
0,101.755,11.3993,0,7.41904,528.786,59.6391
0,101.755,11.3992,0,7.44184,528.763,59.6163
0,101.755,11.3992,0,7.46464,528.74,59.5936
0,101.755,11.3992,0,7.48742,528.717,59.5708
0,101.755,11.3991,0,7.51019,528.695,59.548
0,101.755,11.3991,0,7.53295,528.672,59.5252
0,101.755,11.3991,0,7.55571,528.649,59.5025
0,101.755,11.399,0,7.57845,528.626,59.4797
0,101.755,11.399,0,7.60118,528.604,59.457
0,101.755,11.399,0,7.62391,528.581,59.4343
0,101.755,11.3989,0,7.64662,528.558,59.4116
0,101.755,11.3989,0,7.66933,528.535,59.3889
0,101.755,11.3989,0,7.69202,528.513,59.3662
0,101.755,11.3988,0,7.71471,528.49,59.3435
0,101.755,11.3988,0,7.73739,528.467,59.3208
0,101.755,11.3988,0,7.76005,528.445,59.2981
0,101.755,11.3987,0,7.78271,528.422,59.2755
0,101.755,11.3987,0,7.80536,528.399,59.2528
0,101.755,11.3987,0,7.82799,528.377,59.2302
0,101.755,11.3986,0,7.85062,528.354,59.2076
0,101.755,11.3986,0,7.87324,528.332,59.1849
0,101.755,11.3986,0,7.89585,528.309,59.1623
0,101.755,11.3985,0,7.91845,528.286,59.1397
0,101.756,11.3985,0,7.94104,528.264,59.1172
0,101.756,11.3985,0,7.96362,528.241,59.0946
0,101.756,11.3984,0,7.98619,528.219,59.072
0,101.756,11.3984,0,8.00875,528.196,59.0494
0,101.756,11.3984,0,8.0313,528.173,59.0269
0,101.756,11.3983,0,8.05384,528.151,59.0043
0,101.756,11.3983,0,8.07637,528.128,58.9818
0,101.756,11.3983,0,8.0989,528.106,58.9593
0,101.756,11.3982,0,8.12141,528.083,58.9368
0,101.756,11.3982,0,8.14391,528.061,58.9143
0,101.756,11.3982,0,8.16641,528.038,58.8918
0,101.756,11.3981,0,8.18889,528.016,58.8693
0,101.756,11.3981,0,8.21137,527.993,58.8468
0,101.756,11.3981,0,8.23383,527.971,58.8244
0,101.756,11.398,0,8.25629,527.949,58.8019
0,101.756,11.398,0,8.27873,527.926,58.7795
0,101.756,11.398,0,8.30117,527.904,58.757
0,101.756,11.3979,0,8.3236,527.881,58.7346
0,101.756,11.3979,0,8.34601,527.859,58.7122
0,101.756,11.3979,0,8.36842,527.836,58.6898
0,101.756,11.3978,0,8.39082,527.814,58.6674
0,101.756,11.3978,0,8.41321,527.792,58.645
0,101.756,11.3978,0,8.43559,527.769,58.6226
0,101.756,11.3977,0,8.45796,527.747,58.6002
0,101.756,11.3977,0,8.48032,527.724,58.5779
0,101.756,11.3977,0,8.50267,527.702,58.5555
0,101.756,11.3976,0,8.53114,527.674,58.527
0,101.756,11.3976,0,8.55959,527.645,58.4986
0,101.756,11.3976,0,8.58803,527.617,58.4702
0,101.756,11.3975,0,8.61645,527.588,58.4417
0,101.757,11.3975,0,8.64486,527.56,58.4133
0,101.757,11.3974,0,8.67325,527.532,58.3849
0,101.757,11.3974,0,8.70163,527.503,58.3566
0,101.757,11.3973,0,8.72999,527.475,58.3282
0,101.757,11.3973,0,8.75834,527.446,58.2999
0,101.757,11.3973,0,8.78667,527.418,58.2715
0,101.757,11.3972,0,8.81499,527.39,58.2432
0,101.757,11.3972,0,8.84329,527.362,58.2149
0,101.757,11.3971,0,8.87157,527.333,58.1866
0,101.757,11.3971,0,8.89984,527.305,58.1583
0,101.757,11.397,0,8.9281,527.277,58.1301
0,101.757,11.397,0,8.95634,527.248,58.1019
0,101.757,11.397,0,8.98456,527.22,58.0736
0,101.757,11.3969,0,9.01277,527.192,58.0454
0,101.757,11.3969,0,9.04096,527.164,58.0172
0,101.757,11.3968,0,9.06914,527.136,57.989
0,101.757,11.3968,0,9.0973,527.107,57.9609
0,101.757,11.3968,0,9.12545,527.079,57.9327
0,101.757,11.3967,0,9.15358,527.051,57.9046
0,101.757,11.3967,0,9.1817,527.023,57.8765
0,101.757,11.3966,0,9.20981,526.995,57.8484
0,101.757,11.3966,0,9.23789,526.967,57.8203
0,101.757,11.3965,0,9.26597,526.939,57.7922
0,101.758,11.3965,0,9.29402,526.911,57.7642
0,101.758,11.3965,0,9.32206,526.883,57.7361
0,101.758,11.3964,0,9.35009,526.855,57.7081
0,101.758,11.3964,0,9.3781,526.827,57.6801
0,101.758,11.3963,0,9.4061,526.799,57.6521
0,101.758,11.3963,0,9.43408,526.771,57.6241
0,101.758,11.3963,0,9.46205,526.743,57.5961
0,101.758,11.3962,0,9.49,526.715,57.5682
0,101.758,11.3962,0,9.51794,526.687,57.5403
0,101.758,11.3961,0,9.54586,526.659,57.5123
0,101.758,11.3961,0,9.57377,526.631,57.4844
0,101.758,11.396,0,9.60166,526.603,57.4565
0,101.758,11.396,0,9.62953,526.575,57.4287
0,101.758,11.396,0,9.65739,526.547,57.4008
0,101.758,11.3959,0,9.68524,526.52,57.3729
0,101.758,11.3959,0,9.71307,526.492,57.3451
0,101.758,11.3958,0,9.74089,526.464,57.3173
0,101.758,11.3958,0,9.76869,526.436,57.2895
0,101.758,11.3957,0,9.79648,526.408,57.2617
0,101.758,11.3957,0,9.82425,526.381,57.2339
0,101.758,11.3957,0,9.85201,526.353,57.2062
0,101.758,11.3956,0,9.87975,526.325,57.1784
0,101.758,11.3956,0,9.90748,526.297,57.1507
0,101.758,11.3955,0,9.93519,526.27,57.123
0,101.759,11.3955,0,9.96288,526.242,57.0953
0,101.759,11.3955,0,9.99057,526.214,57.0676
0,101.759,11.3954,0,10.0182,526.187,57.04
0,101.759,11.3954,0,10.0459,526.159,57.0123
0,101.759,11.3953,0,10.0735,526.131,56.9847
0,101.759,11.3953,0,10.1011,526.104,56.957
0,101.759,11.3952,0,10.1288,526.076,56.9294
0,101.759,11.3952,0,10.1563,526.048,56.9018
0,101.759,11.3952,0,10.1839,526.021,56.8743
0,101.759,11.3951,0,10.2115,525.993,56.8467
0,101.759,11.3951,0,10.239,525.966,56.8192
0,101.759,11.395,0,10.2666,525.938,56.7916
0,101.759,11.395,0,10.2941,525.911,56.7641
0,101.759,11.3949,0,10.3216,525.883,56.7366
0,101.759,11.3949,0,10.3491,525.856,56.7091
0,101.759,11.3949,0,10.3766,525.828,56.6816
0,101.759,11.3948,0,10.404,525.801,56.6542
0,101.759,11.3948,0,10.4315,525.773,56.6267
0,101.759,11.3947,0,10.4589,525.746,56.5993
0,101.759,11.3947,0,10.4863,525.718,56.5719
0,101.759,11.3947,0,10.5137,525.691,56.5445
0,101.759,11.3946,0,10.5411,525.664,56.5171
0,101.759,11.3946,0,10.5685,525.636,56.4897
0,101.759,11.3945,0,10.5958,525.609,56.4624
0,101.76,11.3945,0,10.6232,525.582,56.435
0,101.76,11.3944,0,10.6505,525.554,56.4077
0,101.76,11.3944,0,10.6778,525.527,56.3804
0,101.76,11.3944,0,10.7051,525.5,56.3531
0,101.76,11.3943,0,10.7324,525.472,56.3258
0,101.76,11.3943,0,10.7597,525.445,56.2985
0,101.76,11.3942,0,10.7869,525.418,56.2713
0,101.76,11.3942,0,10.8142,525.391,56.244
0,101.76,11.3941,0,10.8414,525.363,56.2168
0,101.76,11.3941,0,10.8686,525.336,56.1896
0,101.76,11.3941,0,10.8958,525.309,56.1624
0,101.76,11.394,0,10.923,525.282,56.1352
0,101.76,11.394,0,10.9501,525.255,56.108
0,101.76,11.3939,0,10.9773,525.228,56.0809
0,101.76,11.3939,0,11.0044,525.2,56.0538
0,101.76,11.3939,0,11.0316,525.173,56.0266
0,101.76,11.3938,0,11.0587,525.146,55.9995
0,101.76,11.3938,0,11.0858,525.119,55.9724
0,101.76,11.3937,0,11.1128,525.092,55.9454
0,101.76,11.3937,0,11.1399,525.065,55.9183
0,101.76,11.3936,0,11.167,525.038,55.8912
0,101.76,11.3936,0,11.194,525.011,55.8642
0,101.76,11.3936,0,11.221,524.984,55.8372
0,101.76,11.3935,0,11.248,524.957,55.8102
0,101.761,11.3935,0,11.275,524.93,55.7832
0,101.761,11.3934,0,11.302,524.903,55.7562
0,101.761,11.3934,0,11.329,524.876,55.7292
0,101.761,11.3934,0,11.3559,524.849,55.7023
0,101.761,11.3933,0,11.3828,524.822,55.6753
0,101.761,11.3933,0,11.4098,524.795,55.6484
0,101.761,11.3932,0,11.4367,524.768,55.6215
0,101.761,11.3932,0,11.4636,524.741,55.5946
0,101.761,11.3931,0,11.4904,524.714,55.5677
0,101.761,11.3931,0,11.5173,524.687,55.5409
0,101.761,11.3931,0,11.5442,524.661,55.514
0,101.761,11.393,0,11.571,524.634,55.4872
0,101.761,11.393,0,11.5978,524.607,55.4604
0,101.761,11.3929,0,11.6246,524.58,55.4336
0,101.761,11.3929,0,11.6514,524.553,55.4068
0,101.761,11.3928,0,11.6782,524.527,55.38
0,101.761,11.3928,0,11.7049,524.5,55.3532
0,101.761,11.3928,0,11.7317,524.473,55.3265
0,101.761,11.3927,0,11.7584,524.446,55.2998
0,101.761,11.3927,0,11.7852,524.42,55.273
0,101.761,11.3926,0,11.8119,524.393,55.2463
0,101.761,11.3926,0,11.8385,524.366,55.2196
0,101.761,11.3926,0,11.8652,524.34,55.193
0,101.761,11.3925,0,11.8919,524.313,55.1663
0,101.762,11.3925,0,11.9185,524.286,55.1397
0,101.762,11.3924,0,11.9452,524.26,55.113
0,101.762,11.3924,0,11.9718,524.233,55.0864
0,101.762,11.3923,0,11.9984,524.206,55.0598
0,101.762,11.3923,0,12.025,524.18,55.0332
0,101.762,11.3923,0,12.0516,524.153,55.0066
0,101.762,11.3922,0,12.0781,524.127,54.9801
0,101.762,11.3922,0,12.1047,524.1,54.9535
0,101.762,11.3921,0,12.1312,524.074,54.927
0,101.762,11.3921,0,12.1577,524.047,54.9004
0,101.762,11.392,0,12.1842,524.021,54.8739
0,101.762,11.392,0,12.2107,523.994,54.8474
0,101.762,11.392,0,12.2372,523.968,54.821
0,101.762,11.3919,0,12.2637,523.941,54.7945
0,101.762,11.3919,0,12.2901,523.915,54.7681
0,101.762,11.3918,0,12.3166,523.888,54.7416
0,101.762,11.3918,0,12.343,523.862,54.7152
0,101.762,11.3918,0,12.3694,523.835,54.6888
0,101.762,11.3917,0,12.3958,523.809,54.6624
0,101.762,11.3917,0,12.4222,523.783,54.636
0,101.762,11.3916,0,12.4485,523.756,54.6096
0,101.762,11.3916,0,12.4749,523.73,54.5833
0,101.762,11.3915,0,12.5012,523.704,54.557
0,101.763,11.3915,0,12.5276,523.677,54.5306
0,101.763,11.3915,0,12.5539,523.651,54.5043
0,101.763,11.3914,0,12.5802,523.625,54.478
0,101.763,11.3914,0,12.6064,523.598,54.4517
0,101.763,11.3913,0,12.6327,523.572,54.4255
0,101.763,11.3913,0,12.659,523.546,54.3992
0,101.763,11.3913,0,12.6852,523.52,54.373
0,101.763,11.3912,0,12.7114,523.493,54.3468
0,101.763,11.3912,0,12.7376,523.467,54.3205
0,101.763,11.3911,0,12.7638,523.441,54.2943
0,101.763,11.3911,0,12.79,523.415,54.2682
0,101.763,11.391,0,12.8162,523.389,54.242
0,101.763,11.391,0,12.8424,523.362,54.2158
0,101.763,11.391,0,12.8685,523.336,54.1897
0,101.763,11.3909,0,12.8946,523.31,54.1636
3.27008e-6,101.763,11.3908,0,12.9872,523.218,54.071
6.79246e-6,101.763,11.3906,0,13.0867,523.118,53.9715
1.22604e-5,101.764,11.3904,0,13.2408,522.964,53.8173
4.08487e-5,101.765,11.3891,0,14.0389,522.166,53.0193
9.43499e-5,101.767,11.3866,0,15.4976,520.707,51.5606
0.000147851,101.77,11.3842,0,16.9123,519.293,50.1459
0.000216723,101.773,11.381,0,18.6711,517.534,48.3871
0.000398623,101.781,11.3728,0,23.0007,513.204,44.0575
0.000587381,101.79,11.3642,0,27.0528,509.152,40.0054
0.000794521,101.799,11.3548,0,31.0419,505.163,36.0163
0.00101447,101.809,11.3448,0,34.8156,501.389,32.2426
0.00124083,101.819,11.3345,0,38.2633,497.941,28.7949
0.00146718,101.83,11.3243,0,41.3235,494.881,25.7347
0.00183637,101.846,11.3076,0,45.6033,490.601,21.4548
0.00224432,101.865,11.2891,0,49.4806,486.724,17.5776
0.00273073,101.887,11.2672,0,53.1733,483.032,13.8849
0.00320116,101.908,11.246,0,55.988,480.217,11.0702
0.00372339,101.931,11.2225,0,58.4378,477.767,8.62044
0.00424563,101.955,11.1991,0,60.3378,475.867,6.72036
0.00476786,101.978,11.1757,0,61.8145,474.39,5.24369
0.0052901,102.002,11.1524,0,62.9639,473.241,4.09429
0.00602069,102.034,11.1199,0,64.1593,472.045,2.89884
0.00675745,102.067,11.0871,0,65.0102,471.195,2.048
0.00769761,102.108,11.0455,0,65.7427,470.462,1.31553
0.00865496,102.151,11.0033,0,66.2195,469.985,0.8387
0.00954064,102.19,10.9644,0,66.505,469.7,0.55321
0.0106401,102.238,10.9163,0,66.7281,469.477,0.330121
0.0117678,102.287,10.8672,0,66.8637,469.341,0.194446
0.0128375,102.333,10.8208,0,66.9405,469.264,0.117702
0.0141188,102.389,10.7654,0,66.9937,469.211,0.0645204
0.0156226,102.453,10.7009,0,67.0263,469.178,0.0318642
0.0170068,102.512,10.6418,0,67.0415,469.163,0.016645
0.0187026,102.584,10.5699,0,67.0507,469.154,0.00751513
0.0205314,102.661,10.4928,0,67.055,469.15,0.00318678
0.0226452,102.75,10.4045,0,67.057,469.148,0.00118408
0.0253458,102.861,10.2927,0,67.0579,469.147,0.000335295
0.0281018,102.974,10.1798,0,67.0581,469.147,9.19063e-5
0.0319648,103.13,10.0237,0,67.0582,469.147,1.70113e-5
0.0363704,103.305,9.84865,0,67.0582,469.147,2.30921e-6
0.0426953,103.551,9.60261,0,67.0582,469.147,1.4521e-6
0.0499449,103.826,9.32815,0,67.0582,469.147,-3.83226e-7
0.061768,104.257,8.89727,0,67.0582,469.147,4.3196e-7
0.07652,104.767,8.38745,0,67.0582,469.147,1.54587e-7
0.097732,105.449,7.70514,0,67.0582,469.147,1.41589e-7
0.121811,106.156,6.99764,0,67.0582,469.147,5.5189e-7
0.15126,106.934,6.22005,0,67.0582,469.147,-3.52713e-8
0.190423,107.836,5.31814,0,67.0582,469.147,7.45767e-8
0.241819,108.824,4.32988,0,67.0582,469.147,-2.41907e-8
0.309617,109.853,3.30141,0,67.0582,469.147,1.72879e-6
0.371208,110.574,2.58051,0,67.0582,469.147,-4.77131e-7
0.422306,111.051,2.10348,0,67.0582,469.147,-1.16273e-7
0.473905,111.443,1.71121,0,67.0582,469.147,-1.35913e-7
0.551958,111.902,1.25231,0,67.0582,469.147,-7.09562e-8
0.64506,112.291,0.862933,0,67.0582,469.147,5.90814e-9
0.756739,112.602,0.552046,0,67.0582,469.147,-1.51205e-10
0.883743,112.822,0.332164,0,67.0582,469.147,1.30408e-9
1.0109,112.954,0.199743,0,67.0582,469.147,5.15782e-10
1.15578,113.042,0.111892,0,67.0582,469.147,4.20993e-11
1.30339,113.092,0.0620007,0,67.0582,469.147,6.91269e-12
1.46371,113.121,0.032653,0,67.0582,469.147,4.41517e-12
1.63871,113.138,0.0162174,0,67.0582,469.147,1.3007e-11
1.83262,113.147,0.00746895,0,67.0582,469.147,-1.76832e-11
2.05869,113.151,0.00302605,0,67.0582,469.147,-1.59536e-11
2.30637,113.153,0.00112546,0,67.0582,469.147,-1.46932e-11
2.6097,113.154,0.000336898,0,67.0582,469.147,2.99007e-11
2.96368,113.154,8.203e-5,0,67.0582,469.147,1.14262e-11
3.42251,113.154,1.45134e-5,0,67.0582,469.147,2.1059e-13
3.91806,113.154,2.4831e-6,0,67.0582,469.147,-2.79037e-12
4.5339,113.154,3.01768e-7,0,67.0582,469.147,-7.26354e-10
5.5339,113.154,-4.04208e-7,0,67.0582,469.147,-1.5446e-10
6.48934,113.154,9.98596e-8,0,67.0582,469.147,1.5425e-9
7.48934,113.154,-1.90407e-7,0,67.0582,469.147,2.95622e-12
8.48934,113.154,3.91938e-7,0,67.0582,469.147,-5.64685e-11
9.48934,113.154,-5.16026e-7,0,67.0582,469.147,2.33345e-11
10.4893,113.154,1.4696e-7,0,67.0582,469.147,1.4843e-11
11.4893,113.154,4.3038e-8,0,67.0582,469.147,-6.89165e-13
12.4893,113.154,-1.78393e-8,0,67.0582,469.147,-1.24021e-12
13.4893,113.154,-1.03996e-8,0,67.0582,469.147,-4.53829e-15
14.4893,113.154,-2.07991e-9,0,67.0582,469.147,-9.65328e-18
15.4893,113.154,-4.15982e-10,0,67.0582,469.147,-2.05332e-20
16.4893,113.154,-8.31964e-11,0,67.0582,469.147,-4.36757e-23
17.4893,113.154,-1.66393e-11,0,67.0582,469.147,-9.29014e-26
18.4893,113.154,-3.32786e-12,0,67.0582,469.147,-1.97608e-28
19.4893,113.154,-6.65571e-13,0,67.0582,469.147,-4.20327e-31
20.4893,113.154,-1.33114e-13,0,67.0582,469.147,-8.94067e-34
21.4893,113.154,-2.66229e-14,0,67.0582,469.147,-1.90175e-36
22.4893,113.154,-5.32457e-15,0,67.0582,469.147,-4.04516e-39
23.4893,113.154,-1.06491e-15,0,67.0582,469.147,-8.60435e-42
24.4893,113.154,-2.12983e-16,0,67.0582,469.147,-1.83021e-44
25.4893,113.154,-4.25966e-17,0,67.0582,469.147,-3.89299e-47
26.4893,113.154,-8.51931e-18,0,67.0582,469.147,-8.28067e-50
27.4893,113.154,-1.70386e-18,0,67.0582,469.147,-1.76136e-52
28.4893,113.154,-3.40772e-19,0,67.0582,469.147,-3.74654e-55
29.4893,113.154,-6.81545e-20,0,67.0582,469.147,-7.96918e-58
30.4893,113.154,-1.36309e-20,0,67.0582,469.147,-1.6951e-60
31.4893,113.154,-2.72618e-21,0,67.0582,469.147,-3.60561e-63
32.4893,113.154,-5.45236e-22,0,67.0582,469.147,-7.6694e-66
33.4893,113.154,-1.09047e-22,0,67.0582,469.147,-1.63134e-68
34.4893,113.154,-2.18094e-23,0,67.0582,469.147,-3.46998e-71
35.4893,113.154,-4.36189e-24,0,67.0582,469.147,-7.38089e-74
36.4893,113.154,-8.72378e-25,0,67.0582,469.147,-1.56997e-76
37.4893,113.154,-1.74476e-25,0,67.0582,469.147,-3.33944e-79
38.4893,113.154,-3.48951e-26,0,67.0582,469.147,-7.10324e-82
39.4893,113.154,-6.97902e-27,0,67.0582,469.147,-1.51091e-84
40.4893,113.154,-1.3958e-27,0,67.0582,469.147,-3.21382e-87
41.4893,113.154,-2.79161e-28,0,67.0582,469.147,-6.83604e-90
42.4893,113.154,-5.58322e-29,0,67.0582,469.147,-1.45408e-92
43.4893,113.154,-1.11664e-29,0,67.0582,469.147,-3.09293e-95
44.4893,113.154,-2.23329e-30,0,67.0582,469.147,-6.57888e-98
45.4893,113.154,-4.46657e-31,0,67.0582,469.147,-1.39938e-100
46.4893,113.154,-8.93315e-32,0,67.0582,469.147,-2.97658e-103
47.4893,113.154,-1.78663e-32,0,67.0582,469.147,-6.3314e-106
48.4893,113.154,-3.57326e-33,0,67.0582,469.147,-1.34674e-108
49.4893,113.154,-7.14652e-34,0,67.0582,469.147,-2.86461e-111
50.4893,113.154,-1.4293e-34,0,67.0582,469.147,-6.09323e-114
51.4893,113.154,-2.85861e-35,0,67.0582,469.147,-1.29608e-116
52.4893,113.154,-5.71721e-36,0,67.0582,469.147,-2.75685e-119
53.4893,113.154,-1.14344e-36,0,67.0582,469.147,-5.86402e-122
54.4893,113.154,-2.28689e-37,0,67.0582,469.147,-1.24732e-124
55.4893,113.154,-4.57377e-38,0,67.0582,469.147,-2.65314e-127
56.4893,113.154,-9.14754e-39,0,67.0582,469.147,-5.64343e-130
57.4893,113.154,-1.82951e-39,0,67.0582,469.147,-1.2004e-132
58.4893,113.154,-3.65902e-40,0,67.0582,469.147,-2.55334e-135
59.4893,113.154,-7.31803e-41,0,67.0582,469.147,-5.43114e-138
60.4893,113.154,-1.46361e-41,0,67.0582,469.147,-1.15524e-140
61.4893,113.154,-2.92721e-42,0,67.0582,469.147,-2.45729e-143
62.4893,113.154,-5.85443e-43,0,67.0582,469.147,-5.22684e-146
63.4893,113.154,-1.17089e-43,0,67.0582,469.147,-1.11179e-148
64.4893,113.154,-2.34177e-44,0,67.0582,469.147,-2.36485e-151
65.4893,113.154,-4.68354e-45,0,67.0582,469.147,-5.03022e-154
66.4893,113.154,-9.36708e-46,0,67.0582,469.147,-1.06996e-156
67.4893,113.154,-1.87342e-46,0,67.0582,469.147,-2.27589e-159
68.4893,113.154,-3.74683e-47,0,67.0582,469.147,-4.84099e-162
69.4893,113.154,-7.49367e-48,0,67.0582,469.147,-1.02971e-164
70.4893,113.154,-1.49873e-48,0,67.0582,469.147,-2.19028e-167
71.4893,113.154,-2.99747e-49,0,67.0582,469.147,-4.65889e-170
72.4893,113.154,-5.99493e-50,0,67.0582,469.147,-9.9098e-173
73.4893,113.154,-1.19899e-50,0,67.0582,469.147,-2.10789e-175
74.4893,113.154,-2.39797e-51,0,67.0582,469.147,-4.48363e-178
75.4893,113.154,-4.79595e-52,0,67.0582,469.147,-9.53702e-181
76.4893,113.154,-9.59189e-53,0,67.0582,469.147,-2.02859e-183
77.4893,113.154,-1.91838e-53,0,67.0582,469.147,-4.31481e-186
78.4893,113.154,-3.83676e-54,0,67.0582,469.147,-9.17759e-189
79.4893,113.154,-7.67351e-55,0,67.0582,469.147,-1.95207e-191
80.4893,113.154,-1.5347e-55,0,67.0582,469.147,-4.15204e-194
81.4893,113.154,-3.06941e-56,0,67.0582,469.147,-8.83138e-197
82.4893,113.154,-6.13881e-57,0,67.0582,469.147,-1.87843e-199
83.4893,113.154,-1.22776e-57,0,67.0582,469.147,-3.99541e-202
84.4893,113.154,-2.45552e-58,0,67.0582,469.147,-8.49823e-205
85.4893,113.154,-4.91105e-59,0,67.0582,469.147,-1.80757e-207
86.4893,113.154,-9.8221e-60,0,67.0582,469.147,-3.8447e-210
87.4893,113.154,-1.96442e-60,0,67.0582,469.147,-8.17765e-213
88.4893,113.154,-3.92884e-61,0,67.0582,469.147,-1.73938e-215
89.4893,113.154,-7.85768e-62,0,67.0582,469.147,-3.69966e-218
90.4893,113.154,-1.57154e-62,0,67.0582,469.147,-7.86917e-221
91.4893,113.154,-3.14307e-63,0,67.0582,469.147,-1.67377e-223
92.4893,113.154,-6.28614e-64,0,67.0582,469.147,-3.5601e-226
93.4893,113.154,-1.25723e-64,0,67.0582,469.147,-7.57232e-229
94.4893,113.154,-2.51446e-65,0,67.0582,469.147,-1.61063e-231
95.4893,113.154,-5.02891e-66,0,67.0582,469.147,-3.4258e-234
96.4893,113.154,-1.00578e-66,0,67.0582,469.147,-7.28667e-237
97.4893,113.154,-2.01157e-67,0,67.0582,469.147,-1.54987e-239
98.4893,113.154,-4.02313e-68,0,67.0582,469.147,-3.29657e-242
99.4893,113.154,-8.04626e-69,0,67.0582,469.147,-7.01179e-245
100,113.154,-2.64452e-69,0,67.0582,469.147,-2.91463e-247
