#Time,A,B,C,D,E,X
0,100,0,100,0,100,100
0.10082661985953417,93,7,67,92,41,93
0.20296069916965828,87,13,39,137,24,87
0.3041214827064334,79,21,26,158,16,79
0.41026779447282175,72,28,18,179,3,72
0.5157210395854975,65,35,13,186,1,65
0.6187348451622412,61,39,8,192,0,61
0.7216981036278467,58,42,5,195,0,58
0.8217459394646492,55,45,3,197,0,55
1.0647037398785986,48,52,1,199,0,48
1.1673738987140891,43,57,0,200,0,43
1.2770855726003063,40,60,0,200,0,40
1.4226497329013137,38,62,0,200,0,38
1.5601353462501624,35,65,0,200,0,35
1.6754628955415631,34,66,0,200,0,34
1.7760716398454455,32,68,0,200,0,32
1.9141499988760162,29,71,0,200,0,29
2.186743038248188,26,74,0,200,0,26
2.338526366133712,24,76,0,200,0,24
2.44143689267179,23,77,0,200,0,23
2.688071498121669,21,79,0,200,0,21
2.8855927013485623,19,81,0,200,0,19
3.045457472400694,17,83,0,200,0,17
3.2280986134529703,16,84,0,200,0,16
4.191712928089822,15,85,0,200,0,15
5.1611977929257025,14,86,0,200,0,14
5.423857883582839,13,87,0,200,0,13
5.667629654909464,12,88,0,200,0,12
6.229676379635423,11,89,0,200,0,11
6.46396228731793,10,90,0,200,0,10
9.524884574009931,8,92,0,200,0,8
10.097026774189542,7,93,0,200,0,7
12.455560846836487,6,94,0,200,0,6
17.386514072117365,5,95,0,200,0,5
20.473732513309447,4,96,0,200,0,4
29.356144689792266,3,97,0,200,0,3
48.346570468469054,2,98,0,200,0,2
49.052557813266084,1,99,0,200,0,1
53.253199421325846,0,100,0,200,0,0
100,0,100,0,200,0,0
