#Time,A,B,C,D,E,X
0,66,11,236,0,147,50
0.10044464385676091,64,13,164,145,74,48
0.20116382359571416,63,14,121,228,34,47
0.30270796767347663,61,16,92,271,20,45
0.4107942854447111,58,19,61,315,7,42
0.5130944196431694,58,19,36,345,2,42
0.6164409604646336,57,20,26,356,1,41
0.7212549102536576,52,25,18,364,1,36
0.8272590462712075,46,31,11,372,0,30
0.929122210086059,42,35,10,373,0,26
1.0824960666946715,41,36,5,378,0,25
1.205993171514442,41,36,3,380,0,25
1.321387790176466,40,37,2,381,0,24
1.4342187703028455,39,38,1,382,0,23
1.5624337400630264,37,40,0,383,0,21
1.7839089464773288,36,41,0,383,0,20
2.0025495130691713,34,43,0,383,0,18
2.395055632963551,33,44,0,383,0,17
2.5918734023522156,31,46,0,383,0,15
2.759501768152363,30,47,0,383,0,14
3.061296146125544,27,50,0,383,0,11
3.7455030982036983,25,52,0,383,0,9
4.12396086971004,24,53,0,383,0,8
6.5853790602087035,23,54,0,383,0,7
6.746677435861112,22,55,0,383,0,6
9.01818882317386,21,56,0,383,0,5
9.532141776251372,20,57,0,383,0,4
10.946301685962059,19,58,0,383,0,3
12.929363521112082,18,59,0,383,0,2
15.594982480882855,17,60,0,383,0,1
42.23731835460653,16,61,0,383,0,0
100,16,61,0,383,0,0
