#Time,A,B,C,D,E,X
0,88,73,49,0,30,0
0.10728530629724721,88,73,33,35,11,0
0.2108109247969123,88,73,22,51,6,0
0.3126788597899113,88,73,13,62,4,0
0.4157149500901956,88,73,10,68,1,0
0.5494649272468904,88,73,6,73,0,0
0.7389198656175681,88,73,4,75,0,0
1.098125112264543,88,73,2,77,0,0
1.2141403394501673,88,73,1,78,0,0
1.372195581369034,88,73,0,79,0,0
100,88,73,0,79,0,0
