#Time,A,B,C,D,E,X
0,61,0,6,44,0,53
0.11089097010804026,57,4,4,46,0,49
0.2589802599787621,55,6,0,50,0,47
0.3728585201377167,49,12,0,50,0,41
0.47437132592152553,48,13,0,50,0,40
0.5836979182781933,44,17,0,50,0,36
0.6990807669507773,42,19,0,50,0,34
0.9240838264839981,39,22,0,50,0,31
1.082094648278153,36,25,0,50,0,28
1.3048538856107894,34,27,0,50,0,26
1.449027443160316,33,28,0,50,0,25
1.8195914796837145,30,31,0,50,0,22
1.9580509520998444,29,32,0,50,0,21
2.34335639890202,28,33,0,50,0,20
2.728930647811652,27,34,0,50,0,19
3.248250886835058,26,35,0,50,0,18
3.5437192335441,25,36,0,50,0,17
4.207780895417584,23,38,0,50,0,15
4.756082992631374,22,39,0,50,0,14
5.343084355209802,21,40,0,50,0,13
5.886793477827778,20,41,0,50,0,12
6.234546890197047,18,43,0,50,0,10
6.471928162544121,17,44,0,50,0,9
7.314785500248153,16,45,0,50,0,8
7.57181077490611,15,46,0,50,0,7
8.176098624610464,14,47,0,50,0,6
10.13418147177116,13,48,0,50,0,5
10.977696237173944,12,49,0,50,0,4
18.19128913935138,11,50,0,50,0,3
19.520596595599848,10,51,0,50,0,2
25.217204298136114,9,52,0,50,0,1
35.11115219248326,8,53,0,50,0,0
100,8,53,0,50,0,0
