#Time,A,B,C,D,E,X
0,123,40,79,0,61,337
0.10001857104061944,88,75,55,46,39,302
0.2049756143899788,67,96,43,77,20,281
0.3051491311388141,51,112,30,98,12,265
0.4060667471250653,42,121,23,110,7,256
0.5159208598042904,33,130,16,120,4,247
0.638283702015251,24,139,9,129,2,238
0.7389028856852787,16,147,5,134,1,230
0.8472580270019608,12,151,4,135,1,226
0.9564386793458102,7,156,3,136,1,221
1.0679119952877965,5,158,3,137,0,219
1.2378035793972078,3,160,0,140,0,217
1.390434837068396,2,161,0,140,0,216
1.641688097322991,1,162,0,140,0,215
1.7910894679850191,0,163,0,140,0,214
100,0,163,0,140,0,214
