#Time,A,B,C,D,E,X
0,72,0,165,87,11,265
0.10441799270008022,59,13,106,153,4,252
0.2055609644041868,48,24,69,192,2,241
0.3076259388176589,37,35,44,218,1,230
0.4092803214006943,30,42,29,234,0,223
0.520466392166546,20,52,20,243,0,213
0.6293638206284273,13,59,17,246,0,206
0.7750969506864619,10,62,13,250,0,203
0.8837421006169096,7,65,10,253,0,200
0.9992947585443844,4,68,5,258,0,197
1.235022623825885,2,70,2,261,0,195
1.3801615532398002,2,70,1,262,0,195
1.518962024040891,2,70,0,263,0,195
1.7389772280379776,1,71,0,263,0,194
1.9039603198657522,0,72,0,263,0,193
100,0,72,0,263,0,193
