#Time,A,B,C,D,E,X
0,0,111,252,39,259,117
0.10002595369461766,0,111,185,239,126,117
0.2000302698955167,0,111,123,365,62,117
0.3058614305821896,0,111,80,435,35,117
0.40809763572153795,0,111,50,483,17,117
0.5098866943977947,0,111,36,507,7,117
0.6118472819328477,0,111,26,522,2,117
0.721312764917259,0,111,15,535,0,117
0.8375216256950292,0,111,10,540,0,117
0.9485514671091376,0,111,4,546,0,117
1.2831287705507703,0,111,1,549,0,117
1.9203287017163633,0,111,0,550,0,117
100,0,111,0,550,0,117
