#Time,A,B,C,D,E,X
0,165,130,35,23,84,1
0.10286369142177815,165,130,22,86,34,1
0.20736537482735806,165,130,14,112,16,1
0.3217947849256637,164,131,9,125,8,0
0.5191541265065893,164,131,5,135,2,0
0.659066886861974,164,131,4,137,1,0
1.0655017274390075,164,131,1,141,0,0
1.247731299594983,164,131,0,142,0,0
100,164,131,0,142,0,0
