#Time,A,B,C,D,E,X
0,143,0,85,0,121,53
0.10065458706100298,136,7,56,94,56,46
0.20262434222270748,130,13,33,150,23,40
0.310683516587123,124,19,22,175,9,34
0.41247056162719886,121,22,16,185,5,31
0.5146662650848565,118,25,10,194,2,28
0.6357884235100411,116,27,5,200,1,26
0.7472578127963705,112,31,4,202,0,22
0.8649658652634594,108,35,4,202,0,18
0.9886726306145407,104,39,2,204,0,14
1.384641738716839,103,40,1,205,0,13
1.5185882281226573,101,42,1,205,0,11
1.6532488818786713,99,44,0,206,0,9
1.831440087141816,98,45,0,206,0,8
2.0844223265515116,96,47,0,206,0,6
2.5585138819239512,94,49,0,206,0,4
2.7054998339513867,93,50,0,206,0,3
2.931769710474919,92,51,0,206,0,2
3.0975326684448174,91,52,0,206,0,1
4.259945474070508,90,53,0,206,0,0
100,90,53,0,206,0,0
