#Time,A,B,C,D,E,X
0,23,36,148,0,0,67
0.10526004205300558,20,39,102,46,0,64
0.20607612587295282,19,40,56,92,0,63
0.3149505963509803,17,42,38,110,0,61
0.4163516756414964,16,43,28,120,0,60
0.5385168222956993,15,44,19,129,0,59
0.6572202191004768,14,45,11,137,0,58
0.774576742907511,12,47,5,143,0,56
0.9287978594964315,11,48,4,144,0,55
1.1349324465816744,10,49,2,146,0,54
1.304561377521778,8,51,0,148,0,52
1.423191958973124,7,52,0,148,0,51
2.2595511479655204,5,54,0,148,0,49
3.5112126383329576,3,56,0,148,0,47
4.075988565626169,2,57,0,148,0,46
5.269761033283483,1,58,0,148,0,45
6.048553718644492,0,59,0,148,0,44
100,0,59,0,148,0,44
