#Time,A,B,C,D,E,X
0,169,252,103,0,1,182
0.10115494955266562,143,278,69,35,0,156
0.20854653795992403,117,304,46,58,0,130
0.31480310583814497,106,315,27,77,0,119
0.4151171290013923,90,331,24,80,0,103
0.524168670714463,84,337,14,90,0,97
0.6304044217289451,76,345,9,95,0,89
0.7362885120904227,73,348,7,97,0,86
0.8389442689812545,69,352,5,99,0,82
0.941749366892751,65,356,2,102,0,78
1.1407379447247425,58,363,2,102,0,71
1.2477165888781285,53,368,1,103,0,66
1.3925573283585873,49,372,0,104,0,62
1.6091132571622713,47,374,0,104,0,60
1.713827667462306,43,378,0,104,0,56
1.9114249069102198,40,381,0,104,0,53
2.0224199861479857,37,384,0,104,0,50
2.1561908722257264,35,386,0,104,0,48
2.420113119585409,32,389,0,104,0,45
2.604451705613006,27,394,0,104,0,40
3.0810712770025774,24,397,0,104,0,37
3.2470947426416887,22,399,0,104,0,35
3.3742322173862402,21,400,0,104,0,34
4.007359776041105,20,401,0,104,0,33
4.46538424429645,16,405,0,104,0,29
4.712855625505227,15,406,0,104,0,28
4.970668895257945,11,410,0,104,0,24
5.285652680660669,10,411,0,104,0,23
5.907266552019658,9,412,0,104,0,22
6.605780124260222,8,413,0,104,0,21
7.134128387712018,6,415,0,104,0,19
8.088121450436082,4,417,0,104,0,17
16.40182076780298,3,418,0,104,0,16
19.260805873695734,2,419,0,104,0,15
20.702369212731778,1,420,0,104,0,14
24.68033432570356,0,421,0,104,0,13
100,0,421,0,104,0,13
