#Time,A,B,C,D,E,X
0,591,72,205,16,1,0
0.10145663975435966,591,72,135,87,0,0
0.2022728930417115,591,72,93,129,0,0
0.3077919658451301,591,72,62,160,0,0
0.4154473906773307,591,72,39,183,0,0
0.5234649368164117,591,72,29,193,0,0
0.6356816087940427,591,72,18,204,0,0
0.7510644498560122,591,72,11,211,0,0
0.8652926777076522,591,72,7,215,0,0
1.0136631318993459,591,72,4,218,0,0
1.1462369355828101,591,72,2,220,0,0
1.944625345714417,591,72,0,222,0,0
100,591,72,0,222,0,0
