#Time,A,B,C,D,E,X
0,0,73,457,49,231,0
0.10009097405230083,0,73,293,347,97,0
0.20020126020372656,0,73,203,487,47,0
0.300210440848183,0,73,144,571,22,0
0.40311307519052725,0,73,99,627,11,0
0.503408810552167,0,73,65,668,4,0
0.6077128078084915,0,73,46,687,4,0
0.708400871286828,0,73,29,705,3,0
0.8432649580430238,0,73,14,722,1,0
0.981936634726146,0,73,11,726,0,0
1.1291164003479337,0,73,9,728,0,0
1.235203683277542,0,73,6,731,0,0
1.364511273322692,0,73,5,732,0,0
1.5203306882844885,0,73,2,735,0,0
1.6370442825647207,0,73,0,737,0,0
100,0,73,0,737,0,0
