#Time,A,B,C,D,E,X
0,172,0,1,77,0,105
0.10514966785048042,158,14,1,77,0,91
0.20786601157942586,139,33,0,78,0,72
0.3116324268166753,130,42,0,78,0,63
0.4212114513491888,120,52,0,78,0,53
0.5488639565163071,110,62,0,78,0,43
0.6613148783652751,106,66,0,78,0,39
0.7651526155350357,102,70,0,78,0,35
0.8702950412786752,99,73,0,78,0,32
0.9802179867988539,97,75,0,78,0,30
1.128928444132348,94,78,0,78,0,27
1.2345182328545772,90,82,0,78,0,23
1.4945700780929962,85,87,0,78,0,18
1.6957208276988072,84,88,0,78,0,17
1.837293706093534,82,90,0,78,0,15
1.9761140939523083,81,91,0,78,0,14
2.0925341976877285,79,93,0,78,0,12
2.2053280059474214,77,95,0,78,0,10
2.3395535079516403,75,97,0,78,0,8
2.6749596518283867,72,100,0,78,0,5
2.909751123613326,70,102,0,78,0,3
3.251003976622994,69,103,0,78,0,2
3.351718011773047,68,104,0,78,0,1
4.432989336621827,67,105,0,78,0,0
100,67,105,0,78,0,0
