#Time,A,B,C,D,E,X
0,46,309,70,0,102,302
0.10138204538850928,32,323,47,76,49,288
0.20290144650427738,25,330,29,118,25,281
0.30312890417267696,20,335,22,137,13,276
0.4062448732963267,14,341,14,149,9,270
0.5118763314135433,10,345,5,162,5,266
0.6150569848121782,9,346,2,167,3,265
0.7204390320826066,4,351,1,169,2,260
0.8408211117820065,3,352,0,172,0,259
1.3138600271356997,2,353,0,172,0,258
1.4991305127413568,1,354,0,172,0,257
1.5996788386559029,0,355,0,172,0,256
100,0,355,0,172,0,256
