#Time,A,B,C,D,E,X
0,56,95,137,72,47,0
0.10172471337144323,56,95,76,156,24,0
0.20664277628471073,56,95,51,193,12,0
0.30696815459314863,56,95,24,227,5,0
0.4166614993296883,56,95,11,241,4,0
0.6212151375602435,56,95,5,250,1,0
0.7362833040320201,56,95,3,253,0,0
1.3586879451291667,56,95,1,255,0,0
1.4693457768099207,56,95,0,256,0,0
100,56,95,0,256,0,0
