#Time,A,B,C,D,E,X
0,36,136,40,106,0,8
0.1054605230924209,36,136,17,129,0,8
0.21111951051695185,36,136,12,134,0,8
0.31843638698122534,35,137,8,138,0,7
0.4843085774335414,34,138,5,141,0,6
0.6009735997176354,34,138,2,144,0,6
0.8719210697487736,33,139,1,145,0,5
0.994658674627596,33,139,0,146,0,5
1.8011271875612218,32,140,0,146,0,4
3.608894376527285,31,141,0,146,0,3
3.7495669534882397,30,142,0,146,0,2
5.801205455559826,29,143,0,146,0,1
6.515745632633989,28,144,0,146,0,0
100,28,144,0,146,0,0
