#Time,A,B,C,D,E,X
0,109,159,3,120,0,44
0.10974989131050622,98,170,2,121,0,33
0.22844440540478006,93,175,0,123,0,28
0.3657202874817885,91,177,0,123,0,26
0.5396888257788137,88,180,0,123,0,23
0.7629037540350563,83,185,0,123,0,18
0.8937092074250852,82,186,0,123,0,17
1.2187407301479984,78,190,0,123,0,13
1.4476126828013531,74,194,0,123,0,9
1.9442950814922741,72,196,0,123,0,7
2.4517696540219105,70,198,0,123,0,5
2.5540777906875776,69,199,0,123,0,4
3.6924941350300173,68,200,0,123,0,3
5.696649723562239,67,201,0,123,0,2
5.8459715783751065,66,202,0,123,0,1
9.918032102892006,65,203,0,123,0,0
100,65,203,0,123,0,0
