#Time,A,B,C,D,E,X
0,14,0,34,30,6,17
0.1014505725650497,13,1,25,42,3,16
0.20955245735645522,13,1,21,46,3,16
0.32315948475708683,13,1,16,53,1,16
0.43266476388616315,12,2,7,63,0,15
0.6380167947448145,12,2,4,66,0,15
0.7393382667013872,11,3,3,67,0,14
0.9354218869317735,11,3,2,68,0,14
1.038250954010732,11,3,1,69,0,14
1.4292081537471728,10,4,1,69,0,13
1.5481613187458754,9,5,1,69,0,12
2.4031287290266445,8,6,0,70,0,11
2.8857286304494343,7,7,0,70,0,10
3.518857318807496,6,8,0,70,0,9
3.6684704926352376,5,9,0,70,0,8
6.5461369744961395,4,10,0,70,0,7
9.86752795483188,3,11,0,70,0,6
12.260003684749258,2,12,0,70,0,5
20.828749948884578,1,13,0,70,0,4
78.61547936251654,0,14,0,70,0,3
100,0,14,0,70,0,3
