#Time,A,B,C,D,E,X
0,126,157,3,311,162,175
0.10118607651197238,107,176,2,391,83,156
0.20343970494482858,94,189,1,437,38,143
0.3169978552559797,84,199,0,456,20,133
0.4190546087416607,77,206,0,464,12,126
0.5257466458767702,64,219,0,472,4,113
0.6261784139572395,56,227,0,473,3,105
0.7327291052915895,47,236,0,474,2,96
0.8368280732379415,41,242,0,476,0,90
0.983935420639668,35,248,0,476,0,84
1.1850310050264616,32,251,0,476,0,81
1.2962708198401325,29,254,0,476,0,78
1.5024849501543551,27,256,0,476,0,76
1.7881169464390545,22,261,0,476,0,71
1.9237014097069538,21,262,0,476,0,70
2.0965708332336215,20,263,0,476,0,69
2.2408838517218914,17,266,0,476,0,66
2.4610007421598326,14,269,0,476,0,63
2.565061677298406,12,271,0,476,0,61
2.7027164285981846,10,273,0,476,0,59
2.8215606374356557,8,275,0,476,0,57
3.0322387988174215,7,276,0,476,0,56
3.6194313036441983,6,277,0,476,0,55
4.096432866647331,5,278,0,476,0,54
4.3620207243418525,4,279,0,476,0,53
5.1519616873812115,3,280,0,476,0,52
6.220383266449846,2,281,0,476,0,51
7.3581168965738115,1,282,0,476,0,50
9.320504786793522,0,283,0,476,0,49
100,0,283,0,476,0,49
