#Time,A,B,C,D,E,X
0,123,40,79,0,61,337
0.10286104568569629,86,77,54,52,34,300
0.20326887704891042,58,105,31,93,16,272
0.3138478234331386,42,121,25,106,9,256
0.4224719630602167,32,131,13,121,6,246
0.5232743369734344,22,141,10,127,3,236
0.6433828385376047,17,146,9,130,1,231
0.7462369615820994,16,147,7,133,0,230
0.8648593173106323,12,151,6,134,0,226
0.968064085618048,9,154,4,136,0,223
1.1942360817342912,4,159,2,138,0,218
1.3113110001082628,4,159,1,139,0,218
1.7429037124539184,2,161,0,140,0,216
1.9699856494209909,1,162,0,140,0,215
2.1464063238731117,0,163,0,140,0,214
100,0,163,0,140,0,214
