#Time,A,B,C,D,E,X
0,169,252,103,0,1,182
0.1020997189651366,143,278,72,32,0,156
0.2023700816384236,120,301,48,56,0,133
0.3106800209642863,106,315,35,69,0,119
0.411343966667266,96,325,24,80,0,109
0.513198822574985,84,337,15,89,0,97
0.6181471364638599,76,345,10,94,0,89
0.718827337179693,70,351,6,98,0,83
0.8449863072357241,65,356,3,101,0,78
0.9564060278604848,60,361,2,102,0,73
1.060589601507967,57,364,0,104,0,70
1.2191637748977953,54,367,0,104,0,67
1.3231175644551092,50,371,0,104,0,63
1.4722476761294578,45,376,0,104,0,58
1.6290427465118844,39,382,0,104,0,52
1.7413238327626508,36,385,0,104,0,49
1.85746897208254,32,389,0,104,0,45
2.0082685117854635,30,391,0,104,0,43
2.147636355254996,28,393,0,104,0,41
2.253406972443029,27,394,0,104,0,40
2.478154200308044,26,395,0,104,0,39
2.7609551197975,24,397,0,104,0,37
2.866631183661287,22,399,0,104,0,35
3.0784443306964056,21,400,0,104,0,34
3.179628073482572,19,402,0,104,0,32
3.7844913186131683,18,403,0,104,0,31
4.02956696952153,17,404,0,104,0,30
4.313815888032833,16,405,0,104,0,29
4.627076126225078,15,406,0,104,0,28
5.126257337356882,14,407,0,104,0,27
5.463287446288725,12,409,0,104,0,25
5.765210254123922,11,410,0,104,0,24
7.384457100744903,10,411,0,104,0,23
7.693586582434025,9,412,0,104,0,22
8.620830606521896,8,413,0,104,0,21
9.838500656322838,7,414,0,104,0,20
10.24126023087649,6,415,0,104,0,19
10.528668285286107,5,416,0,104,0,18
10.653057943882777,3,418,0,104,0,16
12.739282327613962,2,419,0,104,0,15
18.583491992303657,1,420,0,104,0,14
26.280534304209155,0,421,0,104,0,13
100,0,421,0,104,0,13
