#Time,A,B,C,D,E,X
0,81,61,0,67,267,37
0.10027888957225913,77,65,0,203,131,33
0.20422573585796186,76,66,0,279,55,32
0.3128884489796917,74,68,0,308,26,30
0.41315588162519334,71,71,0,319,15,27
0.5139001074878414,70,72,0,326,8,26
0.6210645793479128,67,75,0,329,5,23
0.7524753061518328,67,75,0,333,1,23
0.854526079305575,66,76,0,334,0,22
0.9635970282745204,64,78,0,334,0,20
1.09064052865252,61,81,0,334,0,17
1.2769477062700507,59,83,0,334,0,15
1.715757058720889,56,86,0,334,0,12
2.0295226043552628,53,89,0,334,0,9
2.4004489604486388,51,91,0,334,0,7
2.538177617575379,49,93,0,334,0,5
2.784737089907501,48,94,0,334,0,4
3.1636571924642443,47,95,0,334,0,3
3.301639277195018,46,96,0,334,0,2
3.6628097748734505,45,97,0,334,0,1
3.8950629156808456,44,98,0,334,0,0
100,44,98,0,334,0,0
