#Time,A,B,C,D,E,X
0,36,136,40,106,0,8
0.10554568134566789,36,136,29,117,0,8
0.21994377703172832,36,136,22,124,0,8
0.3712735907488056,36,136,13,133,0,8
0.4939535963407696,36,136,7,139,0,8
0.6910566243238564,35,137,2,144,0,7
0.8282400385322973,35,137,1,145,0,7
1.035168043580355,35,137,0,146,0,7
1.2567574179345404,34,138,0,146,0,6
1.6734366149907673,32,140,0,146,0,4
2.324483391786527,31,141,0,146,0,3
3.8455945119154977,30,142,0,146,0,2
5.204360058739288,29,143,0,146,0,1
9.32974620144233,28,144,0,146,0,0
100,28,144,0,146,0,0
