#Time,A,B,C,D,E,X
0,17,1,24,30,93,17
0.10337034213179216,16,2,18,83,46,16
0.2154155307217198,16,2,10,115,22,16
0.3274017475175998,16,2,7,128,12,16
0.4340711792337059,14,4,4,139,4,14
0.5545695775388314,14,4,1,146,0,14
1.0106711070225234,14,4,0,147,0,14
1.348658133048984,13,5,0,147,0,13
2.3817961892245982,12,6,0,147,0,12
3.5895985529902936,11,7,0,147,0,11
3.937132222835191,10,8,0,147,0,10
4.106649875568302,9,9,0,147,0,9
4.226320262605057,8,10,0,147,0,8
4.432685191978814,7,11,0,147,0,7
6.043586177749259,6,12,0,147,0,6
6.6865306412758665,5,13,0,147,0,5
18.357386139907483,3,15,0,147,0,3
20.934705243483897,2,16,0,147,0,2
50.443674234906936,1,17,0,147,0,1
221.29399597190212,0,18,0,147,0,0
