#Time,A,B,C,D,E,X
0,184,129,280,0,97,38
0.10022856396511265,175,138,187,136,54,29
0.20169962444825015,172,141,133,215,29,26
0.30546053242508187,167,146,88,277,12,21
0.40658155933779255,164,149,58,316,3,18
0.5069589375713587,159,154,39,337,1,13
0.6115671425516084,158,155,28,348,1,12
0.7160352891974516,157,156,20,357,0,11
0.8433937642148506,156,157,14,363,0,10
0.9537161362769707,154,159,8,369,0,8
1.0739915282519792,153,160,4,373,0,7
1.2056440898839043,153,160,3,374,0,7
1.363735074892134,152,161,0,377,0,6
1.584712661828845,150,163,0,377,0,4
1.990907700144765,148,165,0,377,0,2
2.228958926587217,146,167,0,377,0,0
100,146,167,0,377,0,0
