#Time,A,B,C,D,E,X
0,109,159,3,120,0,44
0.10185611314705423,106,162,2,121,0,41
0.21853129260297635,99,169,2,121,0,34
0.3576779148093664,95,173,0,123,0,30
0.4868905212399848,90,178,0,123,0,25
0.5972512128312504,88,180,0,123,0,23
0.7232079418166535,86,182,0,123,0,21
0.8831005453468939,82,186,0,123,0,17
1.0027588951282695,80,188,0,123,0,15
1.2547620229530747,78,190,0,123,0,13
1.477421671934629,75,193,0,123,0,10
1.8533137091587117,73,195,0,123,0,8
2.243748779054013,72,196,0,123,0,7
2.410619794319573,70,198,0,123,0,5
2.6743959046108476,68,200,0,123,0,3
2.9572791337824857,67,201,0,123,0,2
3.2396154222069007,66,202,0,123,0,1
3.5062877843223434,65,203,0,123,0,0
100,65,203,0,123,0,0
