#Time,A,B,C,D,E,X
0,0,2,48,21,50,71
0.10106147064110535,0,2,34,60,25,71
0.225665998526697,0,2,26,77,16,71
0.3439509449543539,0,2,13,100,6,71
0.45299020653377026,0,2,10,107,2,71
0.5578971049892479,0,2,5,112,2,71
0.7985254996184492,0,2,3,115,1,71
0.9020325512138857,0,2,2,116,1,71
1.1126685170848434,0,2,1,118,0,71
1.6852921971994368,0,2,0,119,0,71
100,0,2,0,119,0,71
