#Time,A,B,C,D,E,X
0,90,173,152,0,278,39
0.10017471562163079,88,175,101,202,127,37
0.20129873760184694,85,178,62,312,56,34
0.30134486768933194,78,185,42,359,29,27
0.4068024237313994,77,186,26,396,8,26
0.5153885420142497,75,188,19,405,6,24
0.6176389016321943,74,189,13,415,2,23
0.7435792917666214,72,191,8,421,1,21
0.8470240471496584,68,195,4,426,0,17
0.9474578551984912,67,196,3,427,0,16
1.0548526544911128,66,197,0,430,0,15
1.2464645167672543,64,199,0,430,0,13
1.4710644577434766,63,200,0,430,0,12
1.7617956598766775,60,203,0,430,0,9
2.121273708923542,59,204,0,430,0,8
2.284689579054926,57,206,0,430,0,6
2.456725869742211,56,207,0,430,0,5
2.9312876941536468,54,209,0,430,0,3
3.8244141701397294,53,210,0,430,0,2
4.236287673726873,52,211,0,430,0,1
8.385881916656551,51,212,0,430,0,0
100,51,212,0,430,0,0
