#Time,A,B,C,D,E,X
0,0,0,5,14,22,0
0.10145993489047736,0,0,5,25,11,0
0.23828334683948463,0,0,3,33,5,0
0.3768451981739167,0,0,1,37,3,0
0.5088973809621038,0,0,0,39,2,0
0.6622946725899364,0,0,0,40,1,0
100,0,0,0,41,0,0
