#Time,A,B,C,D,E,X
0,133,18,88,159,328,25
0.10025447065778936,132,19,64,338,173,24
0.20174397195987212,132,19,43,444,88,24
0.30871112589355865,129,22,34,507,34,21
0.4129853733442162,128,23,21,540,14,20
0.5135716173684929,128,23,13,558,4,20
0.6190626631820718,127,24,8,565,2,19
0.7292170168231029,125,26,5,568,2,17
0.8313066028535335,124,27,4,571,0,16
0.9769595494650126,122,29,2,573,0,14
1.1553507711446918,115,36,1,574,0,7
1.3344111877425937,115,36,0,575,0,7
1.4348536109911028,113,38,0,575,0,5
1.5391617983207533,112,39,0,575,0,4
2.011275222303556,110,41,0,575,0,2
2.3053091716305407,109,42,0,575,0,1
4.246684449630765,108,43,0,575,0,0
100,108,43,0,575,0,0
