#Time,A,B,C,D,E,X
0,0,166,114,57,107,39
0.10013568611495334,0,166,71,157,50,39
0.20037135805058334,0,166,48,203,27,39
0.3004798632710799,0,166,35,228,15,39
0.4400547368783633,0,166,19,247,12,39
0.5480827461403496,0,166,16,258,4,39
0.6497007240895472,0,166,11,265,2,39
0.7683200548586775,0,166,9,267,2,39
0.9101684762070406,0,166,7,271,0,39
1.065790247721093,0,166,6,272,0,39
1.179882038416504,0,166,3,275,0,39
1.3742040661570678,0,166,2,276,0,39
2.169852649707418,0,166,0,278,0,39
100,0,166,0,278,0,39
