#Time,A,B,C,D,E,X
0,54,45,29,74,26,0
0.10211838555532203,54,45,22,96,11,0
0.20507669682779797,54,45,16,104,9,0
0.3052946568157363,54,45,10,115,4,0
0.46389065526494483,54,45,6,120,3,0
0.610703410258421,54,45,3,124,2,0
0.7692406498993605,54,45,1,127,1,0
0.8742586521357096,54,45,1,128,0,0
100,54,45,0,129,0,0
