#Time,A,B,C,D,E,X
0,0,166,114,57,107,39
0.10105476150121342,0,166,69,153,56,39
0.2045558408576998,0,166,50,205,23,39
0.30645565052827,0,166,32,234,12,39
0.4081301992347489,0,166,17,256,5,39
0.5258185908835081,0,166,12,263,3,39
0.6342583815967462,0,166,8,268,2,39
0.8259394549855074,0,166,2,275,1,39
1.2518860586850271,0,166,1,276,1,39
1.4235263766770292,0,166,0,278,0,39
100,0,166,0,278,0,39
