#Time,A,B,C,D,E,X
0,0,146,12,132,11,239
0.1068816167917245,0,146,9,144,2,239
0.22982507625707754,0,146,5,149,1,239
0.45417666480151764,0,146,3,152,0,239
0.5774419794957828,0,146,2,153,0,239
0.8057207092922474,0,146,0,155,0,239
100,0,146,0,155,0,239
