#Time,A,B,C,D,E,X
0,130,54,90,72,36,10
0.10071474223561898,130,54,66,113,19,10
0.201153716041507,130,54,38,149,11,10
0.302841146081231,130,54,21,173,4,10
0.4095085322906848,128,56,15,181,2,8
0.5667703234768711,127,57,9,189,0,7
0.6739924195772917,127,57,6,192,0,7
0.7748001566991235,125,59,2,196,0,5
0.9597287990428455,123,61,1,197,0,3
1.5448771736502573,122,62,0,198,0,2
1.6460890923728126,121,63,0,198,0,1
2.3822181663639945,120,64,0,198,0,0
100,120,64,0,198,0,0
