#Time,A,B,C,D,E,X
0,0,260,357,19,276,117
0.10059703294167975,0,260,224,285,143,117
0.20228528476924648,0,260,148,437,67,117
0.3037414061702482,0,260,102,518,32,117
0.40438098522738164,0,260,70,568,14,117
0.5109448487871778,0,260,39,608,5,117
0.6113970797056142,0,260,26,624,2,117
0.7269266543661015,0,260,16,635,1,117
0.8609544493779171,0,260,9,643,0,117
1.051371101776372,0,260,3,649,0,117
1.32242050591756,0,260,1,651,0,117
1.5713733962443515,0,260,0,652,0,117
100,0,260,0,652,0,117
