#Time,A,B,C,D,E,X
0,36,8,161,152,144,102
0.1001247708775146,30,14,101,299,57,96
0.20288317649672596,29,15,69,356,32,95
0.30638245090132965,26,18,47,396,14,92
0.4138924339161086,24,20,33,417,7,90
0.5218388605036108,20,24,21,435,1,86
0.6225936549387282,19,25,13,444,0,85
0.7570990204796555,17,27,7,450,0,83
0.8746380579647717,15,29,4,453,0,81
1.0791334067765055,14,30,2,455,0,80
1.2127550072230653,13,31,1,456,0,79
1.370027412229829,11,33,0,457,0,77
1.5558633753040318,9,35,0,457,0,75
1.662041220959168,8,36,0,457,0,74
1.9841643689010473,6,38,0,457,0,72
2.0985335234680575,4,40,0,457,0,70
2.228010791810445,2,42,0,457,0,68
2.6841535853028193,1,43,0,457,0,67
4.199482565313868,0,44,0,457,0,66
100,0,44,0,457,0,66
