#Time,A,B,C,D,E,X
0,0,148,0,82,59,259
0.11366856452741854,0,148,0,111,30,259
0.2143722594197025,0,148,0,126,15,259
0.3232323721932978,0,148,0,133,8,259
0.43878418476421993,0,148,0,136,5,259
0.5852463850644486,0,148,0,137,4,259
0.7679762747237179,0,148,0,140,1,259
0.9417383836398752,0,148,0,141,0,259
100,0,148,0,141,0,259
