#Time,A,B,C,D,E,X
0,0,162,87,127,66,144
0.10454748639750984,0,162,53,200,27,144
0.2077669689024826,0,162,34,227,19,144
0.3121760716303684,0,162,24,244,12,144
0.45371817529911795,0,162,15,259,6,144
0.5678850409340395,0,162,9,269,2,144
0.6834249704985292,0,162,5,275,0,144
0.8135964377031271,0,162,3,277,0,144
1.1281896358036965,0,162,2,278,0,144
1.3574725857056729,0,162,0,280,0,144
100,0,162,0,280,0,144
