#Time,A,B,C,D,E,X
0,165,130,35,23,84,1
0.10369615687841742,165,130,28,67,47,1
0.2105441737621895,165,130,20,106,16,1
0.3211570317426342,165,130,13,122,7,1
0.4249780959020321,165,130,9,130,3,1
0.573562538389889,165,130,3,138,1,1
0.6743804543582883,165,130,1,140,1,1
0.8928208615399762,165,130,1,141,0,1
2.1982296762526756,164,131,0,142,0,0
100,164,131,0,142,0,0
