#Time,A,B,C,D,E,X
0,66,11,236,0,147,50
0.10126566740096479,64,13,154,163,66,48
0.202823307580344,63,14,110,240,33,47
0.30317906722048954,59,18,63,304,16,43
0.40336159382020664,56,21,40,336,7,40
0.5087975538967977,52,25,28,354,1,36
0.6088804463148405,52,25,21,361,1,36
0.7195055293736661,47,30,16,367,0,31
0.8234127492532474,45,32,8,375,0,29
0.9498313048970107,44,33,6,377,0,28
1.1036446586190214,42,35,2,381,0,26
1.2086872352361115,40,37,1,382,0,24
1.3772090616060229,40,37,0,383,0,24
1.4983322923452276,39,38,0,383,0,23
1.8426066278825197,38,39,0,383,0,22
1.9690508310262524,35,42,0,383,0,19
2.0772619958793372,32,45,0,383,0,16
2.2286374948889103,31,46,0,383,0,15
2.3926590594578587,28,49,0,383,0,12
2.58808549735391,27,50,0,383,0,11
2.7558088861287717,26,51,0,383,0,10
3.152010068716907,25,52,0,383,0,9
4.401879800395118,24,53,0,383,0,8
4.704177807877638,23,54,0,383,0,7
5.158873845815497,22,55,0,383,0,6
6.522142580291595,21,56,0,383,0,5
7.021125652383917,20,57,0,383,0,4
8.054010188888855,19,58,0,383,0,3
10.067664488214309,18,59,0,383,0,2
13.502728065215496,17,60,0,383,0,1
17.341535802880212,16,61,0,383,0,0
100,16,61,0,383,0,0
