#Time,A,B,C,D,E,X
0,36,8,161,152,144,102
0.10057648549455708,31,13,108,279,70,97
0.20057903354132112,30,14,72,347,38,96
0.3040341680298714,27,17,48,393,16,93
0.4054234595011212,23,21,35,418,4,89
0.5220428473263469,22,22,25,429,3,88
0.6251125641280766,20,24,16,441,0,86
0.7440764339572342,18,26,8,449,0,84
0.869131196063364,16,28,5,452,0,82
0.9841504799511962,11,33,4,453,0,77
1.2212377741033147,8,36,0,457,0,74
1.519188364963647,6,38,0,457,0,72
1.8459375255953467,5,39,0,457,0,71
2.231322249815219,4,40,0,457,0,70
2.3801774029118525,3,41,0,457,0,69
3.8115312136504826,2,42,0,457,0,68
4.3662670597112765,1,43,0,457,0,67
4.488106093595841,0,44,0,457,0,66
100,0,44,0,457,0,66
