#Time,A,B,C,D,E,X
0,9,2,0,0,170,23
0.10193121256224533,9,2,0,86,84,23
0.20416635574689307,9,2,0,122,48,23
0.3051217992491072,9,2,0,144,26,23
0.4084973458371697,8,3,0,160,10,22
0.5774430998250918,8,3,0,167,3,22
0.7182175784597309,8,3,0,168,2,22
1.0925080584608118,8,3,0,170,0,22
1.5327195268753235,7,4,0,170,0,21
1.9216375495223008,6,5,0,170,0,20
4.11005543725287,5,6,0,170,0,19
4.985019139525752,4,7,0,170,0,18
6.801825301105907,3,8,0,170,0,17
10.233386404645803,2,9,0,170,0,16
14.97950646864831,1,10,0,170,0,15
17.169875416618094,0,11,0,170,0,14
100,0,11,0,170,0,14
