#Time,A,B,C,D,E,X
0,36,8,161,152,144,102
0.10042176062944363,33,11,103,275,79,99
0.20434019513030607,32,12,77,345,35,98
0.30489821518776944,30,14,45,393,19,96
0.41588908648965384,26,18,29,419,9,92
0.5184843179852823,23,21,21,431,5,89
0.6476755986621372,22,22,12,443,2,88
0.7629862939207848,22,22,9,447,1,88
0.8941772331552158,20,24,5,452,0,86
1.0357010557929764,19,25,5,452,0,85
1.136592457528494,14,30,4,453,0,80
1.259575436285956,14,30,2,455,0,80
1.3676703005906976,11,33,1,456,0,77
1.8791698679433624,9,35,1,456,0,75
2.062435351873059,7,37,0,457,0,73
2.31721469392592,4,40,0,457,0,70
2.731886112650884,3,41,0,457,0,69
3.5166583054190337,2,42,0,457,0,68
5.397415514498201,0,44,0,457,0,66
100,0,44,0,457,0,66
