#Time,A,B,C,D,E,X
0,0,163,68,118,184,121
0.10039987517913905,0,163,45,236,89,121
0.20250688011332635,0,163,33,294,43,121
0.31165884963181345,0,163,23,329,18,121
0.4213819191155834,0,163,14,352,4,121
0.5365641009807403,0,163,4,363,3,121
0.6421455204582097,0,163,2,367,1,121
0.8301946395325511,0,163,1,369,0,121
0.9604570343059806,0,163,0,370,0,121
100,0,163,0,370,0,121
