#Time,A,B,C,D,E,X
0,115,0,25,0,144,76
0.10055862518568515,103,12,18,85,66,64
0.20178690019177503,94,21,10,124,35,55
0.30187156976152374,90,25,10,142,17,51
0.4031913199030799,88,27,6,156,7,49
0.5144087803014583,83,32,2,162,5,44
0.6145568165709077,80,35,1,164,4,41
0.7736702341179831,78,37,0,167,2,39
0.8945037640678031,75,40,0,168,1,36
1.0004227171438873,70,45,0,169,0,31
1.1010721455323593,66,49,0,169,0,27
1.3012238002694805,65,50,0,169,0,26
1.4179478975934667,62,53,0,169,0,23
1.537386984278975,59,56,0,169,0,20
1.645043399521267,58,57,0,169,0,19
1.759187212304531,55,60,0,169,0,16
2.143003096240933,52,63,0,169,0,13
2.3738772827592847,51,64,0,169,0,12
2.52910986928359,50,65,0,169,0,11
2.8681962949605735,49,66,0,169,0,10
3.68235703567989,48,67,0,169,0,9
4.247960028823862,46,69,0,169,0,7
4.838188387367772,45,70,0,169,0,6
5.412991304849516,44,71,0,169,0,5
5.721343128144378,43,72,0,169,0,4
6.560094748974036,42,73,0,169,0,3
7.693173881727368,41,74,0,169,0,2
8.186974480324007,40,75,0,169,0,1
15.352775157011514,39,76,0,169,0,0
100,39,76,0,169,0,0
