#Time,A,B,C,D,E,X
0,194,102,52,0,8,0
0.10195559883617639,194,102,33,23,4,0
0.2109404754483736,194,102,21,37,2,0
0.3113287737040112,194,102,13,46,1,0
0.4365655143381074,194,102,9,51,0,0
0.6785264364461938,194,102,8,52,0,0
0.870686047003138,194,102,3,57,0,0
1.1740094699386223,194,102,1,59,0,0
1.6999839019435483,194,102,0,60,0,0
100,194,102,0,60,0,0
