#Time,A,B,C,D,E,X
0,0,73,457,49,231,0
0.10073939460957788,0,73,309,318,110,0
0.20291579131348877,0,73,188,492,57,0
0.30339707001012,0,73,124,591,22,0
0.40392515262931133,0,73,90,637,10,0
0.509362844104509,0,73,61,672,4,0
0.6099246978419985,0,73,40,695,2,0
0.7129311672410766,0,73,22,713,2,0
0.8161970723831636,0,73,17,718,2,0
0.9309485478592814,0,73,11,725,1,0
1.033428450148378,0,73,6,730,1,0
1.1602356695302332,0,73,4,733,0,0
1.2661609757631844,0,73,2,735,0,0
100,0,73,0,737,0,0
