#Time,A,B,C,D,E,X
0,0,18,149,27,11,12
0.10276443880399604,0,18,105,79,3,12
0.20568615170862226,0,18,65,120,2,12
0.30624383640837066,0,18,46,140,1,12
0.40729415353310033,0,18,35,152,0,12
0.5147761152019952,0,18,23,164,0,12
0.624401214974386,0,18,16,171,0,12
0.7313940650679827,0,18,11,176,0,12
0.8389034028299516,0,18,6,181,0,12
0.9535014392200767,0,18,4,183,0,12
1.3461893291862213,0,18,1,186,0,12
100,0,18,0,187,0,12
