#Time,A,B,C,D,E,X
0,184,129,280,0,97,38
0.10072420610109475,180,133,196,138,43,34
0.20084662668789113,177,136,136,220,21,31
0.30134658681197934,174,139,90,278,9,28
0.4027168943598071,169,144,60,313,4,23
0.5066460239058768,166,147,43,332,2,20
0.6215283879734137,161,152,26,350,1,15
0.7521577982460298,159,154,15,362,0,13
0.8645818094634999,156,157,10,367,0,10
0.9948500071868362,154,159,5,372,0,8
1.0972903672652181,152,161,4,373,0,6
1.248283189845985,150,163,2,375,0,4
1.382800222672022,149,164,1,376,0,3
1.5577946581343582,149,164,0,377,0,3
2.0179701996006676,147,166,0,377,0,1
2.8548446965231076,146,167,0,377,0,0
100,146,167,0,377,0,0
