#Time,A,B,C,D,E,X
0,0,0,85,50,0,0
0.10642587806600892,0,0,50,85,0,0
0.20802682588005889,0,0,29,106,0,0
0.3113539989347029,0,0,18,117,0,0
0.41414602235614656,0,0,8,127,0,0
0.524463654426214,0,0,5,130,0,0
0.6433747274652533,0,0,2,133,0,0
0.9327071851037039,0,0,0,135,0,0
100,0,0,0,135,0,0
