#Time,A,B,C,D,E,X
0,21,31,92,63,578,98
0.10022510927697026,18,34,60,402,271,95
0.20131479150291878,16,36,39,564,130,93
0.30131944083608775,14,38,27,650,56,91
0.4046578959573921,13,39,17,681,35,90
0.5054069787714253,12,40,11,704,18,89
0.6180417133143644,10,42,7,715,11,87
0.7726999729743925,8,44,6,724,3,85
0.9280377453077746,8,44,1,731,1,85
1.0659280223106156,7,45,1,731,1,84
1.4328220934587819,5,47,1,732,0,82
1.806480112966582,4,48,1,732,0,81
2.713282390977016,2,50,0,733,0,79
5.068247347275982,1,51,0,733,0,78
6.770608185224414,0,52,0,733,0,77
100,0,52,0,733,0,77
