#Time,A,B,C,D,E,X
0,105,17,0,0,0,275
0.1040809582489282,77,45,0,0,0,247
0.20750618266594234,60,62,0,0,0,230
0.31681519563358035,45,77,0,0,0,215
0.4340169974431137,34,88,0,0,0,204
0.5376738110163447,28,94,0,0,0,198
0.6414464097698851,23,99,0,0,0,193
0.7576769318759605,17,105,0,0,0,187
0.8611376549384802,15,107,0,0,0,185
0.9717669120056562,14,108,0,0,0,184
1.0964691789067136,10,112,0,0,0,180
1.2274989734697461,7,115,0,0,0,177
1.377555316062591,4,118,0,0,0,174
1.4995522299354311,3,119,0,0,0,173
1.9335004496844777,2,120,0,0,0,172
2.1007413487497932,1,121,0,0,0,171
4.173909966897472,0,122,0,0,0,170
100,0,122,0,0,0,170
