#Time,A,B,C,D,E,X
0,0,146,12,132,11,239
0.11224312494539876,0,146,8,142,5,239
0.2514639526477281,0,146,4,148,3,239
0.36395076181136066,0,146,3,151,1,239
0.5857955538425971,0,146,1,154,0,239
1.0610152155978596,0,146,0,155,0,239
100,0,146,0,155,0,239
