#Time,A,B,C,D,E,X
0,61,0,6,44,0,53
0.10312168424622217,56,5,6,44,0,48
0.25462564973370033,54,7,3,47,0,46
0.36539440830688147,50,11,0,50,0,42
0.47083376413939954,49,12,0,50,0,41
0.6730521696909827,45,16,0,50,0,37
0.8823496715739971,42,19,0,50,0,34
1.1416055583833349,40,21,0,50,0,32
1.4434877910394461,38,23,0,50,0,30
1.6693987446422711,35,26,0,50,0,27
2.220163736636237,32,29,0,50,0,24
2.4118151564805186,29,32,0,50,0,21
2.5742812667663433,28,33,0,50,0,20
3.3303013343855854,27,34,0,50,0,19
3.4947437054265627,26,35,0,50,0,18
3.940361555061391,24,37,0,50,0,16
4.0688571487229055,22,39,0,50,0,14
4.372612008111093,21,40,0,50,0,13
4.5084210269259675,20,41,0,50,0,12
5.134634022300156,18,43,0,50,0,10
5.268785354864923,17,44,0,50,0,9
5.4356285080568725,16,45,0,50,0,8
5.887937945323746,15,46,0,50,0,7
6.994378565858966,14,47,0,50,0,6
7.8645087692894995,13,48,0,50,0,5
8.834664422866462,12,49,0,50,0,4
11.131076754766259,11,50,0,50,0,3
14.26821193523001,10,51,0,50,0,2
19.140393821652882,9,52,0,50,0,1
19.74644091634823,8,53,0,50,0,0
100,8,53,0,50,0,0
