#Time,A,B,C,D,E,X
0,516,231,0,0,34,54
0.10151900736892111,496,251,0,18,16,34
0.20587723542810327,482,265,0,28,6,20
0.318513048323275,474,273,0,30,4,12
0.44931279298953963,469,278,0,32,2,7
0.6191926583723812,467,280,0,33,1,5
0.7449529838440396,465,282,0,33,1,3
0.9159544099739344,463,284,0,34,0,1
1.0215740207054633,462,285,0,34,0,0
100,462,285,0,34,0,0
