#Time,A,B,C,D,E,X
0,24,34,197,45,192,0
0.10136746474241962,24,34,134,212,88,0
0.20166676865278518,24,34,89,302,43,0
0.30811721357185246,24,34,72,341,21,0
0.4090039523762663,24,34,46,376,12,0
0.5170174612589433,24,34,25,404,5,0
0.6189598874083806,24,34,14,418,2,0
0.735193788783897,24,34,11,423,0,0
0.844838477079345,24,34,6,428,0,0
0.9599329414747668,24,34,4,430,0,0
1.1151429233608896,24,34,2,432,0,0
2.1548127978041793,24,34,0,434,0,0
100,24,34,0,434,0,0
