#Time,A,B,C,D,E,X
0,169,59,0,103,0,154
0.10254566235491859,140,88,0,103,0,125
0.21109127491547902,123,105,0,103,0,108
0.31279298090686797,104,124,0,103,0,89
0.41548995371903663,92,136,0,103,0,77
0.5926370986042608,85,143,0,103,0,70
0.7362063055615505,77,151,0,103,0,62
0.8490140234085235,70,158,0,103,0,55
0.9833064208694994,65,163,0,103,0,50
1.1455482520573959,62,166,0,103,0,47
1.3056724578279129,58,170,0,103,0,43
1.452825319406454,57,171,0,103,0,42
1.5681750027758363,54,174,0,103,0,39
1.837721673119655,50,178,0,103,0,35
1.9944063384098245,49,179,0,103,0,34
2.1732980664251125,46,182,0,103,0,31
2.4347797657768253,43,185,0,103,0,28
2.6638118517575857,41,187,0,103,0,26
3.2431017154025903,37,191,0,103,0,22
3.629195592018393,36,192,0,103,0,21
3.7628110365608336,35,193,0,103,0,20
3.9789624553473657,33,195,0,103,0,18
4.250041513409039,32,196,0,103,0,17
4.458634862230956,31,197,0,103,0,16
4.820979784256952,29,199,0,103,0,14
4.93630606078543,28,200,0,103,0,13
5.052090124385882,26,202,0,103,0,11
5.620445088004177,25,203,0,103,0,10
5.941053517360756,24,204,0,103,0,9
6.381960920927089,23,205,0,103,0,8
6.68120415580003,22,206,0,103,0,7
6.949837022733173,21,207,0,103,0,6
8.357295131388067,20,208,0,103,0,5
8.957946484057596,19,209,0,103,0,4
9.213169449313407,18,210,0,103,0,3
13.208378172305338,17,211,0,103,0,2
18.784169725181382,16,212,0,103,0,1
32.78731186087176,15,213,0,103,0,0
100,15,213,0,103,0,0
