#Time,A,B,C,D,E,X
0,130,54,90,72,36,10
0.10071203777761363,129,55,63,116,19,9
0.2027312577293845,129,55,37,151,10,9
0.3102523840038377,127,57,25,167,6,7
0.421469703593647,126,58,17,179,2,6
0.5302223281014452,126,58,12,186,0,6
0.6383073128637313,125,59,8,190,0,5
0.7476123106353073,124,60,4,194,0,4
1.0616319390259332,124,60,1,197,0,4
1.2442958665368076,123,61,0,198,0,3
1.61821213496285,122,62,0,198,0,2
1.8052735353649043,121,63,0,198,0,1
2.6491093451522985,120,64,0,198,0,0
100,120,64,0,198,0,0
