#Time,A,B,C,D,E,X
0,0,260,357,19,276,117
0.10018868563534403,0,260,228,275,149,117
0.20072637246096015,0,260,148,419,85,117
0.30129625670943644,0,260,103,504,45,117
0.40455509532915934,0,260,66,565,21,117
0.5098354208101853,0,260,44,595,13,117
0.6162216375337303,0,260,33,615,4,117
0.7440055368305399,0,260,23,627,2,117
0.8523671165707487,0,260,19,632,1,117
0.9686817171651242,0,260,8,644,0,117
1.0867789553707008,0,260,5,647,0,117
1.2723142414179922,0,260,3,649,0,117
1.3923536558798455,0,260,0,652,0,117
100,0,260,0,652,0,117
