#Time,A,B,C,D,E,X
0,21,240,169,102,0,155
0.10268537510601732,18,243,116,155,0,152
0.2028190527461388,16,245,79,192,0,150
0.3053682491672612,12,249,51,220,0,146
0.40756517646875995,8,253,32,239,0,142
0.5224814760740334,6,255,22,249,0,140
0.6438518878314547,6,255,13,258,0,140
0.7766245101504323,6,255,8,263,0,140
0.8834595044896701,6,255,7,264,0,140
0.9851471259769717,4,257,4,267,0,138
1.1880969946905307,4,257,1,270,0,138
1.6344244361619853,3,258,0,271,0,137
3.1539664189817467,1,260,0,271,0,135
3.719719945615932,0,261,0,271,0,134
100,0,261,0,271,0,134
