#Time,A,B,C,D,E,X
0,0,107,35,123,183,32
0.10142265953563925,0,107,20,227,94,32
0.20337199798034644,0,107,14,278,49,32
0.30504412520059127,0,107,8,309,24,32
0.41613107801674803,0,107,4,325,12,32
0.5417250930933066,0,107,2,332,7,32
0.6593449968037837,0,107,0,339,2,32
100,0,107,0,341,0,32
