#Time,A,B,C,D,E,X
0,169,59,0,103,0,154
0.10656293173846482,145,83,0,103,0,130
0.20881360498070983,132,96,0,103,0,117
0.32504552293563566,119,109,0,103,0,104
0.44474535913713226,107,121,0,103,0,92
0.5701497534599702,100,128,0,103,0,85
0.6788740328071281,93,135,0,103,0,78
0.8213804039961585,83,145,0,103,0,68
0.9592929036903113,74,154,0,103,0,59
1.1186523743751364,67,161,0,103,0,52
1.2215036902475331,60,168,0,103,0,45
1.3494860182457107,56,172,0,103,0,41
1.4733623609418962,53,175,0,103,0,38
1.586902724266105,49,179,0,103,0,34
1.7302664544857007,47,181,0,103,0,32
1.902337143368674,46,182,0,103,0,31
2.147017758450216,45,183,0,103,0,30
2.248392695866909,41,187,0,103,0,26
2.4227426629366047,39,189,0,103,0,24
2.5413525663792558,37,191,0,103,0,22
2.683666203564236,35,193,0,103,0,20
2.842826282512423,34,194,0,103,0,19
2.9463935936708188,32,196,0,103,0,17
3.0691664831532934,30,198,0,103,0,15
3.3767897184928564,29,199,0,103,0,14
3.608563368262393,28,200,0,103,0,13
3.7696058069857026,27,201,0,103,0,12
4.0685990038884245,25,203,0,103,0,10
5.218191923820627,24,204,0,103,0,9
5.387449423364382,23,205,0,103,0,8
5.878101528466752,21,207,0,103,0,6
7.363786970404405,20,208,0,103,0,5
10.70907390567664,19,209,0,103,0,4
13.779737707194105,17,211,0,103,0,2
15.078246540804251,16,212,0,103,0,1
30.77199908233909,15,213,0,103,0,0
100,15,213,0,103,0,0
