#Time,A,B,C,D,E,X
0,348,0,73,392,0,221
0.1011641500020777,285,63,54,411,0,158
0.20213762258758267,250,98,39,426,0,123
0.3049373349448526,231,117,29,436,0,104
0.40615013494921415,208,140,17,448,0,81
0.5077999107472714,188,160,12,453,0,61
0.6121763872825146,176,172,6,459,0,49
0.7575042061657145,167,181,4,461,0,40
0.8584120834362344,156,192,2,463,0,29
0.9666720287560455,153,195,2,463,0,26
1.0749796597832582,145,203,1,464,0,18
1.1891988157361004,142,206,1,464,0,15
1.3017489254430323,140,208,0,465,0,13
1.520245048714537,138,210,0,465,0,11
1.6226657290122442,136,212,0,465,0,9
1.8212986384317942,135,213,0,465,0,8
2.0485177068567006,134,214,0,465,0,7
2.3313036655151254,132,216,0,465,0,5
2.7125016869141163,131,217,0,465,0,4
2.8508892996623367,130,218,0,465,0,3
3.436794940367517,128,220,0,465,0,1
3.9709317034867087,127,221,0,465,0,0
100,127,221,0,465,0,0
