#Time,A,B,C,D,E,X
0,1,147,0,0,40,104
0.10059048226042773,1,147,0,28,12,104
0.21647594349320035,1,147,0,36,4,104
0.32754707403947586,1,147,0,40,0,104
0.5723929233206062,0,148,0,40,0,103
100,0,148,0,40,0,103
