#Time,A,B,C,D,E,X
0,89,289,25,31,0,24
0.10808393113586098,88,290,16,40,0,23
0.21150650880659747,85,293,10,46,0,20
0.33301979607384047,83,295,5,51,0,18
0.43768427199694243,82,296,3,53,0,17
0.6153634564118792,80,298,1,55,0,15
0.7295743786687165,79,299,1,55,0,14
0.9146516322610712,77,301,1,55,0,12
1.077710663434047,76,302,0,56,0,11
1.292376899713733,74,304,0,56,0,9
1.6125644585746925,72,306,0,56,0,7
2.0188497280417788,70,308,0,56,0,5
2.196502190723442,69,309,0,56,0,4
2.5433009760828376,68,310,0,56,0,3
2.87751443606711,67,311,0,56,0,2
3.169888135626852,66,312,0,56,0,1
5.879407439174309,65,313,0,56,0,0
100,65,313,0,56,0,0
