#Time,A,B,C,D,E,X
0,0,166,114,57,107,39
0.1015638854464021,0,166,70,154,54,39
0.20272271437986797,0,166,47,203,28,39
0.313072844509511,0,166,28,235,15,39
0.42091499463789506,0,166,20,249,9,39
0.5374267133357798,0,166,12,263,3,39
0.6450554638950124,0,166,10,267,1,39
0.8182837854243062,0,166,3,274,1,39
0.9297959257529218,0,166,2,276,0,39
1.1180128855699847,0,166,1,277,0,39
100,0,166,0,278,0,39
