#Time,A,B,C,D,E,X
0,69,0,82,54,181,14
0.10032069465194034,68,1,48,176,93,13
0.20146572600991303,67,2,34,235,48,12
0.30467650472028945,67,2,22,278,17,12
0.4048674221661423,66,3,16,290,11,11
0.51105642502933,66,3,10,301,6,11
0.6149971937408576,66,3,7,308,2,11
0.7595912142794807,65,4,4,311,2,10
0.8882318393557822,64,5,2,314,1,9
1.043178606455681,62,7,2,315,0,7
1.3573948183643447,61,8,1,316,0,6
1.4639006975179503,61,8,0,317,0,6
1.7331704183097951,59,10,0,317,0,4
3.1695651925463855,57,12,0,317,0,2
3.332602508810286,56,13,0,317,0,1
100,55,14,0,317,0,0
