#Time,A,B,C,D,E,X
0,0,73,457,49,231,0
0.10098377081219082,0,73,301,332,104,0
0.20236885766081444,0,73,196,483,58,0
0.3029015976021474,0,73,135,574,28,0
0.40627262659449187,0,73,87,639,11,0
0.5092047642323095,0,73,56,675,6,0
0.6099635795512552,0,73,32,701,4,0
0.7335870574908196,0,73,20,714,3,0
0.8345442754874451,0,73,9,726,2,0
0.9346267472645191,0,73,5,730,2,0
1.1039497783723382,0,73,4,733,0,0
1.2115329468168292,0,73,3,734,0,0
100,0,73,0,737,0,0
