#Time,A,B,C,D,E,X
0,92,4,22,0,22,0
0.1304360682367486,92,4,13,21,10,0
0.23278046558321625,92,4,8,33,3,0
0.35595207202194434,92,4,4,39,1,0
0.4692981762696942,92,4,3,40,1,0
0.6098110759992494,92,4,2,42,0,0
0.7422951295440058,92,4,1,43,0,0
1.1186997675701964,92,4,0,44,0,0
100,92,4,0,44,0,0
