#Time,A,B,C,D,E,X
0,69,0,82,54,181,14
0.10045018461465506,67,2,50,190,77,12
0.20309673066502792,67,2,40,232,45,12
0.30907127771329523,67,2,25,271,21,12
0.4152022256129859,65,4,18,284,15,10
0.5169430305353998,65,4,11,299,7,10
0.6276951121842834,64,5,5,308,4,9
0.73431072615366,63,6,4,312,1,8
1.0334212622625558,62,7,3,314,0,7
1.193733845855533,60,9,2,315,0,5
1.546066843173651,58,11,1,316,0,3
1.8565097585497194,58,11,0,317,0,3
2.853460314363404,55,14,0,317,0,0
100,55,14,0,317,0,0
