#Time,A,B,C,D,E,X
0,100,167,213,49,125,76
0.10108851022492013,92,175,130,199,58,68
0.20284760409233005,87,180,78,283,26,63
0.30653103713172364,83,184,60,311,16,59
0.4139209296226835,80,187,39,341,7,56
0.527794695133596,74,193,26,358,3,50
0.629744778880147,68,199,22,362,3,44
0.7307991959388518,67,200,14,371,2,43
0.8474805105268114,62,205,11,376,0,38
0.9687649114035143,61,206,6,381,0,37
1.0694122250494997,57,210,4,383,0,33
1.2413292345002562,56,211,1,386,0,32
1.4596346892782894,55,212,0,387,0,31
1.6202422959896092,52,215,0,387,0,28
1.7800305754115575,49,218,0,387,0,25
2.0116558768246007,46,221,0,387,0,22
2.1585618672560978,45,222,0,387,0,21
2.2913493676624457,43,224,0,387,0,19
2.434560619200177,41,226,0,387,0,17
2.791616224000119,39,228,0,387,0,15
3.2087397253411902,38,229,0,387,0,14
3.4093471288440402,36,231,0,387,0,12
3.719189736477355,35,232,0,387,0,11
4.170891110483963,34,233,0,387,0,10
4.678754391933459,33,234,0,387,0,9
4.794388064692342,32,235,0,387,0,8
5.17552649867234,31,236,0,387,0,7
5.330724827966135,30,237,0,387,0,6
5.597848988664531,28,239,0,387,0,4
7.193991276992033,27,240,0,387,0,3
7.362196167080918,26,241,0,387,0,2
9.016119688705032,25,242,0,387,0,1
11.841391974602043,24,243,0,387,0,0
100,24,243,0,387,0,0
