#Time,A,B,C,D,E,X
0,254,83,0,0,43,198
0.10216319585329693,206,131,0,16,27,150
0.20568509139373695,182,155,0,30,13,126
0.3121221869483164,160,177,0,36,7,104
0.41507139962784223,148,189,0,40,3,92
0.5365572114737928,133,204,0,42,1,77
0.6412685707641221,123,214,0,42,1,67
0.745784923863943,117,220,0,42,1,61
0.8596305642027164,109,228,0,43,0,53
0.9616257972625897,102,235,0,43,0,46
1.0646154060089565,97,240,0,43,0,41
1.1854545339843838,92,245,0,43,0,36
1.3053423256027186,89,248,0,43,0,33
1.422918073080905,86,251,0,43,0,30
1.5653199556774273,84,253,0,43,0,28
1.7292010629661176,82,255,0,43,0,26
1.8490765209835889,79,258,0,43,0,23
1.9659695922276006,77,260,0,43,0,21
2.077188814122335,73,264,0,43,0,17
2.2024932779397313,70,267,0,43,0,14
2.382183261819041,68,269,0,43,0,12
2.9378962769669585,66,271,0,43,0,10
3.049310589999487,65,272,0,43,0,9
3.400864980030367,63,274,0,43,0,7
3.8560950318279987,62,275,0,43,0,6
4.389116506193513,61,276,0,43,0,5
4.540297264027149,60,277,0,43,0,4
4.7745857899034,59,278,0,43,0,3
5.754054009906165,58,279,0,43,0,2
7.065495704533633,57,280,0,43,0,1
7.614929670523452,56,281,0,43,0,0
100,56,281,0,43,0,0
