#Time,A,B,C,D,E,X
0,0,146,12,132,11,239
0.10009655920615507,0,146,10,138,7,239
0.20174633118553406,0,146,8,145,2,239
0.3158897345936338,0,146,6,148,1,239
0.5515221775113098,0,146,4,150,1,239
0.7968335059050508,0,146,2,153,0,239
1.489076507909815,0,146,0,155,0,239
100,0,146,0,155,0,239
