#Time,A,B,C,D,E,X
0,198,41,114,7,18,252
0.10361899564845514,161,78,70,60,9,215
0.2049969149465385,136,103,49,86,4,190
0.3085108396599476,112,127,33,105,1,166
0.4114298618465474,97,142,20,119,0,151
0.5132942938176801,85,154,12,127,0,139
0.6184670136047908,75,164,11,128,0,129
0.7201966234070668,67,172,10,129,0,121
0.8263799525602098,60,179,5,134,0,114
0.9318732366108803,54,185,5,134,0,108
1.0735204151186082,51,188,3,136,0,105
1.1929989000662278,45,194,1,138,0,99
1.3253330485787356,42,197,1,138,0,96
1.4345909644357353,37,202,1,138,0,91
1.5419266393849145,33,206,1,138,0,87
1.6870803716491776,30,209,1,138,0,84
1.8238861225734504,28,211,0,139,0,82
1.960621509116348,25,214,0,139,0,79
2.065764897309643,21,218,0,139,0,75
2.5379664608507824,17,222,0,139,0,71
2.688632173356162,16,223,0,139,0,70
3.078035191887322,15,224,0,139,0,69
3.2145537335342214,12,227,0,139,0,66
3.356594401551997,9,230,0,139,0,63
3.5329813656448126,7,232,0,139,0,61
4.0695982959595955,6,233,0,139,0,60
4.203956094972962,4,235,0,139,0,58
4.335572420262428,1,238,0,139,0,55
6.893264887097438,0,239,0,139,0,54
100,0,239,0,139,0,54
