#Time,A,B,C,D,E,X
0,0,0,180,25,62,24
0.10072873194770873,0,0,120,112,35,24
0.20167653487741277,0,0,72,178,17,24
0.3062445701765388,0,0,43,214,10,24
0.41579050568649667,0,0,28,235,4,24
0.5174446466166058,0,0,14,252,1,24
0.6255090378641367,0,0,9,258,0,24
0.811186465246684,0,0,5,262,0,24
0.9715211495608893,0,0,2,265,0,24
1.4863640468885126,0,0,0,267,0,24
100,0,0,0,267,0,24
