#Time,A,B,C,D,E,X
0,66,11,236,0,147,50
0.10077631183461738,63,14,150,154,79,47
0.20518718199658298,60,17,108,234,41,44
0.3080228377734695,55,22,68,300,15,39
0.41353959804742435,53,24,49,326,8,37
0.5147416586288618,51,26,31,348,4,35
0.6170821944027387,50,27,20,361,2,34
0.7275266418481053,48,29,15,367,1,32
0.8361159353298228,45,32,8,375,0,29
0.9392434834559852,43,34,5,378,0,27
1.1038765316115775,41,36,3,380,0,25
1.2733508768687194,39,38,2,381,0,23
1.4987650445242187,37,40,1,382,0,21
1.622039550402417,37,40,0,383,0,21
1.7761803658821964,36,41,0,383,0,20
2.0713003743587506,35,42,0,383,0,19
2.2148917181886825,33,44,0,383,0,17
2.3817646726901764,32,45,0,383,0,16
3.120579608838196,31,46,0,383,0,15
3.414945306060282,30,47,0,383,0,14
3.7004955779756643,28,49,0,383,0,12
3.9381995815314164,27,50,0,383,0,11
4.10401579313615,25,52,0,383,0,9
4.618093503300675,24,53,0,383,0,8
4.733261851588498,23,54,0,383,0,7
5.005999931924326,21,56,0,383,0,5
5.949525584349196,19,58,0,383,0,3
7.421616852732719,18,59,0,383,0,2
8.171137594130034,17,60,0,383,0,1
10.82321184146549,16,61,0,383,0,0
100,16,61,0,383,0,0
