#Time,A,B,C,D,E,X
0,0,18,149,27,11,12
0.10025849416190653,0,18,98,84,5,12
0.21028442087197807,0,18,58,127,2,12
0.3116297617696093,0,18,39,147,1,12
0.42029295079144613,0,18,28,159,0,12
0.5352604576570937,0,18,16,171,0,12
0.6361951709837699,0,18,7,180,0,12
0.8383790291268114,0,18,4,183,0,12
0.972520871960353,0,18,2,185,0,12
1.2925037606479017,0,18,1,186,0,12
1.8145436619920026,0,18,0,187,0,12
100,0,18,0,187,0,12
