#Time,A,B,C,D,E,X
0,0,2,12,2,140,42
0.10157546050031854,0,2,6,80,68,42
0.20179003150240987,0,2,2,118,34,42
0.33309528066520383,0,2,2,138,14,42
0.4361797484637068,0,2,2,146,6,42
0.6506196345689279,0,2,0,152,2,42
100,0,2,0,154,0,42
