#Time,A,B,C,D,E,X
0,71,233,0,67,103,20
0.1008555477042057,70,234,0,121,49,19
0.204687174970687,68,236,0,147,23,17
0.3183843867094637,67,237,0,157,13,16
0.4712751475391373,66,238,0,167,3,15
0.7658653443142525,64,240,0,169,1,13
0.9432664159231188,62,242,0,170,0,11
1.2275934776324773,61,243,0,170,0,10
1.7409536052513963,59,245,0,170,0,8
2.0657503992777855,58,246,0,170,0,7
2.818593124897755,56,248,0,170,0,5
3.0629474732134536,54,250,0,170,0,3
4.438562693279618,52,252,0,170,0,1
5.191840537235686,51,253,0,170,0,0
100,51,253,0,170,0,0
