#Time,A,B,C,D,E,X
0,0,162,87,127,66,144
0.10035503646469393,0,162,51,191,38,144
0.2059788035079786,0,162,29,233,18,144
0.32117171066636796,0,162,22,248,10,144
0.42661971635474105,0,162,13,263,4,144
0.5327320125481884,0,162,9,268,3,144
0.6513704411880167,0,162,4,276,0,144
1.0107540268491493,0,162,1,279,0,144
1.1782981098747354,0,162,0,280,0,144
100,0,162,0,280,0,144
