#Time,A,B,C,D,E,X
0,117,157,18,70,0,0
0.12395168262020367,117,157,14,74,0,0
0.2840883926547053,117,157,10,78,0,0
0.3937693695401827,117,157,5,83,0,0
0.5914130047430006,117,157,3,85,0,0
0.8059345202366437,117,157,1,87,0,0
1.0126869867233643,117,157,0,88,0,0
100,117,157,0,88,0,0
