#Time,A,B,C,D,E,X
0,67,171,105,118,0,156
0.1035063186321295,55,183,74,149,0,144
0.20752793633536207,47,191,45,178,0,136
0.3193581539354819,42,196,25,198,0,131
0.4317883992397397,36,202,19,204,0,125
0.54428400449166,33,205,15,208,0,122
0.6890003670829323,27,211,10,213,0,116
0.794991171954592,24,214,5,218,0,113
0.8956278174252631,23,215,4,219,0,112
1.059161473772003,18,220,2,221,0,107
1.2427969482820045,17,221,1,222,0,106
1.525378461919077,15,223,0,223,0,104
1.717632123648579,13,225,0,223,0,102
1.8367188717235603,12,226,0,223,0,101
2.0936459250697066,9,229,0,223,0,98
2.2497655038100324,7,231,0,223,0,96
2.4278342041018566,6,232,0,223,0,95
2.6927700168250808,5,233,0,223,0,94
2.9621759399465377,4,234,0,223,0,93
3.364358329123527,3,235,0,223,0,92
4.225062816288517,2,236,0,223,0,91
4.549095635894199,1,237,0,223,0,90
5.403163824271065,0,238,0,223,0,89
100,0,238,0,223,0,89
