#Time,A,B,C,D,E,X
0,90,173,152,0,278,39
0.1001064605321055,83,180,114,178,138,32
0.20020659122286869,80,183,69,297,64,29
0.30211495169039343,78,185,54,347,29,27
0.402917466372371,76,187,38,378,14,25
0.5046612628694911,75,188,23,403,4,24
0.6047506856828534,75,188,15,411,4,24
0.7510805494262206,73,190,5,424,1,22
0.8745727429766941,70,193,4,425,1,19
0.9989605400523117,70,193,3,426,1,19
1.1100618240664069,66,197,1,429,0,15
1.220792591763207,63,200,0,430,0,12
1.3755989496382326,61,202,0,430,0,10
1.6646107990398449,58,205,0,430,0,7
1.899340775559828,57,206,0,430,0,6
2.0699007888500587,56,207,0,430,0,5
2.1998160062496646,55,208,0,430,0,4
2.7688430934612716,54,209,0,430,0,3
3.2170973038287216,52,211,0,430,0,1
6.454901293866382,51,212,0,430,0,0
100,51,212,0,430,0,0
