#Time,A,B,C,D,E,X
0,188,168,102,55,227,129
0.10131335868229356,169,187,63,203,118,110
0.2018051087618929,154,202,53,257,74,95
0.3021571827881679,142,214,37,306,41,83
0.4031952990738379,132,224,24,337,23,73
0.5040673060746547,124,232,16,360,8,65
0.6238637188611706,113,243,9,369,6,54
0.7242050814949686,108,248,5,377,2,49
0.8272792898552521,103,253,3,381,0,44
0.9387512697014333,98,258,2,382,0,39
1.0863691213058302,95,261,2,382,0,36
1.1882071508807144,93,263,0,384,0,34
1.3180794468223649,92,264,0,384,0,33
1.5013038675350265,91,265,0,384,0,32
1.6106131075146022,88,268,0,384,0,29
1.7215699802114133,87,269,0,384,0,28
1.886467016946702,85,271,0,384,0,26
1.9868726989319896,83,273,0,384,0,24
2.096054440142145,78,278,0,384,0,19
2.2511760395517904,76,280,0,384,0,17
2.4495202361266672,73,283,0,384,0,14
2.564042585239094,71,285,0,384,0,12
2.7282234445804163,70,286,0,384,0,11
3.2033980969898557,68,288,0,384,0,9
3.3459867075950895,66,290,0,384,0,7
3.8834692230221672,65,291,0,384,0,6
4.922029532007073,64,292,0,384,0,5
5.084659653017741,63,293,0,384,0,4
5.442983665021986,62,294,0,384,0,3
6.345848909425459,61,295,0,384,0,2
6.57983658057268,59,297,0,384,0,0
100,59,297,0,384,0,0
