#Time,A,B,C,D,E,X
0,46,214,60,46,0,0
0.10051445789169909,46,214,40,66,0,0
0.21216799784094775,46,214,32,74,0,0
0.31950038692361377,46,214,17,89,0,0
0.4238967402990029,46,214,11,95,0,0
0.574518392092016,46,214,4,102,0,0
0.7931206982015291,46,214,1,105,0,0
0.9276475276698801,46,214,0,106,0,0
100,46,214,0,106,0,0
