#Time,A,B,C,D,E,X
0,109,159,3,120,0,44
0.10051800792591101,104,164,1,122,0,39
0.20672254868653095,98,170,0,123,0,33
0.31441726158510025,95,173,0,123,0,30
0.4239922842710414,92,176,0,123,0,27
0.5381394762782157,90,178,0,123,0,25
0.6411803476401068,87,181,0,123,0,22
0.7471293630145163,85,183,0,123,0,20
0.9800560956555672,82,186,0,123,0,17
1.1464322424975126,80,188,0,123,0,15
1.351268703118993,78,190,0,123,0,13
1.4959666202101796,76,192,0,123,0,11
1.648812138350639,73,195,0,123,0,8
2.019765442074072,71,197,0,123,0,6
2.1827070815853733,70,198,0,123,0,5
2.4957421012794354,69,199,0,123,0,4
2.76074575376404,68,200,0,123,0,3
3.2199050550047774,67,201,0,123,0,2
3.4970218623174283,66,202,0,123,0,1
4.027282213355319,65,203,0,123,0,0
100,65,203,0,123,0,0
