#Time,A,B,C,D,E,X
0,96,19,75,0,39,148
0.10068150357716625,85,30,52,42,20,137
0.20069769570220083,75,40,40,63,11,127
0.3050977232530754,66,49,27,84,3,118
0.413596650495372,57,58,21,92,1,109
0.5142333158058525,52,63,12,101,1,104
0.6273774192542104,45,70,4,109,1,97
0.7276708990716999,42,73,2,112,0,94
0.851896049218674,38,77,1,113,0,90
1.091446005622334,35,80,0,114,0,87
1.2669878251720257,32,83,0,114,0,84
1.3947811314692224,29,86,0,114,0,81
1.5442147746402568,26,89,0,114,0,78
1.7054330429051225,21,94,0,114,0,73
1.9224064231703324,18,97,0,114,0,70
2.1103541923911404,17,98,0,114,0,69
2.346467201204471,15,100,0,114,0,67
2.669554296584054,12,103,0,114,0,64
2.7723165272255597,10,105,0,114,0,62
2.955101519202409,9,106,0,114,0,61
3.0716814920068147,7,108,0,114,0,59
3.19940204168533,5,110,0,114,0,57
3.611960715351995,4,111,0,114,0,56
3.7941980121608863,3,112,0,114,0,55
5.073961424984652,2,113,0,114,0,54
5.359271328578083,1,114,0,114,0,53
5.887191306753014,0,115,0,114,0,52
100,0,115,0,114,0,52
