#Time,A,B,C,D,E,X
0,17,10,0,43,29,0
0.10951500733690715,17,10,0,55,17,0
0.2100945978657814,17,10,0,65,7,0
0.35960062151838135,17,10,0,71,1,0
0.5515792991187267,17,10,0,72,0,0
100,17,10,0,72,0,0
