#Time,A,B,C,D,E,X
0,41,324,0,9,0,53
0.1027961752114431,38,327,0,9,0,50
0.22025868466409074,37,328,0,9,0,49
0.3802732956541158,33,332,0,9,0,45
0.5024577456323771,32,333,0,9,0,44
0.610875842539856,29,336,0,9,0,41
0.7745759945617703,27,338,0,9,0,39
0.901296090900978,26,339,0,9,0,38
1.0877249349094793,25,340,0,9,0,37
1.257372421917919,23,342,0,9,0,35
1.5644095097972752,22,343,0,9,0,34
2.00522920043489,21,344,0,9,0,33
2.1219470214435368,18,347,0,9,0,30
2.251652886412162,16,349,0,9,0,28
2.878519403384789,14,351,0,9,0,26
3.694302584835019,13,352,0,9,0,25
4.090422122084464,12,353,0,9,0,24
4.340540035563121,11,354,0,9,0,23
5.676802728706829,9,356,0,9,0,21
6.176471326319119,7,358,0,9,0,19
7.75640481824434,5,360,0,9,0,17
10.391993316883097,4,361,0,9,0,16
15.774969938271237,3,362,0,9,0,15
20.279861585533947,2,363,0,9,0,14
21.06611389106552,1,364,0,9,0,13
32.343273124575845,0,365,0,9,0,12
100,0,365,0,9,0,12
