#Time,A,B,C,D,E,X
0,136,57,54,129,243,24
0.10107936540284915,135,58,39,269,118,23
0.20136090690767608,135,58,28,345,53,23
0.3024998082796862,134,59,16,377,33,22
0.4102343813972681,132,61,12,397,17,20
0.5275156545187566,126,67,10,408,8,14
0.6416626803932882,123,70,6,415,5,11
0.7648058495648447,123,70,2,421,3,11
0.9245469981903296,122,71,0,425,1,10
1.0536063037958334,120,73,0,425,1,8
1.197537892132895,118,75,0,426,0,6
1.4923756933393237,116,77,0,426,0,4
2.0607125948990106,115,78,0,426,0,3
2.5143694309324296,113,80,0,426,0,1
3.351869898547334,112,81,0,426,0,0
100,112,81,0,426,0,0
