#Time,A,B,C,D,E,X
0,69,0,82,54,181,14
0.10075798521204846,67,2,60,170,87,12
0.20129009932203065,67,2,36,240,41,12
0.3091712900412932,66,3,21,276,20,11
0.41374723797027524,65,4,14,293,10,10
0.5165413363939726,64,5,12,302,3,9
0.651209566064878,64,5,11,305,1,9
0.7513284862891099,64,5,8,309,0,9
0.8730453327563923,64,5,6,311,0,9
1.0200767689587085,64,5,5,312,0,9
1.1486655052509005,63,6,3,314,0,8
1.2990066781892895,62,7,1,316,0,7
1.7847949315805143,61,8,1,316,0,6
1.9205567724152737,59,10,1,316,0,4
2.079462496180557,58,11,0,317,0,3
2.709637900715003,57,12,0,317,0,2
3.0569355003102165,56,13,0,317,0,1
100,55,14,0,317,0,0
