#Time,A,B,C,D,E,X
0,9,2,0,0,170,23
0.10158932178972539,8,3,0,87,83,22
0.20351497045320174,8,3,0,131,39,22
0.30553392709232696,8,3,0,153,17,22
0.43934165283909693,7,4,0,164,6,21
0.6390633090020112,7,4,0,170,0,21
0.7479934679300891,6,5,0,170,0,20
2.0758881094409984,5,6,0,170,0,19
3.06581355815878,4,7,0,170,0,18
3.966838934718054,2,9,0,170,0,16
9.591884506303252,1,10,0,170,0,15
13.897251348707996,0,11,0,170,0,14
100,0,11,0,170,0,14
