#Time,A,B,C,D,E,X
0,254,83,0,0,43,198
0.10707788256085402,208,129,0,26,17,152
0.2118154272168691,186,151,0,31,12,130
0.312838205684415,169,168,0,39,4,113
0.4130013589751646,152,185,0,42,1,96
0.5142103789116055,139,198,0,43,0,83
0.6147675737608521,127,210,0,43,0,71
0.7200665242190833,121,216,0,43,0,65
0.828413972523374,112,225,0,43,0,56
0.9607436435735393,107,230,0,43,0,51
1.080479999517737,103,234,0,43,0,47
1.2115123078741112,97,240,0,43,0,41
1.3726337902590573,91,246,0,43,0,35
1.4778095264438171,83,254,0,43,0,27
1.6550199911539292,82,255,0,43,0,26
1.8638947427239057,80,257,0,43,0,24
2.0233167490797475,77,260,0,43,0,21
2.186122979884635,75,262,0,43,0,19
2.576476785561207,72,265,0,43,0,16
2.708124815623205,71,266,0,43,0,15
2.88694492109299,70,267,0,43,0,14
3.147585414125783,69,268,0,43,0,13
3.3045854689173524,68,269,0,43,0,12
3.613666185059162,67,270,0,43,0,11
3.7356315441019112,63,274,0,43,0,7
4.129129591657881,62,275,0,43,0,6
4.450400380897001,61,276,0,43,0,5
4.5728825535496425,59,278,0,43,0,3
5.869822309301277,58,279,0,43,0,2
6.141900788492777,57,280,0,43,0,1
7.3722752998513545,56,281,0,43,0,0
100,56,281,0,43,0,0
