#Time,A,B,C,D,E,X
0,136,57,54,129,243,24
0.10039651687911307,131,62,32,276,118,19
0.2026395570698183,129,64,21,347,58,17
0.3042288061057215,127,66,18,379,29,15
0.4093402337548777,126,67,9,397,20,14
0.5186076957370579,124,69,8,407,11,12
0.6360318321340236,122,71,7,413,6,10
0.7574442945435609,121,72,6,417,3,9
0.9432779011917027,121,72,2,423,1,9
1.0576001498303347,119,74,0,425,1,7
1.1617026383395128,117,76,0,425,1,5
1.3735900956999845,117,76,0,426,0,5
1.5905335309102933,116,77,0,426,0,4
1.7347907974337053,115,78,0,426,0,3
2.3107382924482964,114,79,0,426,0,2
2.57976711844188,113,80,0,426,0,1
3.5148392747045443,112,81,0,426,0,0
100,112,81,0,426,0,0
