#Time,A,B,C,D,E,X
0,21,240,169,102,0,155
0.10112504502954973,17,244,112,159,0,151
0.20380953413228156,15,246,63,208,0,149
0.3072345654769034,11,250,36,235,0,145
0.4215993082235344,10,251,25,246,0,144
0.5502703386121223,6,255,13,258,0,140
0.6516904229944597,2,259,10,261,0,136
0.7692255162432119,2,259,3,268,0,136
0.8856866460186992,2,259,1,270,0,136
1.107501998594622,2,259,0,271,0,136
1.521394615271355,1,260,0,271,0,135
100,0,261,0,271,0,134
