#Time,A,B,C,D,E,X
0,196,200,20,2,51,10
0.10625833811140882,194,202,12,38,23,8
0.21826295838199242,194,202,8,50,15,8
0.32296463863442165,193,203,3,62,8,7
0.4401850144552269,191,205,3,65,5,5
0.5934680234148043,190,206,2,68,3,4
0.7303094693517521,189,207,0,71,2,3
0.9441771141278954,188,208,0,73,0,2
2.4829271435819606,186,210,0,73,0,0
100,186,210,0,73,0,0
