#Time,A,B,C,D,E,X
0,335,25,44,171,15,378
0.10039575268162634,230,130,32,190,8,273
0.20098777699354128,174,186,25,203,2,217
0.30180912984263203,140,220,18,211,1,183
0.4021196103724156,119,241,12,218,0,162
0.5054421451786604,101,259,10,220,0,144
0.6410204727625276,87,273,5,225,0,130
0.7411445208623603,77,283,2,228,0,120
0.8431769135369703,71,289,2,228,0,114
0.9566524296332883,62,298,0,230,0,105
1.0660769532468135,56,304,0,230,0,99
1.1742573505550646,52,308,0,230,0,95
1.3625589574172294,46,314,0,230,0,89
1.5368930781206693,37,323,0,230,0,80
1.721721460774368,34,326,0,230,0,77
1.830674072706668,30,330,0,230,0,73
2.004617468155566,27,333,0,230,0,70
2.2053059724605264,25,335,0,230,0,68
2.3542218906980894,21,339,0,230,0,64
2.513267334296623,18,342,0,230,0,61
2.773713093055344,17,343,0,230,0,60
2.8773913507247224,13,347,0,230,0,56
3.5814181885988847,12,348,0,230,0,55
3.7291235740027164,11,349,0,230,0,54
4.013855456009947,10,350,0,230,0,53
4.568648349434035,9,351,0,230,0,52
5.27666658005371,7,353,0,230,0,50
5.648833789756124,5,355,0,230,0,48
6.20849937778701,3,357,0,230,0,46
8.84986237262715,2,358,0,230,0,45
11.26190262763307,1,359,0,230,0,44
16.91029346728159,0,360,0,230,0,43
100,0,360,0,230,0,43
