#Time,A,B,C,D,E,X
0,184,129,280,0,97,38
0.10073775432237699,180,133,196,143,38,34
0.2027204905448021,175,138,134,221,22,29
0.30415654187562485,168,145,99,267,11,22
0.40463367224992536,165,148,56,317,4,19
0.5052263750023466,162,151,41,336,0,16
0.6264868789398307,159,154,28,349,0,13
0.7345937310934763,158,155,19,358,0,12
0.8502948181846535,156,157,16,361,0,10
0.987454466725249,154,159,10,367,0,8
1.1147359670007657,151,162,6,371,0,5
1.2568451204857993,151,162,3,374,0,5
1.3579662986624328,148,165,1,376,0,2
1.4932811912707347,148,165,0,377,0,2
1.7961526325746184,147,166,0,377,0,1
2.945156399675092,146,167,0,377,0,0
100,146,167,0,377,0,0
