#Time,A,B,C,D,E,X
0,133,18,88,159,328,25
0.10024578431633756,128,23,57,352,166,20
0.2008413603796494,126,25,45,445,85,18
0.3035949493687383,125,26,32,500,43,17
0.40548879519347436,125,26,25,531,19,17
0.5137384823973906,119,32,19,546,10,11
0.6323210838610938,117,34,14,557,4,9
0.7439747421311375,117,34,9,564,2,9
0.8608535233917358,115,36,5,569,1,7
0.97889843626035,113,38,4,571,0,5
1.3026372401152657,112,39,3,572,0,4
1.4115199079347147,112,39,0,575,0,4
2.64730990958598,111,40,0,575,0,3
2.75771332887829,110,41,0,575,0,2
2.959559909478961,109,42,0,575,0,1
3.73003475145984,108,43,0,575,0,0
100,108,43,0,575,0,0
