#Time,A,B,C,D,E,X
0,33,28,71,0,0,189
0.10159782916836922,29,32,42,29,0,185
0.21582929809223017,24,37,30,41,0,180
0.3236666126897464,18,43,21,50,0,174
0.42453354358337303,16,45,17,54,0,172
0.5556315317141981,12,49,12,59,0,168
0.6556535475477117,9,52,9,62,0,165
0.7649594577681045,9,52,4,67,0,165
0.9078777104510417,8,53,4,67,0,164
1.1294819991468206,6,55,3,68,0,162
1.2409714469873203,5,56,2,69,0,161
1.6203898326842108,4,57,1,70,0,160
1.7614674636218302,2,59,1,70,0,158
2.148176311756875,2,59,0,71,0,158
2.6289005007621755,1,60,0,71,0,157
6.315429782323722,0,61,0,71,0,156
100,0,61,0,71,0,156
