#Time,A,B,C,D,E,X
0,10,195,42,27,287,202
0.10002576503357989,10,195,29,185,142,202
0.20067855530576462,9,196,19,265,72,201
0.3033773419883314,8,197,12,306,38,200
0.4071165224407933,8,197,9,330,17,200
0.5327661049671393,8,197,5,344,7,200
0.6344547823962119,6,199,3,351,2,198
1.0106832804615635,5,200,0,356,0,197
1.1874147608251042,3,202,0,356,0,195
1.9786936738030132,1,204,0,356,0,193
3.7725105626412336,0,205,0,356,0,192
100,0,205,0,356,0,192
