#Time,A,B,C,D,E,X
0,126,157,3,311,162,175
0.10013784886179529,107,176,3,398,75,156
0.21612286299794808,91,192,1,446,29,140
0.3181854198979022,80,203,0,466,10,129
0.4321317285281003,66,217,0,470,6,115
0.5459464507536386,63,220,0,473,3,112
0.6479008242857038,55,228,0,475,1,104
0.7496575550779276,50,233,0,475,1,99
0.8769304104212998,46,237,0,475,1,95
0.9829770739271001,42,241,0,476,0,91
1.101013259408471,39,244,0,476,0,88
1.221383323376081,37,246,0,476,0,86
1.326638698593275,30,253,0,476,0,79
1.4477829587620594,27,256,0,476,0,76
1.6592483903954072,25,258,0,476,0,74
1.8801451002646106,24,259,0,476,0,73
1.9860315233319157,23,260,0,476,0,72
2.1227909047489533,21,262,0,476,0,70
2.2927804984258713,18,265,0,476,0,67
2.430572480720213,17,266,0,476,0,66
2.6929183977172935,15,268,0,476,0,64
3.0854615610838527,13,270,0,476,0,62
3.223314268568136,12,271,0,476,0,61
3.3240493225817977,10,273,0,476,0,59
3.9694393485985078,9,274,0,476,0,58
4.076388820134154,8,275,0,476,0,57
4.215381841064352,7,276,0,476,0,56
4.373065440617955,5,278,0,476,0,54
4.525580436202198,4,279,0,476,0,53
4.670937177278249,3,280,0,476,0,52
5.296307465627274,2,281,0,476,0,51
5.69145265285437,1,282,0,476,0,50
13.879101722968494,0,283,0,476,0,49
100,0,283,0,476,0,49
