#Time,A,B,C,D,E,X
0,0,2,48,21,50,71
0.10044174674822491,0,2,29,72,18,71
0.20125083764155305,0,2,15,94,10,71
0.326183250949788,0,2,11,104,4,71
0.4545267053388982,0,2,8,110,1,71
0.6301082727309029,0,2,6,112,1,71
0.7473355326813017,0,2,0,119,0,71
100,0,2,0,119,0,71
