#Time,A,B,C,D,E,X
0,0,0,131,0,0,56
0.10121327853022528,0,0,90,41,0,56
0.20606766888511185,0,0,63,68,0,56
0.3066599676837829,0,0,45,86,0,56
0.40711598477901617,0,0,26,105,0,56
0.5118002616737964,0,0,17,114,0,56
0.6339810545118555,0,0,13,118,0,56
0.7349442311223688,0,0,7,124,0,56
0.9013132778606553,0,0,3,128,0,56
1.015177377500609,0,0,2,129,0,56
1.1439388924904859,0,0,1,130,0,56
1.2842152820252917,0,0,0,131,0,56
100,0,0,0,131,0,56
