#Time,A,B,C,D,E,X
0,0,1,221,284,116,146
0.10281505156831962,0,1,151,412,58,146
0.20742323967553655,0,1,90,498,33,146
0.3078689697195891,0,1,65,540,16,146
0.41573120621165294,0,1,40,572,9,146
0.5226482523803052,0,1,29,588,4,146
0.6353266194733579,0,1,21,599,1,146
0.7470854504603011,0,1,10,611,0,146
0.8575670314058373,0,1,4,617,0,146
0.9621301901324673,0,1,2,619,0,146
1.0777861243156368,0,1,0,621,0,146
100,0,1,0,621,0,146
