#Time,A,B,C,D,E,X
0,339,58,56,0,0,225
0.10045654185387468,275,122,39,17,0,161
0.20115493780099283,248,149,26,30,0,134
0.3045782582270641,223,174,18,38,0,109
0.40584626030648563,200,197,13,43,0,86
0.5085800946158638,179,218,8,48,0,65
0.6115535602671112,170,227,4,52,0,56
0.7210347456231708,155,242,2,54,0,41
0.8398517375006761,150,247,2,54,0,36
0.943723328492252,143,254,1,55,0,29
1.046431836103596,141,256,1,55,0,27
1.1515449914152374,136,261,0,56,0,22
1.2833506431299626,131,266,0,56,0,17
1.415456379197011,127,270,0,56,0,13
1.5361261676879168,124,273,0,56,0,10
1.6623709022832507,122,275,0,56,0,8
1.7953964049973306,120,277,0,56,0,6
1.9687747425432673,119,278,0,56,0,5
2.092756689725309,118,279,0,56,0,4
2.296572716067595,116,281,0,56,0,2
2.9054356240597197,114,283,0,56,0,0
100,114,283,0,56,0,0
