#Time,A,B,C,D,E,X
0,48,203,0,0,93,130
0.10021843561808756,42,209,0,48,45,124
0.20137677506981638,37,214,0,66,27,119
0.3096894470524402,33,218,0,80,13,115
0.4098048413371371,29,222,0,85,8,111
0.5175479171686327,29,222,0,91,2,111
0.6403385140179976,26,225,0,91,2,108
0.7737958159438443,24,227,0,91,2,106
0.8781041452305021,22,229,0,92,1,104
1.0752793226398476,19,232,0,92,1,101
1.4626972975667176,16,235,0,93,0,98
1.5998357195670105,13,238,0,93,0,95
1.7168462226867804,11,240,0,93,0,93
1.8191291286167746,10,241,0,93,0,92
1.9630954684970672,8,243,0,93,0,90
2.312648907676475,7,244,0,93,0,89
2.636713392950421,6,245,0,93,0,88
2.9054268734002044,4,247,0,93,0,86
3.0278743456699133,2,249,0,93,0,84
3.922808161488266,1,250,0,93,0,83
5.342597468331682,0,251,0,93,0,82
100,0,251,0,93,0,82
