#Time,A,B,C,D,E,X
0,0,51,125,89,78,61
0.1078735062274991,0,51,73,181,38,61
0.20897485328360238,0,51,45,227,20,61
0.309188201697927,0,51,35,246,11,61
0.4106111716747756,0,51,25,260,7,61
0.5119557277582609,0,51,17,271,4,61
0.6129128214508929,0,51,10,279,3,61
0.7207003413368174,0,51,6,285,1,61
0.8259306548361786,0,51,4,288,0,61
0.9799357059859027,0,51,0,292,0,61
100,0,51,0,292,0,61
