#Time,A,B,C,D,E,X
0,117,157,18,70,0,0
0.12519155023334214,117,157,12,76,0,0
0.2616720702019891,117,157,8,80,0,0
0.4570010987469032,117,157,5,83,0,0
0.6155432647318579,117,157,1,87,0,0
0.7893131485187532,117,157,0,88,0,0
100,117,157,0,88,0,0
