#Time,A,B,C,D,E,X
0,176,19,28,189,32,51
0.10541662078340663,167,28,21,215,13,42
0.21466669360649668,164,31,11,233,5,39
0.325729918919822,156,39,9,237,3,31
0.4597552486339221,152,43,6,242,1,27
0.5765027310621026,147,48,5,244,0,22
0.7443226451366111,147,48,4,245,0,22
0.8503671142733037,140,55,3,246,0,15
1.0088150678828056,137,58,2,247,0,12
1.2160532912510855,135,60,2,247,0,10
1.341410026876237,130,65,1,248,0,5
1.660882125913216,129,66,1,248,0,4
1.9791068569822,128,67,0,249,0,3
2.1949245838548817,127,68,0,249,0,2
2.4515325301099278,126,69,0,249,0,1
2.5682947350481125,125,70,0,249,0,0
100,125,70,0,249,0,0
