#Time,A,B,C,D,E,X
0,102,82,267,45,116,143
0.10208252537256926,86,98,187,187,54,127
0.2025799949853127,75,109,118,289,21,116
0.3028129164057472,65,119,84,338,6,106
0.40665726783229644,55,129,59,366,3,96
0.5078229956824603,45,139,44,382,2,86
0.611748670135079,42,142,26,401,1,83
0.7195431448366848,37,147,21,407,0,78
0.8217160065360499,32,152,17,411,0,73
0.956508742713309,29,155,10,418,0,70
1.1443680168833381,27,157,5,423,0,68
1.2510500109315046,25,159,4,424,0,66
1.3774247885705535,22,162,3,425,0,63
1.4897698658804326,21,163,2,426,0,62
1.589975628058551,21,163,1,427,0,62
1.8206452082932192,21,163,0,428,0,62
1.993595799025593,19,165,0,428,0,60
2.441989309439606,15,169,0,428,0,56
2.836048306541865,14,170,0,428,0,55
3.019158135918305,13,171,0,428,0,54
3.190363930581953,11,173,0,428,0,52
3.3096568695741175,10,174,0,428,0,51
3.6651387540568345,9,175,0,428,0,50
4.227457966002843,7,177,0,428,0,48
4.497479093968015,5,179,0,428,0,46
4.825637112211512,3,181,0,428,0,44
6.237228469876608,2,182,0,428,0,43
6.374828314532131,1,183,0,428,0,42
9.608661058448464,0,184,0,428,0,41
100,0,184,0,428,0,41
