#Time,A,B,C,D,E,X
0,181,21,37,19,346,52
0.10125939349586856,175,27,23,208,171,46
0.20332787429305604,168,34,16,300,86,39
0.3037855900926333,161,41,8,361,33,32
0.4061044097396617,159,43,7,383,12,30
0.5073587383403131,154,48,5,390,7,25
0.6087221375471609,150,52,5,393,4,21
0.7490383224800533,145,57,3,398,1,16
0.8951037838148395,142,60,3,399,0,13
1.1711888953536516,140,62,2,400,0,11
1.2767879309009786,136,66,2,400,0,7
1.3997136746686172,133,69,2,400,0,4
1.5260066112081696,133,69,1,401,0,4
1.8216345051603184,132,70,0,402,0,3
2.3972786584935606,129,73,0,402,0,0
100,129,73,0,402,0,0
