#Time,A,B,C,D,E,X
0,62,12,17,226,355,87
0.10005180309910693,57,17,5,434,159,82
0.2020148544976667,50,24,5,511,82,75
0.30658151070084333,44,30,4,555,39,69
0.4155386465038109,41,33,2,575,21,66
0.5346900308613263,38,36,2,588,8,63
0.6419118544420476,38,36,1,594,3,63
0.7598527845299216,35,39,0,595,3,60
0.8692153467513128,34,40,0,597,1,59
0.9986026348609481,31,43,0,598,0,56
1.1120822641528558,30,44,0,598,0,55
1.3463967660321723,27,47,0,598,0,52
1.517502892177343,23,51,0,598,0,48
1.675871708458015,21,53,0,598,0,46
2.1014533826085113,20,54,0,598,0,45
2.3008274440281276,19,55,0,598,0,44
2.536774611025524,18,56,0,598,0,43
2.732148632280817,17,57,0,598,0,42
2.984564390713542,16,58,0,598,0,41
3.2046899064906533,14,60,0,598,0,39
3.321758156602699,13,61,0,598,0,38
3.6723550151952304,12,62,0,598,0,37
3.8161046546780946,10,64,0,598,0,35
4.026795958558752,8,66,0,598,0,33
5.942458713751668,7,67,0,598,0,32
6.2760358711270445,5,69,0,598,0,30
6.424453950439953,3,71,0,598,0,28
6.710536573839771,2,72,0,598,0,27
7.60699776192563,1,73,0,598,0,26
11.931104254846609,0,74,0,598,0,25
100,0,74,0,598,0,25
