#Time,A,B,C,D,E,X
0,23,36,148,0,0,67
0.10213185557380045,20,39,102,46,0,64
0.2078412203469732,17,42,70,78,0,61
0.3090774357199122,14,45,48,100,0,58
0.41247824642449366,14,45,37,111,0,58
0.5137531915561395,13,46,25,123,0,57
0.6139627147491569,12,47,13,135,0,56
0.7510064541085328,12,47,10,138,0,56
0.8597384935633172,11,48,8,140,0,55
1.0465664688744003,10,49,7,141,0,54
1.1604251988314729,9,50,5,143,0,53
1.2725852750621522,9,50,1,147,0,53
1.506187075201597,9,50,0,148,0,53
2.031172316277018,7,52,0,148,0,51
2.8044989641722164,6,53,0,148,0,50
3.748865838050095,5,54,0,148,0,49
4.859171621441398,3,56,0,148,0,47
4.987186677926614,2,57,0,148,0,46
8.1013376096601,1,58,0,148,0,45
9.948421956734043,0,59,0,148,0,44
100,0,59,0,148,0,44
