#Time,A,B,C,D,E,X
0,107,0,67,3,90,233
0.10067293821412424,77,30,36,81,43,203
0.2009333590225201,65,42,23,122,15,191
0.30392925526598424,55,52,17,138,5,181
0.41457222821892736,44,63,13,145,2,170
0.5348758147871115,32,75,12,147,1,158
0.6442904893891529,31,76,7,152,1,157
0.7470817650704619,25,82,5,154,1,151
0.8477984027293992,20,87,4,156,0,146
0.9596572994386582,18,89,4,156,0,144
1.2909146810149945,13,94,2,158,0,139
1.4820674154036422,11,96,1,159,0,137
1.6253952525246098,10,97,1,159,0,136
1.7444436422971261,10,97,0,160,0,136
1.9929766894194736,8,99,0,160,0,134
2.281636174713748,7,100,0,160,0,133
2.39007988683755,6,101,0,160,0,132
2.6677521203206496,5,102,0,160,0,131
3.0263680141349436,2,105,0,160,0,128
6.209217993046856,0,107,0,160,0,126
100,0,107,0,160,0,126
