#Time,A,B,C,D,E,X
0,196,200,20,2,51,10
0.10104616753814445,195,201,11,32,30,9
0.20133840932118355,192,204,5,56,12,6
0.30610414426563454,190,206,3,64,6,4
0.42214568457874624,190,206,2,70,1,4
0.5228949084618875,190,206,0,73,0,4
0.9265404242456057,188,208,0,73,0,2
1.1559059408346766,186,210,0,73,0,0
100,186,210,0,73,0,0
