#Time,A,B,C,D,E,X
0,0,68,30,0,55,0
0.10005547544676624,0,68,22,34,29,0
0.20307576147034978,0,68,15,57,13,0
0.3057277102373755,0,68,10,67,8,0
0.42978881788842943,0,68,5,77,3,0
0.5443632010857963,0,68,3,81,1,0
0.7050565657038347,0,68,1,84,0,0
100,0,68,0,85,0,0
