#Time,A,B,C,D,E,X
0,115,125,64,108,115,140
0.10118085993457158,104,136,42,187,58,129
0.20286601935506055,92,148,32,223,32,117
0.3076348314446359,81,159,23,248,16,106
0.4275789996599293,70,170,12,267,8,95
0.5510137750934296,63,177,7,276,4,88
0.6572104962537363,58,182,4,282,1,83
0.7873495975140175,50,190,4,283,0,75
0.9305975241341589,44,196,1,286,0,69
1.0762720265433423,38,202,1,286,0,63
1.1872704564334386,34,206,1,286,0,59
1.2989732095682114,29,211,1,286,0,54
1.4224959652859015,26,214,0,287,0,51
1.6514656704221693,25,215,0,287,0,50
1.8248140920312972,24,216,0,287,0,49
1.955131211244145,23,217,0,287,0,48
2.2561633878866587,19,221,0,287,0,44
2.5653448826470284,17,223,0,287,0,42
2.779154443061039,15,225,0,287,0,40
2.9187353935541056,14,226,0,287,0,39
3.281931983156317,13,227,0,287,0,38
3.6937753192594687,12,228,0,287,0,37
4.356005816113176,11,229,0,287,0,36
4.714957564376778,10,230,0,287,0,35
5.264681805824719,9,231,0,287,0,34
5.425301747749467,6,234,0,287,0,31
6.891832310841514,4,236,0,287,0,29
7.0962982512348125,2,238,0,287,0,27
9.147582716883484,1,239,0,287,0,26
18.383175480257,0,240,0,287,0,25
100,0,240,0,287,0,25
