#Time,A,B,C,D,E,X
0,198,41,114,7,18,252
0.10031903944570014,163,76,74,54,11,217
0.20388878180902512,131,108,55,78,6,185
0.304285130905308,113,126,40,94,5,167
0.40623265764402,91,148,27,111,1,145
0.5168605522223205,78,161,14,124,1,132
0.6379777580690329,69,170,9,130,0,123
0.7592092979118457,55,184,6,133,0,109
0.8792834950077206,44,195,4,135,0,98
1.0009786955879239,38,201,2,137,0,92
1.1401552582991055,34,205,0,139,0,88
1.2561758659264473,30,209,0,139,0,84
1.3625495570128574,26,213,0,139,0,80
1.4953871641928778,22,217,0,139,0,76
1.6333857504441989,20,219,0,139,0,74
1.8872197564422035,18,221,0,139,0,72
1.9999258522152066,17,222,0,139,0,71
2.1453762803153325,16,223,0,139,0,70
2.3022785662275917,15,224,0,139,0,69
2.430057335788115,13,226,0,139,0,67
2.644441200299772,8,231,0,139,0,62
2.892086567594467,7,232,0,139,0,61
3.6987932511697337,6,233,0,139,0,60
3.880355216237489,5,234,0,139,0,59
4.039470237582879,4,235,0,139,0,58
5.4379180995336185,3,236,0,139,0,57
6.328462063868922,1,238,0,139,0,55
6.74841721092541,0,239,0,139,0,54
100,0,239,0,139,0,54
