#Time,A,B,C,D,E,X
0,0,148,0,82,59,259
0.10339600911814129,0,148,0,115,26,259
0.20667628503459226,0,148,0,129,12,259
0.3144006663617208,0,148,0,136,5,259
0.4211534740129343,0,148,0,139,2,259
0.544510590984781,0,148,0,141,0,259
100,0,148,0,141,0,259
