#Time,A,B,C,D,E
0,446,217,0,0,0
0.1029927174141618,405,235,23,0,0
0.2085035817951924,362,251,47,3,0
0.3087515246180851,322,262,72,7,0
0.40926874408465863,300,255,94,13,1
0.5105553852871157,270,256,109,25,3
0.6121685449788573,248,244,132,35,4
0.7129579999394788,227,239,146,43,8
0.8130443952083993,205,238,159,44,17
0.9153020977327672,180,231,179,50,23
1.0153257032099323,161,222,185,67,28
1.1189432419496848,147,219,187,73,37
1.21997419627059,129,212,190,87,45
1.324182916771567,113,204,194,96,56
1.4243762894239613,106,188,202,103,64
1.5254621607727732,95,182,193,121,72
1.6260058396808306,87,172,195,125,84
1.7275869492549103,75,164,199,132,93
1.8328593731863754,66,160,184,148,105
1.9415383951018081,59,152,189,143,120
2.0420338781489766,54,145,184,144,136
2.142773051486222,52,139,172,143,157
2.2427895649592124,49,133,163,144,174
2.3434566958764576,46,123,161,147,186
2.444528308111572,41,118,157,144,203
2.546920417909839,37,110,159,143,214
2.6476997074507036,31,103,153,150,226
2.750022760864258,27,99,150,148,239
2.85156965549514,26,92,145,151,249
2.9547481884985323,22,86,143,152,260
3.0572072147191083,21,83,137,152,270
3.157653883615232,21,70,134,157,281
3.2628425973525967,20,65,130,149,299
3.364972669715175,18,66,120,139,320
3.4652721164425717,17,60,115,138,333
3.5659975911555963,15,56,108,135,349
3.6684243510355414,13,49,107,138,356
3.7716376264447495,10,50,99,129,375
3.8739184576724828,7,50,93,122,391
3.9871636153389023,4,48,91,113,407
4.094509732512912,4,40,92,107,420
4.194989897676008,3,36,87,103,434
4.3009552588790685,2,34,80,101,446
4.40856212587226,2,30,80,93,458
4.509550528250281,2,28,73,95,465
4.6108646593590645,2,24,69,94,474
4.716348726418379,1,25,61,87,489
4.836738330492429,1,21,59,88,494
4.950566595338509,1,16,59,85,502
5.052652104094439,1,14,56,81,511
5.16029101663597,1,13,53,78,518
5.278041115843001,0,13,49,80,521
5.395423807703688,0,12,45,81,525
5.49606664563872,0,11,42,80,530
5.624886172095922,0,11,35,68,549
5.732776927552208,0,7,33,66,557
5.867063051195919,0,6,31,60,566
5.988092908201093,0,6,28,59,570
6.100123964410273,0,6,26,52,579
6.21267087993664,0,3,27,51,582
6.318599991849416,0,3,26,50,584
6.428187971382619,0,3,24,47,589
6.533038663816459,0,2,22,46,593
6.634430974995378,0,2,20,45,596
6.738723937221145,0,2,17,44,600
6.844410725436251,0,1,16,41,605
6.952654386613487,0,1,15,35,612
7.056238880529465,0,1,13,30,619
7.167065682873181,0,1,10,29,623
7.312202917245974,0,0,10,24,629
7.526819657149896,0,0,9,21,633
7.651291821942719,0,0,8,19,636
7.804709881414327,0,0,7,17,639
7.976863358890966,0,0,7,16,640
8.105892466754703,0,0,6,15,642
8.207356746330476,0,0,6,14,643
8.317696873408076,0,0,5,14,644
8.42988021066745,0,0,4,13,646
8.703011808957207,0,0,3,10,650
9.079895328244659,0,0,3,6,654
9.18741779826929,0,0,2,6,655
9.438463460711663,0,0,1,6,656
9.557593212603082,0,0,1,5,657
9.751153397752496,0,0,1,4,658
10.091034625815126,0,0,1,3,659
10.386593630958833,0,0,0,4,659
10.645269560444536,0,0,0,3,660
10.795109392738171,0,0,0,2,661
11.821873850240907,0,0,0,1,662
12.854000778681549,0,0,0,0,663
100,0,0,0,0,663
