#Time,A,B,C,D,E
0,106,20,82,0,0
0.1039726498349206,93,30,77,8,0
0.20407265928784815,85,34,75,13,1
0.3062094196902786,83,32,74,16,3
0.4093403478104423,72,38,71,24,3
0.5112106450886013,66,38,70,30,4
0.6142471727715234,58,45,62,36,7
0.7164279999071159,54,43,61,36,14
0.8245015368321746,51,40,58,38,21
0.9307541681642832,45,41,56,41,25
1.043069761246143,39,41,57,42,29
1.1448863710552766,29,49,52,43,35
1.246214977654204,26,45,56,43,38
1.350925524031234,22,46,53,45,42
1.4558289125713042,21,42,49,52,44
1.5578631111315455,21,37,51,49,50
1.6579718000341226,21,30,55,47,55
1.7660109910054158,17,29,56,46,60
1.8683226092863994,16,30,49,46,67
1.9705468460318165,14,29,50,46,69
2.072703719684462,13,29,49,43,74
2.1963665841292572,13,27,48,43,77
2.300002378622004,11,25,44,48,80
2.412635244006176,8,26,44,46,84
2.5287026201258174,8,23,40,50,87
2.639899902852275,6,21,38,52,91
2.7405866228674824,6,19,37,49,97
2.8458737083549357,6,19,36,43,104
2.9512563247910113,5,16,35,43,109
3.054517541721414,5,14,34,42,113
3.179707052058842,5,12,30,44,117
3.287739474058123,5,11,25,44,123
3.394306462282308,4,11,22,43,128
3.529186155737466,4,11,18,40,135
3.6499199825716797,4,11,17,35,141
3.754839206657299,4,9,15,37,143
3.864220832000788,4,8,16,31,149
3.9916956142025755,3,8,14,32,151
4.099571407479806,3,8,9,33,155
4.201826144962197,2,7,10,33,156
4.383563591752417,2,6,10,31,159
4.488138465540357,2,6,8,30,162
4.643605010231086,1,4,10,28,165
4.749737413127059,1,4,10,26,167
4.890490851911481,1,4,9,26,168
5.043332899965283,0,5,9,23,171
5.218678744150554,0,5,7,21,175
5.351627667974286,0,5,6,20,177
5.495666528397372,0,2,8,20,178
5.603912404395643,0,2,7,19,180
5.832381026079927,0,2,6,15,185
5.979051044745075,0,2,5,14,187
6.181416697988518,0,2,5,10,191
6.331122884476756,0,1,6,8,193
6.509391822728121,0,1,4,10,193
6.670081037700023,0,1,3,9,195
6.783948457336225,0,1,3,6,198
6.910843386703222,0,0,4,4,200
7.163163042686678,0,0,3,5,200
7.344047024250677,0,0,0,7,201
7.474383862800223,0,0,0,6,202
8.196134979426736,0,0,0,5,203
9.103568361638661,0,0,0,2,206
9.37686958131495,0,0,0,1,207
10.020689808554708,0,0,0,0,208
100,0,0,0,0,208
