#Time,A,B,C,D,E
0,0,90,4,347,0
0.10156479280490592,0,82,11,315,33
0.2016155310515972,0,72,19,296,54
0.30314012298579035,0,67,21,275,78
0.4034227952127289,0,64,21,254,102
0.5038794184367026,0,59,20,233,129
0.6040312159021066,0,53,23,205,160
0.7048065013727297,0,49,26,198,168
0.8049939323190924,0,45,23,185,188
0.9073578866449132,0,40,21,172,208
1.0076777212899986,0,37,22,152,230
1.1140614202053323,0,35,24,142,240
1.2252883591815351,0,31,21,130,259
1.3377668859084302,0,28,22,118,273
1.4505830147470629,0,27,22,111,281
1.557130511067184,0,26,19,101,295
1.676973299670856,0,24,20,91,306
1.7773678618475888,0,21,23,75,322
1.8779050830434747,0,21,21,68,331
1.9783587757531313,0,19,19,66,337
2.083969207283072,0,18,16,62,345
2.194053337757381,0,15,18,54,354
2.3015264520047056,0,11,21,49,360
2.4068666129796417,0,10,19,48,364
2.5211359536995572,0,7,22,42,370
2.6231314887950172,0,7,17,44,373
2.746777752569349,0,7,14,41,379
2.878173786800062,0,6,12,42,381
2.9792948354135658,0,6,11,40,384
3.1281331150137635,0,5,11,37,388
3.2326058534645186,0,4,9,36,392
3.3352089593612133,0,4,8,35,394
3.4528050295227493,0,3,6,37,395
3.5564873304642184,0,3,5,32,401
3.665315093488314,0,2,5,28,406
3.803350775233914,0,2,2,30,407
3.926067078575995,0,2,2,26,411
4.041224263800445,0,2,2,25,412
4.227682884973146,0,2,2,24,413
4.379336972593716,0,2,2,18,419
4.581148424059069,0,1,2,18,420
4.681600921203448,0,1,2,15,423
4.802397617937,0,0,3,15,423
5.009083342524706,0,0,3,14,424
5.226969934161813,0,0,2,13,426
5.3695053779077595,0,0,1,11,429
5.504293102331419,0,0,1,9,431
5.888222132134709,0,0,1,6,434
6.05072717823529,0,0,1,3,437
6.822648808977975,0,0,1,1,439
7.149577841289549,0,0,0,2,439
8.206002963211969,0,0,0,1,440
9.069004435029676,0,0,0,0,441
100,0,0,0,0,441
