#Time,A,B,C,D,E
0,9,0,104,27,135
0.11000288143879006,8,1,91,36,139
0.21514950250743714,8,1,81,45,140
0.31984465166518167,7,2,71,48,147
0.4260098177496334,7,2,64,53,149
0.5406774403823615,7,2,60,48,158
0.6417603652281004,7,2,54,50,162
0.7495451451244867,6,3,47,47,172
0.8897277588864486,6,3,43,49,174
0.9957250157231874,6,3,39,46,181
1.118722889892795,5,3,35,44,188
1.2286790672735501,5,3,29,46,192
1.3567823945455766,5,2,28,39,201
1.4632700633702818,5,2,23,41,204
1.5941914446389178,5,2,23,36,209
1.7025522978792451,5,2,22,31,215
1.8077292952326518,4,3,19,33,216
1.907875899075753,2,4,19,32,218
2.0103762084201597,2,4,17,31,221
2.120739773737998,2,4,16,30,223
2.3231478962910392,2,3,16,28,226
2.427294111075857,2,3,14,29,227
2.5289156859819286,2,3,12,28,230
2.6423993774228878,2,3,12,25,233
2.79567161615381,2,3,12,24,234
2.9678324007076524,2,3,10,24,236
3.085453639261338,1,4,10,22,238
3.255223313739802,0,2,11,22,240
3.373257442465774,0,2,10,21,242
3.49022940263797,0,2,10,17,246
3.6133021731736568,0,2,9,16,248
3.7165972405922902,0,2,6,16,251
3.87793479553979,0,1,6,15,253
3.981329515655375,0,1,6,13,255
4.198392334744807,0,1,5,13,256
4.359651720657296,0,1,3,14,257
4.529294996235942,0,0,3,12,260
4.665870285560636,0,0,3,10,262
4.874085403907553,0,0,3,7,265
5.078251717818845,0,0,3,5,267
5.179110325096459,0,0,3,4,268
5.766919637820561,0,0,3,3,269
5.896651330371464,0,0,2,4,269
6.025376809188173,0,0,2,3,270
6.382618881338965,0,0,1,4,270
6.699792471614542,0,0,1,3,271
6.886965042422041,0,0,1,2,272
7.744820002569134,0,0,1,0,274
8.929349179126243,0,0,0,1,274
9.285491672422339,0,0,0,0,275
100,0,0,0,0,275
