#Time,A,B,C,D,E
0,103,0,182,190,29
0.10505891097331514,91,12,166,194,41
0.2061689596831008,79,23,148,195,59
0.30652684924721585,71,30,135,187,81
0.4099626967238147,66,32,122,182,102
0.5101459636528357,58,34,113,178,121
0.6129873225512397,52,30,114,172,136
0.7214305278997731,51,30,100,173,150
0.821520994435073,45,35,90,156,178
0.9221768926726487,44,33,82,151,194
1.0247138532198041,39,36,71,148,210
1.145463752409982,37,36,65,139,227
1.2461068825200041,31,40,61,134,238
1.350552916878677,26,43,56,127,252
1.455042591260695,25,36,60,123,260
1.5598612863817174,22,35,58,120,269
1.6652359690536849,21,32,56,116,279
1.7758514146456412,21,29,57,106,291
1.8787739746424132,17,28,54,104,301
1.9932661981867235,15,28,46,101,314
2.0980941491993996,14,27,44,91,328
2.2153815579019085,13,27,43,83,338
2.315684700069524,11,26,41,77,349
2.428096758536015,9,27,33,74,361
2.552797796180957,9,24,31,67,373
2.657749259417597,9,22,26,69,378
2.763853476194846,7,20,27,67,383
2.8642989016417597,5,21,27,62,389
2.9669510944196067,5,18,26,55,400
3.0691579903233417,4,18,25,50,407
3.204888196144796,4,13,29,43,415
3.3182447376420448,3,13,27,39,422
3.4203508348364284,3,12,25,40,424
3.5874248386310943,3,10,24,39,428
3.7263805466440076,2,11,23,38,430
3.8383673123262034,2,10,22,36,434
3.943827876433901,2,10,22,34,436
4.052714907650749,2,9,22,31,440
4.183710433781357,2,7,19,35,441
4.28434796364096,2,7,16,34,445
4.419086421233739,2,7,15,32,448
4.7229656076344595,1,8,12,30,453
4.867381837375593,1,7,11,31,454
5.006028277764444,1,6,12,30,455
5.134751760476315,1,5,12,29,457
5.360429730602806,1,4,12,27,460
5.471628745737462,1,4,11,22,466
5.592818205259571,1,3,10,22,468
5.728010798106996,1,3,9,22,469
5.845299544237448,1,3,8,19,473
5.981030777016044,1,3,5,22,473
6.134862392420767,1,2,5,20,476
6.24496283478147,1,0,6,20,477
6.371334430540314,1,0,5,18,480
6.476558119428043,1,0,5,13,485
6.784504693917383,1,0,4,11,488
6.917733377886807,1,0,4,9,490
7.038161197705639,0,1,4,8,491
7.208274964471899,0,1,4,5,494
7.328334355619675,0,1,3,4,496
7.535661593109949,0,1,3,3,497
7.950088549150754,0,1,3,2,498
8.183775289386173,0,0,4,0,500
8.303405425300262,0,0,2,2,500
8.614302368977679,0,0,2,1,501
9.360341431231367,0,0,1,2,501
9.547911164639812,0,0,1,1,502
9.826083366768469,0,0,0,1,503
100,0,0,0,0,504
