#Time,A,B,C,D,E
0,0,51,0,8,106
0.10389805284868713,0,45,6,7,107
0.21689445319236897,0,41,10,7,107
0.3196227755513579,0,35,16,7,107
0.42039473725323945,0,33,16,8,108
0.5267118501784752,0,29,20,7,109
0.6476011825156762,0,23,23,8,111
0.8083015411549805,0,22,23,9,111
0.9091534923504135,0,20,24,8,113
1.022839159337624,0,19,20,13,113
1.1246749324916474,0,17,21,12,115
1.2446349635714666,0,15,19,14,117
1.345834214939787,0,14,17,14,120
1.4927975191857896,0,12,16,16,121
1.6448088537054453,0,11,14,19,121
1.782734751850303,0,11,12,19,123
1.8886680473318398,0,8,11,21,125
2.0333886481887,0,7,10,20,128
2.1388605234047198,0,6,10,14,135
2.345844309382091,0,5,10,15,135
2.4538204734207456,0,3,10,16,136
2.562440090714796,0,2,8,16,139
2.736819345632721,0,2,7,14,142
2.8449176111489995,0,2,5,13,145
2.9929558659275197,0,2,3,12,148
3.0985077772515712,0,2,3,10,150
3.2309388353761834,0,2,3,9,151
3.346252211351875,0,1,4,5,155
3.4795466484179958,0,0,3,7,155
3.6655757544578007,0,0,2,6,157
3.950045579630567,0,0,2,4,159
4.151324120914456,0,0,2,3,160
4.3529201926215295,0,0,2,2,161
5.041351508590493,0,0,1,3,161
5.301444571851674,0,0,0,4,161
5.832752372972095,0,0,0,3,162
6.230512705682957,0,0,0,2,163
6.524525091399924,0,0,0,0,165
100,0,0,0,0,165
