#Time,A,B,C,D,E
0,14,53,0,300,0
0.1010140573529755,13,49,5,259,41
0.2019169519377766,13,41,12,235,66
0.30969124840576817,13,35,15,212,92
0.41428461518766163,11,34,16,200,106
0.5155953960819278,7,34,19,178,129
0.6162788045105215,6,34,18,162,147
0.7199413854800182,4,33,20,141,169
0.8251521445013231,4,32,19,127,185
0.9374104518605287,3,30,17,121,196
1.0410923532101084,3,28,15,114,207
1.1484048948939924,2,25,18,107,215
1.2525118967360582,2,22,19,95,229
1.3641939034856634,2,19,21,81,244
1.4678331880225532,2,19,20,73,253
1.5865392153527038,1,17,23,62,264
1.6934944096241513,1,17,19,57,273
1.827104002385235,1,16,18,48,284
1.9323249674292169,1,16,15,44,291
2.033245651567332,1,15,15,41,295
2.133955351666175,1,15,13,40,298
2.237262283639421,0,15,14,39,299
2.3833919314115297,0,14,15,34,304
2.49309135979743,0,14,14,31,308
2.618915901479738,0,13,13,31,310
2.785740921245504,0,11,13,25,318
2.889174692188531,0,10,13,22,322
3.01069534595319,0,9,13,19,326
3.131219173229649,0,8,13,18,328
3.2642515503532574,0,6,13,19,329
3.3721809094089106,0,6,10,18,333
3.4787823990579056,0,4,11,16,336
3.650779194687042,0,4,11,13,339
3.7534121691651814,0,3,9,16,339
3.8778585766089497,0,2,8,15,342
4.026346856271976,0,2,5,13,347
4.167095854762869,0,2,4,13,348
4.294422770659195,0,2,3,13,349
4.3975619022746155,0,2,3,12,350
4.513867815340298,0,2,2,12,351
4.805691889482537,0,1,3,11,352
4.911472143787548,0,1,2,10,354
5.088992694640851,0,1,2,9,355
5.248912945985208,0,1,2,8,356
5.401598318929646,0,1,2,7,357
5.559074232260127,0,1,2,4,360
5.683898176800785,0,1,2,3,361
5.95434451598281,0,1,1,4,361
6.197323493751785,0,1,1,2,363
6.713158601119267,0,1,0,3,363
6.82549947400648,0,0,1,2,364
7.189341088629745,0,0,0,3,364
7.374433657634003,0,0,0,1,366
7.63223329235377,0,0,0,0,367
100,0,0,0,0,367
