#Time,A,B,C,D,E
0,0,198,0,0,0
0.10038892020438271,0,173,24,1,0
0.20207509067184065,0,155,40,3,0
0.30836900659347755,0,146,43,8,1
0.4110370824497309,0,132,56,9,1
0.5185689869827051,0,122,58,16,2
0.6234487662870034,0,113,60,20,5
0.7242154110814398,0,97,69,24,8
0.8244219561996672,0,87,75,27,9
0.9365502019035948,0,75,77,33,13
1.040308232747099,0,65,76,40,17
1.1591459309692178,0,56,78,45,19
1.2632646860326908,0,49,71,54,24
1.3710144679376428,0,42,72,53,31
1.4867819942338762,0,35,72,54,37
1.5887821190896816,0,34,69,52,43
1.6893777922336786,0,28,69,57,44
1.8086279598404367,0,26,66,56,50
1.9143272385684735,0,22,62,59,55
2.016427194768425,0,21,59,54,64
2.1178912090944144,0,17,59,50,72
2.224727566306659,0,15,51,54,78
2.3248968300907196,0,14,41,58,85
2.429821690390393,0,13,36,60,89
2.5392900132918754,0,12,34,59,93
2.6578252482873874,0,10,36,53,99
2.7862814002883822,0,8,35,47,108
2.8939513470052147,0,7,29,50,112
3.0114017678326315,0,6,27,52,113
3.131732297900267,0,5,26,46,121
3.235281031412074,0,5,21,47,125
3.3473398691972123,0,4,18,42,134
3.4671354656203133,0,3,15,45,135
3.5743858127448407,0,3,15,40,140
3.6844294215636135,0,3,15,32,148
3.8455266714794503,0,2,14,28,154
4.007181122570383,0,2,14,25,157
4.123257656695736,0,1,14,23,160
4.227739578641595,0,0,12,24,162
4.330713378684826,0,0,10,24,164
4.444504434655731,0,0,7,25,166
4.551852715034235,0,0,7,21,170
4.680715394954568,0,0,7,19,172
4.941062047701247,0,0,7,11,180
5.108987469049032,0,0,6,12,180
5.242748731166147,0,0,5,9,184
5.417306357706791,0,0,4,8,186
5.606174600658277,0,0,4,7,187
5.729480484822395,0,0,3,6,189
6.125188833250812,0,0,2,5,191
6.75550472200968,0,0,2,4,192
6.9672985094705115,0,0,2,3,193
7.264678561012963,0,0,1,4,193
7.53149853744832,0,0,0,5,193
8.068722803797973,0,0,0,3,195
8.588897652569868,0,0,0,2,196
8.995269350910815,0,0,0,1,197
10.877783622317779,0,0,0,0,198
100,0,0,0,0,198
