#Time,A,B,C,D,E
0,0,337,50,46,85
0.1050699387377566,0,301,77,52,88
0.20636762526624305,0,277,92,56,93
0.30734954407215515,0,250,106,66,96
0.408225334497361,0,222,118,69,109
0.5151054174445817,0,204,120,81,113
0.6177499338167578,0,185,121,95,117
0.7182774463590751,0,167,119,106,126
0.8191277266128396,0,152,117,109,140
0.9191660968149007,0,140,109,116,153
1.0194770224740253,0,124,106,121,167
1.1212496918924628,0,115,103,123,177
1.2223804366497824,0,101,109,116,192
1.327432974350397,0,91,111,111,205
1.4278134846090926,0,79,115,109,215
1.5297658566074455,0,68,119,97,234
1.6327767079144333,0,57,118,102,241
1.737291349762377,0,49,112,107,250
1.845655735801908,0,45,106,103,264
1.9502925857068947,0,41,104,101,272
2.0657161887053888,0,37,98,100,283
2.1659879815931697,0,35,89,106,288
2.2667530387784707,0,33,81,99,305
2.3712828909059267,0,31,73,102,312
2.4747244200554417,0,28,70,99,321
2.574770320393733,0,26,68,96,328
2.67873906098799,0,25,63,91,339
2.7896108757953084,0,20,64,86,348
2.8907737018394926,0,19,61,83,355
2.9923113957912557,0,18,56,79,365
3.110388775255849,0,15,53,80,370
3.2233550090664136,0,14,45,82,377
3.3258578780518695,0,12,43,72,391
3.426562372958089,0,7,47,67,397
3.527700453118041,0,7,43,66,402
3.628020356669523,0,5,40,65,408
3.752180966263101,0,5,37,64,412
3.8538305341419172,0,5,33,64,416
3.9603233684544015,0,5,33,59,421
4.06138062515904,0,5,28,60,425
4.180074492402654,0,5,23,59,431
4.284442745999232,0,3,21,61,433
4.388666678392506,0,3,18,56,441
4.498243750042928,0,2,19,49,448
4.617392501877137,0,2,18,43,455
4.739894023617584,0,2,17,39,460
4.887011223680473,0,2,17,35,464
5.021538286206368,0,2,16,33,467
5.141675286908975,0,1,16,30,471
5.250593543634515,0,1,12,34,471
5.355108246609512,0,1,12,31,474
5.468099488896361,0,1,10,29,478
5.574168428577988,0,1,9,24,484
5.68314685877128,0,1,7,25,485
5.791195679473262,0,0,6,23,489
5.900959469834453,0,0,4,23,491
6.017526599021144,0,0,3,23,492
6.133115765044744,0,0,2,20,496
6.274642411436698,0,0,2,19,497
6.459988816369829,0,0,1,19,498
6.569047086230886,0,0,1,16,501
6.804602302395528,0,0,1,13,504
6.932765831035229,0,0,0,11,507
7.1117616107274655,0,0,0,9,509
7.448830699714865,0,0,0,6,512
7.78687089530254,0,0,0,5,513
7.997969957328383,0,0,0,4,514
8.155631366697065,0,0,0,2,516
9.595412244552238,0,0,0,0,518
100,0,0,0,0,518
