#Time,A,B,C,D,E
0,0,0,46,120,0
0.10153359330255156,0,0,40,114,12
0.21003808672004143,0,0,39,106,21
0.31397896101414735,0,0,32,105,29
0.41762403905344886,0,0,28,96,42
0.5551047063475654,0,0,25,88,53
0.6578178295969439,0,0,25,72,69
0.7630974657804801,0,0,23,66,77
0.8642352970401174,0,0,22,61,83
0.9759678188688289,0,0,20,57,89
1.0859744641153803,0,0,18,53,95
1.1913904169239422,0,0,16,48,102
1.306473315316947,0,0,11,47,108
1.4372086461879117,0,0,7,49,110
1.5428062577384307,0,0,7,45,114
1.6692657416485392,0,0,6,41,119
1.8261295852062076,0,0,6,38,122
1.9282713972755163,0,0,6,32,128
2.0306282083623177,0,0,5,29,132
2.149611990898129,0,0,5,24,137
2.3029405179006193,0,0,3,22,141
2.445865166020636,0,0,3,18,145
2.552729115724044,0,0,3,13,150
2.6678024926490056,0,0,3,11,152
2.7870817659504414,0,0,3,9,154
2.976444579429885,0,0,3,8,155
3.203010535555354,0,0,2,9,155
3.3931429950060226,0,0,2,7,157
3.933182326491891,0,0,2,5,159
4.173187088602735,0,0,2,4,160
4.370869296936301,0,0,1,5,160
4.566849643865437,0,0,1,4,161
4.786112619061965,0,0,1,1,164
5.431567697698442,0,0,1,0,165
5.585280383300506,0,0,0,1,165
6.48070515930628,0,0,0,0,166
100,0,0,0,0,166
