#Time,A,B,C,D,E
0,79,0,215,230,0
0.1025082597553523,73,6,195,227,23
0.20267796625956774,70,7,176,230,41
0.30779988321412166,62,13,164,224,61
0.40911764112132276,55,20,144,218,87
0.5127718086485028,53,22,129,211,109
0.6132529712504707,52,21,119,201,131
0.7142053480204357,42,30,108,194,150
0.8177171980655752,39,33,92,188,172
0.9239770869043941,35,34,87,177,191
1.025002698906052,30,38,79,170,207
1.1267484077932879,29,35,71,163,226
1.230706228875818,28,35,66,145,250
1.3307490484282896,27,32,61,140,264
1.4359777328654786,25,30,57,135,277
1.5363096568060435,23,30,52,129,290
1.6406702088940237,19,30,50,127,298
1.7483278653611356,15,33,48,113,315
1.8505830709829372,13,29,54,98,330
1.9520843022624734,13,26,49,94,342
2.0541872699439376,13,22,48,82,359
2.156798177197346,12,21,43,79,369
2.263429198488176,10,21,40,77,376
2.3644597933927223,10,18,40,68,388
2.4766554219535517,7,20,36,66,395
2.5767734059510863,7,20,34,63,400
2.699031336494583,6,19,31,60,408
2.8028865679637844,6,19,27,57,415
2.9191997413823163,5,18,27,53,421
3.0196110290733014,5,14,27,53,425
3.121128114730929,5,13,26,53,427
3.2267588074335825,5,12,23,55,429
3.330343529669224,5,11,22,51,435
3.434343901462133,5,11,19,49,440
3.5388687274016286,5,11,17,45,446
3.655248745598903,4,11,17,42,450
3.780751958920482,4,9,18,37,456
3.886043253271313,4,8,16,39,457
3.9866051144177743,4,8,15,36,461
4.095983420001798,3,7,15,31,468
4.209873346332226,2,6,15,29,472
4.322047435972516,2,6,12,25,479
4.429666165220074,1,6,11,25,481
4.550735207754194,1,6,11,22,484
4.663837833502417,1,6,9,23,485
4.8230833897171,1,6,7,24,486
4.929849028234032,1,5,8,17,493
5.029900866210162,1,3,9,15,496
5.150194876043882,1,3,7,16,497
5.348268588638283,1,3,6,15,499
5.485881039555276,1,1,7,14,501
5.636206567401771,1,0,5,15,503
5.783384892664207,1,0,3,14,506
6.065024601599027,1,0,1,14,508
6.241909133802267,1,0,1,13,509
6.346486692588189,1,0,1,11,511
6.452174615687438,1,0,1,10,512
6.596383099240781,0,1,1,8,514
6.726514594905818,0,1,0,9,514
6.965795622529468,0,1,0,7,516
7.287638328969075,0,1,0,4,519
7.613299014462804,0,1,0,3,520
7.907886870881376,0,1,0,1,522
8.184998269358257,0,1,0,0,523
9.50713604477353,0,0,1,0,523
10.584253240838539,0,0,0,0,524
100,0,0,0,0,524
