#Time,A,B,C,D,E
0,130,244,142,24,272
0.10126839755613597,116,235,156,30,275
0.20294466358777624,109,209,170,45,279
0.3044268536017663,100,200,167,65,280
0.4096577381930003,95,185,173,75,284
0.5106630786901644,85,180,173,87,287
0.6152444584067626,81,163,179,95,294
0.7197459070502092,74,158,182,94,304
0.82190748970921,68,150,180,100,314
0.9226815567746092,63,140,178,104,327
1.0227748827710355,58,138,168,101,347
1.1297461462697787,49,137,168,105,353
1.2310736428934792,47,124,171,105,365
1.334558632336783,43,110,169,112,378
1.4346069584084595,40,107,162,117,386
1.53511636066965,34,105,150,125,398
1.6352135405868389,33,92,149,126,412
1.7363697496445047,27,87,145,131,422
1.8402724032917428,26,77,139,136,434
1.9450655937534536,26,72,132,132,450
2.0464689316961953,24,72,120,129,467
2.1584129568016115,21,66,116,130,479
2.261799301799423,19,60,116,125,492
2.3738534532116673,19,54,114,118,507
2.4765378147923314,17,49,110,121,515
2.5806976179174135,17,48,98,120,529
2.683413828133728,16,45,93,111,547
2.784635110675181,13,44,88,113,554
2.8867674602308484,13,43,78,108,570
2.988735780205578,12,38,80,99,583
3.0972863656109597,11,35,75,101,590
3.2029477714355687,11,34,72,95,600
3.304888923666486,11,29,69,94,609
3.4123745896927185,11,27,64,95,615
3.516790912055305,9,28,57,96,622
3.6218874886920096,9,22,60,86,635
3.7228087570785147,6,25,54,85,642
3.8492158674790624,5,25,52,81,649
3.950793724387452,4,24,48,78,658
4.057652770112374,3,25,41,78,665
4.165863459974154,2,24,40,70,676
4.2712452828763885,1,24,39,63,685
4.3718061936716275,0,20,34,69,689
4.488264568659594,0,17,34,68,693
4.592975642015188,0,14,31,63,704
4.695963914307176,0,14,28,57,713
4.796366726988244,0,12,28,56,716
4.906292621554044,0,12,26,51,723
5.018805470229321,0,12,25,47,728
5.119038699296129,0,12,23,42,735
5.26999122808593,0,11,20,37,744
5.3702893965924225,0,9,20,37,746
5.490578964475908,0,7,19,37,749
5.599342675486079,0,5,20,34,753
5.7407716339307475,0,5,20,31,756
5.928439443351027,0,5,15,33,759
6.047770095276566,0,5,13,31,763
6.164501359774531,0,4,13,27,768
6.27655861477356,0,4,11,27,770
6.391459955966517,0,3,11,28,770
6.537584711332056,0,3,9,24,776
6.732447381008601,0,3,8,20,781
6.903130831153692,0,3,7,19,783
7.0600551145841575,0,2,7,18,785
7.190092035257268,0,2,4,19,787
7.324689774674649,0,2,3,17,790
7.486997293758538,0,1,4,13,794
7.594929450579705,0,1,3,13,795
7.795121714684048,0,1,2,14,795
7.9551696596293855,0,0,3,14,795
8.05790945951704,0,0,2,12,798
8.284460687369128,0,0,2,9,801
8.411106231850713,0,0,1,8,803
8.608970326892058,0,0,1,6,805
8.908721065977174,0,0,1,5,806
9.123943225053198,0,0,1,3,808
9.36498419471684,0,0,0,3,809
9.96674946456695,0,0,0,1,811
11.216649903652232,0,0,0,0,812
100,0,0,0,0,812
