#Time,A,B,C,D,E
0,0,117,99,0,37
0.10015199052484226,0,101,107,8,37
0.2030205988701964,0,93,100,21,39
0.30845083169840587,0,83,97,34,39
0.4102972239837697,0,73,99,36,45
0.5128999618058794,0,68,97,42,46
0.6164693322717089,0,62,93,48,50
0.7281621075793359,0,53,92,54,54
0.8504710961085818,0,48,84,60,61
0.9527003618303778,0,38,79,71,65
1.0562328879361578,0,33,77,74,69
1.1588548476460927,0,31,73,71,78
1.2606997100524795,0,30,66,73,84
1.3613443543481973,0,27,62,75,89
1.4650841899004348,0,24,61,72,96
1.5715899545322083,0,21,58,72,102
1.6721411609052148,0,16,59,68,110
1.7756495818841254,0,15,56,62,120
1.8845740181037094,0,12,53,58,130
1.9910514027484074,0,11,47,62,133
2.0961642560971443,0,10,42,61,140
2.201147002977052,0,10,36,63,144
2.315074170012004,0,8,32,58,155
2.415952173285613,0,8,28,55,162
2.5174187456403736,0,7,24,53,169
2.6229200619105875,0,6,24,51,172
2.734363410386946,0,6,23,44,180
2.8489720484878704,0,5,24,40,184
2.9491140846281767,0,5,20,39,189
3.0548790118379654,0,4,20,36,193
3.167330065440444,0,4,17,34,198
3.283665983624201,0,3,17,33,200
3.4666302175357546,0,2,17,32,202
3.577299405450396,0,2,16,28,207
3.6980584655311186,0,2,16,24,211
3.8344785172876077,0,2,16,18,217
3.9653214354636837,0,2,15,18,218
4.167120870346733,0,2,14,16,221
4.296603613905136,0,2,14,13,224
4.42810593150479,0,2,13,11,227
4.578806411773965,0,2,13,8,230
4.712113570310051,0,2,12,8,231
4.847437923803936,0,2,10,7,234
4.951152690946788,0,2,9,7,235
5.15531329932909,0,2,8,6,237
5.311100682933444,0,2,7,7,237
5.46561920105269,0,2,6,7,238
5.586223849393056,0,2,5,7,239
5.686347881224971,0,2,4,7,240
5.811866044036205,0,2,3,8,240
6.17358950222157,0,2,2,9,240
6.3454913219503775,0,2,1,8,242
6.640623983865915,0,2,1,7,243
6.777967101368621,0,2,1,6,244
6.935213158821019,0,1,2,6,244
7.063262578821553,0,1,2,4,246
7.326095785128466,0,1,1,5,246
7.499753167595109,0,0,1,5,247
7.607900759698989,0,0,1,4,248
7.710222786230385,0,0,1,3,249
7.872310642093719,0,0,1,2,250
8.05000050911039,0,0,0,2,251
9.332698900962745,0,0,0,1,252
9.569484656482059,0,0,0,0,253
100,0,0,0,0,253
