#Time,A,B,C,D,E
0,75,20,24,0,178
0.10287766802137406,67,25,24,3,178
0.21745968953916758,57,29,26,7,178
0.3276817297739624,52,31,26,10,178
0.45168152469963185,49,32,26,9,181
0.5872417415754548,43,36,24,11,183
0.6889372046823289,38,34,28,13,184
0.7897727650634476,37,30,31,14,185
0.8917266180589668,33,31,32,15,186
1.0152086512203677,29,31,32,17,188
1.119873115309152,22,33,33,19,190
1.2273277896139363,15,35,34,21,192
1.3328496907660727,14,32,33,23,195
1.4706219440354296,14,29,31,26,197
1.5784548790244222,13,27,30,28,199
1.6868278722013117,12,24,29,30,202
1.7933496803600764,11,23,30,29,204
1.9109010695506325,11,20,31,30,205
2.0295960827954014,11,18,30,30,208
2.130080933457197,9,20,23,33,212
2.265513944540155,7,22,22,31,215
2.3689311918724365,7,17,25,30,218
2.4882606200285604,5,18,23,28,223
2.601893362418189,4,19,21,28,225
2.703066955845818,4,19,17,28,229
2.8149865515474946,4,14,21,25,233
2.9213739804920436,4,13,21,26,233
3.0273413415677046,3,14,20,23,237
3.1868035031977424,3,13,20,21,240
3.3167726712715604,3,11,20,21,242
3.457999270598912,2,10,19,18,248
3.5710530196602406,2,10,19,16,250
3.7025609108628585,2,10,19,15,251
3.8105181337943965,2,8,18,16,253
3.960825370139352,2,8,18,12,257
4.12901957036414,2,7,15,14,259
4.292506716998369,2,6,14,15,260
4.395209535270372,1,6,14,14,262
4.553790716308971,1,4,14,13,265
4.723133609098475,1,4,11,15,266
4.825496875853774,1,4,11,12,269
4.959618330725897,1,3,10,14,269
5.133285205198981,1,3,9,12,272
5.2726978401611655,0,3,9,12,273
5.494565201377466,0,2,10,11,274
5.6091741581806325,0,1,9,11,276
5.734182032822023,0,1,7,13,276
5.841439760148583,0,1,6,14,276
5.953862251397412,0,1,5,12,279
6.108721600844286,0,0,4,12,281
6.2847339204435,0,0,3,13,281
6.401204213401312,0,0,3,11,283
6.5077544734220885,0,0,3,10,284
6.609984991655094,0,0,3,9,285
6.830890846792058,0,0,2,8,287
6.95526247562468,0,0,2,5,290
7.141339089666857,0,0,2,4,291
7.462483051393466,0,0,1,5,291
8.122071853132002,0,0,1,3,293
8.285639624862595,0,0,0,3,294
8.554240910180818,0,0,0,2,295
9.211513281126498,0,0,0,0,297
100,0,0,0,0,297
