#Time,A,B,C,D,E
0,82,14,57,108,146
0.1082594217163074,66,29,52,106,154
0.20880737140268352,58,34,48,102,165
0.3311378505847951,50,39,46,91,181
0.4322764047813947,40,44,45,85,193
0.5335409437483877,37,42,49,75,204
0.6338894790040074,32,44,47,73,211
0.7404820383181676,31,37,52,71,216
0.8439363884066917,31,36,46,67,227
0.9515779511096493,25,38,45,68,231
1.05160901542917,21,40,43,69,234
1.1544134842189435,19,38,40,71,239
1.2704162673070052,13,40,43,62,249
1.398813124504856,11,41,40,60,255
1.5071236531805376,10,35,42,56,264
1.6155978290163862,9,33,37,59,269
1.7226049207040792,7,33,32,62,273
1.8312417821076175,7,32,31,58,279
1.9526764970058368,6,28,33,54,286
2.053813439951067,5,29,30,55,288
2.157722009404101,5,28,27,54,293
2.2688029750243195,3,29,23,55,297
2.378582385966102,3,28,21,54,301
2.4947670708466956,3,25,18,55,306
2.5979814795769562,3,24,18,49,313
2.703805706267177,3,24,16,47,317
2.8061266946205747,3,22,15,44,323
2.9062922672086238,3,19,17,41,327
3.0159477413030404,3,16,15,39,334
3.1338118466675153,3,12,17,37,338
3.2375072233953825,3,12,16,35,341
3.392671935771971,1,11,17,31,347
3.5006173050333524,1,11,13,31,351
3.6089226329349855,1,11,12,30,353
3.7162127568961454,1,10,13,26,357
3.838764140597175,1,9,13,25,359
3.941233917790871,0,10,10,25,362
4.0415900022241535,0,7,13,23,364
4.155633777847278,0,5,13,23,366
4.255688498499582,0,5,12,22,368
4.3762199217598,0,3,12,22,370
4.49890689684105,0,2,10,22,373
4.6198688701965205,0,2,9,19,377
4.727257521119605,0,2,9,15,381
4.877798724404326,0,2,8,15,382
4.987313108722618,0,2,7,16,382
5.092487062338594,0,2,6,15,384
5.200533276894623,0,2,6,13,386
5.346377430738869,0,1,7,12,387
5.460800341676977,0,1,7,10,389
5.622223202121946,0,1,5,11,390
5.754511020083344,0,0,6,11,390
5.913459463646296,0,0,5,11,391
6.071511905288432,0,0,3,12,392
6.19803255003345,0,0,2,12,393
6.613102632856284,0,0,2,8,397
6.744944067345539,0,0,1,9,397
6.881659707991695,0,0,1,8,398
7.001970372468848,0,0,1,6,400
7.358050280578058,0,0,1,5,401
7.530050061045745,0,0,1,4,402
7.76129486871108,0,0,0,3,404
7.969142573572449,0,0,0,2,405
9.862601573985451,0,0,0,0,407
100,0,0,0,0,407
