#Time,A,B,C,D,E
0,0,35,36,44,0
0.10084032947055262,0,33,35,44,3
0.20205792833013295,0,30,30,44,11
0.3207271671663902,0,29,27,46,13
0.4256400344493886,0,26,27,42,20
0.5979035511564886,0,23,28,41,23
0.7261714584034383,0,21,26,42,26
0.8342265618608603,0,19,26,37,33
0.9534478279725644,0,17,26,37,35
1.0802429046543782,0,15,26,37,37
1.2058557148316407,0,13,23,40,39
1.3191549564204328,0,11,23,38,43
1.4210256107877721,0,10,22,33,50
1.5291392774014105,0,9,22,33,51
1.6352377624354,0,8,18,35,54
1.7442756628366385,0,7,17,34,57
1.8478849806108344,0,7,15,33,60
1.9538814905167297,0,7,14,29,65
2.104810606645272,0,4,14,25,72
2.3211786539408363,0,3,13,26,73
2.4470313967746615,0,3,10,27,75
2.6046932887117635,0,3,5,28,79
2.723240601048244,0,3,5,22,85
2.960139967382739,0,3,4,23,85
3.1760822660620667,0,3,4,19,89
3.2849964473103275,0,2,5,17,91
3.425989427979607,0,0,7,13,95
3.545157692191423,0,0,6,13,96
3.691145458760858,0,0,6,10,99
3.836651608821919,0,0,5,10,100
4.015572512062659,0,0,4,11,100
4.178955864942048,0,0,4,10,101
4.286307870912628,0,0,3,8,104
4.513168985469467,0,0,3,6,106
4.660543149630034,0,0,2,6,107
4.89408015187197,0,0,1,5,109
5.079385053576388,0,0,1,4,110
5.323697610111898,0,0,1,3,111
5.887699373383887,0,0,0,3,112
6.375776488441921,0,0,0,2,113
7.075275772730413,0,0,0,1,114
7.6016247020784675,0,0,0,0,115
100,0,0,0,0,115
