#Time,A,B,C,D,E
0,39,142,272,141,42
0.10640548131471425,37,127,260,154,58
0.2065020514077603,31,121,257,157,70
0.307152255734186,26,121,234,169,86
0.40862499928082124,24,113,219,180,100
0.5120793022539805,23,100,211,181,121
0.6144146198857123,20,86,207,178,145
0.7149055347205835,18,81,188,183,166
0.8202515399252657,16,77,177,178,188
0.9216425030333686,16,69,165,181,205
1.0220745111728096,13,65,161,174,223
1.1228920662118698,13,59,149,172,243
1.2247367328853183,8,55,148,162,263
1.3288682930713878,8,48,140,159,281
1.4297788532790852,8,46,129,153,300
1.5351149705548457,8,42,126,144,316
1.6419832600667812,8,36,120,145,327
1.7455108859672497,7,32,117,136,344
1.8461784081372026,6,28,102,146,354
1.9465361029383752,5,23,96,145,367
2.0538045885297236,4,19,94,137,382
2.1553251799549336,3,20,87,126,400
2.2582244303138896,3,20,77,123,413
2.3651131917583292,3,15,74,114,430
2.481055214605257,3,15,67,110,441
2.5877142709694287,3,15,59,102,457
2.6983876438744274,3,15,57,95,466
2.7997690252664866,3,14,50,85,484
2.915301042563929,1,14,47,81,493
3.0175936981205824,1,14,42,78,501
3.119034555134702,1,14,36,78,507
3.2262323693086734,0,15,29,77,515
3.332144911980436,0,13,27,69,527
3.4331380429898997,0,11,24,66,535
3.541282635538586,0,10,22,64,540
3.648146178831948,0,8,18,61,549
3.748413538326584,0,7,17,56,556
3.8556723811272926,0,6,17,50,563
3.9644136660543667,0,6,16,46,568
4.0697931703813595,0,6,14,43,573
4.175777815956301,0,5,13,42,576
4.276306632977474,0,5,10,41,580
4.394946279141964,0,5,8,38,585
4.5015426985092475,0,4,9,29,594
4.6047351934572776,0,4,8,28,596
4.74294301968494,0,3,7,29,597
4.8510789622199715,0,3,6,29,598
4.966792496960182,0,2,7,25,602
5.097665126362367,0,1,6,25,604
5.198033939765538,0,1,6,22,607
5.303061717485729,0,1,5,20,610
5.45118303391711,0,1,4,18,613
5.574585537654963,0,1,3,19,613
5.755932449121828,0,1,2,18,615
5.955670465952117,0,1,2,14,619
6.077575795041427,0,1,1,14,620
6.233304384121064,0,1,1,12,622
6.353157474843396,0,1,0,11,624
6.538170482167529,0,1,0,9,626
6.677892181790101,0,0,1,7,628
6.983697950451119,0,0,1,6,629
7.1628436666987065,0,0,1,4,631
7.5037486906603075,0,0,0,5,631
8.236750200242913,0,0,0,2,634
8.619360484781216,0,0,0,1,635
9.654983237944135,0,0,0,0,636
100,0,0,0,0,636
