#Time,A,B,C,D,E
0,0,198,0,0,0
0.1037035277954876,0,183,13,2,0
0.21406809742809604,0,167,29,2,0
0.317122640190105,0,155,36,6,1
0.41724795017096816,0,141,46,9,2
0.5176140799334504,0,128,54,14,2
0.6239074104443709,0,117,58,21,2
0.7336414290696216,0,105,62,27,4
0.8347361254658797,0,90,73,26,9
0.9358547607597716,0,83,72,30,13
1.043383938493957,0,78,69,34,17
1.1468366483005954,0,68,72,36,22
1.2484363831619136,0,62,72,39,25
1.3511574595234066,0,58,70,42,28
1.4513059959904908,0,53,69,47,29
1.551762516973211,0,48,64,49,37
1.6610739189047186,0,44,64,48,42
1.784258405207004,0,39,62,49,48
1.886259368301259,0,34,63,46,55
1.9949057059812287,0,33,58,48,59
2.100443645789815,0,29,53,54,62
2.2043504389274253,0,25,50,54,69
2.3124429800992945,0,22,47,55,74
2.4137710181982843,0,20,43,57,78
2.527203310740108,0,18,38,61,81
2.634092338883134,0,16,34,60,88
2.750095620219588,0,14,30,56,98
2.8742854546892427,0,12,30,51,105
2.980347828855968,0,10,27,49,112
3.084089361138512,0,8,25,46,119
3.1891079028467932,0,7,23,46,122
3.3180764148527717,0,7,19,49,123
3.4297981899839813,0,7,19,41,131
3.5465223538519006,0,6,17,41,134
3.658617307848943,0,5,16,35,142
3.7740995220706735,0,5,15,34,144
3.8753086972525423,0,5,12,35,146
3.9901709676942705,0,5,9,32,152
4.099047698253015,0,4,9,31,154
4.216624729789335,0,4,8,28,158
4.3200147606542565,0,3,6,27,162
4.434765288257421,0,3,6,23,166
4.537835139350701,0,2,7,20,169
4.643991416389085,0,1,8,18,171
4.8877950345267855,0,1,7,17,173
5.005254771752257,0,0,7,15,176
5.17197188685369,0,0,7,12,179
5.416449716857869,0,0,6,11,181
5.605756648409886,0,0,5,11,182
5.819854210867938,0,0,5,7,186
5.935088921229527,0,0,4,7,187
6.17542419220871,0,0,4,6,188
6.306598487265809,0,0,2,6,190
6.436162123489253,0,0,2,4,192
6.989216553672979,0,0,2,3,193
7.242592850152409,0,0,2,1,195
7.5929594493285535,0,0,2,0,196
8.141913001607975,0,0,1,1,196
8.65987727685151,0,0,1,0,197
9.105165840568157,0,0,0,1,197
100,0,0,0,0,198
