#Time,A,B,C,D,E
0,220,12,0,22,33
0.10215485586610443,200,29,3,22,33
0.20524616779648647,174,49,8,22,34
0.307383702576893,155,62,14,19,37
0.42002711503426693,141,69,18,16,43
0.523896611344669,128,78,21,15,45
0.6262211680269574,116,80,30,16,45
0.728025668522624,103,82,36,17,49
0.8327490262187216,86,80,51,19,51
0.9400779868571693,78,82,53,20,54
1.0449470110549657,63,89,55,24,56
1.1454505428099744,54,89,62,23,59
1.25732675567476,47,87,61,29,63
1.3582388451696619,45,82,61,32,67
1.4712439849739871,43,74,60,39,71
1.5840966594387578,36,75,56,46,74
1.6857769811779098,34,67,61,43,82
1.7936181773449782,31,66,56,50,84
1.8945221538673,28,63,57,51,88
1.9969845502881278,27,57,56,54,93
2.105319348446384,25,53,54,54,101
2.2055282828114495,22,54,50,52,109
2.31884996688243,20,52,53,48,114
2.421179374428491,18,49,52,49,119
2.524189591572277,14,46,57,42,128
2.6278692192506847,13,45,50,41,138
2.7335577194745695,12,43,49,38,145
2.8381728538143514,9,42,51,37,148
2.9396522112584056,6,42,48,38,153
3.042364503345913,6,40,47,39,155
3.153042720674462,6,35,47,38,161
3.2648495011292655,5,33,45,37,167
3.3750471798396586,4,26,53,32,172
3.488777472217612,3,26,51,32,175
3.5934701696778033,3,25,47,34,178
3.712197351404582,3,19,48,34,183
3.8139565418022037,2,17,46,36,186
3.919006740894624,2,15,43,39,188
4.027385092446168,1,15,36,41,194
4.127550502956933,1,15,32,39,200
4.2298374737035065,1,13,28,43,202
4.331370650006476,1,13,24,46,203
4.434952709916104,1,13,20,43,210
4.5361295265378505,1,10,21,42,213
4.639695884192974,1,9,21,39,217
4.74263030386075,1,8,18,41,219
4.869203600219983,1,7,14,38,227
4.973347906729832,1,6,13,34,233
5.089533812441846,1,5,13,32,236
5.20385346830359,1,5,12,31,238
5.314243455791764,0,6,12,31,238
5.448516126953865,0,5,11,30,241
5.555154302879936,0,5,9,29,244
5.695762436195961,0,5,9,23,250
5.79625850417782,0,4,9,22,252
5.9379404952966395,0,3,8,22,254
6.150958276527587,0,3,6,19,259
6.2855117137826255,0,3,6,17,261
6.542573532161992,0,3,6,15,263
6.685918507505399,0,3,6,14,264
6.802200056469674,0,3,5,14,265
6.905140051102817,0,3,4,12,268
7.036128977726151,0,2,4,13,268
7.1669043734605395,0,1,5,13,268
7.298689669804702,0,1,5,10,271
7.6081874427909675,0,1,4,8,274
7.79918655803614,0,1,3,9,274
7.937350423288408,0,0,3,9,275
8.093863498495447,0,0,3,8,276
8.378771178597775,0,0,3,7,277
8.586126958231539,0,0,2,5,280
8.692017502694256,0,0,2,4,281
9.033003164303148,0,0,2,3,282
9.213278777568593,0,0,1,4,282
9.586787140038027,0,0,0,4,283
9.919471121248995,0,0,0,3,284
10.848383187384735,0,0,0,2,285
10.957319914097305,0,0,0,1,286
13.846704402495943,0,0,0,0,287
100,0,0,0,0,287
