#Time,A,B,C,D,E
0,293,10,252,0,313
0.1002402691802884,262,37,227,28,314
0.20250500643719382,242,52,206,50,318
0.30321586193349187,224,66,199,55,324
0.40440722781415467,200,87,185,66,330
0.5085981556632223,178,98,176,78,338
0.6131452857591947,162,99,177,83,347
0.7167435102586182,144,109,164,97,354
0.8208347514907767,131,109,157,112,359
0.9237912962620279,113,109,148,130,368
1.0286067929404996,108,105,141,132,382
1.1313861094663271,96,104,141,137,390
1.231826761655258,87,106,136,134,405
1.3336896957905047,77,105,134,131,421
1.4364235697160443,71,97,136,127,437
1.53891515552303,64,93,129,128,454
1.640693537946334,57,91,121,133,466
1.7413425551713553,53,85,118,129,483
1.8418751645048221,46,78,123,123,498
1.942209060363414,42,78,110,124,514
2.0538590625941495,40,69,111,121,527
2.156642859293925,33,68,108,119,540
2.257073837646379,32,64,99,119,554
2.357238885579906,27,66,94,116,565
2.4612149192895916,23,62,88,116,579
2.564263105023386,22,56,85,113,592
2.666845079457901,21,51,80,110,606
2.7677951937451195,19,47,80,110,612
2.8733910426548253,18,47,72,111,620
2.9755906030619133,15,44,75,103,631
3.0811472340180655,15,41,70,99,643
3.186012997875602,13,37,67,95,656
3.2872954360792344,12,33,66,93,664
3.3958413129733183,12,30,65,93,668
3.499187032501396,12,25,67,85,679
3.624351162235605,11,24,64,84,685
3.724566015195989,10,24,62,77,695
3.836698034874316,9,22,62,75,700
3.965662833164387,8,21,60,72,707
4.072710022790096,7,21,57,67,716
4.187268761526442,7,19,53,67,722
4.292544936977865,7,17,50,65,729
4.395554951542658,7,13,46,68,734
4.50422921072144,6,11,46,68,737
4.6297810828346675,6,9,42,67,744
4.7308597231626175,5,9,35,70,749
4.833660158166762,4,10,32,68,754
4.936532346165287,4,7,30,64,763
5.042693861344406,2,7,31,61,767
5.148767871183817,2,6,28,58,774
5.261021021463845,2,5,25,57,779
5.3653377093924615,2,5,22,53,786
5.475706679767406,2,5,18,52,791
5.579452995012893,2,4,17,51,794
5.708099078514921,2,4,16,46,800
5.825879978944881,2,4,14,44,804
5.928302900866009,2,4,12,43,807
6.039527189689476,2,4,10,41,811
6.151953546419134,2,4,10,37,815
6.257974336980757,2,4,9,34,819
6.366724385768726,2,3,9,29,825
6.577015365595998,1,3,10,26,828
6.699261860537103,1,3,10,22,832
6.810241347247404,1,3,9,21,834
6.936666871633849,1,3,7,21,836
7.040816898164277,1,3,7,17,840
7.151671297104296,1,1,9,15,842
7.261198073248969,1,1,9,13,844
7.444574849526346,1,1,9,11,846
7.566179964246443,1,1,8,10,848
7.672750015995084,1,1,6,12,848
7.7853135234240245,1,1,4,12,850
8.157860038317143,1,0,4,11,852
8.275878971111966,0,1,4,8,855
8.380451376209685,0,1,4,7,856
8.491567698224147,0,1,3,7,857
8.627671640814286,0,1,3,6,858
8.76113762587383,0,1,3,5,859
8.905453900464565,0,1,2,4,861
9.045082410942756,0,1,1,4,862
9.250915751530439,0,1,1,3,863
9.355814645450767,0,1,0,3,864
9.483469622946341,0,0,1,3,864
9.996935247925336,0,0,1,2,865
10.401566378054213,0,0,0,3,865
11.364181557590383,0,0,0,2,866
12.26995729977913,0,0,0,0,868
100,0,0,0,0,868
