#Time,A,B,C,D,E
0,111,54,74,0,0
0.10116422069469629,104,57,68,10,0
0.20476543133679204,97,56,68,16,2
0.3053173503128488,87,61,68,16,7
0.4117433456235156,76,63,72,19,9
0.5124761780247049,74,58,74,21,12
0.6126508338173472,64,62,70,26,17
0.717770087487105,60,56,71,33,19
0.8238801560838916,58,50,73,36,22
0.9279503432658928,56,45,72,40,26
1.0326718351609832,51,46,67,44,31
1.1475107321884441,46,45,69,43,36
1.250083811625639,40,48,65,46,40
1.3520093078127375,35,45,69,47,43
1.4547077959379424,33,41,69,49,47
1.557943714179581,30,42,63,51,53
1.665743690162104,26,41,66,50,56
1.783031879093658,23,43,62,52,59
1.8956601739983043,20,43,56,55,65
1.9967694996387053,19,42,52,58,68
2.09853007602723,18,41,47,62,71
2.2033866783116522,14,42,47,54,82
2.306763958436913,12,42,42,56,87
2.4113912091797167,9,42,39,58,91
2.5169300872568336,9,39,36,58,97
2.6187472262422626,7,36,36,58,102
2.729510058480648,7,33,36,51,112
2.8415765443072547,4,33,36,50,116
2.941748752321849,3,33,33,45,125
3.0548813682158222,3,31,34,38,133
3.165987321461093,3,26,36,38,136
3.289259211477257,3,25,34,38,139
3.3914169345965104,3,23,28,41,144
3.5166812481733323,2,22,28,41,146
3.6287983395694923,2,18,31,33,155
3.7526346325735993,2,18,26,34,159
3.8582325629370438,0,17,25,35,162
3.9684195970630443,0,15,23,37,164
4.077776756599101,0,15,20,37,167
4.223247722376238,0,13,21,34,171
4.351141452948473,0,13,16,36,174
4.454124403372115,0,13,12,34,180
4.557105268530086,0,12,9,35,183
4.6619110866699,0,12,7,35,185
4.781820187825305,0,12,7,31,189
4.917975166388703,0,10,7,28,194
5.050170503511199,0,10,7,24,198
5.194176294861908,0,10,6,21,202
5.295077283489994,0,9,5,18,207
5.436903926950116,0,9,5,15,210
5.550082640120935,0,9,3,16,211
5.693049839535861,0,6,5,14,214
5.793985194477576,0,6,4,14,215
5.900441166135636,0,4,6,12,217
6.019637364824022,0,3,7,10,219
6.15249551895265,0,3,6,10,220
6.265923913587498,0,3,5,11,220
6.3896402964833054,0,3,5,10,221
6.550402686146978,0,2,5,10,222
6.670992443944228,0,2,4,8,225
6.788185640215731,0,2,4,7,226
7.247975196593365,0,2,4,6,227
7.388629998203176,0,2,4,5,228
7.581844673480166,0,2,4,3,230
7.9026528282251,0,2,2,5,230
8.072760544829176,0,1,3,5,230
8.482983864849135,0,1,3,3,232
8.819215091497687,0,1,2,3,233
9.073070623771821,0,0,2,3,234
9.231852050099972,0,0,2,2,235
9.350952552833677,0,0,1,2,236
9.947605532125088,0,0,0,1,238
10.079899995421139,0,0,0,0,239
100,0,0,0,0,239
