#Time,A,B,C,D,E
0,29,55,149,0,58
0.1077647954416725,24,53,142,14,58
0.21116728413695932,23,47,125,35,61
0.3125924516587548,21,45,123,36,66
0.41414405822135664,19,42,117,44,69
0.5185310400831064,17,37,109,56,72
0.6224179726100713,15,34,105,60,77
0.7229656006323608,15,32,99,65,80
0.8236738256737944,13,31,97,62,88
0.9271363688279247,12,25,94,59,101
1.039670101042428,12,22,89,59,109
1.1423132256357573,10,24,78,65,114
1.2627319364386096,10,19,74,66,122
1.3628575146046007,8,19,62,71,131
1.462896867486469,7,16,60,67,141
1.564070759211319,6,15,55,68,147
1.6670330550807257,6,14,51,65,155
1.7690175936590018,6,13,46,60,166
1.8779370968551892,5,12,46,55,173
1.9865677719683201,5,9,43,54,180
2.100010531624359,5,9,39,52,186
2.2198474459315753,4,7,35,54,191
2.3235784264477677,3,6,35,50,197
2.466852681519298,3,6,32,51,199
2.5744435218094175,3,6,27,51,204
2.6974524174806787,3,6,26,46,210
2.805096561410035,3,5,26,44,213
2.9123895693469257,3,5,24,39,220
3.025924818307037,1,7,22,39,222
3.1273444355132365,0,8,20,39,224
3.2546998910852456,0,7,19,36,229
3.36261909687945,0,7,16,36,232
3.478271933490303,0,6,14,36,235
3.5933222795878508,0,6,11,34,240
3.708351383871086,0,5,11,26,249
3.8349629131680385,0,3,11,28,249
3.9408769058079574,0,3,9,26,253
4.058562646639541,0,2,9,23,257
4.164601148811845,0,1,10,21,259
4.357162578968195,0,1,10,17,263
4.500636983338223,0,1,7,16,267
4.615554054938697,0,1,6,15,269
4.7490726307721465,0,1,6,13,271
4.86805333971963,0,1,5,11,274
4.98047017361755,0,1,4,12,274
5.343667919048152,0,1,3,12,275
5.459456318162311,0,1,2,13,275
5.567848087151669,0,1,2,11,277
5.690661394214496,0,1,2,9,279
5.818671973515363,0,1,1,9,280
5.926997261553074,0,1,1,6,283
6.099866638764168,0,1,1,4,285
6.27020884001567,0,1,1,3,286
6.429337429388244,0,1,1,1,288
7.0072818290256205,0,0,2,1,288
7.148846478404477,0,0,1,1,289
8.14569430753919,0,0,0,2,289
8.684415409376843,0,0,0,1,290
100,0,0,0,0,291
