#Time,A,B,C,D,E
0,81,148,9,146,0
0.10084919223433977,71,140,25,134,14
0.201088729420066,64,134,33,127,26
0.30237527513728063,61,118,51,118,36
0.40547783595859793,51,113,59,118,43
0.5161180614509531,44,107,65,114,54
0.6212430740992131,42,95,76,109,62
0.7241377671456083,37,93,76,108,70
0.8278943991022886,35,84,80,98,87
0.9280958693650283,31,82,76,102,93
1.0364752821525085,26,76,79,99,104
1.1401904942792862,23,76,74,97,114
1.244058519690252,21,70,78,92,123
1.3478704216653261,18,68,77,90,131
1.4483671408691001,14,63,75,91,141
1.5538589069210833,13,61,72,89,149
1.6604912487599204,11,58,68,91,156
1.7657023851783926,9,56,66,88,165
1.8733786102906438,9,47,68,87,173
1.9735861156674768,9,41,67,81,186
2.077310425347189,9,36,65,74,200
2.179816014832693,8,35,60,77,204
2.287918821486444,8,32,55,73,216
2.3880980560948633,7,25,60,69,223
2.4898910681338093,7,21,59,67,230
2.5983430442260547,6,20,55,65,238
2.7102338872679312,6,16,54,64,244
2.8202665751933025,5,15,48,67,249
2.928311825664977,4,15,43,67,255
3.035641799797532,4,15,38,64,263
3.139542589784608,4,11,39,59,271
3.2540415110101213,4,11,35,57,277
3.3679109244732346,4,10,31,53,286
3.4710479058250057,2,11,30,49,292
3.5718941489438776,2,10,29,45,298
3.6969915237375983,2,10,25,43,304
3.797880698959799,2,9,22,44,307
3.899369056384499,2,7,21,44,310
4.002061271318755,2,5,21,40,316
4.11098512713575,2,4,22,37,319
4.230993605379105,2,4,19,36,323
4.351094065955236,2,4,17,36,325
4.464253618160081,1,4,16,37,326
4.605414139761443,1,4,14,35,330
4.720456480765133,1,4,13,33,333
4.829361182457095,1,3,13,32,335
4.9479133436523925,1,3,11,28,341
5.04821237851898,1,0,13,25,345
5.151824020412297,0,1,10,27,346
5.274771665097431,0,1,10,25,348
5.418143784898371,0,1,7,25,351
5.576725100600836,0,1,6,21,356
5.716178711798324,0,1,5,20,358
5.848276378079008,0,1,5,18,360
6.083005219991938,0,1,4,18,361
6.227316373990739,0,1,3,14,366
6.4016794451325945,0,1,3,10,370
6.746569514739269,0,1,2,11,370
6.9206083112989845,0,1,2,10,371
7.05291353657025,0,0,3,8,373
7.18870486727331,0,0,2,7,375
7.538243248572499,0,0,2,4,378
7.642276202259977,0,0,1,5,378
7.995636522639377,0,0,1,4,379
8.348236663244602,0,0,1,3,380
9.33918217027203,0,0,0,4,380
10.001717395536751,0,0,0,2,382
11.370728562904514,0,0,0,1,383
12.107921420196584,0,0,0,0,384
100,0,0,0,0,384
