#Time,A,B,C,D,E
0,0,86,4,337,31
0.10106624522302146,0,76,13,309,60
0.2022418409587578,0,72,15,280,91
0.3024707766953196,0,67,17,259,115
0.4041157722272933,0,63,19,221,155
0.5056073763522709,0,58,21,198,181
0.6072709746026017,0,55,23,181,199
0.7120930595733906,0,46,30,164,218
0.8350010561045231,0,42,31,152,233
0.9394785757765208,0,39,32,137,250
1.0470978357937633,0,35,34,120,269
1.1529082802707629,0,33,29,119,277
1.2556390651715361,0,25,31,114,288
1.3658220833217196,0,23,29,103,303
1.4770086390556494,0,22,25,92,319
1.6033643106704978,0,18,24,88,328
1.7037719678635752,0,17,21,84,336
1.830781510967419,0,15,21,72,350
1.9376085709362865,0,13,23,65,357
2.0483824480469908,0,10,26,60,362
2.157895326898286,0,10,22,57,369
2.2691079137450427,0,5,25,52,376
2.384522115297648,0,5,20,55,378
2.502923589138787,0,4,20,46,388
2.608787674573168,0,4,19,43,392
2.710237504090198,0,2,19,42,395
2.812187600346972,0,2,16,45,395
2.931319415187592,0,2,15,42,399
3.045151610245099,0,1,13,43,401
3.192164031706591,0,1,12,39,406
3.3242927952278256,0,1,12,32,413
3.4793066806715083,0,1,11,27,419
3.620697273292839,0,1,10,25,422
3.740972561505601,0,1,10,21,426
3.855465193739397,0,1,10,17,430
3.988094456195966,0,1,10,13,434
4.16620654303627,0,1,9,13,435
4.270238461074948,0,1,8,13,436
4.439365714135054,0,1,8,12,437
4.700333260349758,0,1,8,9,440
4.817419364043933,0,1,8,8,441
4.926689171717145,0,1,7,7,443
5.079003925660688,0,1,6,6,445
5.189766279540609,0,1,4,7,446
5.33910489490016,0,1,2,7,448
5.468706114869095,0,1,2,5,450
5.574908753556994,0,1,1,4,452
6.047850004735037,0,0,2,2,454
6.14842340579508,0,0,2,0,456
6.93101709557178,0,0,1,0,457
10.069851788250384,0,0,0,1,457
10.561676372347108,0,0,0,0,458
100,0,0,0,0,458
