#Time,A,B,C,D,E
0,139,158,86,0,26
0.10130269627926393,124,159,83,16,27
0.20261733233787707,111,147,98,22,31
0.30781708471300134,100,145,102,28,34
0.40799843300372224,88,144,106,33,38
0.5142494154536967,80,136,112,38,43
0.6185483648439598,72,126,119,45,47
0.7276761521720071,62,127,111,59,50
0.8303567367561564,56,123,114,57,59
0.9306434496376917,52,110,119,64,64
1.0307694850968592,49,100,122,72,66
1.1330556610475477,44,97,118,78,72
1.2334507567119533,39,94,108,90,78
1.3334759783079648,35,88,111,89,86
1.4338608183815842,28,89,105,95,92
1.5350109322167083,25,80,105,101,98
1.6388368874215384,21,75,107,97,109
1.7469923269662133,20,70,99,95,125
1.8500843064460115,16,67,91,96,139
1.9580627567068065,16,56,93,89,155
2.0618747027114392,16,52,89,88,164
2.1655385719774864,16,45,88,87,173
2.2689787904196836,15,41,77,92,184
2.3718188454446887,13,39,76,89,192
2.472726869554456,11,33,72,92,201
2.5740418191456933,8,34,66,88,213
2.6798362768658994,8,30,62,87,222
2.7811340153691595,5,30,58,90,226
2.881140720171761,5,24,56,87,237
2.9897341312738117,5,21,54,79,250
3.1009335373723874,5,18,49,76,261
3.21197308039237,5,16,46,76,266
3.315559448581098,5,14,44,73,273
3.433565775187051,4,14,37,73,281
3.5449304778289776,4,13,33,70,289
3.6471861335594316,3,12,35,66,293
3.7625498534031614,2,9,34,61,303
3.8991216378797944,2,7,33,54,313
4.011324228041057,2,7,30,50,320
4.121181317559818,2,5,25,52,325
4.222296210653261,2,4,22,52,329
4.3312916964395525,2,4,20,51,332
4.485881914957449,2,3,20,46,338
4.614254702113967,2,3,16,42,346
4.7332059355333005,2,1,13,46,347
4.844044991729022,2,1,12,44,350
4.956055999048268,1,2,11,36,359
5.109685038847244,1,1,11,33,363
5.227060397691958,1,1,10,28,369
5.333215533004817,1,0,9,26,373
5.439278260922837,1,0,8,22,378
5.5539982198291975,1,0,7,21,380
5.680284659789281,1,0,4,21,383
5.919504139349849,1,0,2,20,386
6.115682866160176,0,1,2,17,389
6.32323460834898,0,1,2,16,390
6.6324736911116755,0,1,2,14,392
7.109969381142724,0,0,3,12,394
7.4084267209007475,0,0,1,13,395
7.538206738554393,0,0,1,12,396
7.639347869343813,0,0,1,9,399
7.741015829271744,0,0,0,8,401
7.856409887696212,0,0,0,6,403
8.122125190734579,0,0,0,5,404
9.07208562136697,0,0,0,4,405
9.223047906593068,0,0,0,3,406
9.451804485097384,0,0,0,2,407
9.676403949901964,0,0,0,1,408
9.866017197212086,0,0,0,0,409
100,0,0,0,0,409
