#Time,A,B,C,D,E
0,110,0,49,83,39
0.10628387073023031,96,14,40,87,44
0.21016822783717332,85,22,39,82,53
0.3171985924330442,79,28,35,75,64
0.4229075252391467,73,31,34,69,74
0.5257250163486263,70,28,36,64,83
0.6279568115636852,61,34,35,61,90
0.7280196566397146,55,37,33,61,95
0.8415914519696576,51,36,34,61,99
0.9469904815560416,47,38,34,60,102
1.0539747080100632,43,39,35,56,108
1.1605866579040862,38,39,36,54,114
1.2649376757243616,33,41,35,52,120
1.3658511525804828,31,35,36,52,127
1.4680085324514733,28,32,37,53,131
1.579925140150448,25,30,38,49,139
1.6802696462120938,24,30,36,46,145
1.7813653798276443,23,25,36,47,150
1.8841097304608792,20,28,31,47,155
2.0157974053423815,16,31,26,48,160
2.1182591560490405,15,29,27,47,163
2.220301018353888,15,26,29,38,173
2.3405997847000446,14,25,31,37,174
2.459310593887491,11,26,30,39,175
2.5701619664663498,9,27,29,35,181
2.672457516323788,8,22,33,37,181
2.7888659249574475,7,21,31,36,186
2.907903652028734,6,20,27,37,191
3.0151811847127536,6,18,25,35,197
3.11682550324731,5,18,22,35,201
3.2266433811967645,5,17,20,35,204
3.3285791647398058,5,17,17,36,206
3.43163042049113,4,16,18,34,209
3.5417572634340933,3,14,20,34,210
3.6605339523751153,2,13,19,34,213
3.7627910177412107,1,14,15,34,217
3.8678149244819533,1,11,18,29,222
3.9707981853403767,1,8,20,26,226
4.11648905796434,1,8,15,26,231
4.245421060687733,1,7,13,23,237
4.392905236920761,1,6,12,22,240
4.5521869308897704,1,5,11,21,243
4.72119275770573,1,3,13,18,246
4.848580565705949,1,2,11,18,249
4.969099300525374,1,2,10,17,251
5.0953539964373284,1,2,9,16,253
5.219679186211845,1,1,8,16,255
5.345445414282241,1,1,7,16,256
5.541524409070909,1,1,6,13,260
5.645339019858649,0,2,5,12,262
5.779749833884976,0,2,4,11,264
5.947331488095222,0,2,3,9,267
6.128772063733112,0,2,2,10,267
6.328840521786015,0,2,2,9,268
6.453805734758986,0,1,2,9,269
6.643839575154229,0,1,1,8,271
6.844143876940588,0,1,1,4,275
6.960856235672396,0,1,1,3,276
7.13765733593637,0,1,1,2,277
7.745911383273039,0,0,1,3,277
8.14232475655002,0,0,0,4,277
8.744785965368354,0,0,0,3,278
9.379495413719498,0,0,0,2,279
9.849189112224842,0,0,0,1,280
10.132930793778044,0,0,0,0,281
100,0,0,0,0,281
