#Time,A,B,C,D,E
0,304,0,425,310,104
0.10061305115240395,271,31,371,325,145
0.20243220638927148,243,58,326,339,177
0.3035780255621515,214,84,291,342,212
0.4051429814008986,194,92,271,337,249
0.5051447031576981,174,101,258,331,279
0.6065623143223774,160,106,234,336,307
0.7078835464273604,147,107,216,327,346
0.8084919599058239,133,108,211,308,383
0.909447326256632,118,113,197,296,419
1.0097045235829718,109,108,188,292,446
1.10989852282812,98,108,182,288,467
1.212475532692771,87,108,177,270,501
1.3144384918413052,75,111,175,255,527
1.4154960987988379,69,107,168,243,556
1.5167491893967182,64,100,158,235,586
1.6188259711249278,60,97,152,224,610
1.7208786898008228,55,89,150,218,631
1.8216997179172147,50,87,138,217,651
1.9229178075260267,48,81,131,210,673
2.023213820784762,42,80,122,205,694
2.1285021819309433,38,78,118,196,713
2.229713488141173,32,76,109,199,727
2.330497068405634,31,70,109,191,742
2.4359449298659146,27,70,101,182,763
2.537384454694954,24,69,94,177,779
2.6392984754750333,19,70,87,183,784
2.7393991900308627,18,65,84,169,807
2.842871402254333,17,64,78,153,831
2.943281114889768,15,59,76,146,847
3.0501185689256816,15,52,69,151,856
3.1541343303729468,13,45,70,143,872
3.2569869657929047,13,37,70,135,888
3.3581808546536895,13,33,72,122,903
3.4588323395841543,10,34,67,116,916
3.561337207764285,10,31,66,111,925
3.6667118103027585,9,30,59,110,935
3.76952795812015,8,27,57,107,944
3.8719848557142162,8,21,54,108,952
3.9826240535695194,6,21,48,101,967
4.1034711687927645,6,18,46,95,978
4.203546279462058,5,16,44,92,986
4.340236877530469,3,16,40,89,995
4.447041898909387,1,16,39,83,1004
4.552636412132701,0,15,38,80,1010
4.660317770737098,0,12,36,72,1023
4.763882878766096,0,12,29,74,1028
4.8656977116210225,0,12,27,64,1040
4.96592579176162,0,10,29,60,1044
5.0810854205178435,0,9,28,60,1046
5.200678068415304,0,9,25,57,1052
5.3015479061130995,0,9,20,53,1061
5.4024228443825,0,8,20,48,1067
5.507718091637148,0,7,20,45,1071
5.62584573840844,0,7,20,39,1077
5.744159103046719,0,7,18,36,1082
5.845657454456826,0,6,18,33,1086
5.947985952480279,0,5,14,35,1089
6.074957386985333,0,4,13,31,1095
6.2293813043496655,0,4,11,32,1096
6.334898462933643,0,3,11,29,1100
6.442724347644213,0,3,10,27,1103
6.586668955587766,0,3,10,23,1107
6.723014681579858,0,3,7,24,1109
6.832278734589745,0,3,5,21,1114
6.941730141570478,0,2,6,19,1116
7.097597607193843,0,2,5,16,1120
7.262970912029319,0,1,5,17,1120
7.398782186560188,0,1,5,16,1121
7.58338968974968,0,1,4,15,1123
7.688384340797137,0,1,3,14,1125
7.794040017315894,0,1,3,12,1127
7.900555237200996,0,1,1,13,1128
8.10195460339239,0,1,0,13,1129
8.202753970036392,0,1,0,11,1131
8.600286892977017,0,1,0,9,1133
8.772358203931613,0,1,0,8,1134
9.003849492361372,0,1,0,7,1135
9.305042890103845,0,1,0,5,1137
9.437909615198588,0,0,1,4,1138
9.762606283946292,0,0,1,3,1139
10.62912263387467,0,0,1,2,1140
11.50651313774339,0,0,1,1,1141
12.796790178586535,0,0,0,1,1142
13.229052160759526,0,0,0,0,1143
100,0,0,0,0,1143
