#Time,A,B,C,D,E
0,0,101,139,4,31
0.10313095080089124,0,88,136,19,32
0.2106911027338869,0,78,136,28,33
0.3107644299270211,0,67,132,38,38
0.4174529704882565,0,63,120,49,43
0.5226622421640396,0,54,113,61,47
0.6246811828831109,0,49,110,63,53
0.7250039182207134,0,41,111,61,62
0.8347513980958442,0,38,99,70,68
0.9358358653593136,0,36,95,67,77
1.0379434161831744,0,33,88,73,81
1.1425815420523189,0,29,81,72,93
1.2429435707301528,0,25,81,72,97
1.345503485420898,0,24,70,75,106
1.4485945671855207,0,23,63,78,111
1.5499326060971275,0,19,63,73,120
1.6560743975308143,0,18,58,74,125
1.759294999046707,0,17,54,65,139
1.8592973214262893,0,16,51,60,148
1.9815034776998774,0,15,43,62,155
2.0869872067547606,0,14,38,61,162
2.208587887220198,0,13,35,57,170
2.329724662368516,0,10,35,52,178
2.437233088527599,0,9,34,48,184
2.5628338515053137,0,8,34,42,191
2.6806933991951722,0,8,27,43,197
2.79831524352243,0,7,25,38,205
2.9000255005103686,0,6,25,33,211
3.002507802209805,0,5,22,33,215
3.104248911333617,0,5,17,31,222
3.2083549593072482,0,5,16,29,225
3.316172180591833,0,5,16,26,228
3.4641661825220638,0,4,12,27,232
3.5664375489433566,0,4,8,27,236
3.666846474698139,0,3,9,24,239
3.771852067390138,0,3,9,22,241
3.8986798277044192,0,3,8,21,243
4.05184168468355,0,3,7,19,246
4.180694789870193,0,3,7,15,250
4.327241944554339,0,3,4,16,252
4.431563290064929,0,1,6,15,253
4.6030000827301185,0,1,5,13,256
4.7303022654035445,0,1,4,13,257
4.937125216779799,0,1,4,10,260
5.038436170031623,0,1,3,11,260
5.189437225149246,0,1,2,12,260
5.3642583258736805,0,1,2,10,262
5.467146289187848,0,1,2,8,264
5.5867494308014285,0,1,2,7,265
5.932841230869443,0,0,3,6,266
6.095666691369425,0,0,3,5,267
6.4253558409378115,0,0,3,4,268
6.545028966323281,0,0,2,5,268
6.647470543763727,0,0,2,3,270
7.014994204929628,0,0,2,1,272
7.266662018033867,0,0,1,2,272
7.869199443715282,0,0,1,1,273
8.097587102117046,0,0,0,2,273
8.908319269375994,0,0,0,1,274
10.019704243449887,0,0,0,0,275
100,0,0,0,0,275
