#Time,A,B,C,D,E
0,0,317,46,0,46
0.10229104468896652,0,292,65,6,46
0.20275633546735924,0,267,84,12,46
0.3030829185628374,0,235,101,23,50
0.40779900561258636,0,206,118,33,52
0.5093493860069725,0,188,123,43,55
0.6146641296830744,0,171,130,48,60
0.716940630978162,0,160,122,62,65
0.8181977841684306,0,149,118,75,67
0.9196067728572119,0,135,118,80,76
1.0198486802658258,0,115,127,80,87
1.122668970299,0,105,126,80,98
1.2234621648188428,0,97,119,88,105
1.3310347737784092,0,90,114,88,117
1.4319276755019128,0,84,114,84,127
1.5331801836887973,0,76,111,88,134
1.6377787132282329,0,67,114,89,139
1.7404643318724864,0,60,102,98,149
1.8410740709745828,0,56,98,93,162
1.9494055707333149,0,53,94,92,170
2.0514922088825402,0,49,89,92,179
2.153203086789263,0,45,83,89,192
2.2548942006939394,0,40,79,85,205
2.3604467884012696,0,37,73,78,221
2.4617998196200985,0,36,69,72,232
2.5779288951201615,0,33,62,77,237
2.7004997474607384,0,31,59,74,245
2.808854506617183,0,31,50,70,258
2.9134988491675373,0,29,45,69,266
3.013688685535622,0,25,45,68,271
3.1215264556827096,0,24,39,73,273
3.22817850576501,0,23,36,72,278
3.3533237896729418,0,20,34,68,287
3.469269097693211,0,18,31,67,293
3.5795502033816877,0,13,32,63,301
3.680945255388876,0,11,32,57,309
3.7907443072296902,0,10,25,60,314
3.891400806674327,0,8,24,58,319
3.9975912594668626,0,8,20,55,326
4.100222262413693,0,8,18,50,333
4.209483937434492,0,8,18,43,340
4.311022102697825,0,7,17,40,345
4.449595969797861,0,7,15,36,351
4.552345849220072,0,6,15,36,352
4.672564837139439,0,5,14,32,358
4.7736868627254125,0,4,15,31,359
4.927688747698496,0,2,17,28,362
5.046088999475778,0,2,15,28,364
5.176806321739955,0,2,15,27,365
5.277935269943104,0,2,14,24,369
5.404286103268974,0,2,12,25,370
5.515758685843393,0,2,9,26,372
5.618373400947052,0,2,7,24,376
5.727693286903854,0,2,7,19,381
5.872320240276854,0,2,5,21,381
5.980133528285345,0,2,4,18,385
6.111501261312716,0,2,3,17,387
6.225317058457962,0,1,3,15,390
6.472007545452753,0,1,3,13,392
6.672247627560663,0,1,3,10,395
6.874722205341806,0,1,3,9,396
7.286162087640672,0,1,3,6,399
7.3985819684148195,0,1,2,4,402
7.505519672252809,0,1,1,5,402
7.828697657192907,0,0,2,4,403
7.943695172137135,0,0,1,3,405
8.278647006117886,0,0,1,2,406
8.48784287188666,0,0,1,1,407
8.66997389959899,0,0,0,2,407
10.207447648332465,0,0,0,1,408
11.567228491035873,0,0,0,0,409
100,0,0,0,0,409
