#Time,A,B,C,D,E
0,343,155,0,109,213
0.10134394683781314,306,177,15,95,227
0.2015891571505383,278,192,26,88,236
0.3033650274492749,252,194,50,78,246
0.4053373393362622,228,197,66,71,258
0.5066875258354157,209,197,76,68,270
0.6077761105490441,184,190,96,75,275
0.7097686555710301,168,186,103,80,283
0.8105173825986175,151,189,104,83,293
0.9112135234458256,142,178,117,81,302
1.012565717675844,126,180,121,80,313
1.1146972392284682,108,182,128,79,323
1.2158615360761278,94,185,118,95,328
1.321656363330566,89,179,117,96,339
1.4227438650246436,82,169,125,95,349
1.5245024924027593,76,154,134,98,358
1.6257560116739453,68,151,132,101,368
1.7269181784689438,62,141,128,112,377
1.829674973038343,57,132,131,106,394
1.9358819690222147,51,126,128,109,406
2.0446674782019034,47,118,128,109,418
2.1457155338205145,44,108,126,110,432
2.2485343604963743,36,104,124,112,444
2.3494845311085153,31,100,124,105,460
2.450321130669364,26,97,124,98,475
2.5511771729254242,24,86,131,98,481
2.65355808984061,22,80,126,106,486
2.7579070120862523,21,74,119,106,500
2.8613331582749675,21,70,111,107,511
2.966513050420547,19,67,104,107,523
3.0711055452453397,16,64,98,106,536
3.173258221675024,13,56,100,95,556
3.2832257484571112,11,51,94,97,567
3.3890305535010583,10,45,89,95,581
3.4902466253037114,9,41,85,96,589
3.5914052486920234,8,39,80,92,601
3.6941106849196466,8,37,70,92,613
3.80396955188855,8,31,64,96,621
3.9082727039867886,7,28,63,95,627
4.009316743028653,5,29,62,77,647
4.109964749528598,5,27,57,75,656
4.211233657347527,3,27,57,68,665
4.3209046572260865,2,25,55,66,672
4.423559868064491,2,23,53,69,673
4.5289355656589505,2,23,48,68,679
4.629326108224843,1,21,44,67,687
4.73016645691698,1,17,44,68,690
4.836300462338233,1,15,43,65,696
4.942353033849522,1,13,42,62,702
5.059385331774407,1,12,41,56,710
5.17785096514903,1,11,38,52,718
5.2934589230568925,1,11,35,47,726
5.398092477278736,1,9,34,43,733
5.508642255309909,1,8,32,43,736
5.6196394010035675,1,7,28,42,742
5.733018065346248,1,6,25,42,746
5.834610863229834,1,6,21,43,749
5.941184949414539,1,6,17,39,757
6.045229123277816,1,6,13,36,764
6.19051746468735,1,6,10,31,772
6.290970291917733,1,6,8,32,773
6.406213320604157,1,5,8,30,776
6.514993886976212,1,5,7,26,781
6.643442488468597,1,5,7,21,786
6.782504877310785,1,5,7,19,788
6.957814458615339,1,2,10,16,791
7.083268279626735,1,2,9,10,798
7.372888085417371,1,2,8,10,799
7.523552103522866,1,2,8,9,800
7.720812074435451,1,2,6,7,804
7.8697505264856575,1,2,6,5,806
8.039004275641714,1,2,6,4,807
8.17176427484994,1,2,4,5,808
8.356137791478199,1,1,4,6,808
8.52393714440908,1,0,4,7,808
9.018455217776996,1,0,3,7,809
9.242100333755957,1,0,3,5,811
9.448127928151743,1,0,3,4,812
9.578005815244667,1,0,2,5,812
9.74061960612955,1,0,1,5,813
9.869272368926175,1,0,1,3,815
10.671171114363737,1,0,0,4,815
10.816613318791331,0,1,0,3,816
11.806238615519415,0,1,0,2,817
12.009597291851557,0,0,1,2,817
12.14108512889858,0,0,1,1,818
13.118935934144874,0,0,1,0,819
14.433875018437767,0,0,0,1,819
15.753742879973629,0,0,0,0,820
100,0,0,0,0,820
