#Time,A,B,C,D,E
0,0,110,167,220,117
0.10177662661354063,0,101,160,214,139
0.20319341876040412,0,91,153,212,158
0.308218737964007,0,82,145,214,173
0.4103381420587053,0,73,135,220,186
0.5132966688088075,0,65,129,213,207
0.6147597338994727,0,56,127,198,233
0.7202758981380186,0,52,117,196,249
0.8207882687576884,0,49,111,188,266
0.9219002340163268,0,45,105,180,284
1.023009251291438,0,40,104,171,299
1.1254090217590464,0,35,103,165,311
1.2276759056372,0,31,97,153,333
1.33174299148268,0,29,85,150,350
1.4342375686506732,0,27,76,150,361
1.5364601720741566,0,24,74,141,375
1.6468397955399308,0,20,69,133,392
1.7470557567921077,0,19,64,125,406
1.8520800613794848,0,16,62,119,417
1.9528073115079627,0,14,56,117,427
2.05821393260113,0,12,50,112,440
2.1694445487384453,0,12,44,104,454
2.2695175727006545,0,11,40,100,463
2.3800991461494556,0,11,36,94,473
2.4846121395131378,0,10,36,81,487
2.595130743386805,0,9,32,77,496
2.6990414506909004,0,8,30,71,505
2.7999238418127907,0,8,28,63,515
2.900096636089937,0,6,25,62,521
3.001219305950764,0,6,22,56,530
3.1076424274030465,0,6,19,52,537
3.2121596551930938,0,6,17,51,540
3.3274008089423153,0,4,16,49,545
3.430709823589125,0,4,15,41,554
3.533309637748606,0,3,16,34,561
3.6503364727837746,0,3,13,32,566
3.762052621559581,0,3,12,32,567
3.8805263940358947,0,3,10,31,570
4.001396298953534,0,2,10,27,575
4.1486945624058205,0,2,9,22,581
4.271815874764159,0,2,6,20,586
4.410471046682708,0,2,6,14,592
4.545564330049085,0,2,5,13,594
4.912437818993379,0,2,4,10,598
5.036916329967803,0,2,2,9,601
5.188739479258933,0,2,1,8,603
5.367691578697014,0,1,2,7,604
5.6297610589063725,0,1,2,5,606
5.746894668530318,0,0,3,5,606
5.89534726906025,0,0,2,6,606
6.130147451761956,0,0,2,4,608
6.818419639519625,0,0,1,5,608
6.943731926639434,0,0,1,4,609
7.66966456440873,0,0,1,3,610
8.01271889762334,0,0,0,3,611
8.14638560417584,0,0,0,2,612
10.111961671268483,0,0,0,0,614
100,0,0,0,0,614
