#Time,A,B,C,D,E
0,0,0,17,181,0
0.11000284821458668,0,0,16,157,25
0.2126687581065436,0,0,14,146,38
0.3131247092559809,0,0,13,133,52
0.41321509958048747,0,0,11,122,65
0.536256905287912,0,0,10,107,81
0.6384403932014421,0,0,8,94,96
0.7552545082476801,0,0,8,83,107
0.8722368266393348,0,0,6,74,118
0.9964433988577807,0,0,6,64,128
1.1054305794094075,0,0,5,59,134
1.2149079262050433,0,0,4,54,140
1.3339633103001844,0,0,2,52,144
1.4422173714691326,0,0,2,50,146
1.5486392609119872,0,0,2,45,151
1.6570061520473043,0,0,1,40,157
1.7880822536893801,0,0,1,37,160
1.891807950149107,0,0,1,33,164
2.0122407767649078,0,0,1,28,169
2.127020001426743,0,0,1,25,172
2.268601845727794,0,0,1,23,174
2.547444078849739,0,0,1,22,175
2.714253202522434,0,0,0,20,178
2.858455350520822,0,0,0,16,182
3.1124121676334617,0,0,0,12,186
3.2754175081297436,0,0,0,11,187
3.442677358296879,0,0,0,8,190
4.049468525902856,0,0,0,6,192
4.435618998795761,0,0,0,4,194
4.624701991256383,0,0,0,2,196
4.780841303048642,0,0,0,1,197
4.990796137695898,0,0,0,0,198
100,0,0,0,0,198
