#Time,A,B,C,D,E
0,250,75,228,227,0
0.10094958805716663,219,96,220,222,23
0.2009880611438041,203,97,212,229,39
0.30375058621277795,181,110,199,236,54
0.4045234136897702,159,117,190,232,82
0.504998375006612,140,115,188,231,106
0.605189228463674,129,117,179,219,136
0.7057647293532544,112,125,168,216,159
0.8061590990845023,102,127,155,217,179
0.9072397487097383,91,123,148,220,198
1.0076297804723575,78,118,153,211,220
1.1092679497392133,65,118,151,205,241
1.2102222785301617,58,114,153,188,267
1.3112460319077275,50,115,141,185,289
1.4180568251827714,45,112,137,168,318
1.5227405003387309,39,105,137,160,339
1.6234456909610928,34,97,136,155,358
1.7235293703937968,33,85,140,149,373
1.8251326325311743,28,75,142,148,387
1.929035452558767,26,72,131,144,407
2.0293105889702514,23,69,127,137,424
2.13214532398267,20,69,120,128,443
2.233084416603666,19,62,115,134,450
2.3411003039484624,18,57,110,126,469
2.4520308073807664,15,58,102,119,486
2.553989915620726,14,54,93,114,505
2.654493409759331,14,51,90,111,514
2.7555439641451813,14,45,90,109,522
2.856896782193251,12,43,82,105,538
2.958577791175729,11,38,80,103,548
3.070636573512405,11,37,75,102,555
3.171454946284633,9,33,72,105,561
3.273174147701452,8,32,67,99,574
3.3764143087498857,7,28,68,94,583
3.4858085489437105,7,25,66,92,590
3.5871073348769116,5,22,66,86,601
3.688516633706087,3,21,64,82,610
3.8009768017893815,3,19,58,85,615
3.906260032639459,2,19,50,85,624
4.02503076647674,2,16,49,79,634
4.128176770332536,2,16,44,72,646
4.238103651378798,2,14,43,63,658
4.338421592729312,2,12,40,59,667
4.448384076576466,2,10,41,53,674
4.5516113435982675,1,11,39,49,680
4.65698583571053,1,11,35,46,687
4.7834546981362,1,10,33,45,691
4.891303307763997,1,9,32,41,697
4.994841149685752,1,8,32,33,706
5.136560438649493,1,6,32,34,707
5.238279975986481,1,6,31,33,709
5.361573885922399,1,5,27,32,715
5.504017761668048,0,6,24,33,717
5.6069162520919456,0,6,21,34,719
5.708902836156725,0,5,21,32,722
5.839313639212071,0,5,20,28,727
5.962228326742697,0,4,16,28,732
6.076177558966342,0,4,10,30,736
6.191966916989207,0,4,8,28,740
6.311884080944698,0,3,9,26,742
6.419098707848055,0,3,8,25,744
6.535704316710316,0,3,7,23,747
6.640052150769902,0,3,7,18,752
6.834132233360588,0,3,6,19,752
6.961720025064401,0,2,6,13,759
7.216986999048363,0,2,4,14,760
7.411663543343815,0,2,4,13,761
7.556880964001926,0,2,4,12,762
7.875282561198458,0,2,4,10,764
8.016118588507393,0,2,4,9,765
8.192308238889437,0,2,4,8,766
8.34759636285581,0,2,2,9,767
8.479857134384766,0,2,2,6,770
8.584591613780805,0,1,3,6,770
8.73859555068294,0,1,3,4,772
9.151436448269838,0,1,3,3,773
9.406749784635476,0,1,2,3,774
9.807298302320742,0,1,1,4,774
10.118750338084023,0,1,1,3,775
10.290861573761854,0,0,2,2,776
10.394127107436454,0,0,0,4,776
10.507552630570352,0,0,0,3,777
10.6790752893008,0,0,0,2,778
11.405679472103081,0,0,0,1,779
12.45011390887285,0,0,0,0,780
100,0,0,0,0,780
