#Time,A,B,C,D,E
0,89,119,96,27,0
0.10121099505083116,75,126,91,36,3
0.20320215663596244,68,120,95,43,5
0.30501491206670006,60,109,102,47,13
0.4113900779892902,58,99,104,49,21
0.5144225338387179,53,97,99,56,26
0.6205804547493162,45,99,99,54,34
0.7209842626116078,36,100,87,69,39
0.8223548274134534,33,89,93,68,48
0.9243225790006196,32,81,94,70,54
1.029988538001459,27,78,90,79,57
1.1371941701393558,24,76,91,70,70
1.2414912574470285,20,76,91,65,79
1.3499950163889767,18,71,90,63,89
1.454846287154451,15,67,89,65,95
1.569244220598321,14,64,83,69,101
1.6751384314494735,13,58,87,66,107
1.778805555222667,13,54,84,66,114
1.8882881051314164,13,53,73,67,125
1.98884104641856,10,53,67,71,130
2.088974218625046,10,46,67,69,139
2.1896901284280257,10,42,64,68,147
2.2910366662366557,7,41,60,68,155
2.3975736537368726,7,36,58,64,166
2.4990466008603343,7,31,57,63,173
2.601464325847745,7,27,55,60,182
2.7087426096057836,6,23,53,61,188
2.822086910625652,6,22,49,55,199
2.935013914188094,5,22,43,57,204
3.0372101766625708,5,19,41,54,212
3.1389660774088712,5,18,37,54,217
3.249673447217544,5,17,33,51,225
3.3612498131080115,4,15,34,41,237
3.465080768063653,3,15,32,37,244
3.572987613549118,3,13,30,36,249
3.6919062097568442,3,12,30,33,253
3.8016541243387056,3,10,26,36,256
3.9366877419240636,3,9,26,31,262
4.0503307168852585,3,8,22,34,264
4.175066451859683,1,9,21,33,267
4.303778939175435,1,8,18,33,271
4.40385226687575,0,7,19,32,273
4.519061689364962,0,5,19,33,274
4.620295756215021,0,5,17,30,279
4.720699270305806,0,4,18,25,284
4.823833822680513,0,3,16,24,288
4.9414083890999585,0,2,17,20,292
5.156281873792896,0,2,16,19,294
5.275885442701237,0,0,16,19,296
5.4407729109880885,0,0,14,17,300
5.561225535854682,0,0,13,15,303
5.7092418917009,0,0,13,12,306
5.946049370574075,0,0,12,12,307
6.0954855195679905,0,0,11,12,308
6.222072539633381,0,0,7,15,309
6.324332169656751,0,0,6,14,311
6.427386522385667,0,0,5,13,313
6.529744344893879,0,0,5,12,314
6.75003645471565,0,0,5,11,315
7.156898894193313,0,0,3,12,316
7.295435505827283,0,0,2,13,316
7.472862404793855,0,0,2,9,320
7.90251804523032,0,0,2,7,322
8.1103615733541,0,0,2,6,323
8.315625172855311,0,0,2,5,324
8.766339380530678,0,0,2,2,327
8.919291409794914,0,0,1,2,328
9.11381418406243,0,0,1,1,329
9.232201851439324,0,0,0,2,329
9.444621540351724,0,0,0,1,330
10.979365330426473,0,0,0,0,331
100,0,0,0,0,331
