#Time,A,B,C,D,E
0,215,104,105,18,106
0.10027988102374377,188,120,107,25,108
0.20272111861803344,179,116,108,33,112
0.30445173515384366,161,115,115,43,114
0.41714061261768687,145,118,114,53,118
0.5255690690715329,134,113,120,58,123
0.6268102299497548,119,114,123,63,129
0.7276401618068907,106,122,116,70,134
0.8305933605955841,94,123,113,79,139
0.9321570011258763,85,123,114,80,146
1.0324555405982458,76,123,117,78,154
1.1325279766357563,69,115,121,77,166
1.2327489062908425,65,109,116,84,174
1.3371260779316656,60,97,119,95,177
1.4391538001319746,55,91,115,102,185
1.5407181374799221,46,94,110,96,202
1.641550407632829,41,89,107,104,207
1.7474283510415274,32,84,113,101,218
1.8481928586840695,30,77,111,103,227
1.9535735043405713,30,71,99,106,242
2.059674155495462,29,63,99,102,255
2.161156959990293,28,55,102,98,265
2.273725628593955,25,52,95,100,276
2.3739717671803153,23,50,93,98,284
2.48995510688848,19,49,89,98,293
2.591290825215588,18,45,84,99,302
2.692106107999177,15,44,79,99,311
2.796256772983704,14,42,74,92,326
2.9006064364647637,12,41,70,92,333
3.0028107824294072,12,40,67,90,339
3.120998937856024,11,40,61,91,345
3.2257717930914325,8,41,55,88,356
3.3264489138150193,7,40,51,82,368
3.4266102960360096,7,37,50,77,377
3.531043268374099,7,32,52,70,387
3.639518819500603,6,32,46,71,393
3.7409385639601775,6,30,45,66,401
3.8454283240843243,6,26,47,64,405
3.9464430757867546,5,25,44,61,413
4.047387949275557,4,23,40,65,416
4.1558839664543745,4,22,33,67,422
4.264041796296406,4,20,33,58,433
4.3817630001544625,4,19,28,56,441
4.501480596315779,4,15,29,52,448
4.611420621880201,3,15,27,48,455
4.720275285605714,2,13,28,48,457
4.825505016382439,1,12,25,46,464
4.943087896047796,1,12,23,43,469
5.049733410500419,1,11,20,44,472
5.160383911110955,1,10,19,41,477
5.271356486737149,1,9,18,40,480
5.391274412264822,1,9,16,38,484
5.500961227627678,1,9,15,35,488
5.659901562474638,1,8,12,37,490
5.778971880700136,1,4,15,32,496
5.881007475153131,1,3,14,33,497
5.992624727170582,1,2,13,29,503
6.116738779929841,1,2,11,28,506
6.222159420923692,1,2,10,27,508
6.3278739359784115,1,1,9,24,513
6.44739674094017,1,1,7,24,515
6.7006430091268925,1,1,6,19,521
6.8116467439683905,1,1,6,16,524
6.9356446138384245,1,1,4,15,527
7.180025077474951,1,1,4,13,529
7.373162515115537,1,1,3,12,531
7.480115577066527,1,1,2,13,531
7.907385457986468,1,1,2,10,534
8.04119066507177,1,1,1,11,534
8.20173424745533,1,1,1,9,536
8.460105963775542,1,1,1,7,538
8.59404623301482,0,2,1,5,540
8.895242879335783,0,1,2,2,543
9.418539863333786,0,0,3,2,543
9.817844549888207,0,0,2,3,543
10.066380632442199,0,0,2,2,544
10.376665879468518,0,0,2,1,545
10.901974886700442,0,0,1,2,545
11.103218826181651,0,0,0,3,545
11.972524947598215,0,0,0,2,546
12.456154641481051,0,0,0,1,547
12.781785498271695,0,0,0,0,548
100,0,0,0,0,548
