#Time,A,B,C,D,E
0,0,0,0,124,0
0.10135497209009268,0,0,0,112,12
0.20498769118925314,0,0,0,98,26
0.3556826247337405,0,0,0,90,34
0.4569914837619397,0,0,0,86,38
0.563230019238143,0,0,0,78,46
0.6842545724813267,0,0,0,69,55
0.8008586586776042,0,0,0,61,63
0.9158948792202213,0,0,0,53,71
1.0167854286839642,0,0,0,49,75
1.1345785461711912,0,0,0,41,83
1.2417455915852726,0,0,0,38,86
1.3696111045379822,0,0,0,32,92
1.4837948447831768,0,0,0,31,93
1.5996232139003301,0,0,0,29,95
1.7837480250904292,0,0,0,25,99
1.9268082270942428,0,0,0,21,103
2.164881134756029,0,0,0,20,104
2.2700600127739823,0,0,0,19,105
2.451417283226503,0,0,0,16,108
2.5695367992202045,0,0,0,15,109
2.672025571405464,0,0,0,13,111
2.8517995375458014,0,0,0,12,112
3.034054749129834,0,0,0,11,113
3.163087949948917,0,0,0,9,115
3.465714243572609,0,0,0,7,117
3.921671844042393,0,0,0,3,121
4.1028878262080735,0,0,0,2,122
4.35158738020923,0,0,0,1,123
100,0,0,0,0,124
