#Time,A,B,C,D,E
0,181,0,96,0,23
0.1024068723656244,163,18,83,13,23
0.2044363583126117,150,29,83,13,25
0.30462229255309664,137,38,82,16,27
0.4051361285083345,127,46,75,24,28
0.5083808930044185,115,55,71,28,31
0.6108040168515014,104,63,69,32,32
0.7115367698745886,92,68,66,40,34
0.8115653415201642,79,75,64,45,37
0.9153430929893792,73,68,67,51,41
1.01651566684939,67,67,68,52,46
1.1213058226811705,58,64,73,56,49
1.2239093204854987,53,62,74,60,51
1.3270147666792327,48,62,71,66,53
1.4274382294547152,43,62,70,62,63
1.5310980036036725,40,59,70,61,70
1.6511315745828374,35,56,72,60,77
1.7604139352952066,34,53,69,63,81
1.861883461451653,31,47,71,68,83
1.968024904351643,26,47,67,68,92
2.068915754333902,24,43,64,74,95
2.169603967800752,20,46,58,76,100
2.2747087940403614,18,41,56,83,102
2.3752408801862206,17,35,56,81,111
2.476191200484215,16,35,49,78,122
2.579077616057166,12,35,47,75,131
2.6792771331928775,12,30,47,75,136
2.789048760558964,12,28,43,75,142
2.89983921681012,12,26,43,69,150
3.0077177553112038,10,27,43,63,157
3.108176280609126,8,25,46,56,165
3.209886577463313,8,21,43,54,174
3.31105300652101,7,22,41,49,181
3.4137152316997623,5,20,41,48,186
3.523669283432746,5,18,35,51,191
3.6412655225545123,3,19,31,51,196
3.746799516732149,3,17,31,51,198
3.863225437765891,3,17,26,51,203
3.992435522843973,2,18,22,48,210
4.106892188626778,2,15,20,48,215
4.206943972278825,2,15,18,44,221
4.310372519208687,1,15,18,40,226
4.425557864456902,1,14,17,39,229
4.548794802546206,1,13,16,38,232
4.6537095094475855,1,12,15,36,236
4.7650077230572565,1,11,12,33,243
4.868906822497461,1,10,13,31,245
5.015939578098354,1,8,13,29,249
5.137030098626962,1,7,12,29,251
5.2521654267458935,1,7,11,25,256
5.373608780248202,0,6,12,24,258
5.481394962196354,0,6,11,22,261
5.593880193181323,0,6,10,17,267
5.732029017366139,0,6,7,18,269
5.87042231772949,0,5,7,15,273
6.12104395093858,0,3,8,14,275
6.2489400246057825,0,1,8,16,275
6.379397143228021,0,1,7,15,277
6.513568898544818,0,1,7,13,279
6.624741196957112,0,1,7,10,282
6.792380198381545,0,0,6,10,284
6.903223749685622,0,0,6,7,287
7.056274380779994,0,0,3,9,288
7.243387926579952,0,0,1,10,289
7.440309089030771,0,0,1,6,293
8.113824588776042,0,0,1,5,294
8.238670537103712,0,0,1,4,295
8.533961898614368,0,0,1,2,297
9.028075075474622,0,0,1,1,298
9.706048604200728,0,0,0,2,298
10.435497198944756,0,0,0,1,299
10.72088353828719,0,0,0,0,300
100,0,0,0,0,300
