#Time,A,B,C,D,E
0,260,76,55,73,103
0.10066154383809299,229,102,53,72,111
0.2025311675502163,211,107,60,71,118
0.30382115079269284,188,113,74,66,126
0.4045566792400541,170,120,79,63,135
0.5050633160640177,151,127,84,64,141
0.6104733795642255,136,128,90,66,147
0.7106012188404089,116,137,94,68,152
0.8126711033564196,111,124,99,77,156
0.9142601487741374,103,119,101,82,162
1.0165200853187986,95,113,105,84,170
1.1180454624040153,90,111,107,83,176
1.218226967620632,86,101,110,85,185
1.3207218569297348,81,95,107,90,194
1.4209137354045658,71,97,102,93,204
1.5231787617789718,67,91,99,97,213
1.6242263623164963,62,86,97,103,219
1.7275838682678102,58,77,93,108,231
1.8290247700786533,53,73,93,109,239
1.9306234731183318,49,71,92,104,251
2.038292893230032,41,68,94,104,260
2.139415697304568,38,65,88,108,268
2.24331247660667,34,65,86,103,279
2.343907494447871,30,69,81,99,288
2.447472432771445,28,65,82,95,297
2.5479078748038715,25,62,77,99,304
2.650295980540283,23,59,77,94,314
2.750454321331433,19,56,79,85,328
2.854582176108801,16,51,79,87,334
2.960225578458258,15,51,72,83,346
3.06749569625707,15,43,78,77,354
3.177231465692368,13,38,75,78,363
3.2775505386602553,13,33,74,78,369
3.3823581986007345,12,30,69,74,382
3.500539773541677,9,27,73,66,392
3.605656922464474,9,21,75,65,397
3.7097151578588687,8,18,71,66,404
3.8139897171513857,8,16,64,68,411
3.915624485314192,8,15,60,65,419
4.0190056994115455,6,14,58,58,431
4.1429916550394905,6,13,52,59,437
4.243175516379195,6,12,48,53,448
4.3449498967285365,5,12,43,57,450
4.451912665459923,4,11,40,58,454
4.5536976479607265,3,11,32,62,459
4.659047966689604,2,10,33,57,465
4.763172417561577,2,10,32,53,470
4.867461404786618,2,9,25,54,477
5.014227018809069,2,7,27,52,479
5.1219016035557825,1,8,24,49,485
5.269365782623685,1,7,22,41,496
5.3712666384337995,1,7,21,39,499
5.485783962606927,0,8,19,40,500
5.600009637952007,0,7,18,39,503
5.757119496334479,0,6,19,35,507
5.8642716453701365,0,4,20,32,511
5.976335903726536,0,4,16,30,517
6.203641178251049,0,3,17,27,520
6.331197980961918,0,3,15,28,521
6.468787537021093,0,3,14,27,523
6.5771778137293015,0,3,10,29,525
6.687160524635175,0,3,9,27,528
6.799296516957714,0,2,8,24,533
6.942864331081275,0,2,7,21,537
7.05508455209339,0,2,5,20,540
7.222334475415107,0,1,6,19,541
7.347366743147396,0,0,7,17,543
7.4606963543677844,0,0,6,17,544
7.609687416962824,0,0,6,14,547
7.754589218492082,0,0,4,16,547
7.920341057725524,0,0,4,14,549
8.113845528837594,0,0,3,13,551
8.272444288630135,0,0,1,12,554
8.57266066314684,0,0,1,10,556
8.698246383183168,0,0,0,8,559
8.870223449025493,0,0,0,6,561
8.987581548261398,0,0,0,5,562
9.950164568688715,0,0,0,2,565
10.09500644132878,0,0,0,1,566
10.949286087221473,0,0,0,0,567
100,0,0,0,0,567
