#Time,A,B,C,D,E
0,196,263,124,0,139
0.1023779888702933,176,247,145,15,139
0.20258408895644053,165,234,149,34,140
0.3028397047835363,152,219,162,45,144
0.4050763356342025,139,215,162,60,146
0.5083280537977934,119,214,160,77,152
0.6100450924734594,111,210,152,88,161
0.7103392538838338,99,205,152,90,176
0.8130844508603519,92,196,154,99,181
0.9131599406961877,85,185,149,112,191
1.0150943884993766,78,168,151,117,208
1.1163541230640484,73,155,155,113,226
1.2176884713654301,67,144,155,120,236
1.317836976734022,60,140,149,125,248
1.4193742616190752,54,126,154,126,262
1.5221686456238206,50,113,149,129,281
1.6273395298015247,46,104,144,126,302
1.7327305116480145,41,102,138,123,318
1.8329493977011704,35,97,130,130,330
1.934835530491092,35,85,133,122,347
2.0348888661550824,31,82,129,124,356
2.137645301853805,25,75,127,131,364
2.241274730599967,23,69,122,128,380
2.3438465748212938,21,65,114,133,389
2.4455869275660103,17,60,114,127,404
2.5467362135704485,13,48,121,118,422
2.6480970461142426,13,42,123,116,428
2.748212209423165,12,40,116,109,445
2.8519818525700935,12,32,110,116,452
2.952383486034944,10,33,99,116,464
3.0558835489419653,8,33,88,113,480
3.158185381205248,7,29,83,111,492
3.263151283349359,7,26,79,107,503
3.3650980379559425,7,24,73,104,514
3.466589227926497,7,19,73,98,525
3.570712008574643,6,16,66,103,531
3.6734600642997544,5,14,65,96,542
3.77416316805376,5,14,57,90,556
3.8770074671474655,4,14,56,78,570
3.986154068680398,4,10,49,84,575
4.097359124774173,3,11,42,83,583
4.200897799264141,3,9,36,84,590
4.304399540909753,3,9,35,79,596
4.406978679465647,3,9,33,71,606
4.556559685861238,2,10,31,66,613
4.667558283872106,2,9,28,62,621
4.781616078078792,2,9,20,64,627
4.903132005641467,2,8,18,57,637
5.009309230162789,2,8,16,54,642
5.111061237744268,2,8,14,49,649
5.271972157066027,2,6,15,46,653
5.3825198018561,2,5,16,42,657
5.496529782242312,2,4,15,36,665
5.611194673690111,2,4,14,33,669
5.712456901280486,2,4,10,35,671
5.813543859847065,1,4,9,34,674
5.9424043959952195,0,4,8,30,680
6.073282476754023,0,3,9,23,687
6.211059575664729,0,3,8,19,692
6.360345828479816,0,3,5,21,693
6.476491725265416,0,2,6,18,696
6.6439296083223915,0,2,6,15,699
6.745555715449494,0,1,4,16,701
6.868487567893672,0,1,2,14,705
6.976775234319523,0,1,1,12,708
7.095150457778599,0,1,1,9,711
7.3990717904743155,0,1,1,8,712
7.523230999523489,0,1,1,7,713
7.741516383998023,0,1,1,5,715
7.916761318991349,0,1,1,4,716
8.038502260824544,0,1,1,3,717
8.252855943972067,0,1,0,3,718
8.398420476969076,0,1,0,2,719
9.511325106224126,0,1,0,1,720
9.857317501285506,0,0,1,0,721
9.986958457205336,0,0,0,1,721
11.280695940331686,0,0,0,0,722
100,0,0,0,0,722
