#Time,A,B,C,D,E
0,7,5,46,0,1
0.1627986130898329,7,5,39,7,1
0.3295055929258194,5,5,37,9,3
0.44981530526008906,3,6,31,15,4
0.5538644420583878,2,6,27,17,7
0.6568668379886826,2,5,23,19,10
0.7824860000022026,2,3,23,19,12
0.8926309454971232,1,3,21,21,13
0.9961809466313903,0,2,19,22,16
1.1014795510542494,0,2,16,20,21
1.2204460843531917,0,2,13,21,23
1.3276883405348312,0,1,12,21,25
1.507071460397556,0,1,12,19,27
1.671155752233049,0,1,11,14,33
1.7801315026920395,0,0,10,16,33
1.904025249931877,0,0,9,15,35
2.0222714501892494,0,0,9,14,36
2.175835789021813,0,0,8,12,39
2.308200598090314,0,0,8,10,41
2.468900941382748,0,0,5,13,41
2.5801675595201714,0,0,4,10,45
2.6883091223705833,0,0,4,8,47
2.8504224578686777,0,0,3,6,50
2.9635480117971795,0,0,2,6,51
3.094876724736215,0,0,2,3,54
3.931606363689215,0,0,2,0,57
4.058905889096274,0,0,1,1,57
4.4672695276295835,0,0,1,0,58
4.940985230515099,0,0,0,1,58
5.091652408677327,0,0,0,0,59
100,0,0,0,0,59
