#Time,A,B,C,D,E
0,84,0,135,0,4
0.10134089043309655,76,7,122,12,6
0.20662340154683206,68,13,114,20,8
0.3082646828145804,59,21,106,28,9
0.4218416591366955,49,29,93,36,16
0.5265737829698145,41,35,84,41,22
0.6276027403111815,35,33,85,44,26
0.729781049432047,33,33,79,45,33
0.8334894353872175,32,26,81,49,35
0.9353296557247048,30,23,78,54,38
1.0661919193444864,27,20,75,50,51
1.166273608544465,22,22,67,53,59
1.2690842666625926,17,22,64,59,61
1.375756617562177,14,22,58,62,67
1.4807412401552356,9,24,56,60,74
1.5950567226546002,8,20,56,58,81
1.6981733019732403,7,19,54,55,88
1.8093957120183788,6,19,51,55,92
1.9102206194117364,6,18,43,55,101
2.012539513004312,6,17,39,53,108
2.1128017709812887,5,15,33,54,116
2.21454240266952,4,14,34,45,126
2.3149948070477557,4,13,31,45,130
2.418672797944299,4,13,27,44,135
2.531176985283989,4,13,27,39,140
2.63467506212395,4,12,27,36,144
2.7352976941995326,4,12,20,37,150
2.842892741982923,3,11,21,36,152
2.949259279088269,3,8,22,32,158
3.0495909559881564,3,7,20,34,159
3.1512209383473224,3,5,21,31,163
3.2663295029408657,3,5,18,31,166
3.3757127072819775,3,5,16,29,170
3.524552064903573,3,4,16,27,173
3.6279110153118843,2,5,15,26,175
3.761694187725272,1,5,13,25,179
3.8833269396087826,1,4,12,24,182
3.9912852651205797,1,4,10,23,185
4.13859773862219,1,4,9,20,189
4.260500517945724,0,4,7,22,190
4.36053863102592,0,4,7,17,195
4.468017928658343,0,3,8,15,197
4.631963362229827,0,2,7,17,197
4.734764422254528,0,2,5,17,199
4.865028570575074,0,2,5,12,204
4.991683822030728,0,2,2,12,207
5.127988796157619,0,1,3,11,208
5.282593567245401,0,1,3,8,211
5.531353827875398,0,0,3,7,213
5.6433779226436345,0,0,3,6,214
6.313762223591445,0,0,2,6,215
7.151640524669742,0,0,2,3,218
7.332774520583035,0,0,1,3,219
7.6618820511112755,0,0,0,2,221
8.975626776571264,0,0,0,1,222
9.415185299240534,0,0,0,0,223
100,0,0,0,0,223
