#Time,A,B,C,D,E
0,209,48,66,6,118
0.10629251572144052,187,66,63,12,119
0.20942426003211012,164,83,61,19,120
0.31267339964927954,149,88,68,21,121
0.4139034009937554,131,96,75,24,121
0.5223700813110431,123,95,77,27,125
0.6270705185910173,111,94,78,34,130
0.7306916267820577,100,97,81,36,133
0.8326891649558321,89,100,83,40,135
0.936362335020738,76,98,91,43,139
1.0421264741432177,67,97,95,46,142
1.1499732266658274,61,94,94,50,148
1.2502211451065843,54,95,92,54,152
1.3517872090534153,51,92,89,60,155
1.4529418642819671,47,88,88,61,163
1.5548645713480997,44,87,85,60,171
1.6549944831310177,42,78,90,61,176
1.759684402499054,38,75,87,67,180
1.8600272680786218,34,70,91,63,189
1.961077577463315,30,67,90,62,198
2.0635633214839455,20,68,92,63,204
2.1729376423351354,20,57,98,64,208
2.2736836349942453,16,55,94,66,216
2.3870612944095564,14,54,86,69,224
2.4895275356911566,12,54,78,72,231
2.589791863619505,11,49,75,77,235
2.690288394029825,11,47,73,69,247
2.7913667957118244,11,44,66,73,253
2.892213872778389,11,37,68,72,259
3.0006209361379557,11,34,64,72,266
3.112830348341693,9,32,63,73,270
3.2239095483146243,9,27,62,73,276
3.3298502039089386,8,21,62,74,282
3.4323197606400444,7,20,58,68,294
3.541272656749228,7,20,50,65,305
3.6441288736972335,7,19,48,62,311
3.744419093170948,5,20,40,64,318
3.8446954047040123,5,17,40,61,324
3.951448710902192,5,14,38,57,333
4.055927489582191,5,14,35,55,338
4.1629059729780185,5,11,35,52,344
4.269869194712264,4,11,33,51,348
4.37875129473419,3,11,30,49,354
4.490698438150106,3,9,31,42,362
4.591730668682502,2,9,29,42,365
4.695386225747273,1,10,28,43,365
4.815599883003778,1,10,25,41,370
4.924675266546406,1,8,23,41,374
5.073905553450939,1,6,20,40,380
5.177367509024173,1,6,17,36,387
5.327115641874912,0,6,15,30,396
5.500883882542618,0,4,17,28,398
5.604844027580529,0,4,17,26,400
5.723158532979316,0,3,15,26,403
5.830008341988224,0,3,12,26,406
5.944659686501344,0,2,8,27,410
6.101777895984823,0,2,8,25,412
6.242072048241185,0,2,7,23,415
6.34982460371979,0,1,7,22,417
6.555156590592343,0,1,7,19,420
6.6727338992526875,0,1,7,18,421
6.795217594656005,0,1,7,16,423
6.937328271983378,0,1,7,14,425
7.082722368121873,0,1,6,14,426
7.202662748750685,0,1,4,13,429
7.367765872812457,0,1,4,9,433
7.537906219201306,0,1,2,9,435
7.685471852090893,0,1,2,7,437
7.974707951060495,0,1,1,6,439
8.093595860868334,0,1,0,4,442
8.249018104572592,0,1,0,2,444
8.6694113527686,0,1,0,1,445
9.161255903777379,0,0,1,0,446
10.484937641881741,0,0,0,0,447
100,0,0,0,0,447
