#Time,A,B,C,D,E
0,164,198,0,244,174
0.10276869986967627,149,195,15,221,200
0.20395556126707293,124,199,33,199,225
0.30460456577226147,116,191,45,186,242
0.4057731238784123,108,176,61,173,262
0.5106523216054188,101,169,69,158,283
0.611330782169127,97,151,85,153,294
0.7121829749145433,87,146,90,150,307
0.8125874710449507,82,136,96,145,321
0.9142002059979423,73,132,103,133,339
1.0150675632955173,68,127,99,133,353
1.1157498145855111,61,115,105,129,370
1.2159804647652261,54,108,110,123,385
1.3180337555153965,50,101,106,122,401
1.4255208412918798,46,95,102,123,414
1.527986476948884,38,94,100,121,427
1.6285734038835955,36,80,106,121,437
1.7296532863802876,32,76,106,111,455
1.8310476234818838,25,77,102,106,470
1.9343159142606214,24,62,104,111,479
2.0447212167477393,19,60,102,105,494
2.1469469490382864,15,57,100,103,505
2.2518188831179615,13,56,87,106,518
2.3532850677206003,12,54,80,108,526
2.4533345177646786,11,48,80,105,536
2.561917704835908,11,42,80,101,546
2.666517099424057,9,43,73,102,553
2.776418611321084,8,41,71,92,568
2.885310465415374,6,34,66,98,576
2.9881536572219556,6,32,58,100,584
3.0886628906347915,6,31,53,95,595
3.1940010008532616,6,27,50,92,605
3.294530961118319,4,29,45,88,614
3.4016118102080193,4,28,41,83,624
3.5120267173077533,4,26,37,74,639
3.61509394034669,2,24,40,69,645
3.7504663144702994,2,22,38,69,649
3.850645979702866,1,22,33,70,654
3.953374768661693,1,19,34,64,662
4.065262117190344,1,16,30,66,667
4.177884686735269,1,13,31,63,672
4.278694099165811,0,13,28,60,679
4.383023684203674,0,9,28,61,682
4.486611841443381,0,9,25,57,689
4.588066622472761,0,7,24,54,695
4.6956469799352805,0,6,22,55,697
4.8077219393918975,0,6,18,51,705
4.914582971188966,0,6,17,46,711
5.017792267375042,0,5,16,42,717
5.122210510351955,0,5,16,37,722
5.224618503627653,0,5,13,37,725
5.343905080601902,0,5,12,34,729
5.469424473111737,0,5,11,34,730
5.58332714700705,0,5,9,29,737
5.73262441283474,0,5,9,25,741
5.85659567916181,0,5,7,21,747
5.976548498203664,0,5,5,19,751
6.159806896123117,0,5,4,18,753
6.270271256326182,0,4,5,15,756
6.399870386408516,0,3,5,16,756
6.53351889613123,0,3,4,14,759
6.777070557875066,0,3,3,14,760
6.916733394245484,0,3,2,13,762
7.111595158415222,0,2,3,11,764
7.358643111414731,0,2,2,9,767
7.520009940688737,0,1,3,8,768
7.657403288491902,0,0,2,8,770
7.838620360285408,0,0,2,7,771
8.058102032292904,0,0,2,6,772
8.304919664521941,0,0,2,5,773
8.436916122117664,0,0,2,4,774
8.581940174880245,0,0,2,3,775
8.908279273861075,0,0,2,2,776
9.175133464218172,0,0,1,2,777
9.498811953768659,0,0,0,3,777
9.793737305830033,0,0,0,2,778
10.50915106891147,0,0,0,0,780
100,0,0,0,0,780
