#Time,A,B,C,D,E
0,110,0,49,83,39
0.10364817179759915,101,8,48,75,49
0.20485130760046621,92,17,44,73,55
0.32349089250454843,83,23,44,71,60
0.42741066692528784,75,30,38,71,67
0.5278968066680676,68,37,33,70,73
0.6281551102141564,63,34,37,65,82
0.7353013838442236,56,38,38,58,91
0.8358125446789405,52,40,36,54,99
0.9423940641182501,47,41,36,54,103
1.0437187543382234,47,38,37,51,108
1.1574404953589152,46,36,36,48,115
1.2609203872984536,42,36,32,52,119
1.3629163084970628,40,31,39,49,122
1.4633969818657133,38,31,38,49,125
1.5665839489628357,35,30,38,49,129
1.6814528987412862,31,27,42,47,134
1.795368525305585,28,30,38,46,139
1.8955546336397378,24,30,37,45,145
2.002104269118693,22,31,34,41,153
2.110665393715936,20,32,31,40,158
2.2146598727721813,20,25,34,38,164
2.315704775034387,19,25,31,39,167
2.4192369264393454,17,23,33,38,170
2.5196463839846586,14,22,33,32,180
2.6516080576107397,14,20,31,33,183
2.7695280104083904,14,17,31,33,186
2.884288811248868,14,16,30,32,189
2.9859796221045567,14,16,25,36,190
3.0912765505411604,13,15,26,32,195
3.242294830372183,13,12,25,35,196
3.3960016148514125,12,11,25,34,199
3.510252218963404,12,10,23,33,203
3.6143532570208134,12,9,22,26,212
3.736341274888106,11,7,23,28,212
3.842325230916317,10,8,21,26,216
3.961317785132094,9,7,21,26,218
4.079533090441198,9,7,19,23,223
4.188566872296127,8,8,16,24,225
4.34668251112808,5,10,16,22,228
4.45789134116709,3,12,14,22,230
4.585916228911991,2,11,14,20,234
4.703581552826332,0,12,8,25,236
4.83431151505137,0,11,8,24,238
4.971873905698933,0,11,7,23,240
5.115521947702206,0,10,7,20,244
5.229949527712897,0,8,9,16,248
5.3368231027710555,0,8,7,16,250
5.439456628412841,0,7,8,14,252
5.547939775551257,0,7,8,12,254
5.653625997958566,0,7,5,13,256
5.78518467386193,0,6,5,11,259
5.93477349612469,0,3,8,8,262
6.221902126974332,0,2,8,8,263
6.328692402989404,0,2,6,9,264
6.51473830769945,0,2,5,7,267
6.752888177800316,0,2,4,7,268
7.012067187630377,0,2,3,6,270
7.181091798777961,0,2,1,6,272
7.315284437650966,0,2,1,5,273
7.491543852762574,0,1,2,5,273
7.777141103362466,0,1,2,2,276
8.074443812795625,0,1,2,1,277
8.259082425662214,0,1,1,2,277
8.781225750945048,0,1,1,0,279
8.882347245113685,0,0,2,0,279
9.37573923095676,0,0,0,2,279
9.64944239821114,0,0,0,1,280
100,0,0,0,0,281
