#Time,A,B,C,D,E
0,9,0,104,27,135
0.10238256570182418,8,1,95,32,139
0.21217886749550807,6,2,84,42,141
0.3277358415611468,5,3,75,47,145
0.43399782201680626,3,5,69,47,151
0.544497877186176,2,5,65,48,155
0.661530952778895,2,4,59,48,162
0.7938923611359461,2,4,52,52,165
0.8964343132171256,2,4,49,49,171
1.0221996076177808,2,4,41,50,178
1.1524945075789028,1,5,37,50,182
1.2721383375110948,0,6,33,50,186
1.3825023877768094,0,5,28,54,188
1.483670755803307,0,5,22,55,193
1.5953225662385448,0,5,17,56,197
1.7025067680068002,0,5,15,52,203
1.808126097364478,0,4,13,51,207
1.913924706692443,0,4,12,46,213
2.014687756010505,0,4,9,44,218
2.116869001050167,0,4,8,42,221
2.258671428612643,0,2,10,37,226
2.3979658632452696,0,2,9,34,230
2.5202367675276087,0,2,6,31,236
2.623075814076019,0,2,5,30,238
2.788830368945814,0,1,6,26,242
2.895403354909538,0,1,5,25,244
3.08993163497704,0,1,5,20,249
3.1903495717666788,0,1,5,17,252
3.299871717289944,0,0,5,16,254
3.4096945063045587,0,0,4,13,258
3.653018498494777,0,0,4,9,262
3.793113388190736,0,0,4,7,264
4.137590602336948,0,0,3,7,265
4.355653785493998,0,0,2,7,266
4.4558234962292165,0,0,2,5,268
4.668451000840137,0,0,1,5,269
4.890379925285435,0,0,1,3,271
5.231470856921714,0,0,1,2,272
6.05814053344716,0,0,1,1,273
6.442682156727653,0,0,1,0,274
6.707853746017966,0,0,0,1,274
6.846267338909591,0,0,0,0,275
100,0,0,0,0,275
