#Time,A,B,C,D,E
0,14,53,0,300,0
0.10128699439988252,14,45,8,275,25
0.20845340547527852,11,43,13,249,51
0.31343669390519735,8,41,18,225,75
0.4136298068566438,6,40,19,209,93
0.5150839298342891,6,39,17,193,112
0.6155431787476097,6,35,18,184,124
0.721852245789714,5,35,18,169,140
0.8240292722192258,5,31,20,149,162
0.9252647812333412,5,28,23,136,175
1.0384721766364047,4,24,25,126,188
1.1512342025800684,4,22,23,113,205
1.2638239131012101,4,18,24,102,219
1.3665385893077702,3,16,26,94,228
1.4685423950663918,3,14,24,91,235
1.5728041088552012,2,12,26,84,243
1.6921377706372505,1,11,27,82,246
1.79633096978127,1,10,26,75,255
1.9111989396328997,1,10,25,68,263
2.0220233512116232,1,7,28,58,273
2.1308136573098215,1,6,28,53,279
2.251664923298467,1,5,26,51,284
2.3536020608004207,1,4,25,50,287
2.461305294145834,0,4,20,52,291
2.5754537642599775,0,3,19,46,299
2.710753841478902,0,2,18,42,305
2.820515517759122,0,2,13,41,311
2.923816492771214,0,2,9,43,313
3.029462975179304,0,2,5,45,315
3.1948196443925805,0,2,5,41,319
3.304209526894118,0,1,4,41,321
3.4166125078499414,0,1,3,34,329
3.5304749309500205,0,1,3,26,337
3.6424476316233516,0,1,3,23,340
3.7714545870100253,0,1,3,19,344
3.9080949331689645,0,1,3,17,346
4.094737351396434,0,1,2,11,353
4.267556017495176,0,1,2,9,355
4.39725125788915,0,0,2,8,357
4.842673310089422,0,0,1,9,357
5.008721606923491,0,0,1,7,359
5.289156436029359,0,0,1,4,362
5.439893802224588,0,0,0,4,363
5.726953358190048,0,0,0,3,364
6.689104420132853,0,0,0,2,365
7.05660314021101,0,0,0,1,366
7.929385123012927,0,0,0,0,367
100,0,0,0,0,367
