#Time,A,B,C,D,E
0,260,76,55,73,103
0.10031681325186488,232,94,58,70,113
0.20817465363523013,212,103,63,67,122
0.30819776462975407,190,114,64,63,136
0.40925585859021724,174,120,65,64,144
0.5094810712604743,161,119,70,68,149
0.6184151190794481,145,127,72,71,152
0.7256754624128637,120,132,86,70,159
0.8305606492204515,111,133,84,76,163
0.9314227993039852,102,132,84,79,170
1.0317212727274745,92,126,92,83,174
1.1451618379925816,84,122,92,90,179
1.2463347051725235,77,114,98,87,191
1.350263642857553,66,112,98,92,199
1.4504680450634595,55,113,97,95,207
1.5510568018884727,52,108,92,102,213
1.6524300700862893,48,104,92,96,227
1.7558630758517015,46,96,91,97,237
1.8599696755193302,43,90,91,90,253
1.9658129361587886,39,86,88,91,263
2.068396337897438,36,82,84,92,273
2.1686222704233913,30,84,76,94,283
2.271742437019903,28,77,72,100,290
2.3743695952307355,27,69,72,105,294
2.4780128998565143,25,66,68,103,305
2.5803703990301705,25,56,66,106,314
2.6823828462606616,20,55,70,95,327
2.7861298003966164,18,53,71,88,337
2.891038254596997,17,49,69,86,346
2.9953003905517948,16,48,64,87,352
3.102143572088894,11,52,58,79,367
3.2140306935239344,11,44,62,74,376
3.329612513337108,10,41,61,69,386
3.441089643805081,10,36,62,64,395
3.546531472203646,10,35,59,59,404
3.6489757363970177,9,30,62,57,409
3.750493544890018,7,28,60,55,417
3.8508235581469874,7,23,57,60,420
3.9566883660958867,7,21,53,57,429
4.07176733265561,7,17,53,56,434
4.179696479748107,4,19,46,58,440
4.292085540996648,2,18,41,60,446
4.397635204398855,2,15,39,60,451
4.50807624163943,2,15,33,61,456
4.608736627264127,2,12,32,59,462
4.714010198967009,2,11,30,55,469
4.8144423921850406,1,11,27,51,477
4.921922680002612,1,9,28,47,482
5.039718041216615,1,7,22,47,490
5.148177653505083,0,8,19,43,497
5.300273422063699,0,8,16,38,505
5.420061053751753,0,7,17,32,511
5.5234931906412505,0,7,15,30,515
5.628182461513637,0,6,14,28,519
5.735704879974147,0,6,12,23,526
5.8452038029994045,0,5,10,23,529
5.985995383586434,0,5,7,22,533
6.091161442852478,0,5,6,18,538
6.231752167054346,0,5,5,15,542
6.344392018724059,0,3,6,14,544
6.453584955986081,0,3,6,12,546
6.583705360837722,0,3,5,12,547
6.689913661878611,0,1,5,10,551
6.827505525933891,0,0,5,11,551
7.054013424887589,0,0,4,12,551
7.247677439466491,0,0,3,11,553
7.434254539265693,0,0,2,10,555
7.547328683459775,0,0,1,11,555
7.666674040689807,0,0,1,9,557
7.807835704378482,0,0,1,6,560
7.924509245698917,0,0,1,5,561
8.313666682163454,0,0,0,5,562
8.650383054912773,0,0,0,4,563
9.592572987527372,0,0,0,3,564
9.84471989683532,0,0,0,2,565
11.146387498003422,0,0,0,0,567
100,0,0,0,0,567
