#Time,A,B,C,D,E
0,62,7,0,304,58
0.10403697491458218,56,13,0,278,84
0.20533204583184456,54,13,2,264,98
0.30635442418536746,50,16,2,233,130
0.4083542479482009,43,22,3,212,151
0.5107965819820088,36,27,5,186,177
0.6161103398004031,30,30,8,169,194
0.7169058344894463,27,30,8,156,210
0.8296104265592006,24,28,11,142,226
0.9392309107295943,21,26,16,130,238
1.0746341855790187,18,25,19,117,252
1.1882661980227271,15,26,17,110,263
1.2903036447679253,13,27,17,105,269
1.4009959793371245,12,26,17,99,277
1.507150753836976,11,26,15,94,285
1.6115130913400997,11,25,14,83,298
1.7258298232596747,7,28,14,75,307
1.8317970574220672,5,27,14,71,314
1.951573960213581,5,25,15,63,323
2.053130775645784,4,21,20,55,331
2.154787632891643,3,21,18,52,337
2.2666423284770465,3,20,18,43,347
2.3701884375518234,3,17,18,41,352
2.478939020994269,1,16,20,40,354
2.589669472024918,1,16,18,38,358
2.695945343312093,1,15,18,37,360
2.799822694272287,1,14,16,37,363
2.917813933720105,1,11,15,39,365
3.028107679076961,0,12,14,38,367
3.1388101803611077,0,10,15,34,372
3.2389251004061927,0,10,14,33,374
3.409079711026072,0,9,14,31,377
3.5497728763879848,0,8,14,31,378
3.668917564909612,0,7,12,30,382
3.780901328047629,0,7,12,25,387
3.9104564069469774,0,6,13,23,389
4.066319265778852,0,6,11,25,389
4.179725154567134,0,5,8,25,393
4.300965915602802,0,5,8,23,395
4.403476475598896,0,4,8,23,396
4.512346582822776,0,4,6,23,398
4.627038257153825,0,3,7,20,401
4.75006767422759,0,2,7,17,405
4.852143814637961,0,2,5,17,407
5.069640483286839,0,1,6,15,409
5.20854134334753,0,1,4,16,410
5.397098852637928,0,1,3,16,411
5.517040123201057,0,1,1,18,411
5.671576493317385,0,1,0,15,415
5.858892294834236,0,1,0,14,416
6.007068278183816,0,1,0,12,418
6.3893538590558085,0,1,0,11,419
6.491689562386634,0,1,0,10,420
6.613343699833764,0,1,0,9,421
6.736887779416148,0,0,1,6,424
6.955039698733602,0,0,1,5,425
7.271946859875016,0,0,1,3,427
7.647453442127186,0,0,1,2,428
9.503575674130136,0,0,0,3,428
9.768546562111979,0,0,0,2,429
10.487534638450061,0,0,0,1,430
12.356276549262423,0,0,0,0,431
100,0,0,0,0,431
