#Time,A,B,C,D,E
0,133,119,0,132,153
0.10421141061115136,121,121,10,122,163
0.20533707352916392,105,122,23,110,177
0.306773705747563,98,119,30,101,189
0.4072589252126881,87,116,36,100,198
0.5095449114950269,73,122,41,91,210
0.610925924099129,67,107,60,88,215
0.7140876142043663,57,104,69,82,225
0.8156772524226209,52,100,69,85,231
0.9294389991917663,48,92,73,83,241
1.0344419600162997,43,91,71,85,247
1.1356807839032106,38,85,77,82,255
1.2371099900689262,32,80,80,83,262
1.3375644265052398,29,74,79,86,269
1.4390271958055878,26,68,79,84,280
1.545326466650529,23,60,82,81,291
1.646920206399352,21,54,84,78,300
1.747720802826096,19,51,79,79,309
1.8621395967592753,17,49,75,80,316
1.9794476067221964,15,49,72,74,327
2.087436983094207,12,48,67,76,334
2.211300443655197,12,41,69,73,342
2.319874792715448,10,40,66,73,348
2.447897690416104,9,35,66,75,352
2.5495316417536786,8,35,61,77,356
2.6675503914046486,8,35,51,78,365
2.7825450868001558,8,33,50,73,373
2.8860810736008338,6,31,50,70,380
2.993305919318844,6,28,49,66,388
3.095449760637255,4,30,44,63,396
3.195827128238378,3,28,45,59,402
3.3050502995104947,3,25,46,56,407
3.4157995774579475,3,24,40,53,417
3.52268571033201,3,23,34,53,424
3.629295031315081,3,21,33,49,431
3.748440009460017,2,18,36,45,436
3.851092905468944,1,18,31,46,441
3.9606607435274164,1,16,29,44,447
4.064538002432182,1,15,26,39,456
4.207755343929392,1,14,21,38,463
4.308691149130889,1,10,23,35,468
4.414300834503528,1,8,22,33,473
4.528984577707956,1,8,19,34,475
4.632457683070853,1,8,16,34,478
4.751497778765358,1,8,16,32,480
4.883643362545063,0,6,15,33,483
5.010039640061553,0,6,13,31,487
5.128783631442517,0,4,14,31,488
5.318369976600592,0,4,12,29,492
5.439652946333233,0,3,12,26,496
5.57020504045164,0,3,11,23,500
5.689294917419647,0,3,9,21,504
5.834309248495472,0,2,9,21,505
5.942532767620949,0,2,8,19,508
6.101910733286721,0,2,7,17,511
6.217186911287002,0,2,6,16,513
6.3528301989735905,0,2,5,16,514
6.503851091862243,0,2,4,15,516
6.624143705741605,0,2,3,15,517
6.759243812191521,0,2,3,13,519
6.92971921558696,0,2,3,12,520
7.121962749885787,0,2,2,8,525
7.2511539827736495,0,2,2,6,527
7.3700535727755865,0,2,1,6,528
7.533084649604462,0,1,2,5,529
7.730097725155611,0,0,2,6,529
7.847659139183412,0,0,2,5,530
8.142032262320642,0,0,2,4,531
8.396254939947465,0,0,2,3,532
8.729623149210008,0,0,2,1,534
9.688353721251382,0,0,1,1,535
10.02134077456635,0,0,0,2,535
10.760371568554925,0,0,0,1,536
12.290327746808702,0,0,0,0,537
100,0,0,0,0,537
