#Time,A,B,C,D,E
0,68,105,9,82,0
0.10493530642454184,60,105,17,73,9
0.2049498057907453,57,97,24,71,15
0.31182645506085527,53,95,27,66,23
0.4122553089013102,48,95,28,64,29
0.5132944176443491,44,91,35,59,35
0.6145199601752908,40,87,39,58,40
0.7289077360564551,37,79,46,55,47
0.8290904955764381,35,74,49,56,50
0.9354698236768735,33,72,51,51,57
1.0371152221129298,30,70,52,46,66
1.139287914345256,26,71,45,53,69
1.2608467256386136,23,65,48,55,73
1.3650326361152998,21,61,51,51,80
1.468416307802506,19,54,56,49,86
1.5687952251071715,16,55,51,49,93
1.675093698551564,14,48,54,49,99
1.7872365500332354,13,42,57,48,104
1.8903581959521665,10,39,61,47,107
1.9947216117684092,10,36,60,47,111
2.0965077566750123,10,28,65,44,117
2.1993647343762244,9,23,64,49,119
2.3025531374609223,8,19,66,49,122
2.418977484925155,6,19,60,49,130
2.5209253766653825,6,17,56,49,136
2.6223405077877837,5,15,53,52,139
2.7238206939623386,3,16,47,53,145
2.825033957292023,3,16,36,60,149
2.9270074393235905,3,12,39,52,158
3.02924989071024,3,10,32,57,162
3.1308903383805147,1,8,31,59,165
3.239669320215111,1,3,34,55,171
3.3560620492364737,1,2,33,53,175
3.4796214716085454,1,2,32,43,186
3.5982322761351404,1,2,30,40,191
3.708288731105072,0,3,24,40,197
3.822287441271805,0,2,23,40,199
3.9228889947130736,0,2,21,35,206
4.045470118455761,0,2,18,31,213
4.165880254827751,0,2,17,30,215
4.285471863847025,0,2,15,28,219
4.426699962115182,0,2,13,24,225
4.586312666275834,0,2,12,23,227
4.708984559076037,0,2,8,25,229
4.836021460963788,0,2,6,25,231
4.9666129621987265,0,2,5,23,234
5.080957534320496,0,2,5,21,236
5.18103634066756,0,2,5,19,238
5.298658226924667,0,2,5,14,243
5.402152066407598,0,2,4,13,245
5.511485858992065,0,2,3,13,246
5.641176167013951,0,2,2,12,248
5.79542175318027,0,2,2,9,251
5.9666136669182395,0,2,1,9,252
6.0762055023049975,0,2,1,8,253
6.234681260646726,0,1,2,7,254
6.50248891193223,0,1,1,6,256
6.66966691995946,0,1,1,5,257
6.861099278193752,0,0,2,3,259
7.154859810666969,0,0,2,2,260
7.317651316263689,0,0,1,3,260
7.556674567215872,0,0,0,4,260
7.925497708397194,0,0,0,2,262
8.032509519585137,0,0,0,1,263
8.508322920846453,0,0,0,0,264
100,0,0,0,0,264
