#Time,A,B,C,D,E
0,151,69,0,173,0
0.1074820821569555,137,77,6,156,17
0.21267348478467613,125,82,13,137,36
0.3170561212355533,116,85,17,123,52
0.41751371976511886,106,87,22,111,67
0.5225404322953286,94,86,35,101,77
0.6260968964395354,86,88,37,92,90
0.7261066003443071,75,93,41,86,98
0.8281452621313709,63,90,53,81,106
0.9320636310610768,57,87,60,75,114
1.0324842722600436,51,85,62,75,120
1.1337770418717548,48,81,64,74,126
1.236816015242567,44,79,62,78,130
1.3420417340753603,37,80,65,75,136
1.4449436788864645,29,84,64,73,143
1.5460018461496345,26,75,73,72,147
1.6468645665921062,26,63,76,72,156
1.7479237221387556,25,58,75,71,164
1.8537857758431562,20,61,73,66,173
1.95439010888424,20,54,75,68,176
2.061635859551928,17,55,68,73,180
2.1626946645514593,15,51,71,70,186
2.268562105602725,14,49,68,69,193
2.37054963784199,14,49,59,74,197
2.4706730026878643,14,43,62,69,205
2.5805481964045796,13,39,58,73,210
2.6818051771175258,11,34,63,69,216
2.7841147214141673,11,33,58,70,221
2.8888976597940403,10,32,48,74,229
3.00134994314498,9,30,47,65,242
3.1104272523379577,7,28,49,59,250
3.2208644851708725,7,25,47,55,259
3.3301828362784973,7,19,48,53,266
3.441543789791626,7,17,43,57,269
3.5781975575633798,7,13,41,58,274
3.683512517834557,3,12,43,53,282
3.7899923143046985,2,13,42,46,290
3.9019082355538415,2,11,40,45,295
4.0071209769648055,2,11,38,43,299
4.11997420538367,1,11,35,45,301
4.229572680791342,1,9,30,48,305
4.33939239044715,1,9,28,44,311
4.445140503078824,1,5,30,42,315
4.551308373881449,1,4,25,44,319
4.672126671010024,0,5,24,41,323
4.772756871822706,0,5,21,36,331
4.898200848287406,0,4,21,31,337
5.032634243192407,0,4,17,32,340
5.156925714257873,0,4,15,32,342
5.296095020683585,0,4,14,31,344
5.403434473914083,0,3,13,31,346
5.524329997672737,0,3,13,28,349
5.649043094558425,0,3,11,29,350
5.754415271157367,0,3,9,25,356
5.863724055089257,0,3,8,23,359
6.0056464916639944,0,2,8,20,363
6.118506819737487,0,2,8,17,366
6.254670356548799,0,2,8,15,368
6.360823502401283,0,2,7,16,368
6.4736342123621196,0,2,7,12,372
6.632442811088533,0,1,7,13,372
6.781163705771317,0,0,7,12,374
6.902643361021705,0,0,5,13,375
7.009870503513668,0,0,4,11,378
7.116507074063447,0,0,4,9,380
7.234676855089015,0,0,2,10,381
7.4224353941630845,0,0,2,8,383
7.712933654161031,0,0,1,9,383
7.82420844970468,0,0,0,9,384
8.2656864861408,0,0,0,7,386
8.422919683821736,0,0,0,5,388
9.042138924026407,0,0,0,3,390
9.301959424273985,0,0,0,2,391
9.428744880279773,0,0,0,1,392
12.261611499730936,0,0,0,0,393
100,0,0,0,0,393
