#Time,A,B,C,D,E
0,130,244,142,24,272
0.10482187445511343,120,232,149,38,273
0.2055065539884635,115,206,166,50,275
0.3120714098117127,100,200,174,59,279
0.4141890646293166,90,189,182,68,283
0.5151709389534931,79,180,184,77,292
0.6162663480128924,75,172,179,87,299
0.7199776132308476,65,164,178,92,313
0.8238135620215477,58,156,170,106,322
0.926830446128461,52,148,169,111,332
1.0269544390489829,49,136,173,106,348
1.1270862126524053,46,121,170,112,363
1.2309994584058055,40,112,166,119,375
1.3319150294955577,36,107,155,120,394
1.4334154499834382,34,98,143,128,409
1.5373038056127817,33,91,138,131,419
1.6380338267187469,27,85,135,139,426
1.7389208256732938,24,76,133,138,441
1.8434776830560728,20,76,129,133,454
1.9491297950166466,18,71,122,132,469
2.049932451692754,16,62,123,133,478
2.1585097466335266,15,60,111,136,490
2.2681369228567902,13,56,105,137,501
2.3810155725064814,12,54,99,138,509
2.483348749321659,11,52,89,139,521
2.5928207866135935,10,47,91,127,537
2.7007374505683557,10,40,90,121,551
2.8055743126803763,10,36,87,116,563
2.908172733063802,8,36,80,114,574
3.008209938508538,6,36,76,105,589
3.1083466886841635,6,33,72,101,600
3.210363532519788,6,28,70,97,611
3.323698006573264,6,24,66,98,618
3.4279163579796292,6,20,64,97,625
3.529401916046682,5,20,63,86,638
3.6318685483566373,5,19,58,81,649
3.7320667218874988,5,18,58,74,657
3.854529580239183,4,14,53,78,663
3.963286241447656,4,11,55,72,670
4.076721593289715,3,11,53,65,680
4.184524147829325,3,11,49,60,689
4.302452656761015,2,11,45,62,692
4.4519702963278345,2,11,43,59,697
4.552165393053417,2,11,36,57,706
4.665349918609139,2,10,35,55,710
4.768111337028259,1,11,32,53,715
4.875438417766789,1,9,29,52,721
4.977205121147787,0,9,26,51,726
5.0837682059915,0,8,26,46,732
5.195842686812405,0,8,25,39,740
5.327690952807352,0,7,25,38,742
5.42828149818923,0,7,21,39,745
5.532791802390896,0,5,22,38,747
5.635799303717555,0,4,19,36,753
5.737342420658696,0,4,18,35,755
5.849592119963549,0,4,14,38,756
5.954814775259152,0,3,11,36,762
6.056825642863921,0,2,10,37,763
6.157310972956348,0,2,8,31,771
6.275273197156267,0,2,7,28,775
6.3784674559643015,0,2,6,25,779
6.506170444015658,0,2,5,23,782
6.785506040844556,0,1,6,21,784
6.886260993212161,0,1,6,17,788
7.015503902339519,0,0,4,18,790
7.179097597443562,0,0,4,13,795
7.380344694395212,0,0,4,9,799
7.617693002759084,0,0,2,8,802
8.09152693163327,0,0,2,6,804
8.245016961073942,0,0,2,5,805
8.447819142501444,0,0,2,4,806
8.71726594505517,0,0,1,3,808
8.88275012217639,0,0,0,3,809
9.207065422075054,0,0,0,2,810
9.854560775806881,0,0,0,1,811
11.884818028679186,0,0,0,0,812
100,0,0,0,0,812
