#Time,A,B,C,D,E
0,0,35,36,44,0
0.10268484307196826,0,27,40,42,6
0.20383205619574313,0,23,37,46,9
0.3070730285293991,0,21,37,44,13
0.40940521483308867,0,17,35,43,20
0.5227727666500671,0,16,33,41,25
0.6235014205611833,0,13,33,34,35
0.7380555513827419,0,11,30,36,38
0.8434558672714648,0,9,31,33,42
0.9522697429369634,0,9,30,31,45
1.0577485480605897,0,8,27,31,49
1.1582081731446674,0,7,26,29,53
1.2810290176664345,0,6,25,26,58
1.446086054855897,0,6,22,23,64
1.563402677434307,0,6,20,24,65
1.7194477596735869,0,6,20,21,68
1.8313685342930506,0,6,17,22,70
1.9506114513244606,0,4,15,23,73
2.06140458238503,0,3,14,22,76
2.2164817701342345,0,2,15,18,80
2.3338758850544123,0,2,13,20,80
2.4505795499739285,0,2,12,14,87
2.626602427261026,0,1,13,14,87
2.748787254170259,0,1,13,10,91
2.8490758150750475,0,1,11,11,92
2.9547832660405104,0,1,7,14,93
3.163488278396295,0,1,7,12,95
3.31891848317491,0,1,7,9,98
3.5330211353689065,0,1,7,7,100
3.6910435888573914,0,1,5,6,103
3.8598331006308326,0,1,4,7,103
4.063593332822006,0,0,5,5,105
4.249603457023509,0,0,4,6,105
4.421875059286552,0,0,4,5,106
4.613036161949989,0,0,3,5,107
4.862820617490399,0,0,2,5,108
5.007773325894188,0,0,2,4,109
5.131161791471377,0,0,2,2,111
5.3545641998942335,0,0,1,3,111
5.53548867732967,0,0,1,2,112
5.656720195913534,0,0,1,1,113
5.769650070559367,0,0,1,0,114
9.270986033360977,0,0,0,1,114
100,0,0,0,0,115
