#Time,A,B,C,D,E
0,0,198,0,0,0
0.10068860505938361,0,172,24,2,0
0.20453664073452368,0,155,38,4,1
0.3066762320138403,0,143,47,6,2
0.41035407468525764,0,134,53,7,4
0.5120310489374585,0,123,58,12,5
0.6203149431523625,0,114,56,20,8
0.7307982404589154,0,103,65,20,10
0.83298490843137,0,95,66,20,17
0.9414335971102373,0,87,65,28,18
1.0536023109196624,0,79,68,27,24
1.1536825808523807,0,76,64,32,26
1.2543999033118909,0,71,56,40,31
1.3582127871596197,0,69,53,43,33
1.4647362202870666,0,64,51,49,34
1.5812353947819318,0,60,48,50,40
1.6853187956011266,0,54,49,50,45
1.788592558953222,0,47,51,48,52
1.9005279775022053,0,44,50,48,56
2.006861694150668,0,41,43,50,64
2.1090639940259224,0,36,40,54,68
2.209240409731194,0,33,37,55,73
2.314072271555104,0,31,34,53,80
2.4198186227308622,0,27,34,54,83
2.521581601439788,0,23,32,53,90
2.6219207775381816,0,17,36,46,99
2.721958584381353,0,16,31,49,102
2.8248766859849943,0,15,30,46,107
2.973133685038391,0,12,31,40,115
3.0822301132371046,0,9,29,39,121
3.1827695215200262,0,9,26,38,125
3.285850754076161,0,9,25,32,132
3.402219060535473,0,9,24,30,135
3.528718979126497,0,9,19,32,138
3.64591225576023,0,8,18,27,145
3.7592365059328197,0,6,18,24,150
3.8970363754416204,0,6,14,24,154
4.028811048972164,0,5,15,24,154
4.1595661542357005,0,5,13,22,158
4.2948124947677195,0,5,12,20,161
4.397189800814378,0,5,9,19,165
4.561088388799992,0,5,8,20,165
4.672732686037819,0,5,7,18,168
4.8004531269120045,0,4,6,20,168
4.90535019642824,0,4,6,17,171
5.011782139364039,0,4,5,14,175
5.1438283145350026,0,2,7,11,178
5.266802322928088,0,2,6,10,180
5.396744369141152,0,2,4,11,181
5.546410557497541,0,2,3,11,182
5.672204566999431,0,2,2,11,183
5.8367698999283615,0,2,0,10,186
5.99640257842774,0,2,0,9,187
6.330932631453286,0,1,1,8,188
6.481327830589687,0,1,0,6,191
6.63122741949365,0,0,1,4,193
7.20811591523833,0,0,1,2,195
7.376701258491196,0,0,0,2,196
7.59735227756077,0,0,0,1,197
8.081607188847133,0,0,0,0,198
100,0,0,0,0,198
