#Time,A,B,C,D,E
0,0,317,46,0,46
0.1000808243271624,0,286,73,4,46
0.20294767831606705,0,269,84,10,46
0.3131084851349974,0,240,107,16,46
0.4151416730567737,0,217,117,28,47
0.5159652352145143,0,198,126,37,48
0.6239231981066667,0,175,142,42,50
0.7325439356077376,0,163,140,53,53
0.8445291014946731,0,142,138,68,61
0.9451463653132871,0,124,140,77,68
1.0458158566193811,0,116,138,80,75
1.151661701666633,0,103,141,79,86
1.2561364647652293,0,96,139,76,98
1.3608259909744813,0,88,135,83,103
1.4627195855470891,0,78,131,86,114
1.5655747574589367,0,72,125,93,119
1.6657930307120603,0,62,119,98,130
1.7702696196897691,0,57,111,94,147
1.8847339810084778,0,53,98,97,161
1.9891361036682593,0,48,90,97,174
2.0980384129101566,0,44,87,88,190
2.1994919493541962,0,38,86,90,195
2.3089579900380874,0,38,76,89,206
2.4214432942121222,0,35,70,91,213
2.5244450270761907,0,29,71,90,219
2.637339326047297,0,25,69,86,229
2.7401294526573303,0,24,67,77,241
2.8521754359235145,0,22,63,73,251
2.959885456041411,0,22,49,79,259
3.0607229918591696,0,21,45,72,271
3.1651380086446665,0,20,43,67,279
3.271109612554663,0,18,39,64,288
3.3950130831033327,0,15,38,65,291
3.4985420441035515,0,13,37,65,294
3.614453762392761,0,12,34,65,298
3.718800112754704,0,11,35,59,304
3.842089311485999,0,9,31,60,309
3.953004799077031,0,8,30,55,316
4.055749657584692,0,8,27,49,325
4.156204393551343,0,8,25,47,329
4.257233553427412,0,7,22,45,335
4.36892183391841,0,7,21,40,341
4.471032364745288,0,7,19,38,345
4.580743532835793,0,7,16,40,346
4.704980903566187,0,7,15,38,349
4.830808546929705,0,5,17,35,352
4.957208811542033,0,4,17,32,356
5.090221586277708,0,3,14,33,359
5.234710284668724,0,3,12,30,364
5.359260991343777,0,3,10,30,366
5.483746935688664,0,3,9,28,369
5.586492787627598,0,3,7,28,371
5.698664852389483,0,3,5,27,374
5.873162562996278,0,3,4,23,379
6.10120073651268,0,3,3,19,384
6.241110592116095,0,1,5,15,388
6.348986236748896,0,1,5,12,391
6.487952058218426,0,1,4,12,392
6.8658644420815405,0,1,4,11,393
6.975355032288523,0,1,3,9,396
7.081490456757186,0,1,3,7,398
7.323400817749129,0,1,3,5,400
7.463683042572711,0,1,2,6,400
7.571423243658515,0,1,2,5,401
7.928128041256397,0,0,2,5,402
8.309273538093171,0,0,1,5,403
8.589085461291692,0,0,1,4,404
9.180356784359482,0,0,0,5,404
9.417469379037314,0,0,0,3,406
10.00095377116888,0,0,0,2,407
11.05738113572507,0,0,0,1,408
100,0,0,0,0,409
