#Time,A,B,C,D,E
0,172,0,156,133,0
0.1005067718499849,160,11,142,133,15
0.20083943434080204,143,27,122,143,26
0.306283297059086,131,39,107,143,41
0.40697650634968713,122,42,102,130,65
0.5074064480567843,112,50,90,126,83
0.6080814613197582,100,57,90,121,93
0.7085476081210528,86,68,83,123,101
0.8092941407799554,83,65,82,117,114
0.9094317330942792,70,73,77,111,130
1.0181350984645257,63,72,81,105,140
1.1222313873933605,54,73,79,108,147
1.2230542893818221,51,69,71,113,157
1.331238793080393,46,64,74,110,167
1.4321727581780683,42,65,70,106,178
1.538378092455035,37,63,67,104,190
1.646665001832144,33,60,64,108,196
1.7472175745474667,32,52,68,97,212
1.8476795944977977,27,50,65,89,230
1.954706105981666,26,44,66,91,234
2.0658944227939937,24,44,58,94,241
2.16918844203546,21,46,53,89,252
2.272980779700153,17,48,48,88,260
2.374123071387666,15,43,49,90,264
2.48460105351701,13,38,50,88,272
2.592789362294781,12,36,48,83,282
2.704825696093057,10,37,48,78,288
2.808310912011195,10,35,44,77,295
2.910565143477587,9,32,41,80,299
3.0112602573536584,9,31,39,73,309
3.112313691527504,8,30,36,72,315
3.217349526622976,7,27,37,68,322
3.321994240149895,7,24,39,65,326
3.4310004881555267,7,22,38,59,335
3.5411272373279625,6,22,34,60,339
3.647831531896485,6,22,29,58,346
3.7506356375301753,6,20,27,60,348
3.865410745643385,5,16,30,59,351
3.971525231756236,5,12,30,54,360
4.085035847068973,4,12,28,49,368
4.1880618729183166,4,9,27,48,373
4.32102925946603,4,8,25,44,380
4.440782469195498,4,7,25,38,387
4.546439557445759,3,8,23,35,392
4.64884759060034,2,9,18,36,396
4.7783601724743905,2,9,17,31,402
4.88906164598982,2,7,18,31,403
4.997948049805858,1,6,18,29,407
5.121493520637615,1,6,17,27,410
5.241481633605875,1,6,17,23,414
5.347768699263794,1,6,16,23,415
5.478284100468311,1,4,16,21,419
5.605539973097647,1,4,16,19,421
5.7068136484553165,1,3,16,20,421
5.821729259895096,0,4,14,20,423
5.954921821478392,0,3,15,16,427
6.079424931866914,0,3,13,16,429
6.212699674905933,0,3,12,15,431
6.344360310241876,0,3,9,16,433
6.447104079911237,0,3,8,14,436
6.573637774703845,0,3,7,13,438
6.700913744740066,0,3,5,12,441
6.805672502657274,0,2,6,11,442
6.958607860211164,0,2,6,10,443
7.175292514016349,0,2,5,10,444
7.353128141322307,0,2,3,12,444
7.51722389997495,0,1,4,12,444
7.618805074119732,0,1,3,12,445
7.72669649498065,0,0,4,11,446
7.876766314320909,0,0,4,9,448
8.089098944748624,0,0,3,8,450
8.31993219264157,0,0,3,7,451
8.442637828669238,0,0,2,7,452
8.64362374844252,0,0,2,6,453
8.846277489686862,0,0,1,6,454
9.07479692711097,0,0,1,5,455
9.308816666050133,0,0,1,2,458
9.518467551305923,0,0,0,3,458
9.933946842490572,0,0,0,2,459
10.235263476479886,0,0,0,1,460
100,0,0,0,0,461
