#Time,A,B,C,D,E
0,0,0,46,120,0
0.10267739569095734,0,0,41,115,10
0.20426933355943203,0,0,36,106,24
0.3080005582679591,0,0,32,96,38
0.4130866983898871,0,0,31,87,48
0.5274500877440701,0,0,30,84,52
0.6461617814949118,0,0,29,78,59
0.7519195251326606,0,0,29,71,66
0.854154735446837,0,0,27,62,77
0.9824744016456093,0,0,23,58,85
1.1068568657315216,0,0,19,59,88
1.208997818918049,0,0,19,53,94
1.3117983358106806,0,0,17,49,100
1.4285381878594634,0,0,14,44,108
1.6152205329459128,0,0,13,42,111
1.7444257141613313,0,0,11,43,112
1.8663001557172143,0,0,9,40,117
2.0300331056686503,0,0,9,36,121
2.1461543881765066,0,0,7,36,123
2.2829921584749426,0,0,6,35,125
2.3909407316906544,0,0,5,34,127
2.5044698392732334,0,0,5,30,131
2.649057900553064,0,0,3,26,137
2.7599597844028634,0,0,3,24,139
2.92530374510925,0,0,2,20,144
3.136404350364868,0,0,1,20,145
3.315256428101958,0,0,1,18,147
3.535729569462804,0,0,1,15,150
3.6394675312612765,0,0,1,12,153
3.7477275022720073,0,0,0,11,155
3.870916636407799,0,0,0,10,156
3.9788051049207978,0,0,0,8,158
4.164521225888295,0,0,0,7,159
4.544048799542085,0,0,0,6,160
4.66818664565221,0,0,0,5,161
4.83059978647037,0,0,0,4,162
5.016836311471225,0,0,0,3,163
5.138030744664078,0,0,0,2,164
7.503415822227642,0,0,0,0,166
100,0,0,0,0,166
