#Time,A,B,C,D,E
0,0,0,13,31,11
0.11278273227702512,0,0,11,29,15
0.2156947291032533,0,0,11,24,20
0.3170307935695292,0,0,8,26,21
0.4188092937318927,0,0,6,25,24
0.6132352453656741,0,0,4,25,26
0.7378328992304265,0,0,3,24,28
0.8565370699586337,0,0,1,22,32
0.9736103758512277,0,0,1,20,34
1.1743991284468454,0,0,1,18,36
1.3360057243258252,0,0,1,17,37
1.4729468821166236,0,0,0,14,41
1.604660907277447,0,0,0,12,43
1.7705673159535742,0,0,0,8,47
1.8975957496567357,0,0,0,6,49
1.9982688624359812,0,0,0,5,50
2.374998473723226,0,0,0,4,51
3.9505156068896445,0,0,0,2,53
4.308231056910456,0,0,0,1,54
5.907136067569365,0,0,0,0,55
100,0,0,0,0,55
