#Time,A,B,C,D,E
0,63,0,31,0,8
0.11500822578772602,58,5,27,4,8
0.2211163645067309,53,9,23,8,9
0.3674213241442239,51,9,19,13,10
0.4887490162596769,45,12,21,14,10
0.589963130481684,41,15,18,16,12
0.6924710452235568,36,19,17,16,14
0.7988865546371361,34,20,17,16,15
0.912887248010007,32,19,19,13,19
1.032861517338539,30,20,15,17,20
1.1339107163989648,26,22,16,16,22
1.23779712010128,24,20,18,15,25
1.3410701736322397,20,23,18,15,26
1.4699764823990742,19,23,18,14,28
1.596985019763748,16,24,15,15,32
1.7276091680770613,13,25,13,16,35
1.8284358425954554,13,22,15,13,39
1.9515310966670347,11,20,18,12,41
2.051592975866296,10,19,20,11,42
2.162797739980206,10,17,22,11,42
2.299785973260741,9,15,22,13,43
2.405058428004426,8,15,21,14,44
2.522063188807782,7,13,18,15,49
2.6232920675432965,6,12,18,16,50
2.7306500702660648,4,12,20,14,52
2.8979966184747106,4,10,19,14,55
3.0174549700375626,4,10,18,11,59
3.121182076240235,3,10,17,11,61
3.2385625935802995,3,9,16,11,63
3.349683544124578,3,9,16,8,66
3.4890949492769012,3,9,14,10,66
3.5899976487911642,3,8,12,13,66
3.788628647726447,3,8,11,10,70
3.897665402041556,3,8,10,9,72
4.011827671765198,3,8,7,11,73
4.1436637557888485,3,8,7,8,76
4.280384816848952,2,9,6,7,78
4.387256800745522,0,11,6,7,78
4.569801833069277,0,9,8,6,79
4.67655802562204,0,7,9,5,81
4.831856844879596,0,5,10,5,82
5.110984131157372,0,4,10,5,83
5.234255437001881,0,3,10,6,83
5.347483424866271,0,2,8,6,86
5.450060457591851,0,2,6,6,88
5.652418958810586,0,2,6,5,89
5.961960224554576,0,2,5,6,89
6.126044038947408,0,2,4,7,89
6.278233339833491,0,2,4,6,90
6.459566659037654,0,1,5,6,90
6.571174708987686,0,1,4,6,91
6.716774134175181,0,1,4,4,93
6.8666445762137105,0,1,4,3,94
7.010606692981992,0,0,5,3,94
7.535913547788956,0,0,3,3,96
7.691842543592759,0,0,2,4,96
7.891514060259039,0,0,2,3,97
7.996254927327965,0,0,2,2,98
8.891758299990101,0,0,1,3,98
9.596513664804299,0,0,1,2,99
10.297575488685254,0,0,0,3,99
10.649012962379913,0,0,0,2,100
11.054816404588578,0,0,0,1,101
12.408134698877415,0,0,0,0,102
100,0,0,0,0,102
