#Time,A,B,C,D,E
0,0,45,10,34,5
0.11928008880777818,0,39,15,32,8
0.22156020012545588,0,31,22,30,11
0.328672310877045,0,27,24,26,17
0.4393267941231858,0,26,22,28,18
0.5397057136444561,0,23,23,27,21
0.6509502905243721,0,22,23,26,23
0.7875946765062848,0,20,21,28,25
0.8940271274488066,0,19,20,27,28
1.0070656481807554,0,16,20,26,32
1.1136032832935738,0,14,21,25,34
1.2456747220751292,0,11,22,25,36
1.351396981095092,0,8,24,23,39
1.4630742815497058,0,5,27,19,43
1.5954423193470406,0,5,27,17,45
1.7077609462247885,0,4,26,18,46
1.8213082755892531,0,4,23,16,51
1.9698282517058643,0,3,19,19,53
2.073860604176187,0,3,18,17,56
2.1739618406957417,0,2,17,16,59
2.321326135455251,0,2,14,16,62
2.482040432769824,0,2,13,14,65
2.6253450768453455,0,2,12,14,66
2.809337910191479,0,2,9,16,67
2.9306464291972647,0,2,7,15,70
3.077633913087783,0,2,6,15,71
3.2165287950450745,0,2,6,11,75
3.3229635723939412,0,2,6,10,76
3.429779657341198,0,2,6,6,80
3.6783051090681567,0,1,7,5,81
3.8346828286379635,0,1,6,4,83
4.2593102452425695,0,0,7,4,83
4.408847664753114,0,0,6,4,84
4.52101551949607,0,0,4,5,85
4.622300918743318,0,0,2,6,86
4.875573092549941,0,0,1,6,87
5.200745237141374,0,0,1,4,89
6.573121671703425,0,0,1,3,90
7.108957990302374,0,0,1,2,91
7.41476766244954,0,0,0,2,92
7.608409552087471,0,0,0,1,93
8.788932768060995,0,0,0,0,94
100,0,0,0,0,94
