#Time,A,B,C,D,E
0,126,27,0,17,36
0.10170627062067873,111,40,2,13,40
0.20573468371131634,99,47,7,12,41
0.3100769400302237,93,47,12,12,42
0.4135116649649263,86,51,14,13,42
0.5164847396152997,74,56,20,12,44
0.6339768315919898,63,60,25,13,45
0.7344773599021398,55,60,29,16,46
0.8369734830865598,46,65,31,17,47
0.9464681570646841,42,61,34,19,50
1.0507491328672625,35,60,37,24,50
1.151929784132581,32,59,35,28,52
1.2520222391654865,30,57,34,31,54
1.357903541992674,30,47,40,32,57
1.4617835492312716,27,45,41,35,58
1.5643887420531637,23,44,42,32,65
1.672719603952047,23,42,40,30,71
1.7760033412321297,20,37,47,26,76
1.8764728157311394,18,34,49,27,78
1.979867434759993,17,33,48,26,82
2.115379083347842,15,29,51,22,89
2.2173847355325447,13,29,49,25,90
2.324727016054843,10,30,46,26,94
2.457867433765436,9,27,44,28,98
2.5634333767761235,9,22,46,27,102
2.670790211505104,7,22,42,26,109
2.7760508109422877,7,20,39,28,112
2.8817974281334306,6,16,39,30,115
2.9850149702521267,5,17,35,30,119
3.0867801538204707,5,15,33,30,123
3.2011702373163615,5,12,31,30,128
3.3236164125370307,5,10,30,29,132
3.4246276595756147,5,9,25,33,134
3.532357787063597,5,8,21,36,136
3.670517971115367,4,9,19,35,139
3.794969265946813,4,9,17,35,141
3.9821317486115726,4,9,16,30,147
4.125726911038083,3,9,16,28,150
4.244497177792007,2,10,14,26,154
4.355498816942322,2,9,13,25,157
4.4654003246262794,2,9,12,24,159
4.59266375403989,1,10,10,21,164
4.702258572413729,1,9,9,21,166
4.810672452416419,1,8,9,21,167
4.930156292445207,1,6,11,20,168
5.079734666745753,1,6,10,19,170
5.190008307455376,0,7,10,15,174
5.340331507698056,0,7,8,16,175
5.462641108331415,0,6,9,12,179
5.568362491758004,0,5,8,11,182
5.691903949507068,0,4,7,11,184
5.821095106719834,0,3,6,13,184
5.975919502751345,0,3,5,13,185
6.109158143886954,0,3,4,14,185
6.209248663153823,0,2,5,13,186
6.320219174190474,0,2,5,9,190
6.467617711104657,0,2,3,10,191
6.578472002383721,0,0,5,6,195
6.689711545923203,0,0,5,4,197
6.953846046891507,0,0,4,5,197
7.061127250762957,0,0,3,6,197
7.230419929232781,0,0,2,4,200
8.131847138611699,0,0,2,2,202
8.53375506890784,0,0,1,3,202
8.73643934301229,0,0,0,2,204
10.17765439193484,0,0,0,0,206
100,0,0,0,0,206
