#Time,A,B,C,D,E
0,148,164,0,105,404
0.10497463054316103,132,165,15,94,415
0.20634581188630072,122,157,30,87,425
0.3085684950002283,110,148,46,84,433
0.411116475393699,104,140,54,84,439
0.5134315650469539,95,131,68,78,449
0.6216505681598837,83,130,76,75,457
0.7260944430628338,73,128,76,80,464
0.8357189430293192,66,125,77,76,477
0.93993731045669,58,118,78,80,487
1.0402029167851947,53,116,80,81,491
1.1445013266963737,52,104,89,76,500
1.2458842365431537,46,102,89,72,512
1.3477259587118282,41,97,91,76,516
1.4503791519802047,38,93,86,77,527
1.5510210704987455,38,82,82,82,537
1.6519908468873772,35,76,81,85,544
1.7620848236711442,33,69,86,81,552
1.8637767957707136,29,63,88,81,560
1.9709433242624508,26,61,84,82,568
2.076385618517507,23,55,82,81,580
2.1822209862463393,20,53,75,87,586
2.2867349703904036,19,44,74,84,600
2.387191276390469,16,42,72,81,610
2.487537223370854,14,36,74,82,615
2.589591691569883,12,36,68,85,620
2.69206454384885,10,34,67,79,631
2.7945466199338247,10,32,61,75,643
2.8955397021888225,10,28,57,77,649
3.0059344790742317,8,30,50,76,657
3.107078674650787,8,28,47,76,662
3.2078690620708437,7,27,45,68,674
3.311427763973451,6,25,41,73,676
3.412638722939628,6,22,43,69,681
3.5235850378216687,5,20,41,65,690
3.632627648307519,4,18,43,59,697
3.7407045227980924,4,18,39,53,707
3.842590256161975,3,14,41,51,712
3.9444421653237995,2,15,38,50,716
4.045048094553382,2,14,36,50,719
4.162937498188363,2,14,31,50,724
4.265286975317526,2,13,27,51,728
4.372584448613304,2,9,27,51,732
4.482039169524789,2,7,27,45,740
4.590418369540324,1,6,24,42,748
4.693909267394306,1,6,21,39,754
4.795900133295612,0,7,17,40,757
4.914238581778293,0,7,15,34,765
5.016402358610026,0,7,12,34,768
5.144866923546927,0,7,11,30,773
5.2477124989352175,0,7,10,27,777
5.366827318918357,0,7,8,24,782
5.494875088070517,0,5,9,22,785
5.59562814854998,0,5,7,24,785
5.6990984608080515,0,3,8,23,787
5.80632365744508,0,3,8,21,789
5.949786924648105,0,3,8,19,791
6.055653971301709,0,2,8,17,794
6.245515523142972,0,2,6,18,795
6.372031390951108,0,2,6,14,799
6.486873369062296,0,2,6,13,800
6.610384700452834,0,1,6,12,802
6.945264107677734,0,0,6,11,804
7.149655261231743,0,0,4,12,805
7.258714297687978,0,0,4,11,806
7.404226916425883,0,0,3,10,808
7.527986356885846,0,0,3,8,810
7.770537546180405,0,0,2,7,812
7.882451978507543,0,0,2,6,813
8.101064543473203,0,0,2,3,816
8.50937624314759,0,0,2,2,817
8.653275156013922,0,0,2,1,818
8.912989936863827,0,0,1,2,818
9.01541518132771,0,0,1,1,819
10.158380018446643,0,0,0,2,819
10.379353572613608,0,0,0,1,820
10.979420315272884,0,0,0,0,821
100,0,0,0,0,821
