#Time,A,B,C,D,E
0,235,310,84,0,38
0.10103557357409346,216,300,108,5,38
0.20384862533656928,200,281,131,15,40
0.30671402580974777,183,275,136,33,40
0.410143165075137,169,261,144,49,44
0.5111689516130643,151,256,148,63,49
0.6146008408845297,139,238,167,66,57
0.7151958214214289,130,229,166,75,67
0.8165888643757551,119,217,172,88,71
0.917587444985381,108,206,180,90,83
1.018613740981376,100,191,188,93,95
1.1213733696112855,88,181,190,97,111
1.2226779665872354,79,174,193,99,122
1.3249204851571037,71,171,184,107,134
1.4276819313991806,60,164,185,115,143
1.5281645447731766,51,153,190,121,152
1.6379137353397226,42,149,186,121,169
1.7379186332319632,41,131,185,135,175
1.8385681814745487,35,127,177,140,188
1.9387688031395616,32,119,171,138,207
2.038951983952092,27,111,167,144,218
2.139584050175566,23,101,167,141,235
2.239627255016574,20,98,158,145,246
2.3432350437686216,18,89,151,144,265
2.4456506579857544,17,77,143,140,290
2.545810665329367,16,68,137,139,307
2.650522616147932,16,64,128,132,327
2.752882408874783,14,54,132,121,346
2.8569230414458717,14,48,126,121,358
2.9599073116615546,12,40,127,120,368
3.060125906639021,11,35,124,117,380
3.163308461226639,9,33,121,113,391
3.265047644725748,8,28,120,105,406
3.3736223672367665,8,26,109,104,420
3.4826432613380636,8,25,95,108,431
3.5890960778423815,7,24,90,98,448
3.694691990869663,6,23,85,91,462
3.794750885667148,6,18,84,90,469
3.8947929396545273,6,16,78,91,476
3.999570881698253,6,15,74,90,482
4.114985276100735,6,12,68,88,493
4.215164208388438,4,13,65,85,500
4.316112499221772,4,10,60,85,508
4.421876560958124,3,9,58,85,512
4.528674405182222,3,9,52,83,520
4.6338083786072986,2,8,51,80,526
4.750370717729865,2,7,45,80,533
4.851959240204559,2,7,40,76,542
4.956469557358166,2,7,33,78,547
5.058763368740587,2,6,32,70,557
5.171316383068413,2,5,30,69,561
5.271361872516589,1,4,29,66,567
5.373711264502756,1,4,25,66,571
5.475538009563408,0,5,24,60,578
5.596263289078169,0,5,22,54,586
5.713572794324471,0,5,20,49,593
5.821208413148191,0,5,17,48,597
5.926386346052534,0,4,17,46,600
6.03562139981779,0,4,14,43,606
6.142481249889814,0,3,13,39,612
6.264640472013617,0,3,12,35,617
6.412035681270936,0,3,12,30,622
6.536798420351723,0,3,12,26,626
6.640944829446807,0,2,10,26,629
6.747429501635536,0,2,10,22,633
6.98115485861925,0,2,8,22,635
7.103726022311981,0,2,7,22,636
7.208975098123643,0,2,5,22,638
7.317544607046317,0,2,5,19,641
7.477165014333111,0,2,4,18,643
7.582120055823674,0,2,4,16,645
7.701250487286852,0,2,3,14,648
7.811888207602212,0,2,2,12,651
7.91219700555576,0,2,2,11,652
8.018017388543646,0,2,2,9,654
8.34116900187772,0,2,2,7,656
8.466107087595741,0,2,2,6,657
8.569325451660376,0,1,3,6,657
8.841952698855499,0,1,2,5,659
9.00880167165525,0,1,2,4,660
9.19367397128564,0,1,2,2,662
9.336229199940263,0,1,2,1,663
9.537769522726094,0,1,1,2,663
9.75360957381317,0,0,2,2,663
9.866862364460507,0,0,1,3,663
10.487499758941244,0,0,0,4,663
10.977602498800321,0,0,0,2,665
11.08572046969417,0,0,0,1,666
11.876793421275401,0,0,0,0,667
100,0,0,0,0,667
