#Time,A,B,C,D,E
0,0,0,0,21,174
0.20874205203269275,0,0,0,17,178
0.3325320291637827,0,0,0,16,179
0.47570107877540835,0,0,0,15,180
0.6483198497905588,0,0,0,12,183
0.7914922032057218,0,0,0,11,184
1.0540571941248644,0,0,0,9,186
1.2141654647830349,0,0,0,7,188
1.5660728571481213,0,0,0,5,190
2.1077471578771725,0,0,0,3,192
2.63070632793289,0,0,0,2,193
4.120296062830599,0,0,0,0,195
100,0,0,0,0,195
