#Time,A,B,C,D,E
0,31,2,289,145,33
0.10247008674385011,30,3,269,146,52
0.20768000567004205,28,5,250,153,64
0.3163035367621978,26,6,234,159,75
0.42906558093915764,24,8,219,157,92
0.5334482676228098,23,9,203,159,106
0.6447149402326474,20,11,178,161,130
0.7480801775759884,18,12,159,164,147
0.8489738235896304,15,13,142,166,164
0.9491149024130862,13,15,123,170,179
1.0522142580704503,12,14,114,163,197
1.158497880739319,10,16,95,167,212
1.260173978905045,10,13,88,158,231
1.3605269531601454,9,13,80,151,247
1.4613221162704295,9,12,71,146,262
1.575537921238583,9,12,63,140,276
1.6836928038928116,8,11,63,128,290
1.7851605688957641,7,10,59,120,304
1.8920028829658844,7,9,56,111,317
2.000801657530093,4,11,51,107,327
2.1030677452354682,4,11,47,104,334
2.20449760244308,3,10,44,92,351
2.3197212344471523,3,8,42,87,360
2.423760194082277,2,6,40,84,368
2.527317308343791,1,6,38,82,373
2.6598836171173303,1,5,38,75,381
2.760325818991458,1,5,33,77,384
2.862430257045032,1,5,27,75,392
2.9682604036841087,1,5,27,71,396
3.074372918672819,1,4,25,67,403
3.1849711911845002,1,3,22,68,406
3.2960271849219636,1,3,19,65,412
3.4033392750585563,1,3,18,63,415
3.5056957315435633,1,1,19,58,421
3.6246027437544406,1,1,18,52,428
3.7276495376806316,1,1,17,46,435
3.8610160627162733,1,0,15,40,444
3.9854724206457846,1,0,13,40,446
4.096842874723214,1,0,13,36,450
4.202661096046426,1,0,13,28,458
4.308064757322734,0,1,11,26,462
4.451583128677132,0,1,8,27,464
4.5762275212548005,0,1,7,23,469
4.686878796055293,0,0,7,22,471
4.863709724409606,0,0,7,18,475
4.981634225965773,0,0,7,15,478
5.084141087083866,0,0,6,12,482
5.249911190889945,0,0,6,11,483
5.410409201227772,0,0,6,10,484
5.521747620212344,0,0,6,7,487
5.704496688876269,0,0,5,6,489
5.854777329468128,0,0,4,6,490
6.058788693920232,0,0,4,4,492
6.323795590220598,0,0,3,5,492
6.689281488879962,0,0,2,6,492
6.89449012085794,0,0,2,5,493
7.019949758669753,0,0,2,3,495
7.146475228209343,0,0,2,2,496
7.296162700084148,0,0,1,3,496
7.698466042248023,0,0,0,4,496
7.956367386061421,0,0,0,1,499
8.81207506503378,0,0,0,0,500
100,0,0,0,0,500
