#Time,A,B,C,D,E
0,37,125,0,33,106
0.10997042766344156,34,112,16,29,110
0.2107910416668819,31,99,26,33,112
0.31163676757644976,27,92,34,31,117
0.4140495361585282,24,87,42,27,121
0.5168267265306358,19,86,41,33,122
0.6178805058650328,18,75,51,28,129
0.7213259990382197,14,71,53,31,132
0.8241781385925859,12,66,57,34,132
0.9288867623484391,11,61,55,39,135
1.0517946372176106,10,59,52,39,141
1.1529869910401893,9,55,48,46,143
1.2722668453458874,5,51,52,46,147
1.3817664618773242,4,43,59,43,152
1.4868761775108088,4,38,60,41,158
1.5964872897047107,4,38,51,50,158
1.7059529935084135,4,35,48,48,166
1.8118270224242625,4,34,47,45,171
1.9189843052929036,4,31,45,44,177
2.035055479575528,4,30,41,45,181
2.1362311081561614,4,24,39,47,187
2.2426373002581,3,23,38,48,189
2.3863410389386255,3,21,37,48,192
2.4885257254422557,3,16,40,48,194
2.5910028562608263,3,12,41,46,199
2.7161477827576506,3,10,40,36,212
2.8224421992157014,3,10,37,34,217
2.962509609269944,3,9,31,35,223
3.0692778227667983,3,5,34,33,226
3.170422761813077,3,5,27,40,226
3.2845674660530393,3,3,26,41,228
3.3851571269875924,3,3,24,39,232
3.501074880915717,2,3,21,38,237
3.6053872850757123,2,2,19,32,246
3.716716482859139,1,2,19,28,251
3.848435624073042,0,3,15,28,255
3.9772080883578185,0,3,14,25,259
4.086733178054851,0,3,12,24,262
4.199853841243712,0,3,10,21,267
4.333523596393298,0,3,9,19,270
4.55973937109331,0,3,7,20,271
4.664170963940683,0,3,7,19,272
4.7755940038573685,0,3,7,16,275
4.915073169380307,0,3,5,15,278
5.077691699803014,0,3,5,12,281
5.38485756524479,0,3,3,13,282
5.498895893092507,0,2,3,10,286
5.63023012059617,0,1,2,11,287
5.755479839564407,0,1,2,9,289
5.88682049417433,0,1,2,6,292
6.28285485886724,0,1,2,5,293
7.109127717820423,0,1,2,2,296
7.403913337905616,0,1,1,1,298
7.9789294819811944,0,0,2,1,298
8.32979549754052,0,0,1,2,298
8.478106651237383,0,0,0,3,298
9.37425942901607,0,0,0,2,299
10.33782947979161,0,0,0,1,300
12.324547032491743,0,0,0,0,301
100,0,0,0,0,301
