#Time,A,B,C,D,E
0,9,0,0,0,6
0.6232755319787522,6,2,1,0,6
0.7267383525052059,5,3,1,0,6
0.8381367713125565,4,3,2,0,6
0.9899736264503907,3,3,1,2,6
1.171050958447296,2,4,1,1,7
1.340093756554131,1,5,1,1,7
1.4805192121713402,1,5,0,2,7
1.6036523115595087,1,4,1,2,7
1.737410938217362,1,3,1,3,7
1.8854625230085986,0,4,0,3,8
2.023032995832356,0,4,0,2,9
2.141432905441134,0,3,0,2,10
2.8348639556392596,0,2,1,2,10
2.9638749262291992,0,1,1,3,10
3.0950218926297666,0,1,0,3,11
3.2588415197386373,0,0,1,2,12
3.6108605128954467,0,0,0,3,12
3.7970294240816833,0,0,0,2,13
4.294671605466889,0,0,0,1,14
4.41564948523013,0,0,0,0,15
100,0,0,0,0,15
