#Time,A,B,C,D,E
0,509,126,14,489,15
0.10025431184545418,459,158,31,451,54
0.2009504249212366,407,194,43,418,91
0.3021364129766617,371,207,62,381,132
0.40344805344033635,329,229,72,359,164
0.5038124851429364,297,239,86,328,203
0.604998829442301,262,257,94,298,242
0.7063173564395469,248,253,105,277,270
0.8075479405055291,227,248,115,258,305
0.9099646618183357,206,244,133,248,322
1.0118216571840513,184,245,145,233,346
1.11392220610196,161,242,157,230,363
1.2139650474837052,144,232,170,217,390
1.3153110279889264,129,220,175,220,409
1.4160422717063428,116,208,179,219,431
1.51608225931994,106,193,186,212,456
1.6173452703989732,93,183,190,208,479
1.7200095154872888,82,175,188,208,500
1.8213861432495817,68,176,187,204,518
1.9236420283360385,62,169,188,194,540
2.0257480935004484,54,163,182,191,563
2.128099236399701,50,153,176,184,590
2.2296492868568416,45,145,168,179,616
2.332099987602225,41,136,167,176,633
2.434437995562836,37,129,164,171,652
2.534652298556526,33,124,164,159,673
2.6364194060518664,31,117,160,160,685
2.7400862203635534,29,108,158,160,698
2.8487744439654064,27,100,146,164,716
2.949957245728638,26,93,139,163,732
3.0517274375889785,25,87,128,162,751
3.154195720765967,24,81,121,162,765
3.256674020374018,22,78,115,155,783
3.3570573624446465,21,70,107,162,793
3.458185285485183,16,68,98,164,807
3.5610097585116556,14,65,94,162,818
3.6610634659342876,13,56,94,152,838
3.761606699392054,11,53,88,151,850
3.8618312478945813,10,51,86,133,873
3.967046751200872,10,48,80,126,889
4.070254191624052,9,43,74,122,905
4.187474667764249,9,40,71,113,920
4.289569725775697,8,37,67,112,929
4.39014439654849,8,34,64,105,942
4.500362064539418,8,28,62,99,956
4.603549204453076,7,29,61,95,961
4.7107181567901355,6,27,58,94,968
4.814341399515727,5,24,55,95,974
4.914807496666221,4,18,50,100,981
5.0260257607476255,4,14,47,97,991
5.131166122316542,4,12,44,96,997
5.2385349371714796,3,11,37,98,1004
5.352269014971806,3,9,35,93,1013
5.456110231774847,3,8,32,87,1023
5.5606681528737365,3,8,30,80,1032
5.674004159081271,3,7,29,72,1042
5.776948365092016,3,6,24,75,1045
5.88241795804193,2,6,23,74,1048
5.992584156808739,2,6,21,71,1053
6.101855517360813,2,4,22,65,1060
6.207627660150126,2,4,21,58,1068
6.315807033243823,2,4,18,53,1076
6.459663186277551,1,4,16,47,1085
6.560393932993316,1,4,13,47,1088
6.698794118730935,1,3,11,43,1095
6.808820664129313,1,2,12,35,1103
6.969157614362884,1,2,11,33,1106
7.1390704071940645,1,2,8,30,1112
7.267747151790341,1,2,7,25,1118
7.398025033816733,1,1,7,24,1120
7.52217664225519,1,1,7,21,1123
7.640457417661475,1,1,7,18,1126
7.75233139190604,1,0,8,16,1128
7.885498461008994,1,0,7,16,1129
8.007357664169628,1,0,6,14,1132
8.225686746211817,1,0,6,11,1135
8.383640320822348,1,0,6,9,1137
8.531944842421469,0,1,5,10,1137
8.65150539725293,0,1,5,7,1140
8.787254064134787,0,1,5,6,1141
8.91126136729727,0,1,4,5,1143
9.072109382275507,0,1,4,3,1145
9.196153038115947,0,1,4,2,1146
9.334490815491415,0,1,2,4,1146
9.832178776636887,0,0,3,4,1146
10.154881928641652,0,0,3,3,1147
10.260265025248708,0,0,2,4,1147
10.619355982250317,0,0,0,6,1147
10.722334496199409,0,0,0,5,1148
11.026097986100595,0,0,0,4,1149
11.418097554542571,0,0,0,2,1151
11.646090523994342,0,0,0,1,1152
12.911563268320016,0,0,0,0,1153
100,0,0,0,0,1153
