#Time,A,B,C,D,E
0,0,110,167,220,117
0.10134987447804214,0,103,164,205,142
0.20587732702735803,0,92,163,195,164
0.30654048560155,0,88,154,186,186
0.40805171979035587,0,81,140,185,208
0.5091226787122051,0,66,141,174,233
0.6118479547246806,0,63,125,179,247
0.7143709383454896,0,58,119,172,265
0.8177232139831961,0,53,113,163,285
0.9223714887471393,0,47,107,155,305
1.022825688617069,0,40,102,155,317
1.1235583487994132,0,38,94,151,331
1.224779063847833,0,34,86,153,341
1.330730671562334,0,34,81,136,363
1.4325960928461767,0,29,80,130,375
1.5369294364890798,0,28,74,127,385
1.6369427599211486,0,25,70,121,398
1.7390392473556784,0,22,66,118,408
1.8451535328159636,0,19,59,114,422
1.9619474582774532,0,16,54,108,436
2.070419292988629,0,16,51,100,447
2.1865371023765885,0,15,47,96,456
2.289926730513596,0,15,39,94,466
2.397874925093496,0,12,36,95,471
2.4998742932568674,0,12,30,93,479
2.603393990742434,0,11,26,88,489
2.7205720673699707,0,9,22,80,503
2.8651137045617188,0,9,22,71,512
2.9703411700699194,0,7,23,66,518
3.105737585169893,0,6,23,58,527
3.2074431719294565,0,6,21,53,534
3.3180309591892456,0,4,20,50,540
3.4665142495772283,0,4,18,47,545
3.592648816271034,0,4,18,42,550
3.7019173029367414,0,2,15,41,556
3.827105433416919,0,2,14,38,560
3.9282757067486616,0,2,12,33,567
4.031525390102967,0,2,12,29,571
4.171126836580372,0,2,11,29,572
4.32115513739842,0,2,9,26,577
4.427733876139173,0,2,9,24,579
4.548008172098291,0,1,9,23,581
4.660696939882474,0,0,9,18,587
4.78474471886517,0,0,7,17,590
4.901194757601404,0,0,5,18,591
5.102973814357671,0,0,5,15,594
5.216419132156304,0,0,4,12,598
5.346908593794876,0,0,3,11,600
5.486403994292297,0,0,2,10,602
5.620186888494265,0,0,1,11,602
5.743431527152936,0,0,1,10,603
5.884069851358633,0,0,1,8,605
5.99063279120961,0,0,1,7,606
6.308315058796582,0,0,1,5,608
6.434680115515797,0,0,1,4,609
6.563954288515362,0,0,1,3,610
7.128928224095197,0,0,1,2,611
7.621862407996471,0,0,0,3,611
13.589068388172223,0,0,0,0,614
100,0,0,0,0,614
