#Time,A,B,C,D,E
0,0,0,46,120,0
0.12100236743963813,0,0,43,108,15
0.23391143462689595,0,0,41,97,28
0.33422203925893773,0,0,39,83,44
0.43528303415663494,0,0,37,77,52
0.5515986597137843,0,0,34,74,58
0.6579337485058966,0,0,28,76,62
0.8070483544505297,0,0,25,69,72
0.9255954798783251,0,0,22,65,79
1.0259984451467927,0,0,19,59,88
1.131833245866678,0,0,16,56,94
1.2682227556542054,0,0,14,53,99
1.3701052792431514,0,0,13,48,105
1.4756503717977116,0,0,13,42,111
1.5951669453583008,0,0,10,41,115
1.7047826666431858,0,0,10,37,119
1.813198317904956,0,0,10,33,123
1.9620035058669891,0,0,9,31,126
2.0664789779173147,0,0,8,29,129
2.1737617801159703,0,0,8,27,131
2.281310739529479,0,0,6,26,134
2.3897333519138795,0,0,6,21,139
2.505373215460332,0,0,6,18,142
2.715746435193628,0,0,6,16,144
2.8876609475871766,0,0,6,13,147
2.988184267872224,0,0,6,11,149
3.242050188964985,0,0,6,7,153
3.431483141045608,0,0,5,5,156
3.6075628483617836,0,0,3,7,156
3.7705974730037632,0,0,3,6,157
3.891257617833939,0,0,3,4,159
4.180302891798551,0,0,2,4,160
4.333427997037384,0,0,2,2,162
4.4683189169304285,0,0,2,1,163
4.714925096132194,0,0,1,2,163
5.306900012834409,0,0,1,0,165
6.600333589157078,0,0,0,0,166
100,0,0,0,0,166
