#Time,A,B,C,D,E
0,83,167,53,0,0
0.10162208440049451,76,155,62,9,1
0.20235948424753242,69,151,66,15,2
0.3033306858851083,62,138,83,16,4
0.40591491659316464,54,134,83,25,7
0.5155234530137047,49,127,86,30,11
0.6166038308176248,45,115,96,32,15
0.7216805094285849,40,112,91,43,17
0.8253357890083171,36,108,88,51,20
0.9256253471630261,29,109,82,60,23
1.0293975067267582,28,102,87,55,31
1.1339523545781596,22,95,90,57,39
1.236502405303413,18,94,86,58,47
1.3374071107696086,16,81,96,55,55
1.445945166631391,15,70,101,60,57
1.5501476183843719,14,67,96,68,58
1.6623304130460403,14,60,95,73,61
1.7724696390167392,14,56,87,77,69
1.8783312493617714,13,53,86,72,79
1.9842225024601554,12,47,84,69,91
2.0842393427061148,11,39,83,70,100
2.185151282298103,10,36,80,71,106
2.2909517209887666,8,35,76,70,114
2.40943293937753,7,34,64,80,118
2.5102482937480564,7,29,61,83,123
2.6185020709833475,7,28,57,85,126
2.7263160630073577,7,26,50,85,135
2.828112093887011,5,25,47,83,143
2.9298880323442416,3,25,41,86,148
3.0316453035691753,3,25,33,89,153
3.1316939188499218,3,22,32,88,158
3.236006125828152,2,21,32,83,165
3.3813646954327985,2,19,30,79,173
3.4852442851404053,1,18,25,76,183
3.5891180957466005,1,17,24,65,196
3.691930817422522,1,16,21,67,198
3.8106790601438534,1,11,23,67,201
3.9242143055613865,1,11,17,63,211
4.0333546818298425,1,10,17,57,218
4.137228305854719,1,10,16,55,221
4.243344715006701,0,10,15,49,229
4.352894108114032,0,10,11,50,232
4.463731823925387,0,9,11,45,238
4.569599241586248,0,5,15,41,242
4.695909277034475,0,4,15,39,245
4.812419403839587,0,4,12,38,249
4.92529564081674,0,4,10,36,253
5.034106975279744,0,4,9,35,255
5.154593902635187,0,4,8,34,257
5.313834232498794,0,4,7,30,262
5.4522856294635105,0,2,6,30,265
5.578550737123766,0,2,5,25,271
5.689252775011516,0,2,5,23,273
5.8380256963561274,0,2,5,20,276
6.035665096362369,0,2,5,16,280
6.197262586837508,0,2,5,15,281
6.430936998060571,0,2,4,13,284
6.652826936639555,0,2,4,11,286
6.7894188876029915,0,2,4,9,288
7.086912118383644,0,2,3,9,289
7.23918729558335,0,1,4,8,290
7.47077619033231,0,1,4,5,293
7.701730221129523,0,1,3,5,294
7.889468210548646,0,1,3,3,296
8.095701328779102,0,0,3,3,297
8.339526367971839,0,0,2,4,297
8.480769868548824,0,0,2,2,299
8.944272430701458,0,0,2,1,300
9.188466278782112,0,0,2,0,301
10.041511667368258,0,0,1,1,301
12.325368447136224,0,0,0,1,302
13.353589946183105,0,0,0,0,303
100,0,0,0,0,303
