#Time,A,B,C,D,E
0,14,53,0,300,0
0.10321932906484631,12,50,3,270,32
0.20505393112483747,10,48,7,247,55
0.30657727541239627,7,47,10,213,90
0.40988913170862423,5,43,15,193,111
0.5192388540503374,5,42,15,176,129
0.6235190227666626,4,41,17,165,140
0.7326881290052584,4,35,21,144,163
0.8470571056308465,4,32,21,133,177
0.9727562199758417,4,27,24,126,186
1.0730744183542458,4,25,25,122,191
1.1744168947456852,4,24,24,107,208
1.278186842246065,3,23,25,103,213
1.3834717154752352,3,22,26,90,226
1.4929405703638232,3,20,25,86,233
1.6149186539922433,3,19,23,76,246
1.7175001739148443,3,18,17,75,254
1.8448992995713906,3,15,16,70,263
1.9498881782867616,2,14,14,70,267
2.0511355020919924,2,14,12,63,276
2.172523121683661,1,14,11,59,282
2.27699230735706,1,10,13,55,288
2.393409960888923,1,8,13,47,298
2.4964997505715023,1,7,11,45,303
2.620830296097049,1,6,11,42,307
2.738455166865875,1,6,9,39,312
2.8848669827075133,1,5,8,37,316
3.0099556304519726,1,5,8,30,323
3.118975051878494,1,4,9,28,325
3.2700819657316607,1,3,9,26,328
3.5229868026886546,1,2,8,25,331
3.64025842405377,1,2,4,26,334
3.815480584644739,1,2,4,25,335
3.916679471332536,1,1,4,23,338
4.10179457277269,1,1,3,20,342
4.238626403877791,1,1,3,19,343
4.356919195530851,1,1,3,16,346
4.616574586039047,1,1,3,13,349
4.722848284104084,1,1,1,13,351
4.828000923440816,1,1,1,10,354
4.93562362304952,0,1,2,10,354
5.052607133499526,0,1,1,10,355
5.2860231215423585,0,0,2,10,355
5.469806578399097,0,0,2,9,356
5.964271005145195,0,0,1,10,356
6.153921739399558,0,0,1,9,357
6.435997377240066,0,0,1,7,359
6.718685711909148,0,0,1,5,361
7.127462889653366,0,0,0,5,362
7.3560192995881835,0,0,0,4,363
7.691707485597942,0,0,0,3,364
8.089107509770482,0,0,0,2,365
8.8900815428745,0,0,0,1,366
10.38268191326199,0,0,0,0,367
100,0,0,0,0,367
