#Time,A,B,C,D,E
0,164,198,0,244,174
0.10052708037440425,153,192,16,228,191
0.2027062179564518,136,185,39,200,220
0.3055294043382316,124,174,57,187,238
0.41035551648220187,113,171,62,177,257
0.5111197729516639,104,166,72,164,274
0.6189865260384584,91,165,81,150,293
0.7198067019627364,87,152,87,152,302
0.8198673521568115,81,146,91,140,322
0.920010383835053,68,146,101,137,328
1.0211632192100897,60,136,110,131,343
1.1226276082029536,56,122,119,129,354
1.2232037297913283,53,108,121,125,373
1.329690495949323,48,98,126,123,385
1.4300392372845978,42,93,123,125,397
1.5331125044746512,41,85,118,128,408
1.633542322425151,34,86,114,128,418
1.7339488113826051,31,78,113,129,429
1.8340269840582106,27,74,110,129,440
1.9407471522777278,24,72,102,132,450
2.0446019372958535,19,68,102,127,464
2.1506638989579563,17,64,100,121,478
2.2526154169573958,16,58,99,115,492
2.3542665190394314,15,51,96,116,502
2.454325141039284,14,47,90,112,517
2.556508304981011,13,42,85,115,525
2.658770346240277,12,40,79,114,535
2.7587968537774623,10,41,70,107,552
2.861177355903241,10,40,57,110,563
2.967202556243005,8,37,55,104,576
3.0915844118930376,7,33,55,99,586
3.1954157818872435,6,33,51,92,598
3.2966187284085917,6,31,48,92,603
3.418593636800378,6,31,40,94,609
3.5191775770438585,5,28,37,87,623
3.6212333485480652,4,25,37,87,627
3.7312706286939727,4,21,37,83,635
3.8322197711172876,3,16,39,77,645
3.937446635416281,2,16,37,73,652
4.078201383912701,2,15,31,73,659
4.184732379042569,2,14,27,71,666
4.28818580511161,2,13,26,66,673
4.410032476921063,1,13,24,63,679
4.519740320602914,1,12,21,61,685
4.620440717978825,1,10,21,57,691
4.721997611533442,0,9,19,48,704
4.825242825043721,0,6,20,45,709
4.926010351291535,0,6,18,44,712
5.033593322787935,0,6,16,42,716
5.1495423794242905,0,6,13,42,719
5.250229384155149,0,5,14,40,721
5.353967006782357,0,3,13,38,726
5.462099323053625,0,2,14,32,732
5.594143356113366,0,1,12,33,734
5.706446588436708,0,1,10,32,737
5.808790996391042,0,1,10,31,738
5.931789835209443,0,1,9,28,742
6.059014341193684,0,1,8,26,745
6.159022751683301,0,1,7,26,746
6.299456886489735,0,1,7,23,749
6.407313469767561,0,1,6,18,755
6.661543411421665,0,1,5,18,756
6.8166446673104275,0,1,2,19,758
6.93722087675495,0,1,2,14,763
7.104348431977475,0,1,2,10,767
7.225199532594161,0,1,2,8,769
7.524208242222624,0,1,1,5,773
7.955432480128697,0,1,1,1,777
8.28996521147752,0,1,1,0,778
8.49606364198839,0,1,0,1,778
9.774335335906596,0,0,0,2,778
10.218842811013822,0,0,0,1,779
100,0,0,0,0,780
