#Time,A,B,C,D,E
0,63,0,31,0,8
0.11677509174478329,55,8,28,3,8
0.2175518784229234,50,11,27,5,9
0.32924799368147417,45,15,26,7,9
0.44064901395790285,41,17,25,9,10
0.5450265853389848,39,18,22,12,11
0.6525163849394302,34,21,22,13,12
0.7905749658214187,30,24,20,15,13
0.9346295244164415,26,28,19,14,15
1.040599654830755,24,26,21,13,18
1.1421436989911813,23,26,19,15,19
1.2441810657716936,19,26,21,14,22
1.3545150139308304,17,25,21,16,23
1.485672032626122,16,23,20,19,24
1.5880503684127067,13,26,17,21,25
1.7167195448712875,9,28,17,19,29
1.819087569265024,7,29,16,19,31
1.9259631517926235,7,28,17,14,36
2.0376340135290794,5,29,17,12,39
2.1433768843519623,2,27,19,13,41
2.2493000713396483,2,25,19,12,44
2.3588502530052318,2,22,17,17,44
2.4593202841902353,2,19,19,16,46
2.5641802988802707,2,18,19,14,49
2.671296768945502,2,17,18,14,51
2.783540466347605,2,14,20,14,52
2.893645391078207,2,13,20,15,52
3.0016361704957575,2,13,18,14,55
3.1036543298348684,2,12,16,15,57
3.228958208251772,2,10,18,15,57
3.353626438640226,2,10,14,15,61
3.486899667605647,2,9,14,13,64
3.610787287242574,1,8,12,17,64
3.770993692262973,1,6,13,17,65
3.883937811806073,1,5,11,19,66
3.9902541317225637,1,5,11,18,67
4.119052270203491,1,4,10,19,68
4.255032210905293,1,4,10,17,70
4.402910565968021,1,4,7,17,73
4.565513352109227,1,3,8,15,75
4.7542751819939735,1,2,8,14,77
4.907700515740714,0,3,7,14,78
5.059986065257227,0,3,6,14,79
5.234064179352804,0,2,7,12,81
5.358537466516598,0,2,7,10,83
5.458737607104329,0,1,6,12,83
5.599788589613925,0,1,4,13,84
5.712278710063898,0,1,4,12,85
5.83911946366363,0,1,4,11,86
6.0028954722856325,0,1,4,8,89
6.202863213727372,0,1,3,6,92
6.34461006975515,0,1,3,5,93
6.48853626631945,0,1,2,4,95
6.628534626057938,0,1,1,4,96
6.793021698254744,0,1,1,3,97
6.960044500112324,0,1,1,2,98
7.189394425384798,0,1,1,0,100
9.317138884717444,0,0,1,1,100
10.072278161584965,0,0,0,1,101
11.465599528585592,0,0,0,0,102
100,0,0,0,0,102
