#Time,A,B,C,D,E
0,0,6,23,18,0
0.17554732228828673,0,6,22,17,2
0.32615398993872746,0,4,23,16,4
0.4337835512483292,0,4,21,15,7
0.5673766327503754,0,4,17,14,12
0.6853003113320464,0,4,16,13,14
0.7915035084599751,0,4,13,15,15
0.911618556357707,0,3,14,14,16
1.0255873620349376,0,2,12,16,17
1.1613632825255027,0,2,11,13,21
1.2659648846190845,0,2,8,14,23
1.3686403610332811,0,2,8,12,25
1.5212257514671017,0,2,7,11,27
1.62234518835864,0,2,6,10,29
1.7880990090360722,0,2,6,7,32
1.923636219158595,0,1,6,7,33
2.4609869840951384,0,1,5,5,36
2.6276538634794617,0,0,5,4,38
3.0167201722034243,0,0,5,2,40
3.12939659784952,0,0,4,3,40
3.300237804698494,0,0,2,5,40
3.4191151056814038,0,0,2,4,41
4.056672622812613,0,0,2,3,42
4.3350595327680805,0,0,2,2,43
4.760137624673036,0,0,2,1,44
5.3081970062374655,0,0,1,2,44
5.507691392350042,0,0,0,2,45
6.331119003209026,0,0,0,1,46
100,0,0,0,0,47
