#Time,A,B,C,D,E
0,133,119,0,132,153
0.10759724750811456,124,113,15,116,169
0.20981227180522433,112,114,24,104,183
0.3109126674974349,101,118,29,94,195
0.420680910300087,93,118,33,87,206
0.5209455956708005,77,120,45,83,212
0.623386061330664,72,113,52,74,226
0.7234337017797295,67,110,55,70,235
0.8247493943442363,60,106,60,72,239
0.9255148625749055,57,97,64,69,250
1.0266171661836772,50,95,67,74,251
1.1305644842849327,48,85,75,71,258
1.240167592915375,42,80,81,70,264
1.3424148622935503,34,75,86,64,278
1.445121051749122,33,63,90,68,283
1.5452303301414725,30,55,88,77,287
1.6470950715552968,28,50,82,80,297
1.7475741177359259,27,47,78,75,310
1.8486101656547134,25,44,74,74,320
1.9676565992376767,24,41,68,76,328
2.0699720493960294,21,38,69,75,334
2.179993230812887,19,37,69,73,339
2.2918890151556415,18,37,61,74,347
2.399530120709219,18,37,59,69,354
2.50510412444458,16,36,53,73,359
2.6051914856613982,16,35,49,72,365
2.705270431425036,13,31,51,73,369
2.806664222879543,11,31,48,68,379
2.925202656004112,9,27,46,67,388
3.0429641652242734,9,23,47,62,396
3.147345582156364,9,22,43,61,402
3.248314543497662,7,23,42,60,405
3.3545071435421923,7,23,38,59,410
3.4672899572777522,6,20,38,57,416
3.5679794215881455,5,20,37,54,421
3.676019280269047,5,20,33,51,428
3.8119312793146367,4,18,29,54,432
3.919917006992212,4,14,29,54,436
4.021198536421591,4,12,25,54,442
4.132166938223791,4,11,23,51,448
4.248542162485069,4,11,22,46,454
4.353702467484061,2,10,21,44,460
4.46605016960676,2,9,20,36,470
4.569815702681122,2,9,18,34,474
4.671321137729923,2,8,17,31,479
4.777553538270929,2,8,15,28,484
4.95215383535698,2,8,13,28,486
5.056280614823408,2,7,14,24,490
5.162345826566992,2,7,14,19,495
5.26760648836005,2,7,12,17,499
5.39108352919342,2,7,12,13,503
5.520223266521818,1,6,13,14,503
5.627952573767339,1,5,14,13,504
5.74267195203366,1,4,13,12,507
5.8619426169307545,1,4,12,12,508
5.99589844583287,1,3,12,12,509
6.208405369979987,1,3,12,11,510
6.320318922100597,1,2,12,11,511
6.453034178849782,1,2,10,12,512
6.582613326453345,0,3,9,10,515
6.712135351184571,0,2,8,12,515
6.832935608910855,0,0,8,12,517
7.090094697351827,0,0,5,13,519
7.505909158233284,0,0,4,12,521
7.608984968631056,0,0,3,11,523
7.753630306494285,0,0,3,8,526
7.920154442017289,0,0,3,6,528
8.035678216950437,0,0,3,5,529
8.330679724854697,0,0,2,5,530
8.463291961193246,0,0,1,5,531
8.58440357788935,0,0,1,4,532
8.959755255968643,0,0,1,2,534
9.328898769368408,0,0,1,1,535
10.037075931134257,0,0,0,1,536
11.264476075640504,0,0,0,0,537
100,0,0,0,0,537
