#Time,A,B,C,D,E
0,133,119,0,132,153
0.10050735701691065,114,126,11,119,167
0.2012272836113784,102,128,19,112,176
0.30474474764056375,95,120,31,105,186
0.4093682065903292,84,120,34,104,195
0.5200389549986408,74,117,42,98,206
0.6267904262228491,68,111,50,91,217
0.7304822651865256,62,107,55,86,227
0.8358553435104267,56,103,62,84,232
0.9364558276527205,49,100,63,83,242
1.0365470955502032,42,92,75,76,252
1.1372884470488138,38,91,70,77,261
1.2380406195772522,35,80,75,74,273
1.3393930354616301,31,75,75,76,280
1.4419738725529052,30,69,73,78,287
1.5466102192606122,25,68,75,75,294
1.6473579841595696,25,62,73,79,298
1.747784519837524,20,60,71,78,308
1.8481622689588157,18,58,65,81,315
1.9492922761203406,16,55,60,84,322
2.0504775641002277,14,48,63,80,332
2.15506439767869,13,46,60,82,336
2.255285668917547,13,40,61,76,347
2.3614769875711654,13,38,54,76,356
2.4766513537395776,12,33,52,77,363
2.5826632990362985,12,33,46,69,377
2.694269614080742,10,30,47,63,387
2.796462024641379,9,27,48,58,395
2.8972303425760644,8,25,46,56,402
2.999966389040088,8,22,47,47,413
3.101334682467379,6,24,44,45,418
3.204760679468634,6,21,44,45,421
3.311253098464975,5,21,42,45,424
3.4200263526536387,5,17,42,46,427
3.5219179664963574,4,17,39,45,432
3.625835200117309,3,14,39,44,437
3.7297315027807354,2,15,38,41,441
3.833786321924452,2,14,33,43,445
3.955208683097298,2,13,24,46,452
4.0809700418165935,2,11,24,40,460
4.181693357996301,2,9,24,36,466
4.297910219167053,2,8,23,31,473
4.417471697093964,2,8,22,31,474
4.5386362763084,1,7,21,30,478
4.685740169665128,1,6,20,28,482
4.790600970587857,1,6,18,26,486
4.905913578772958,1,6,16,23,491
5.028810931755252,1,5,14,24,493
5.167532295942766,1,4,14,22,496
5.276160474127617,1,1,14,22,499
5.394277885839581,1,1,12,20,503
5.511258363130606,1,1,10,22,503
5.6203703698779925,1,1,9,22,504
5.825816792309661,1,1,8,18,509
5.933377994677712,1,1,5,20,510
6.109611009930394,1,1,5,19,511
6.281297303387395,1,1,5,16,514
6.409899821596938,1,0,4,17,515
6.522325215529458,1,0,3,16,517
6.709927332038169,1,0,2,16,518
6.876833212325248,1,0,2,12,522
7.011118045775373,1,0,1,11,524
7.146730890546672,1,0,1,9,526
7.274309385089217,1,0,1,8,527
7.618645915024077,1,0,1,6,529
8.232233363012647,1,0,1,4,531
8.413853833345227,1,0,1,3,532
8.824688988392158,0,1,1,2,533
9.024094407475374,0,0,2,2,533
9.679417012914108,0,0,2,0,535
12.203500560763054,0,0,0,2,535
12.433869149847322,0,0,0,1,536
12.777946013920383,0,0,0,0,537
100,0,0,0,0,537
