#Time,A,B,C,D,E
0,151,69,0,173,0
0.10133518847844875,137,73,10,160,13
0.20358931728669832,119,77,22,145,30
0.30362151232788376,105,85,25,134,44
0.4058131052627544,94,87,31,126,55
0.5069897502800983,88,83,35,119,68
0.6073039269965346,80,84,38,113,78
0.7119024935370207,67,90,44,101,91
0.8219505813452914,61,91,46,93,102
0.9242631178377062,55,83,50,93,112
1.0271062115437346,52,79,51,88,123
1.1272951856202205,44,81,53,87,128
1.2323069660076167,41,76,56,87,133
1.3361418259720343,38,66,65,85,139
1.4362550324600916,32,65,63,83,150
1.5362810109831289,31,57,65,81,159
1.6409218303134077,26,55,66,79,167
1.7443446650858143,24,53,61,80,175
1.8560622922804952,23,50,63,76,181
1.9589393935950334,21,47,56,76,193
2.0663689698949836,20,40,58,75,200
2.1677530231496607,15,40,58,73,207
2.27855102605495,13,36,58,75,211
2.406219624324714,12,32,55,79,215
2.5126959264322855,9,31,54,76,223
2.6135823088240677,7,31,49,77,229
2.722370718359095,7,30,45,75,236
2.8457618854175233,6,30,40,74,243
2.94887096264731,6,26,42,70,249
3.068077638449461,5,26,37,73,252
3.1736197437083122,4,25,31,74,259
3.277672850753691,3,23,29,74,264
3.37891832193194,3,19,27,70,274
3.4857502688023763,3,17,28,58,287
3.5897624651202698,2,17,25,60,289
3.69853059072822,2,14,26,57,294
3.801711869482517,2,10,29,54,298
3.9227488590914543,2,9,22,58,302
4.026551910119347,2,9,18,54,310
4.142740992864416,2,8,19,45,319
4.246423319419197,2,7,19,42,323
4.382561624016244,2,5,20,41,325
4.485483391319252,2,5,17,38,331
4.602286688664915,1,6,15,37,334
4.703916588525014,1,4,17,29,342
4.813074589872536,1,4,16,29,343
4.9233740973697575,1,4,16,27,345
5.064693561248444,1,4,14,28,346
5.166711226332778,1,3,12,30,347
5.2741282424046725,1,3,11,26,352
5.410943771887924,1,3,9,25,355
5.515654261319625,1,2,10,23,357
5.671008835312786,1,2,9,20,361
5.783244898811599,1,2,8,19,363
5.884917061570787,1,2,8,18,364
5.994463496181798,1,2,8,15,367
6.1298742761108675,0,3,8,14,368
6.311133014548365,0,3,8,10,372
6.521027922245694,0,3,7,9,374
6.621653352279692,0,1,8,10,374
6.763636533180365,0,1,6,9,377
6.971938549529415,0,1,5,8,379
7.072321741352343,0,1,5,6,381
7.224945168982043,0,0,5,6,382
7.348697398030468,0,0,5,5,383
7.4792891781289725,0,0,4,4,385
7.648439226973492,0,0,3,5,385
7.8575526598274905,0,0,2,4,387
8.208584555050109,0,0,2,2,389
8.597022357021817,0,0,2,1,390
8.966270315970329,0,0,1,1,391
9.881899827639353,0,0,0,2,391
10.005981338995557,0,0,0,1,392
10.228609925324832,0,0,0,0,393
100,0,0,0,0,393
