#Time,A,B,C,D,E
0,82,14,57,108,146
0.10318403516627288,71,25,51,103,157
0.21131976560484472,65,28,50,94,170
0.3116444775225398,59,30,48,91,179
0.41208746194653295,54,35,47,80,191
0.5219324233623542,45,38,47,79,198
0.6251193297234239,40,39,48,76,204
0.7253786754678166,34,43,45,71,214
0.8256152604684216,31,41,47,69,219
0.9268263109340609,26,40,47,65,229
1.0280580910531747,21,40,48,60,238
1.1344450427548785,20,36,50,61,240
1.234500254915196,18,34,48,58,249
1.3385397030836228,17,29,49,61,251
1.4459766427344398,16,23,52,59,257
1.5570701541698402,15,22,49,60,261
1.658420380661654,14,20,51,54,268
1.7587416141395933,11,23,47,52,274
1.8630284166207058,10,24,41,53,279
1.9799779211058164,10,21,41,53,282
2.0834471490133297,9,20,40,51,287
2.222982805688743,8,16,35,57,291
2.325594329927165,8,14,35,55,295
2.458580671391741,8,12,33,54,300
2.5672572714629736,6,14,30,53,304
2.676635965006596,5,13,29,52,308
2.7923970858619285,5,11,28,49,314
2.904898126431484,5,9,27,47,319
3.0128561440453407,3,11,27,43,323
3.1155121027701718,3,8,27,46,323
3.221409207148968,3,7,26,37,334
3.3374789190215397,3,7,24,32,341
3.4771851381844288,3,5,23,31,345
3.5969248427702065,3,5,21,33,345
3.707097988029851,2,6,15,37,347
3.8110045576945955,1,7,13,38,348
3.9157910707392145,1,7,12,37,350
4.015920542495019,1,7,11,29,359
4.132621106261896,1,6,12,26,362
4.25825185622024,1,6,11,26,363
4.366201060901092,1,6,9,25,366
4.472507554938915,1,6,8,20,372
4.682436965147579,1,3,11,18,374
4.797944542275706,1,2,11,16,377
4.935689294038167,1,2,10,17,377
5.078892199886203,1,2,9,18,377
5.184229982555146,1,2,8,19,377
5.311520184277424,1,2,7,18,379
5.415107253928972,0,2,8,16,381
5.5535072640026435,0,2,7,14,384
5.772833990180775,0,2,6,15,384
6.00392241034112,0,2,6,12,387
6.188909247737271,0,2,5,11,389
6.35923547693372,0,1,5,10,391
6.657851451670434,0,1,4,10,392
6.778758880475899,0,1,3,11,392
6.895831211485541,0,0,4,10,393
7.009321518832705,0,0,4,8,395
7.144571516719602,0,0,3,7,397
7.327351007542591,0,0,3,6,398
7.527898051722856,0,0,1,8,398
7.6823678724732645,0,0,1,7,399
7.813532772556961,0,0,0,8,399
8.106582479433381,0,0,0,6,401
8.241891631406308,0,0,0,5,402
8.602557559512132,0,0,0,3,404
8.71529468778873,0,0,0,2,405
9.111447956798237,0,0,0,1,406
10.095412217602357,0,0,0,0,407
100,0,0,0,0,407
