#Time,A,B,C,D,E
0,134,0,0,204,46
0.1068456124237095,120,14,0,179,71
0.21294065836219478,107,26,1,163,87
0.31413221425787097,99,27,8,145,105
0.4147835311593477,84,41,7,133,119
0.5208145739148305,80,37,15,124,128
0.626819776216034,70,40,19,110,145
0.728320278390241,60,45,22,99,158
0.8405968531050761,51,50,25,87,171
0.9414111473400198,44,50,31,76,183
1.042209183939587,39,47,39,72,187
1.1552685113226895,36,49,37,67,195
1.2574404236012402,32,52,34,65,201
1.3666598962127878,30,49,35,61,209
1.4729477660881067,29,46,36,61,212
1.5770502574534595,28,41,36,66,213
1.6828284755756322,21,45,36,60,222
1.7964672471346068,16,45,39,56,228
1.900671797865984,14,43,36,58,233
2.011772713105958,12,36,40,55,241
2.1196391304342774,12,33,41,50,248
2.2210270879076344,11,30,41,50,252
2.3212813865175352,9,30,37,54,254
2.4243275825684667,9,27,37,52,259
2.5277538395865107,9,24,37,51,263
2.631915006797676,9,22,35,50,268
2.7341897016676633,8,19,34,47,276
2.8378024169745415,8,19,30,46,281
2.940906263277632,8,16,32,45,283
3.04129495765344,8,14,33,42,287
3.1543561245915965,6,15,28,45,290
3.2707528422815013,6,13,28,43,294
3.414656587893191,2,15,28,40,299
3.5182434213229663,0,17,24,40,303
3.648727914912889,0,15,23,40,306
3.7899119058430855,0,12,24,36,312
3.9561614467970387,0,11,24,35,314
4.061240848988453,0,9,24,35,316
4.169390175128294,0,9,21,34,320
4.283207026411031,0,7,22,33,322
4.418187538605473,0,5,19,35,325
4.548507797371974,0,5,19,28,332
4.651594520520066,0,5,18,27,334
4.7778422075934985,0,5,16,25,338
4.8862788913650155,0,4,16,23,341
5.026038601923369,0,4,13,23,344
5.158769196267904,0,4,12,21,347
5.3037974807707124,0,3,12,18,351
5.4533149079975844,0,3,7,19,355
5.556137414590574,0,3,6,20,355
5.690380420829329,0,3,4,21,356
5.873532707914457,0,3,4,19,358
5.996963266300368,0,3,3,18,360
6.121948431262355,0,3,3,17,361
6.23804987275083,0,2,4,13,365
6.668218369406929,0,2,4,9,369
6.800524758318201,0,1,5,8,370
6.963333610157322,0,1,5,7,371
7.1019919706316,0,1,4,7,372
7.214706603123849,0,1,4,6,373
7.538931393567005,0,1,4,4,375
7.653297700756142,0,1,4,2,377
7.77821002367174,0,0,4,2,378
7.960207420144845,0,0,3,2,379
8.145281694809553,0,0,2,3,379
8.557174688236003,0,0,1,3,380
9.388334857929603,0,0,1,2,381
9.868879128118031,0,0,0,2,382
10.065873764897914,0,0,0,1,383
10.618509935118444,0,0,0,0,384
100,0,0,0,0,384
