#Time,A,B,C,D,E
0,111,54,74,0,0
0.10049251932508445,99,59,77,3,1
0.20297158638301313,87,61,80,9,2
0.30437737162914497,82,62,78,12,5
0.4057142569060766,74,60,78,20,7
0.5091978153249364,69,54,84,24,8
0.6107680209865932,61,57,79,33,9
0.7165758253308384,55,59,67,49,9
0.8192538081935445,53,56,66,48,16
0.9406095739180244,44,60,66,48,21
1.0468015335957455,40,59,65,48,27
1.1509656779113462,35,60,64,49,31
1.2627571917323692,31,59,62,52,35
1.3641734359739706,28,60,53,55,43
1.4809279805177562,26,55,52,54,52
1.5854488983673125,21,55,51,55,57
1.685906503986341,19,53,47,56,64
1.7938494965461413,15,52,44,60,68
1.8971587675175254,15,44,46,61,73
1.9994143627961207,15,37,50,57,80
2.1073440957155207,14,35,46,58,86
2.223549951901655,13,33,44,56,93
2.3398360623934678,11,32,42,51,103
2.441494010770411,9,32,40,47,111
2.543395688820784,9,30,37,42,121
2.6523300834504666,7,30,33,44,125
2.758687278016088,7,27,33,44,128
2.870277045232313,6,22,38,42,131
2.9912956425971164,6,20,32,47,134
3.0938661814221677,6,19,27,49,138
3.1998377727471214,6,15,30,48,140
3.3030553700302034,6,12,31,46,144
3.4229200849045096,6,10,28,49,146
3.54401107321556,5,11,25,44,154
3.6465628202586173,5,10,23,43,158
3.762351869678679,5,9,20,39,166
3.863133690823574,4,7,21,33,174
3.966987087176692,3,6,19,35,176
4.117394957934855,3,6,18,30,182
4.221527319446311,3,5,17,30,184
4.3226029573372555,3,4,15,27,190
4.4345349310120055,3,3,14,24,195
4.564978965984187,3,3,13,25,195
4.675167081944003,2,3,14,23,197
4.796584915840824,2,2,13,20,202
4.901780876824705,2,2,9,22,204
5.026480100251466,2,2,8,21,206
5.13611083414442,2,2,7,20,208
5.239569790879807,2,2,6,19,210
5.360454366061571,2,2,6,17,212
5.647083086388304,2,2,6,13,216
5.768055801104081,0,2,7,13,217
5.961983038201833,0,2,5,13,219
6.069839854832353,0,1,5,13,220
6.233766920577687,0,1,4,12,222
6.434108049573006,0,1,3,10,225
6.630121764574775,0,1,2,11,225
6.750585190062697,0,1,2,8,228
7.214071221522322,0,1,2,7,229
7.446785841387508,0,1,2,6,230
7.656479639471966,0,1,1,7,230
8.138628444469546,0,1,1,4,233
8.39247587052358,0,0,2,3,234
8.643733232478555,0,0,2,2,235
9.342714969926131,0,0,1,2,236
9.917194265723673,0,0,0,3,236
10.330129419708095,0,0,0,2,237
11.449947647262887,0,0,0,1,238
13.264143399036207,0,0,0,0,239
100,0,0,0,0,239
