#Time,A,B,C,D,E
0,82,14,57,108,146
0.10569995651055764,79,16,50,107,155
0.20583122776840698,66,26,50,99,166
0.3097823308621475,58,30,47,98,174
0.41101649870186174,55,32,43,92,185
0.5260380489326416,46,39,42,80,200
0.6325705363961822,42,39,39,84,203
0.7340786034781114,39,41,35,81,211
0.8353544179581317,37,37,34,79,220
0.9391133630641244,31,39,33,76,228
1.045716090042606,29,37,32,68,241
1.1671453392092999,25,35,30,70,247
1.268862352797952,24,31,31,73,248
1.3796469097565733,20,33,29,67,258
1.482631717861378,20,29,31,62,265
1.599309669302497,19,28,29,56,275
1.7019451206139327,18,23,34,52,280
1.809048496628081,16,23,32,49,287
1.9127508375027973,15,23,30,48,291
2.028155138574531,15,22,29,44,297
2.1492527992636385,14,20,29,45,299
2.2511495787357143,14,18,29,43,303
2.3680503157535076,12,19,26,45,305
2.4706692849894307,10,19,26,39,313
2.5783685358566437,8,19,26,39,315
2.6785572220488616,6,16,27,39,319
2.785799607881066,6,12,30,37,322
2.8863275971542595,5,12,25,41,324
2.9886090854750043,5,11,23,41,327
3.0895989489170668,4,11,22,40,330
3.223272818477924,3,11,22,36,335
3.344477816179997,1,10,22,34,340
3.4522957020670932,1,8,21,33,344
3.5593195013756764,0,7,20,32,348
3.6611938775943687,0,7,16,33,351
3.7994956913399887,0,7,13,31,356
3.9085811976798763,0,7,12,30,358
4.031372281306921,0,7,11,27,362
4.135952517503899,0,6,11,23,367
4.28146091249133,0,5,11,22,369
4.413936346572867,0,5,8,23,371
4.548949085506674,0,3,10,18,376
4.679135825065521,0,2,10,16,379
4.792987942282857,0,2,9,14,382
4.915448397294925,0,2,8,13,384
5.092460025006856,0,1,8,14,384
5.211150732096147,0,1,7,15,384
5.33813748605875,0,1,6,13,387
5.45416357815472,0,1,6,10,390
5.774974438005197,0,1,6,6,394
5.954531232802172,0,1,5,4,397
6.0763313028336166,0,1,4,3,399
6.193005173645037,0,1,4,2,400
6.336253765531848,0,1,4,0,402
6.4789055234241495,0,1,3,1,402
6.806811266658104,0,1,1,3,402
7.22917780125798,0,1,1,2,403
7.393883263601805,0,1,0,2,404
8.388142760181164,0,0,1,2,404
8.542491747267897,0,0,0,2,405
8.744008819887808,0,0,0,1,406
8.897577957652826,0,0,0,0,407
100,0,0,0,0,407
