#Time,A,B,C,D,E
0,50,13,107,0,74
0.10184521225508361,42,18,101,8,75
0.20566788542787703,36,22,95,16,75
0.3110304316121543,33,24,87,21,79
0.4127383687431228,30,23,80,27,84
0.5309996534602858,23,26,76,33,86
0.6327746737654464,23,25,69,37,90
0.7395058744483363,19,26,66,37,96
0.8461680548238821,18,24,58,46,98
0.9549084070723116,16,23,58,46,101
1.057977689647852,16,18,55,49,106
1.1641011737492803,15,17,51,50,111
1.274056317404045,14,17,46,48,119
1.3745622079664968,14,14,45,42,129
1.4936702682603245,11,14,42,44,133
1.6328328681612738,9,15,38,44,138
1.7659772953451196,6,18,33,44,143
1.8773501293024757,6,17,32,42,147
1.9859980443389904,6,16,31,34,157
2.088368191805828,6,15,28,34,161
2.192708527521885,6,12,23,39,164
2.3065344014623377,6,10,25,37,166
2.4200244345180315,6,10,19,42,167
2.5265284744753624,5,10,15,44,170
2.6506829018501534,5,9,15,40,175
2.785473339597156,4,9,14,37,180
2.887644551953127,4,7,15,32,186
2.9884205196794777,4,7,13,27,193
3.0921500885465885,4,5,13,28,194
3.233878042649188,4,4,12,26,198
3.3432207587008307,4,4,12,23,201
3.4452965088822896,4,4,11,21,204
3.6190702339146097,3,5,9,22,205
3.750314826064104,3,4,10,19,208
3.9103576095802515,1,6,9,16,212
4.042920713031591,1,3,12,15,213
4.243084197625045,1,3,11,11,218
4.374019927947788,0,3,11,9,221
4.474618512529974,0,2,12,8,222
4.575928853896424,0,2,8,10,224
4.771479885205128,0,2,6,9,227
4.919704133172335,0,2,5,8,229
5.056872056471304,0,1,4,8,231
5.232537181062982,0,1,3,8,232
5.381639612259947,0,1,3,7,233
5.622268367135314,0,1,2,8,233
5.8289987581869225,0,1,2,7,234
6.065945058756362,0,1,2,5,236
7.045234655817085,0,1,2,3,238
7.276357358481142,0,0,3,3,238
7.478084229586254,0,0,2,3,239
7.6089244711850705,0,0,2,2,240
8.106962276131487,0,0,1,3,240
8.680382312935512,0,0,1,1,242
9.24716210096241,0,0,1,0,243
9.654941957289864,0,0,0,0,244
100,0,0,0,0,244
