#Time,A,B,C,D,E
0,0,302,26,2,0
0.10215914981893438,0,278,45,7,0
0.20403884364364908,0,245,65,18,2
0.3060991447729434,0,207,94,23,6
0.40640092291289265,0,191,100,29,10
0.5086910596765427,0,174,103,41,12
0.6091033177831078,0,157,109,47,17
0.709401049078341,0,141,113,51,25
0.8130679963847851,0,134,108,57,31
0.9151813849935273,0,123,99,76,32
1.0153064715421187,0,104,104,85,37
1.1162571940529467,0,91,106,90,43
1.2172511201804936,0,85,105,89,51
1.3317479360715214,0,81,101,85,63
1.432151577779608,0,72,100,86,72
1.5398401449321615,0,67,96,85,82
1.6428858854251238,0,57,93,88,92
1.744502692690657,0,48,93,87,102
1.846866113728583,0,44,90,88,108
1.9469231595195875,0,38,87,88,117
2.0498056484397993,0,36,78,87,129
2.152866394778221,0,35,67,88,140
2.257915709340652,0,32,65,83,150
2.376432207429224,0,28,61,84,157
2.4852397273314346,0,27,56,81,166
2.588142399329642,0,22,58,76,174
2.690187935126272,0,21,55,70,184
2.7931446125649004,0,18,53,67,192
2.8938177928039237,0,16,51,64,199
2.998557778784599,0,10,51,61,208
3.1039374597239973,0,10,45,64,211
3.216637551768249,0,9,45,58,218
3.3243381115078807,0,7,43,57,223
3.441797706097583,0,6,40,55,229
3.5538111663387926,0,5,38,54,233
3.6554578459943494,0,4,38,51,237
3.763120762263215,0,4,34,51,241
3.8674830165505587,0,4,33,49,244
3.979888818260062,0,4,29,49,248
4.085005079341137,0,4,27,45,254
4.197623647696397,0,4,25,43,258
4.308602854168871,0,4,23,40,263
4.417276973276728,0,3,22,38,267
4.5223325404868815,0,2,21,33,274
4.625699213929791,0,2,19,32,277
4.7268427330642275,0,2,17,28,283
4.8315058819928876,0,2,16,26,286
4.943482262892207,0,2,14,24,290
5.096780134918672,0,2,12,24,292
5.238899202313834,0,2,12,19,297
5.3980238508304685,0,1,12,20,297
5.518395010003918,0,1,9,19,301
5.655494561366821,0,1,7,20,302
5.794851828370711,0,1,6,18,305
5.958620042749709,0,1,5,16,308
6.0719960945179405,0,1,3,16,310
6.191692961646502,0,1,2,14,313
6.292711036371821,0,1,2,13,314
6.577935461754012,0,1,2,10,317
6.715504679399822,0,1,2,8,319
6.834563597718191,0,1,2,7,320
6.98098023075643,0,1,1,6,322
7.099810787930145,0,1,1,5,323
7.250850878305135,0,1,0,6,323
7.587280721641402,0,0,1,5,324
7.764393488850194,0,0,1,4,325
7.9543516062366235,0,0,1,3,326
8.545794176013603,0,0,1,2,327
9.877431392122912,0,0,0,2,328
11.118524045885305,0,0,0,1,329
11.500391952191961,0,0,0,0,330
100,0,0,0,0,330
