#Time,A,B,C,D,E
0,50,3,129,192,125
0.10056881559692182,48,5,116,183,147
0.201279881869594,46,7,103,178,165
0.30470846406247926,42,10,96,168,183
0.4125671363994933,40,11,89,159,200
0.5287550194397037,37,12,84,151,215
0.6367040228263251,36,13,76,144,230
0.7439675791900174,30,17,71,135,246
0.844735382446104,29,16,64,129,261
0.9498953502507264,26,18,59,126,270
1.0536378026546427,21,19,59,105,295
1.1545642969469672,17,21,55,107,299
1.2626625589205511,14,22,53,103,307
1.3843425126506652,11,22,55,94,317
1.4873942781500509,9,21,55,95,319
1.5927177736343792,9,17,57,88,328
1.6936710444504528,8,14,56,80,341
1.7954569971438357,7,13,51,77,351
1.8982256878376569,6,11,50,68,364
1.9990308354533761,5,11,46,69,368
2.1179470035840176,5,10,43,65,376
2.2518565905671815,4,11,40,58,386
2.355201803261346,4,8,41,57,389
2.4597778048656416,4,6,38,58,393
2.5630255233353494,3,7,35,56,398
2.6661455556186686,3,7,32,58,399
2.878879719065351,3,6,26,58,406
2.98266049603442,3,6,22,52,416
3.0923329501145607,1,8,20,48,422
3.195428893167553,1,8,20,43,427
3.3037891487490336,1,6,20,37,435
3.4407403500628444,1,5,21,35,437
3.552715158199688,1,4,19,35,440
3.6676704020213453,1,4,17,34,443
3.7917941748067987,1,3,17,30,448
3.926880310019525,1,2,15,29,452
4.035138386526455,1,2,14,28,454
4.135264813491655,1,2,12,26,458
4.244356400370119,1,1,11,24,462
4.484145453081795,1,1,9,24,464
4.6481254937948115,1,1,8,21,468
4.752704979919663,0,2,7,20,470
4.864503755427631,0,2,6,18,473
4.967991862181279,0,2,6,16,475
5.133443149371758,0,1,7,15,476
5.309720645966177,0,1,7,12,479
5.4801293936503495,0,1,7,11,480
5.5826325787406335,0,1,5,11,482
5.8330927325474935,0,1,5,8,485
6.0204338234164965,0,0,6,6,487
6.311376088698856,0,0,5,7,487
6.422458226336385,0,0,4,6,489
6.665571380260422,0,0,2,8,489
6.882251728155202,0,0,2,6,491
7.053486207156343,0,0,2,5,492
7.350837310299641,0,0,2,4,493
7.521659555292282,0,0,1,4,494
7.7159581111639595,0,0,1,2,496
9.461665929546205,0,0,0,2,497
10.173848334984655,0,0,0,1,498
10.839945459722914,0,0,0,0,499
100,0,0,0,0,499
