#Time,A,B,C,D,E
0,45,15,63,77,0
0.1002038836398211,39,20,60,73,8
0.2115510816654219,37,21,51,76,15
0.34066771628221065,34,20,51,73,22
0.44466601104523046,31,20,49,67,33
0.5489398065285951,27,20,51,63,39
0.6535244748490439,27,18,48,64,43
0.7605175693843156,21,24,43,64,48
0.8633063877484703,17,27,38,66,52
0.9655276453138175,16,23,36,63,62
1.0699565492843333,15,22,33,59,71
1.1886296401437606,14,21,29,57,79
1.3027772517760705,11,20,32,47,90
1.4052224037160914,10,20,29,49,92
1.5072787120889397,10,18,29,45,98
1.6160604656332074,9,16,27,47,101
1.7182177706368038,7,14,27,43,109
1.8217065855941001,6,15,25,39,115
1.9266851851182027,5,14,24,38,119
2.0351803503133885,4,13,22,38,123
2.144304493142447,4,13,21,34,128
2.2536367742414556,3,14,19,32,132
2.3667599262788723,3,14,17,30,136
2.5039591593999453,2,12,16,31,139
2.6171755393094247,2,12,15,27,144
2.725004724302489,2,11,15,26,146
2.864875658657551,2,10,13,25,150
2.9668128415044017,1,9,13,26,151
3.1069687677766846,1,8,12,25,154
3.2243602515377607,0,8,9,26,157
3.331432719956138,0,6,10,26,158
3.439474463695997,0,4,10,26,160
3.567501424961,0,4,10,23,163
3.6804913411128615,0,4,7,24,165
3.8252062663706674,0,4,6,21,169
3.942665264789185,0,3,6,20,171
4.051020208567721,0,3,5,21,171
4.199201263721366,0,3,5,18,174
4.306965540334541,0,2,6,16,176
4.429743214808076,0,1,6,17,176
4.536271571909902,0,0,6,16,178
4.685955371268464,0,0,5,16,179
4.8021172480137135,0,0,5,15,180
4.9498886670762,0,0,5,14,181
5.076071194569124,0,0,5,12,183
5.187027236340074,0,0,5,10,185
5.399518693907064,0,0,3,11,186
5.506657342137438,0,0,1,13,186
5.672470500891749,0,0,1,10,189
5.936238079569777,0,0,0,8,192
6.087449186875278,0,0,0,7,193
6.35959694602963,0,0,0,6,194
6.66844728481011,0,0,0,5,195
6.836799670703948,0,0,0,4,196
7.184915122123691,0,0,0,3,197
7.298714785011697,0,0,0,2,198
7.74687491539008,0,0,0,1,199
100,0,0,0,0,200
