#Time,A,B,C,D,E
0,0,35,36,44,0
0.10238758294394158,0,33,33,46,3
0.20572191364617545,0,31,30,45,9
0.3245472113499491,0,26,32,40,17
0.4261051940638813,0,24,29,37,25
0.5280559537074915,0,21,31,36,27
0.6366187441657173,0,20,29,34,32
0.7484714999035786,0,17,26,39,33
0.8672113156861502,0,15,25,41,34
0.9675909747337029,0,11,27,38,39
1.067854571062695,0,10,26,34,45
1.181082230525759,0,10,25,31,49
1.2959111763420015,0,8,23,29,55
1.416133959480044,0,8,22,25,60
1.5377594806239538,0,6,21,25,63
1.6514331007426395,0,6,17,25,67
1.7567664510165177,0,5,17,22,71
1.864663620169527,0,5,14,22,74
1.9748232563788495,0,5,11,23,76
2.0750792122273998,0,5,10,20,80
2.1788526411408404,0,5,9,19,82
2.308557014894765,0,5,7,18,85
2.453941956354176,0,5,6,17,87
2.591570931330469,0,5,6,13,91
2.7397311347935966,0,3,8,11,93
2.9055453907363797,0,1,7,10,97
3.123360889675115,0,1,4,12,98
3.265761497068539,0,1,3,11,100
3.39757373416583,0,1,3,7,104
3.5300326504449404,0,1,1,8,105
3.640009865116758,0,1,1,7,106
4.001335464538792,0,1,1,5,108
4.393848175835958,0,0,2,3,110
4.611855612803006,0,0,2,2,111
4.878902795614495,0,0,2,0,113
5.578485150794283,0,0,1,1,113
6.3923816310577,0,0,0,2,113
6.981586751773722,0,0,0,1,114
7.221189872907884,0,0,0,0,115
100,0,0,0,0,115
