#Time,A,B,C,D,E
0,29,0,25,142,57
0.10507237917416284,29,0,24,135,65
0.21231023264667645,25,3,24,121,80
0.3154814884964553,22,6,23,110,92
0.4157425452978481,22,4,23,100,104
0.5214009306064884,19,5,25,89,115
0.6368487075290716,15,9,24,82,123
0.7461752568895115,14,10,22,78,129
0.8466783946279667,12,10,19,74,138
0.9476878499700762,9,12,19,65,148
1.0584014018120569,8,12,19,55,159
1.1593487374830533,8,11,19,49,166
1.2808850474279603,8,10,19,48,168
1.3936807359449834,6,11,15,47,174
1.515725552580883,6,11,13,44,179
1.6220729891412675,5,12,12,40,184
1.7332871774550114,5,9,13,34,192
1.8373341506089156,5,7,13,29,199
1.9991992367352815,5,7,13,27,201
2.1731827352874773,5,6,13,25,204
2.2913300031604544,4,6,12,21,210
2.404947273422036,4,6,9,20,214
2.5159665714221235,3,6,6,21,217
2.6314235135611446,3,6,6,18,220
2.7396326086125953,2,7,4,20,220
2.842373992340246,2,7,4,17,223
2.973189916307926,2,6,4,14,227
3.103498745217302,2,4,5,13,229
3.2241183332063708,1,5,5,12,230
3.330056342267061,1,4,6,10,232
3.505345559101659,1,3,6,10,233
3.6079987165017986,1,2,7,9,234
3.7306769506406106,1,2,6,9,235
3.849048724408603,1,1,6,9,236
3.9789541181570565,1,1,4,10,237
4.111829485881719,1,1,4,7,240
4.459832030211394,1,1,4,6,241
4.672618134462425,1,1,3,6,242
4.869250512824479,1,1,2,7,242
5.110406287124468,1,1,2,5,244
5.39289601212438,1,1,1,5,245
5.721916839416478,1,1,0,5,246
5.844014815670702,1,1,0,3,248
6.042790488651534,1,0,1,3,248
6.547525310170975,1,0,1,2,249
7.353138079551638,0,1,1,2,249
7.462490924979145,0,1,0,3,249
7.803267052682206,0,1,0,2,250
8.402890647915662,0,0,1,2,250
8.630900532517238,0,0,1,1,251
9.770839483518065,0,0,0,2,251
10.63999208968632,0,0,0,1,252
10.802346501667925,0,0,0,0,253
100,0,0,0,0,253
