#Time,A,B,C,D,E
0,16,107,190,0,57
0.10373612590095833,14,103,183,13,57
0.20706640294880183,11,93,165,40,61
0.3139637314490144,10,83,162,49,66
0.4221100157862281,9,75,156,59,71
0.5224234957136766,9,69,141,74,77
0.6234519236634635,8,63,135,82,82
0.7236606404606241,8,58,127,89,88
0.8246349841371085,8,54,118,92,98
0.9270490933950168,8,50,111,95,106
1.0298511049285173,7,46,105,100,112
1.1322479271067145,7,40,99,100,124
1.2355239840329704,7,38,89,98,138
1.338186712176641,5,37,82,96,150
1.446365937096264,4,34,76,96,160
1.5513260987997806,4,31,74,94,167
1.6544219381720686,3,28,65,103,171
1.7606354626529566,1,27,62,101,179
1.8664974118553463,0,25,56,97,192
1.9726413853011078,0,22,56,89,203
2.0778998972166134,0,18,53,83,216
2.187074311165948,0,15,51,80,224
2.294646300054219,0,15,44,78,233
2.396458087522761,0,14,41,73,242
2.502509421917037,0,13,35,67,255
2.605173846190997,0,12,31,62,265
2.7302958671970736,0,11,31,57,271
2.838722356420812,0,10,25,56,279
2.939593770867478,0,9,25,52,284
3.058084761478405,0,6,23,48,293
3.1683048798664095,0,5,23,46,296
3.279829565254014,0,4,23,42,301
3.386549192652356,0,4,21,38,307
3.5155527906012765,0,4,20,31,315
3.645068285761485,0,4,18,29,319
3.7549969538167463,0,4,18,25,323
3.890816290574841,0,3,19,20,328
4.001576398839424,0,1,20,17,332
4.126360645950467,0,1,16,18,335
4.279076239431474,0,1,15,16,338
4.406451998953714,0,0,16,15,339
4.515772915647868,0,0,13,16,341
4.645845568946448,0,0,12,14,344
4.756396488222533,0,0,10,15,345
4.875791769490434,0,0,9,13,348
4.981358974053542,0,0,5,17,348
5.102828152630834,0,0,5,14,351
5.303898908610083,0,0,4,11,355
5.414642975982408,0,0,4,9,357
5.576476906716143,0,0,3,10,357
5.716050615890686,0,0,3,8,359
5.931318484593733,0,0,3,7,360
6.064873841667217,0,0,1,9,360
6.187190935382827,0,0,0,10,360
6.403176915852734,0,0,0,7,363
6.6738381506691,0,0,0,4,366
7.1994675391550595,0,0,0,3,367
8.009743661589539,0,0,0,2,368
9.622736441515153,0,0,0,0,370
100,0,0,0,0,370
