#Time,A,B,C,D,E
0,34,98,216,0,75
0.10057563822398723,29,95,200,24,75
0.20494335733914873,29,86,192,37,79
0.30792101728919435,27,79,189,44,84
0.40933494874845383,24,76,177,56,90
0.5115136003490898,22,66,165,75,95
0.6122294234783877,20,63,159,84,97
0.7152871346428848,18,61,150,91,103
0.8163621823660528,15,54,142,102,110
0.9183077461936503,12,52,140,98,121
1.0239743723002506,12,49,128,98,136
1.1241431998373919,10,42,123,97,151
1.227106382114233,7,37,118,101,160
1.3301938401660314,6,35,110,98,174
1.4303216081227639,4,34,99,106,180
1.5350761792881797,4,32,82,114,191
1.6369265113389182,4,28,79,109,203
1.7474498941818037,2,29,73,106,213
1.8540457618174593,2,26,73,103,219
1.9545740458311407,2,20,69,102,230
2.0553814223571445,2,18,65,95,243
2.159489273373496,2,17,60,89,255
2.2621693828333336,1,16,56,86,264
2.362213592179134,1,15,50,88,269
2.462706681412807,1,14,45,80,283
2.566099172903666,1,12,43,75,292
2.6821186133661974,1,11,40,73,298
2.784536911674604,1,10,38,70,304
2.8908437521241006,1,9,30,73,310
2.9976671995960453,0,8,31,65,319
3.1501355612627884,0,7,30,58,328
3.2555025989562307,0,6,27,49,341
3.3689002982015115,0,4,25,44,350
3.540284082286002,0,4,23,40,356
3.6580087649303668,0,1,23,39,360
3.7728005047685547,0,0,21,39,363
3.892596397714848,0,0,18,38,367
4.024054176255723,0,0,17,37,369
4.180094211928123,0,0,15,37,371
4.315585549548778,0,0,12,38,373
4.424696092428597,0,0,9,36,378
4.534784400614669,0,0,8,31,384
4.6367265638906385,0,0,7,28,388
4.753101436436463,0,0,7,23,393
4.884300100958968,0,0,7,17,399
5.1731198395332205,0,0,5,17,401
5.357225418053488,0,0,5,14,404
5.471962539556364,0,0,5,11,407
5.592375439979638,0,0,4,12,407
5.764515975423501,0,0,3,13,407
5.8645332681860545,0,0,3,11,409
6.166176334055202,0,0,2,10,411
6.343140702449544,0,0,1,8,414
6.744446479717148,0,0,1,7,415
7.004966557848849,0,0,1,6,416
7.385384934387262,0,0,1,4,418
7.570954389968872,0,0,1,3,419
7.997725979164746,0,0,1,2,420
8.69199131133234,0,0,0,1,422
8.81734075774035,0,0,0,0,423
100,0,0,0,0,423
