#Time,A,B,C,D,E
0,0,32,31,173,21
0.10232831324281497,0,28,33,156,40
0.2045318808244723,0,24,35,150,48
0.30551080717131246,0,23,33,140,61
0.4063835200480166,0,21,30,125,81
0.510342621286955,0,19,29,115,94
0.611532369276853,0,17,27,113,100
0.715584838243362,0,16,23,102,116
0.8163101702414292,0,15,24,92,126
0.9201860522625216,0,15,20,87,135
1.0447050813619994,0,11,22,78,146
1.1550312056548326,0,10,20,79,148
1.264136342726578,0,8,20,74,155
1.368997800937365,0,6,21,67,163
1.4718860095949822,0,5,20,61,171
1.5928274311660977,0,5,16,55,181
1.7009623725456207,0,5,15,52,185
1.8016469735882508,0,4,14,45,194
1.908353725135711,0,2,13,40,202
2.0084348075474674,0,2,9,38,208
2.1259331590084005,0,2,8,35,212
2.245499961813055,0,2,6,31,218
2.3852737758910125,0,2,6,27,222
2.5722425475787496,0,2,4,25,226
2.7495743650928324,0,2,3,21,231
2.9337513717503363,0,1,4,18,234
3.1092451256654705,0,0,5,16,236
3.3612751698548275,0,0,5,15,237
3.487369103017693,0,0,4,10,243
3.903428522372267,0,0,4,9,244
4.164374818644776,0,0,4,6,247
4.328826141003514,0,0,4,5,248
4.431206504628591,0,0,1,6,250
4.68573013753543,0,0,1,5,251
4.856664029420977,0,0,0,5,252
5.196748753770302,0,0,0,4,253
5.678409053545713,0,0,0,3,254
5.792221186142162,0,0,0,1,256
5.950597237823107,0,0,0,0,257
100,0,0,0,0,257
