#Time,A,B,C,D,E
0,0,51,0,8,106
0.11819418010339273,0,44,6,9,106
0.22629478322504193,0,38,10,11,106
0.34577830496093104,0,35,11,12,107
0.4500378631729665,0,30,14,12,109
0.5890491566343172,0,28,16,12,109
0.6907602655618127,0,26,16,13,110
0.8195026485907559,0,23,18,10,114
0.9558135852413281,0,21,17,11,116
1.0830260410689745,0,19,16,14,116
1.2101446105819438,0,14,20,15,116
1.3329193776081611,0,13,17,19,116
1.4430375865679346,0,11,17,18,119
1.5484077620248513,0,10,18,14,123
1.6933350758466301,0,9,19,12,125
1.798642882073051,0,8,15,16,126
1.9004617509250623,0,7,13,17,128
2.004564313571976,0,5,12,18,130
2.104668369872534,0,5,12,16,132
2.2852147207962026,0,5,9,18,133
2.4072279333335804,0,5,8,17,135
2.5140350274497405,0,4,6,17,138
2.7437974481628444,0,3,5,17,140
2.8467808702440958,0,3,5,15,142
2.9607266385212605,0,3,5,13,144
3.101207903658039,0,1,6,13,145
3.3203278742691538,0,1,5,12,147
3.431830299005019,0,1,4,10,150
3.571079401473159,0,1,3,10,151
3.7473214662042795,0,1,2,10,152
3.8762374322873723,0,1,2,8,154
4.034805548094411,0,1,2,7,155
4.255178067818745,0,1,1,6,157
4.432842561144271,0,1,0,6,158
4.849794922974637,0,1,0,4,160
5.031321596329005,0,1,0,3,161
5.2376584828672605,0,0,1,3,161
5.568902157020815,0,0,0,4,161
5.788214892387445,0,0,0,2,163
7.653732667892818,0,0,0,1,164
7.84349427672839,0,0,0,0,165
100,0,0,0,0,165
