#Time,A,B,C,D,E
0,83,167,53,0,0
0.10046759483640695,78,152,68,5,0
0.2029841981311865,75,139,75,11,3
0.30899429758372493,65,134,83,17,4
0.41114903549909204,55,136,84,24,4
0.5149693547947763,49,127,95,27,5
0.6157592829585933,42,126,97,31,7
0.7160317006333905,38,116,98,42,9
0.8179822945625692,30,112,101,46,14
0.9206312490998737,27,100,107,54,15
1.022503200119582,24,95,104,58,22
1.123836664292525,23,92,107,56,25
1.224540839249838,21,87,105,60,30
1.3263071497526149,19,84,97,66,37
1.4290471959631712,18,78,93,73,41
1.5294047798009893,16,71,89,75,52
1.6338697227906762,15,65,89,78,56
1.7401440485909399,14,60,85,77,67
1.842678492690532,14,55,83,79,72
1.944182030858122,11,52,81,80,79
2.0479049636642586,11,48,80,74,90
2.149447521182029,11,39,80,75,98
2.2501412082566246,9,38,74,74,108
2.357356388790445,8,35,71,75,114
2.458214664558912,8,30,64,81,120
2.5587449380395912,6,31,58,82,126
2.678065697388902,4,27,59,77,136
2.781452545995558,4,26,54,78,141
2.8902349733700667,4,21,55,71,152
2.9971186952904456,4,19,50,67,163
3.1017825097885803,4,17,48,67,167
3.2062826216989024,3,16,44,64,176
3.3221628739920086,3,13,41,64,182
3.4247202370255474,3,12,42,59,187
3.531625990492284,3,11,43,52,194
3.6712687021754555,3,9,40,54,197
3.7858719613885263,2,9,39,54,199
3.914410158181825,2,8,38,51,204
4.032490127815282,1,9,31,48,214
4.13361877106932,1,9,27,48,218
4.244163265420083,1,9,24,47,222
4.34496719192612,1,7,25,44,226
4.460906732503984,0,8,20,45,230
4.570563335271448,0,8,19,41,235
4.674387205969703,0,6,17,44,236
4.806390639597454,0,4,19,35,245
4.909140798867507,0,2,18,34,249
5.057190799799175,0,2,16,29,256
5.166892143646474,0,2,14,30,257
5.267274185027933,0,2,13,29,259
5.410253686661618,0,2,12,26,263
5.513967870096212,0,2,9,27,265
5.614312395401934,0,2,7,26,268
5.72047203462418,0,2,5,26,270
5.855861297253724,0,2,5,21,275
5.963221797493232,0,2,5,18,278
6.090476315346242,0,1,5,16,281
6.25470586808865,0,0,5,16,282
6.422198940444405,0,0,4,14,285
6.8232713359442165,0,0,3,11,289
7.443082213487728,0,0,3,9,291
7.6124477882068,0,0,2,10,291
7.772517484460629,0,0,2,6,295
8.20140032133554,0,0,2,5,296
8.682262875061049,0,0,1,6,296
8.86826681810505,0,0,1,4,298
9.300078832266651,0,0,1,3,299
9.827197950992238,0,0,1,2,300
10.282430541580306,0,0,1,1,301
10.418883328807503,0,0,0,2,301
11.150462791263799,0,0,0,1,302
100,0,0,0,0,303
