#Time,A,B,C,D,E
0,38,337,93,36,54
0.10208229989775858,36,315,103,47,57
0.20264621248928041,34,291,122,53,58
0.3035853772781262,30,258,141,65,64
0.4044541569933923,26,238,150,74,70
0.5056668099277173,24,221,154,78,81
0.6079858922270737,23,198,165,81,91
0.7082192345240625,19,182,167,86,104
0.8107973246142387,16,172,164,94,112
0.911576495702515,15,160,162,102,119
1.0116712462008794,14,150,151,116,127
1.115380951022278,10,141,148,121,138
1.2163857902116244,8,136,140,115,159
1.3197373571823374,7,117,140,129,165
1.4231428353329825,6,105,138,133,176
1.5261710234600545,6,99,136,129,188
1.6289502041362036,6,94,130,129,199
1.73087370889975,6,85,130,127,210
1.8375382782818532,6,80,118,131,223
1.9379329183810317,6,75,112,133,232
2.0411937476364996,5,68,103,134,248
2.145283262177061,5,60,101,130,262
2.246258145309948,5,53,99,126,275
2.348028477851508,5,49,92,124,288
2.4490607715026886,5,44,90,120,299
2.5496108846121848,5,36,90,116,311
2.6582754134383375,5,28,84,125,316
2.7671811047178094,5,28,74,122,329
2.8690006945732107,4,27,67,123,337
2.970766056690756,4,26,62,114,352
3.0732971493534955,4,25,57,110,362
3.1745563246147945,4,22,54,103,375
3.2791173507031237,3,23,50,97,385
3.388113200110166,3,22,39,96,398
3.4929075397922964,3,22,36,91,406
3.5992952724787646,3,19,34,90,412
3.7112995771832704,2,19,34,81,422
3.826471090086335,2,15,32,81,428
3.9319890318351476,2,13,33,72,438
4.042692736628282,2,12,30,74,440
4.142945207040699,2,12,27,64,453
4.253947362689337,2,9,26,56,465
4.354407463522744,2,9,22,53,472
4.462170747878921,2,6,22,52,476
4.586836328007838,1,6,21,45,485
4.700774445619386,1,6,17,42,492
4.813169836880343,0,7,15,43,493
4.914282024463372,0,7,13,42,496
5.020779015604677,0,5,15,39,499
5.144065407406248,0,5,13,34,506
5.263207132589191,0,5,10,32,511
5.375857444560633,0,5,7,29,517
5.476807470876029,0,5,6,28,519
5.603371138921649,0,5,5,25,523
5.747882435206957,0,5,4,21,528
5.8484592960287936,0,5,3,20,530
5.952668042102494,0,5,3,17,533
6.172048016970154,0,5,2,16,535
6.3874744540925095,0,4,2,17,535
6.559459371084165,0,4,2,14,538
6.75774267289865,0,3,3,13,539
6.913242915024895,0,3,3,12,540
7.042193967963263,0,3,3,10,542
7.239825987997195,0,2,4,9,543
7.508636076534071,0,2,3,9,544
7.6878027530159985,0,2,2,8,546
7.867793197059365,0,2,1,9,546
8.026985840763569,0,1,2,8,547
8.254821786493,0,1,2,7,548
8.360960064484564,0,1,2,5,550
8.551053500841325,0,1,2,4,551
8.887570796522795,0,0,3,4,551
9.008601053141525,0,0,2,2,554
9.128134204450332,0,0,2,1,555
9.255674630541387,0,0,2,0,556
9.720740794097308,0,0,1,1,556
9.827220294284963,0,0,0,2,556
10.07870147467026,0,0,0,1,557
10.59461871441044,0,0,0,0,558
100,0,0,0,0,558
