#Time,A,B,C,D,E
0,0,0,13,65,296
0.10287543846002317,0,0,12,60,302
0.2085861066363626,0,0,11,54,309
0.31798399735979643,0,0,9,49,316
0.42400980112129244,0,0,9,43,322
0.5271114854238882,0,0,9,38,327
0.6333669705161815,0,0,8,34,332
0.7607273104695733,0,0,8,29,337
0.8956481434017693,0,0,6,29,339
1.0172903927560057,0,0,6,26,342
1.204857910518663,0,0,6,24,344
1.3372031552252026,0,0,5,24,345
1.4922338575190883,0,0,5,21,348
1.6935976386793379,0,0,4,19,351
1.828590764961137,0,0,3,18,353
1.9625779220979063,0,0,3,17,354
2.089403211277012,0,0,2,17,355
2.2368429504886227,0,0,2,13,359
2.344584422591183,0,0,2,11,361
2.7280394636471232,0,0,2,9,363
2.8612305194019583,0,0,2,8,364
3.0048162864700307,0,0,1,7,366
3.129793631597209,0,0,1,6,367
3.4140110355149496,0,0,0,6,368
3.524787248987512,0,0,0,5,369
3.6537478860273023,0,0,0,4,370
4.091865090121761,0,0,0,3,371
4.385752053391058,0,0,0,2,372
4.653723360625161,0,0,0,1,373
5.6164308405747105,0,0,0,0,374
100,0,0,0,0,374
