#Time,A,B,C,D,E
0,39,142,272,141,42
0.103873721821049,37,130,266,146,57
0.2059346751003674,32,121,249,157,77
0.3082822355087735,31,108,237,165,95
0.4096645631374748,25,105,225,173,108
0.5105064370671869,21,103,209,171,132
0.6114475333694706,21,97,182,187,149
0.713864538715874,18,90,176,190,162
0.8138765430322833,12,87,168,195,174
0.916288247102071,12,79,170,185,190
1.0183239729450393,10,75,158,174,219
1.1312605461556113,9,70,145,175,237
1.234681431622384,8,66,141,171,250
1.3349274434493192,8,56,136,169,267
1.4353379718223653,7,49,129,172,279
1.535912113023703,7,42,123,172,292
1.6401168130516863,6,39,111,175,305
1.7450504558504278,5,40,103,161,327
1.8473944739118269,5,38,97,156,340
1.9543109662854898,5,36,85,153,357
2.0557801177004813,4,33,86,142,371
2.158840512542414,3,28,81,143,381
2.2614997121062124,2,25,78,141,390
2.3651001680202484,1,23,77,136,399
2.4660189891135724,1,22,67,133,413
2.5715715030960564,1,22,57,134,422
2.681821951330407,1,21,54,129,431
2.782898172312462,1,19,51,125,440
2.8871531123608234,1,17,47,118,453
2.999705793046047,1,16,45,109,465
3.1039920195539175,1,15,41,97,482
3.2049953743361996,1,14,39,87,495
3.311008405202573,1,13,35,80,507
3.4115706000446404,1,13,28,75,519
3.5139115406928876,1,13,25,71,526
3.6157616489241517,1,12,24,68,531
3.717888129568759,1,11,23,66,535
3.8390495340322093,1,11,21,62,541
3.952591295022305,1,10,22,55,548
4.060990207066962,1,9,22,55,549
4.182297522947535,1,8,19,58,550
4.3135341680408095,1,7,16,56,556
4.436122408784852,1,6,17,48,564
4.555916170800685,1,5,17,42,571
4.6811812034262035,1,5,16,39,575
4.809089327622813,1,4,16,33,582
4.913160672391484,1,3,17,31,584
5.026624714570199,1,3,15,30,587
5.157746340660349,1,3,14,26,592
5.268448353982899,1,3,12,28,592
5.388147981687142,1,2,12,27,594
5.494071712783327,1,2,9,23,601
5.606298097123434,1,2,8,21,604
5.714817043451586,1,1,5,21,608
5.907361000286466,0,2,5,17,612
6.057138035575142,0,2,4,14,616
6.1913847091432475,0,2,3,14,617
6.304217794239719,0,1,3,12,620
6.410975928496262,0,1,3,9,623
6.596209092929414,0,1,3,8,624
6.720760588542086,0,1,3,6,626
6.917163408180337,0,1,2,6,627
7.097276551934225,0,1,0,7,628
7.227223427366258,0,0,1,5,630
7.430085818784525,0,0,0,5,631
7.683399360716087,0,0,0,4,632
7.786244723928502,0,0,0,3,633
8.028975361221121,0,0,0,2,634
8.838775942388327,0,0,0,1,635
8.95490920409825,0,0,0,0,636
100,0,0,0,0,636
