#Time,A,B,C,D,E
0,26,40,0,30,136
0.10138927692215424,25,35,5,30,137
0.20320721325136704,20,36,8,27,141
0.3072225541601303,20,32,11,25,144
0.4266891185577517,16,31,15,21,149
0.5336085442204502,16,28,17,20,151
0.6399303923435128,16,25,18,20,153
0.7580773066309886,13,26,20,17,156
0.8795795726600252,13,22,20,19,158
0.9814381898763243,10,20,25,18,159
1.0854851437168915,10,17,27,16,162
1.1857126934320312,9,16,27,16,164
1.2893419912104234,8,14,26,18,166
1.3908653897747452,8,12,25,19,168
1.5079116975353744,7,13,22,20,170
1.61598334206399,5,13,23,17,174
1.7282677681295644,5,12,24,14,177
1.8353427465811594,5,12,23,14,178
1.946986148352741,5,11,20,14,182
2.06601701858302,5,11,17,16,183
2.2141084905796196,3,11,18,16,184
2.336272684229536,3,6,20,16,187
2.4489034615897545,3,6,19,15,189
2.5944794980512262,2,6,20,12,192
2.744923096199973,2,3,22,12,193
2.8457964979248596,2,2,20,13,195
2.9484225119549845,2,2,14,18,196
3.0567539211953236,1,3,10,22,196
3.1572464692221165,1,3,8,21,199
3.27361550870597,1,1,8,19,203
3.409418896285655,1,1,6,18,206
3.5180673096151773,1,1,6,13,211
3.6483506703702293,1,1,5,9,216
3.772188718698264,1,1,4,10,216
3.9014012136835863,1,1,4,9,217
4.153546425250102,1,1,2,11,217
4.312181019381025,1,1,1,11,218
4.425095901494063,1,1,0,10,220
4.554517081701109,1,1,0,9,221
4.729660523292649,1,1,0,7,223
4.990804979297296,1,1,0,6,224
5.453417703753674,1,1,0,5,225
5.578956099329293,0,2,0,4,226
5.708692975147126,0,1,1,3,227
5.825237508064113,0,0,2,2,228
5.989932026773625,0,0,2,1,229
7.206647384488086,0,0,1,2,229
7.507121866178584,0,0,0,2,230
8.64332470293272,0,0,0,1,231
9.691810111463287,0,0,0,0,232
100,0,0,0,0,232
