#Time,A,B,C,D,E
0,575,0,73,4,1
0.10204591366179055,519,54,69,10,1
0.20223466534183623,474,94,72,10,3
0.30408564994504333,429,129,73,18,4
0.4042829848554786,391,153,76,27,6
0.5051943905519952,349,182,86,29,7
0.6053970989991164,322,190,98,31,12
0.7061599853815378,291,204,109,35,14
0.8065558969070545,270,206,118,42,17
0.908450040246744,234,223,124,52,20
1.0105272154467264,209,227,133,61,23
1.111508901195719,189,213,153,67,31
1.2129491237221446,174,199,168,67,45
1.312990161742112,159,196,173,76,49
1.414354180443444,146,189,176,79,63
1.5165743238815887,131,182,188,83,69
1.6230934530751175,115,180,185,98,75
1.7238520254177023,106,170,187,109,81
1.8255328939473527,100,158,196,111,88
1.9270698799649395,89,159,185,120,100
2.0294202440094127,82,149,182,129,111
2.1307633005714903,76,137,179,132,129
2.2312627156740246,70,128,178,136,141
2.3341482337548256,65,119,169,146,154
2.4355711706557845,58,110,169,151,165
2.5361321297830894,47,104,167,155,180
2.641193999404862,43,101,156,161,192
2.743549548336153,41,93,153,159,207
2.847023302726826,36,90,140,165,222
2.9529277232759017,29,93,131,162,238
3.0531507909831963,29,84,127,158,255
3.153327122813953,27,78,122,162,264
3.257478521414772,26,76,109,165,277
3.358387653899841,22,74,102,168,287
3.4584235107229984,19,67,101,168,298
3.560578883970531,13,62,99,168,311
3.669727254233412,12,62,91,150,338
3.7714161913938775,11,58,89,141,354
3.8722768108001056,10,57,83,137,366
3.9745373235185077,9,53,77,137,377
4.078964690859321,8,49,76,121,399
4.189689488736626,8,45,68,122,410
4.2972586924061,8,39,66,121,419
4.397799897600387,8,34,64,115,432
4.500084389926903,8,31,63,109,442
4.6019849172834215,8,25,63,104,453
4.706539602376588,7,23,63,102,458
4.810680898754196,7,20,57,103,466
4.912420451386265,7,16,53,101,476
5.021824608582829,6,16,51,93,487
5.13371555311332,5,16,42,96,494
5.2379668785628075,4,16,38,91,504
5.358088301220015,4,15,36,84,514
5.478011136821071,3,15,33,81,521
5.579968106558333,3,12,33,77,528
5.700680071755912,3,11,32,70,537
5.811175086641699,3,11,30,61,548
5.926081464321906,3,10,29,55,556
6.029340075814554,3,7,28,49,566
6.132829194831076,2,7,21,51,572
6.260487130436655,2,4,22,44,581
6.360970361804451,2,4,21,42,584
6.476508049988436,2,4,18,40,589
6.58384638578382,2,4,17,38,592
6.7756477428604684,2,4,15,37,595
6.885262445941924,1,5,14,32,601
7.0060375548442195,1,3,16,29,604
7.172602971102186,1,2,16,28,606
7.276615664909229,1,2,13,26,611
7.42297648179683,1,2,10,25,615
7.597583984693645,0,3,9,23,618
7.7187374635936115,0,2,9,19,623
7.85825358160571,0,1,8,21,623
8.03748689119299,0,1,5,22,625
8.180935346272632,0,1,4,22,626
8.299849702925078,0,0,4,21,628
8.482846503212825,0,0,4,20,629
8.596267938192845,0,0,2,20,631
8.774206951446159,0,0,1,19,633
8.876629974656662,0,0,1,15,637
9.01489179298893,0,0,1,14,638
9.17033115701934,0,0,1,11,641
9.281472174880788,0,0,1,10,642
9.426712830937795,0,0,1,8,644
9.745790303142797,0,0,1,6,646
9.879898603888249,0,0,1,5,647
10.053089627869696,0,0,1,3,649
10.859521564642833,0,0,1,2,650
13.228280420474068,0,0,1,0,652
15.190229111474366,0,0,0,1,652
100,0,0,0,0,653
