#Time,A,B,C,D,E
0,0,56,75,0,69
0.10946777118439327,0,50,74,7,69
0.2098498042153946,0,47,72,12,69
0.31758998361332935,0,43,73,14,70
0.4314678108749506,0,36,76,16,72
0.534354261801799,0,34,70,22,74
0.646301965948604,0,29,66,28,77
0.7585824321542807,0,16,72,33,79
0.8671510868990393,0,15,61,40,84
0.9697576956972174,0,13,57,39,91
1.0713044624174737,0,13,55,34,98
1.1781252272484641,0,11,49,37,103
1.2862970650355727,0,11,46,36,107
1.399584164132184,0,11,38,42,109
1.5050078722237301,0,11,35,39,115
1.6051589056125495,0,11,30,40,119
1.7087533045280674,0,10,28,39,123
1.8097061362230915,0,8,27,40,125
1.944105474175134,0,8,26,35,131
2.0597133398214815,0,8,26,31,135
2.1671967467033335,0,5,29,29,137
2.2814066356034948,0,3,25,29,143
2.4087718942391096,0,3,20,30,147
2.533042371299969,0,2,20,28,150
2.6394251207622963,0,2,18,25,155
2.7839291865272147,0,2,16,23,159
2.8908005448858107,0,2,14,22,162
2.9941932726470326,0,1,11,23,165
3.170070423088754,0,0,10,22,168
3.27631596334705,0,0,10,20,170
3.3777811826091297,0,0,9,19,172
3.655597715012076,0,0,9,16,175
3.7568890024891424,0,0,7,14,179
3.887771778156793,0,0,6,15,179
4.151856807442075,0,0,4,16,180
4.375315405090589,0,0,2,13,185
4.638650892124019,0,0,1,13,186
4.831023365084192,0,0,1,11,188
5.211093350703122,0,0,1,8,191
5.563783698650662,0,0,0,6,194
5.902704437480436,0,0,0,5,195
6.2172393601533456,0,0,0,3,197
6.472172040436724,0,0,0,2,198
6.929640275783188,0,0,0,1,199
7.216049143871264,0,0,0,0,200
100,0,0,0,0,200
