#Time,A,B,C,D,E
0,0,45,10,34,5
0.16829335895035175,0,42,12,33,7
0.28489834965558036,0,37,15,32,10
0.3931226489900831,0,32,19,32,11
0.49780127152052883,0,29,19,33,13
0.602829929430117,0,26,20,32,16
0.7155724689007439,0,23,20,32,19
0.8199042734973644,0,22,17,33,22
0.9384832440995717,0,18,20,33,23
1.0817355134255298,0,14,20,35,25
1.1972362094313669,0,11,21,28,34
1.3360997812314832,0,11,18,28,37
1.4433638724582527,0,11,17,27,39
1.5665834136863939,0,9,19,22,44
1.683107428010273,0,8,16,23,47
1.8444104327610682,0,7,14,24,49
1.9816788237260474,0,6,13,23,52
2.179287565301313,0,6,11,22,55
2.431003220738762,0,4,11,22,57
2.5463770634778835,0,4,7,26,57
2.673483633719433,0,2,9,22,61
2.7823614777900185,0,2,9,19,64
2.980842744622902,0,2,8,19,65
3.0865970982549817,0,2,7,15,70
3.26850046684725,0,2,6,13,73
3.369247263795363,0,2,6,10,76
3.5970574655521474,0,1,7,9,77
3.854496282811245,0,1,7,7,79
3.9633365266008567,0,1,5,8,80
4.07630276935245,0,0,6,8,80
4.197006041290524,0,0,4,7,83
4.455651538556945,0,0,3,6,85
4.811177751016772,0,0,2,6,86
5.04740222452439,0,0,2,5,87
5.156764239676018,0,0,1,4,89
5.267077563093452,0,0,1,3,90
5.433590024837994,0,0,1,2,91
6.34443199377079,0,0,1,1,92
6.550219230287812,0,0,1,0,93
7.411811986258705,0,0,0,1,93
7.948245552101211,0,0,0,0,94
100,0,0,0,0,94
