#Time,A,B,C,D,E
0,0,0,13,65,296
0.10176151620644162,0,0,12,57,305
0.24143868755660225,0,0,11,52,311
0.34448095737320716,0,0,11,47,316
0.47507587554762615,0,0,9,43,322
0.5799635268497934,0,0,7,43,324
0.6802417460440363,0,0,6,40,328
0.8169290077882162,0,0,6,35,333
0.9515085966072422,0,0,5,31,338
1.057391723700792,0,0,4,26,344
1.1769780676976074,0,0,4,23,347
1.3412394087642303,0,0,4,18,352
1.515701278086677,0,0,4,17,353
1.6315990179800595,0,0,2,18,354
1.7801109767657894,0,0,2,16,356
1.9583240957076455,0,0,1,16,357
2.1571914746147467,0,0,1,14,359
2.2780925158332628,0,0,1,10,363
2.4706670101839827,0,0,1,9,364
2.596027010839321,0,0,1,8,365
3.0041011250362812,0,0,0,9,365
3.119472292114792,0,0,0,5,369
3.4472496657884517,0,0,0,2,372
4.803301985714402,0,0,0,1,373
5.194307274675262,0,0,0,0,374
100,0,0,0,0,374
