#Time,A,B,C,D,E
0,34,48,143,0,168
0.10459889956230588,31,40,141,13,168
0.2110461039434799,26,38,132,26,171
0.31895148405055523,24,34,115,45,175
0.4222093859463535,20,36,106,52,179
0.523299674736596,20,33,95,59,186
0.6346623205463694,19,27,95,59,193
0.7447550040882813,19,24,90,56,204
0.8513062980725123,17,26,81,58,211
0.9518555482022127,16,26,70,63,218
1.0553524655327409,15,24,69,63,222
1.1810084973310622,13,25,62,67,226
1.2817796608323122,12,23,62,57,239
1.3953166627597446,10,23,59,52,249
1.507322522559317,9,20,55,52,257
1.6367478148020402,8,16,53,53,263
1.7432885775920026,7,14,49,55,268
1.8468573423871901,7,13,46,53,274
1.9555880370526026,7,10,46,46,284
2.0668222254833704,6,10,45,38,294
2.169197357348861,6,6,44,40,297
2.2738092572493898,6,6,37,43,301
2.3824879388994096,6,6,36,39,306
2.5019645710978056,5,6,35,36,311
2.6029157181929574,4,6,36,32,315
2.7253311696643565,4,6,33,31,319
2.8421868245893247,3,6,32,27,325
2.958847008039512,3,6,31,25,328
3.1022925745005105,3,6,25,23,336
3.2148924130548333,3,6,24,22,338
3.317556018506486,3,6,20,23,341
3.427129676910152,2,6,18,23,344
3.5337947872625066,1,7,14,25,346
3.682530304270941,1,5,15,21,351
3.8127289747856015,1,5,14,18,355
3.9321602838775833,1,4,15,16,357
4.068420447152763,1,4,14,16,358
4.1917544785197265,1,4,13,15,360
4.29491505517932,1,3,12,16,361
4.430345718882787,1,2,12,16,362
4.535375690078109,1,2,11,13,366
4.664528067345347,1,2,9,12,369
4.771510083339855,1,1,8,12,371
4.87513457592689,1,0,6,11,375
5.04975926135362,1,0,6,8,378
5.287048278812289,1,0,5,6,381
5.491439958507736,1,0,4,6,382
5.808223630830297,1,0,4,5,383
5.9262951516244575,1,0,4,4,384
6.043239116560863,1,0,4,2,386
6.4098356606016,0,1,4,2,386
6.523805689551091,0,0,4,2,387
6.643123298317037,0,0,3,2,388
6.835807602915002,0,0,3,1,389
7.089163106835276,0,0,1,2,390
7.846868153452988,0,0,1,0,392
9.443605613741882,0,0,0,1,392
9.75549411632958,0,0,0,0,393
100,0,0,0,0,393
