#Time,A,B,C,D,E
0,7,5,46,0,1
0.10083962325119349,6,5,43,3,2
0.2069280892944612,5,5,39,8,2
0.3239233313397107,5,3,35,12,4
0.43092016387328147,3,5,32,15,4
0.5428590819004636,2,5,31,15,6
0.6430035196570004,2,5,29,17,6
0.760918850203596,1,4,29,17,8
0.8668732648907148,1,4,25,20,9
0.9756545940313995,1,4,22,22,10
1.1147626362704375,1,4,19,23,12
1.2157098400015014,1,4,18,23,13
1.3319547438767534,1,4,16,21,17
1.4364589011111497,0,5,14,19,21
1.6446933069878447,0,4,13,21,21
1.747433980044911,0,2,15,19,23
1.857181043124335,0,2,12,20,25
1.990827718840638,0,1,10,19,29
2.140256872356325,0,1,7,21,30
2.2518266185384763,0,1,7,18,33
2.3726282249299877,0,1,6,15,37
2.4781177458343953,0,1,4,15,39
2.611152786822579,0,1,4,14,40
2.945541441491038,0,1,4,11,43
3.0745779926298478,0,1,4,9,45
3.2540758848747857,0,1,3,10,45
3.402661765694355,0,1,3,8,47
3.530306816050006,0,1,2,8,48
3.8908280013283867,0,1,1,8,49
4.288918940115727,0,1,0,7,51
4.464638269342051,0,1,0,5,53
4.808551912125471,0,1,0,4,54
4.989908452421525,0,0,1,3,55
5.343073078888001,0,0,1,2,56
5.8631812002193,0,0,0,2,57
6.058893038818646,0,0,0,1,58
7.086292303135048,0,0,0,0,59
100,0,0,0,0,59
