#Time,A,B,C,D,E
0,446,217,0,0,0
0.10481572902102845,409,233,20,1,0
0.20753415376143167,369,245,46,3,0
0.30755458810230296,333,259,63,8,0
0.4097012767533357,298,266,86,13,0
0.5105775307369518,274,265,95,28,1
0.612872794079298,249,262,112,38,2
0.714002154135737,218,270,119,51,5
0.8171948559138791,191,268,135,62,7
0.9195598574710486,172,251,159,67,14
1.020525313016572,149,252,169,73,20
1.1220541104216921,138,237,176,85,27
1.222073013153906,127,237,171,95,33
1.3229845635207602,111,231,171,109,41
1.4237857745594222,101,214,180,115,53
1.524751448230513,90,204,178,118,73
1.6273140465145386,83,186,184,123,87
1.7309513364651372,76,178,181,129,99
1.8315340089449952,69,174,175,131,114
1.9335578863945866,63,163,178,130,129
2.0359649595860696,58,146,187,131,141
2.138704773941697,53,142,172,144,152
2.240681524178508,46,141,162,150,164
2.3411067840245114,42,129,160,150,182
2.442011418740914,38,115,164,151,195
2.5431648219069385,34,109,152,156,212
2.6468286095803024,28,97,153,159,226
2.7479674451297016,26,92,140,160,245
2.8482079285263624,24,88,136,158,257
2.94886822615055,19,87,119,160,278
3.0538193502845354,19,77,113,159,295
3.154697881616066,17,74,105,147,320
3.2599647651806403,14,63,106,149,331
3.360788741038808,13,62,97,146,345
3.4669339421978265,11,55,95,145,357
3.57445032061166,11,51,89,133,379
3.675156218567026,9,50,81,130,393
3.7770979391929727,6,50,78,118,411
3.885392903615852,5,48,69,111,430
3.986948724720444,5,42,69,100,447
4.08801486537713,5,41,63,98,456
4.195405249236147,5,39,61,92,466
4.297629228927947,5,34,65,84,475
4.399622599414767,4,32,59,89,479
4.503602953127119,2,33,52,89,487
4.612899274601275,2,30,49,87,495
4.712985837700775,2,29,43,88,501
4.814720711466293,2,28,40,82,511
4.916484065428817,2,25,40,74,522
5.020205396198364,2,23,34,75,529
5.121011047441427,1,21,32,73,536
5.230556904790656,0,19,30,73,541
5.333035398254729,0,17,28,70,548
5.433468015908242,0,15,29,66,553
5.564014573626115,0,13,28,58,564
5.673148297609767,0,13,24,56,570
5.788335361527306,0,11,23,52,577
5.904807074179055,0,8,24,49,582
6.01410135011096,0,7,22,50,584
6.133365649451628,0,6,20,46,591
6.239408545074929,0,6,17,46,594
6.3572031755315255,0,6,15,40,602
6.490516419522825,0,6,11,42,604
6.59499475847033,0,5,10,41,607
6.706523746999462,0,5,9,38,611
6.821050636612238,0,5,9,35,614
6.923846289382029,0,5,8,32,618
7.045516085649184,0,5,8,29,621
7.163993759522886,0,5,8,27,623
7.274294234383551,0,5,7,24,627
7.420664766274715,0,5,6,22,630
7.601055648049416,0,4,6,19,634
7.808289760913922,0,3,6,17,637
7.930790642882071,0,3,5,16,639
8.067081296375708,0,3,4,17,639
8.249490041910008,0,1,6,14,642
8.415678828532384,0,1,5,14,643
8.533063698845632,0,1,4,14,644
8.646101105585736,0,1,4,12,646
8.771905902767257,0,1,4,10,648
8.97601364113872,0,1,4,6,652
9.136873859561106,0,1,3,7,652
9.281171602924713,0,1,3,6,653
9.440108413393416,0,1,2,6,654
9.55913908449479,0,1,2,5,655
9.694634914763908,0,1,2,4,656
9.806558080329323,0,0,3,4,656
10.024785783059253,0,0,3,3,657
10.131739838226519,0,0,3,2,658
10.379202178691497,0,0,3,1,659
10.533757316193668,0,0,1,3,659
10.78901071640502,0,0,1,2,660
10.907072609704256,0,0,1,1,661
11.186962411881337,0,0,0,1,662
11.853766855585572,0,0,0,0,663
100,0,0,0,0,663
