#Time,A,B,C,D,E
0,26,8,54,16,22
0.10070203326322653,23,10,48,22,23
0.22261113342243904,21,9,44,28,24
0.329152600207041,19,10,41,29,27
0.4322224216918211,16,12,38,26,34
0.5445678285173368,14,13,34,30,35
0.6454314691086284,13,14,31,32,36
0.7519472324606128,13,12,32,27,42
0.8527462117214739,11,13,28,28,46
0.9722133135314877,11,13,26,27,49
1.0864133804505338,10,12,23,29,52
1.1875888237580665,9,8,26,26,57
1.330353558110757,7,10,24,23,62
1.4386955328989226,7,10,20,22,67
1.5696987675969813,6,9,19,20,72
1.7207261591748846,5,9,16,22,74
1.8343828725018956,4,8,16,23,75
1.951490847436614,4,7,15,21,79
2.053064538227407,3,6,16,19,82
2.172384260865489,3,5,15,17,86
2.2736218534322092,3,5,14,15,89
2.449071717339008,3,5,13,15,90
2.6060729903729274,3,4,13,13,93
2.710134326887011,2,5,10,12,97
2.8381284553019595,2,5,8,10,101
3.013220751907266,2,4,8,11,101
3.1155957910643943,2,4,5,14,101
3.386394790468633,2,4,4,11,105
3.5703401581479453,2,3,5,10,106
3.6964842026252107,1,4,4,9,108
3.8501485442281727,1,4,4,7,110
4.1774530793583295,1,3,5,6,111
4.295709580986836,1,2,5,7,111
4.41388816860219,0,3,4,7,112
4.566683771908856,0,3,2,9,112
4.726654554125949,0,2,3,7,114
4.836600124011906,0,2,2,8,114
4.973345773588604,0,1,3,8,114
5.088485374408074,0,0,2,10,114
5.227191643907129,0,0,1,10,115
5.329297209535235,0,0,1,8,117
5.5050585610394,0,0,1,7,118
6.1998164796966,0,0,1,6,119
6.314978778386925,0,0,0,6,120
6.422965315355006,0,0,0,5,121
6.666296849266021,0,0,0,3,123
8.69308612942428,0,0,0,1,125
10.005799818402421,0,0,0,0,126
100,0,0,0,0,126
