#Time,A,B,C,D,E
0,133,119,0,132,153
0.10833202606877815,120,119,13,118,167
0.2095941875160199,105,122,23,111,176
0.31180191656400563,98,117,30,102,190
0.41274008078778524,89,113,38,96,201
0.5137438550761669,78,109,49,92,209
0.6142464869015554,71,106,57,83,220
0.7149187601025417,64,104,61,81,227
0.8169678743846382,58,97,68,82,232
0.9179570581291353,51,96,66,89,235
1.0185138590135725,46,89,71,86,245
1.1192884610908773,44,83,73,82,255
1.2272546004025362,41,79,76,78,263
1.3333020443559152,35,76,70,85,271
1.4333126811824688,29,75,67,82,284
1.5545755235844863,24,71,69,80,293
1.6623210366748356,19,71,66,84,297
1.7648744647230648,17,67,65,84,304
1.8684903096933463,13,67,63,81,313
1.968537194888629,12,63,60,83,319
2.074438154001076,12,58,59,78,330
2.183549965717601,8,56,62,73,338
2.283663778158459,8,52,61,72,344
2.384652242564201,4,47,66,70,350
2.48643975502378,4,42,61,73,357
2.589833815496212,4,34,62,72,365
2.696381596458015,4,32,59,71,371
2.803771323937086,3,27,60,67,380
2.905900779850544,3,24,60,65,385
3.0062103154254585,3,22,56,64,392
3.141514255469762,3,19,53,63,399
3.2428506142297233,3,17,51,64,402
3.35370313082117,3,16,48,60,410
3.456041037116184,2,15,43,61,416
3.564275158660139,2,11,42,61,421
3.6699747677526124,2,10,35,67,423
3.811146025683622,2,9,32,62,432
3.9210053122495787,2,8,28,62,437
4.030860018004755,2,7,27,56,445
4.152315764734345,2,6,27,51,451
4.273396097745431,2,5,24,51,455
4.388866159391842,2,5,22,46,462
4.496910432572511,2,5,21,45,464
4.6323299070205115,2,4,21,37,473
4.763763714901075,2,4,20,35,476
4.865855080026738,1,4,20,33,479
4.9666654093683,1,4,16,27,489
5.081021543184249,1,4,14,24,494
5.218837363156555,1,3,12,24,497
5.3341748482499405,1,2,8,28,498
5.458565087536985,1,2,6,25,503
5.566079628038969,1,2,5,21,508
5.696241409544924,1,2,4,20,510
5.828110694412046,1,2,4,17,513
5.933343264124237,1,2,3,14,517
6.091658017832766,0,3,2,15,517
6.372418787208085,0,2,3,13,519
6.582780817735527,0,2,2,12,521
6.80412058766862,0,2,1,11,523
6.959023167425933,0,1,1,11,524
7.070528856243185,0,1,1,9,526
7.191987065704645,0,1,1,8,527
7.586697865122781,0,1,0,7,529
7.738422910787564,0,1,0,4,532
8.049192481604624,0,1,0,3,533
8.264471565679557,0,0,1,3,533
9.392514357157374,0,0,0,2,535
10.021716365461236,0,0,0,0,537
100,0,0,0,0,537
