#Time,A,B,C,D,E
0,21,0,0,156,0
0.10167517403443009,18,3,0,142,14
0.21015396805655825,18,2,1,126,30
0.31048584779110633,15,5,1,116,40
0.42243550263914675,13,5,3,105,51
0.5292334966169088,10,8,3,89,67
0.6307213552267038,10,7,4,78,78
0.7593563736225832,9,6,5,70,87
0.8628885264390678,6,8,4,65,94
0.9669637728488357,5,7,6,59,100
1.099309648149492,5,6,6,56,104
1.2178356019513155,5,5,7,47,113
1.332974183379675,5,3,9,40,120
1.4387429387634156,4,2,10,35,126
1.5758367686416885,4,2,9,30,132
1.7010904119176682,4,2,8,28,135
1.849204238843493,4,2,8,24,139
1.9875863938589413,3,3,7,22,142
2.1268182728047345,3,2,7,20,145
2.2404208092590547,3,1,7,20,146
2.3583639472036118,2,2,7,15,151
2.4797995170284137,2,2,6,15,152
2.622130202638375,2,2,5,16,152
2.7238650414152077,2,1,5,15,154
2.8394980198827247,1,2,5,14,155
2.983409669057396,1,2,3,15,156
3.100651071658163,1,2,2,15,157
3.268938040567666,1,2,2,12,160
3.3883018331305563,1,1,2,11,162
3.5825437784179055,1,0,3,10,163
3.9317258573383156,1,0,3,6,167
4.43646269175938,1,0,2,6,168
4.5595389696263044,1,0,2,5,169
4.788735067228117,0,1,1,6,169
5.017608678084295,0,1,1,5,170
5.394963866520877,0,1,1,4,171
5.5287753231978085,0,1,0,5,171
5.8684993805613725,0,1,0,1,175
6.90892900245445,0,0,1,1,175
7.784448450864246,0,0,0,1,176
11.01010824390724,0,0,0,0,177
100,0,0,0,0,177
