#Time,A,B,C,D,E
0,293,10,252,0,313
0.10045427083639102,269,32,227,26,314
0.2009955404291582,239,58,216,37,318
0.30118031176340765,212,76,204,53,323
0.40118832161194834,192,91,194,60,331
0.5022249033145332,179,92,185,74,338
0.6022575708957031,167,89,184,83,345
0.7041646342691844,157,89,171,97,354
0.8042077211645162,146,93,162,107,360
0.9052749995614218,134,94,158,105,377
1.0065215799227856,119,96,158,110,385
1.1074646295142545,104,103,153,106,402
1.2089703167802586,98,96,147,116,411
1.3112645185647374,90,93,144,119,422
1.4149569645775864,84,84,134,139,427
1.5186929656137007,78,80,132,141,437
1.6188526913005206,71,80,129,133,455
1.7206605385845324,65,77,117,140,469
1.8234110484359092,58,74,116,140,480
1.9257093587201348,51,71,112,138,496
2.026990094309028,46,69,108,135,510
2.1298139614973435,41,67,102,132,526
2.2325698209854017,37,67,99,123,542
2.335092772904271,34,68,93,118,555
2.438792861261112,29,67,90,114,568
2.5404197589769084,27,60,85,109,587
2.6458562165858854,22,59,82,106,599
2.7534796368448258,20,57,78,102,611
2.8548625067755924,18,51,72,111,616
2.955737465815185,15,50,66,109,628
3.0626193273792914,13,47,67,102,639
3.164789400631126,12,44,67,97,648
3.2828468561984954,12,42,63,91,660
3.398251605469264,10,38,59,88,673
3.499649930960841,10,37,53,86,682
3.605263171580728,8,34,56,78,692
3.7111954225101034,7,35,53,76,697
3.8115483455426284,7,34,49,76,702
3.9127829878996088,4,31,53,72,708
4.019439559682933,4,26,53,71,714
4.119495382687458,4,22,55,68,719
4.2228422718181315,4,20,49,67,728
4.323742321926147,4,17,47,67,733
4.430464290832657,4,15,45,66,738
4.550111577625172,4,14,43,66,741
4.653608817317269,4,11,41,66,746
4.753683411563982,4,10,38,63,753
4.854080334400138,4,9,32,62,761
4.954163698891545,3,10,29,59,767
5.076168440290032,3,10,29,54,772
5.203509079594856,3,8,30,50,777
5.315985076392352,3,6,31,43,785
5.423845289861155,2,7,25,43,791
5.539598104577759,1,7,23,43,794
5.643480801391589,1,7,21,37,802
5.809497803230541,1,7,20,33,807
5.939102234856235,1,7,18,30,812
6.0419777668090635,0,8,15,32,813
6.18348324817394,0,8,13,29,818
6.324173468247499,0,6,12,28,822
6.44130483907723,0,3,11,32,822
6.551819640386588,0,3,8,32,825
6.652673039448646,0,2,9,30,827
6.781731633660903,0,2,8,28,830
6.9025752231362025,0,2,6,23,837
7.048977070358823,0,1,6,22,839
7.244465452493656,0,1,5,19,843
7.353444637837408,0,1,5,16,846
7.512982144340804,0,1,4,16,847
7.628791903154729,0,1,4,14,849
7.7513610123045495,0,1,3,15,849
7.904212349824508,0,1,3,12,852
8.090337553036703,0,1,2,10,855
8.2240494384121,0,1,2,8,857
8.462891494432297,0,1,2,4,861
8.652816419327317,0,1,2,3,862
9.295189980626908,0,1,1,2,864
9.807945941946171,0,0,2,1,865
10.308758489092565,0,0,1,1,866
11.092244357087942,0,0,0,2,866
11.204742904276737,0,0,0,1,867
13.345700653836499,0,0,0,0,868
100,0,0,0,0,868
