#Time,A,B,C,D,E
0,0,0,17,181,0
0.10328443444326253,0,0,16,155,27
0.2072239577246627,0,0,15,146,37
0.3114919891138178,0,0,12,132,54
0.41239902966071984,0,0,9,124,65
0.5153857573061678,0,0,9,109,80
0.6162523068987668,0,0,8,103,87
0.716786661960608,0,0,8,94,96
0.8181823617156206,0,0,8,86,104
0.9200960848037011,0,0,8,73,117
1.030949651928077,0,0,6,72,120
1.1445256986218688,0,0,5,67,126
1.254010748908852,0,0,3,62,133
1.3556160646804023,0,0,3,59,136
1.4591897195412744,0,0,3,49,146
1.5745695545960683,0,0,3,39,156
1.7475853671348542,0,0,1,37,160
1.8578264920223302,0,0,1,33,164
1.9896409282476875,0,0,1,29,168
2.1314587827608427,0,0,0,26,172
2.2450522415888865,0,0,0,18,180
2.371935425521789,0,0,0,14,184
2.474231981166794,0,0,0,12,186
2.963142149844405,0,0,0,9,189
3.0686827371685186,0,0,0,7,191
3.2127034549500544,0,0,0,6,192
3.322577792587634,0,0,0,4,194
3.72092618429396,0,0,0,3,195
4.022740704637408,0,0,0,2,196
4.411388913832509,0,0,0,1,197
6.053290366251262,0,0,0,0,198
100,0,0,0,0,198
