#Time,A,B,C,D,E
0,86,19,90,218,0
0.10100503788849899,79,24,78,210,22
0.20156493324259772,72,28,71,201,41
0.3051400549362004,64,29,68,191,61
0.4069539360727934,59,32,64,175,83
0.5093776473411005,53,34,59,171,96
0.6094066998499063,49,36,53,162,113
0.7130532522096882,42,39,50,154,128
0.8202227343129279,35,41,53,146,138
0.9223386637535331,35,35,52,135,156
1.0277858478494741,33,35,50,128,167
1.1335551191974298,28,38,46,124,177
1.2376223846804153,28,34,38,124,189
1.3402068963671432,25,34,38,113,203
1.4423616375534156,20,33,42,101,217
1.549848181947178,20,31,39,94,229
1.6576370957927509,18,32,36,88,239
1.777415738740751,17,32,34,83,247
1.901717718067095,16,26,38,74,259
2.022500018427934,16,24,37,65,271
2.130653265501679,13,25,38,60,277
2.231348876026229,12,24,35,57,285
2.33716725351063,11,23,33,57,289
2.4436523598688105,10,23,30,60,290
2.547288491800323,10,20,28,59,296
2.648778676218094,8,17,28,58,302
2.754478046093822,6,14,28,58,307
2.8592610796773132,5,13,26,58,311
2.962091275076799,4,13,26,51,319
3.080878077711786,3,12,25,48,325
3.1946423190115216,3,12,20,47,331
3.295617717994658,2,12,18,43,338
3.3989624847777242,2,11,18,40,342
3.532273436780284,2,9,19,38,345
3.650894653842896,2,9,17,37,348
3.7518298409066952,2,9,16,32,354
3.856048523692146,2,9,10,36,356
3.981331481020367,0,9,11,32,361
4.116165150005559,0,8,12,27,366
4.273151979449962,0,7,11,28,367
4.376723724060403,0,6,12,20,375
4.479715099950158,0,6,11,18,378
4.589676485318812,0,5,10,18,380
4.7051510959623695,0,5,8,17,383
4.837831399473982,0,5,7,15,386
5.041049750542574,0,5,6,16,386
5.27754796425032,0,5,5,13,390
5.407403448633397,0,5,5,11,392
5.550518672628037,0,5,4,8,396
5.718150858770426,0,5,3,8,397
5.888289839160183,0,4,4,5,400
6.048173589729411,0,3,4,5,401
6.239890276123976,0,2,4,5,402
6.39939775152142,0,2,3,4,404
6.911344136889715,0,2,2,4,405
7.122085533005188,0,1,2,5,405
7.486008942008402,0,1,2,4,406
7.638493032887297,0,1,2,3,407
7.952778890525679,0,0,3,3,407
8.33203270364927,0,0,2,3,408
8.70259264179743,0,0,2,2,409
8.867546836379466,0,0,2,1,410
9.18507585086973,0,0,1,2,410
10.073436724165624,0,0,0,2,411
11.080917718528198,0,0,0,1,412
13.411496193782732,0,0,0,0,413
100,0,0,0,0,413
