#Time,A,B,C,D,E
0,37,0,0,106,135
0.11679987297756075,31,6,0,93,148
0.2312593533017545,28,9,0,85,156
0.3322315707112427,27,9,1,78,163
0.443292832038478,25,10,2,71,170
0.5439786533236418,22,13,2,68,173
0.6654710614389242,19,13,5,63,178
0.7778770146699767,16,15,4,56,187
0.891082570380159,14,15,4,50,195
0.9926906012233901,11,16,5,44,202
1.1233493954094442,9,16,7,41,205
1.2395309380141557,7,18,7,37,209
1.346839034254645,6,16,9,36,211
1.4857764252166519,4,18,8,35,213
1.612015535806217,4,15,9,34,216
1.7221260797973392,3,14,11,33,217
1.8244693654372743,3,10,15,30,220
1.9439611245547026,3,9,13,27,226
2.0870976127714327,2,9,12,27,228
2.2175869751710167,2,7,13,23,233
2.3958354371011987,2,5,14,23,234
2.53221106041583,2,4,11,27,234
2.6344279045658037,2,3,11,27,235
2.7829881306866584,1,2,12,26,237
2.899804767874417,1,2,10,24,241
3.002139190795948,0,3,8,21,246
3.10459155109254,0,2,7,22,247
3.2776367893733265,0,2,6,20,250
3.3855811796998854,0,2,6,19,251
3.518690855904299,0,1,7,16,254
3.6489599030141426,0,1,6,13,258
3.807746335769489,0,1,6,11,260
3.9275787004754705,0,1,6,9,262
4.099146552295699,0,1,5,10,262
4.2770142761569625,0,1,4,11,262
4.38339519092739,0,1,3,9,265
4.559995751518325,0,1,2,9,266
4.680885050511516,0,0,2,9,267
4.84205334375995,0,0,2,8,268
4.954687576196824,0,0,2,7,269
5.078373038415656,0,0,2,6,270
5.2780985536049245,0,0,1,6,271
5.413655107591352,0,0,1,5,272
5.664572827734048,0,0,1,4,273
5.935403177557229,0,0,1,2,275
6.508597522262839,0,0,0,3,275
6.785537716286304,0,0,0,1,277
9.206101660684904,0,0,0,0,278
100,0,0,0,0,278
