#Time,A,B,C,D,E
0,119,39,241,116,0
0.10387921784322299,112,42,222,124,15
0.20407991666893363,97,52,204,140,22
0.30527962990524754,83,63,184,145,40
0.4090352937710765,71,69,179,143,53
0.511121961861205,64,68,169,146,68
0.6123474902143783,59,64,160,146,86
0.7186606779884996,53,60,149,153,100
0.8190518178753882,47,60,138,156,114
0.9193114453264379,41,58,136,149,131
1.0200423818188127,35,56,135,145,144
1.1228213459790704,33,55,123,148,156
1.225360186477606,31,52,115,151,166
1.32725376491851,29,50,111,150,175
1.427832412189597,28,46,104,147,190
1.5309926762067945,26,44,94,148,203
1.6357919438448265,25,41,89,143,217
1.7386686981466433,21,43,78,140,233
1.8454175892902955,19,40,77,130,249
1.9468683326086877,19,37,74,120,265
2.0469991593368553,18,36,70,113,278
2.149762517345388,17,34,63,114,287
2.2518625196989612,15,31,57,113,299
2.3533225328822955,13,31,55,105,311
2.457336201283859,11,29,51,103,321
2.5676928938612322,10,27,49,100,329
2.668455789198816,9,26,48,91,341
2.7702297180014734,8,22,48,86,351
2.871367052130929,8,21,45,82,359
2.9731305143494864,7,21,43,75,369
3.0789917817254855,7,17,41,73,377
3.183721638055777,6,18,37,70,384
3.2901070003994617,4,18,34,67,392
3.3967199154809395,3,18,32,63,399
3.4987270935584,1,18,27,68,401
3.60573430548593,1,16,26,66,406
3.7188360923748705,0,17,23,62,413
3.8262616081800296,0,13,21,62,419
3.9289863991172957,0,11,20,56,428
4.032508149405096,0,11,16,52,436
4.147368404486627,0,10,15,53,437
4.256726992071639,0,10,15,45,445
4.3655440378252255,0,10,14,39,452
4.465623843248263,0,9,15,37,454
4.577027934728777,0,7,13,36,459
4.76901818859824,0,6,10,32,467
4.878727187930661,0,5,8,33,469
4.988421613461281,0,4,8,32,471
5.134764623315565,0,4,6,30,475
5.263047764170885,0,4,5,28,478
5.387239259976977,0,3,5,27,480
5.593405961727986,0,3,5,22,485
5.69603951121381,0,3,4,21,487
5.85773193080403,0,3,3,18,491
6.0224477326719255,0,3,3,16,493
6.320570693051571,0,2,4,14,495
6.4357171438159595,0,1,5,12,497
6.59507209622067,0,0,6,11,498
6.731164912044822,0,0,5,9,501
6.891687708098728,0,0,5,7,503
7.329911183241003,0,0,4,7,504
7.434910034803125,0,0,3,7,505
7.665816517781898,0,0,3,6,506
7.935854251518918,0,0,3,4,508
8.100185103094493,0,0,3,2,510
8.220968139375286,0,0,2,3,510
8.459329485024343,0,0,1,4,510
8.726471681943755,0,0,1,2,512
9.20225202701129,0,0,1,1,513
9.378475742733995,0,0,1,0,514
9.83150297573375,0,0,0,1,514
10.481942258342944,0,0,0,0,515
100,0,0,0,0,515
