#Time,A,B,C,D,E
0,48,203,181,18,0
0.10215454126311375,43,187,180,39,1
0.20412820981678892,36,176,182,49,7
0.3052120503659659,33,161,183,59,14
0.4103182374425554,29,146,186,69,20
0.5103467378378267,25,133,179,87,26
0.6117109877039035,24,119,170,104,33
0.7176350896981286,23,102,178,108,39
0.8193835254368041,21,92,173,112,52
0.9201320306946006,17,90,163,117,63
1.0219592177352443,14,78,163,121,74
1.1221436459716083,11,71,154,130,84
1.2250981253998987,7,70,141,131,101
1.325208630362012,6,63,138,126,117
1.4271119910493333,6,54,139,124,127
1.5273116266911129,6,50,129,124,141
1.6276427286037995,5,42,124,131,148
1.7329314586057576,5,37,117,129,162
1.8416841759914635,5,34,111,125,175
1.9468923805077223,4,33,100,127,186
2.053427999370731,4,31,89,124,202
2.1544715603334823,4,29,82,122,213
2.257304242421893,4,26,77,116,227
2.361221779303185,4,23,72,108,243
2.485813955878635,4,20,71,102,253
2.591696354502415,3,21,63,103,260
2.6972846508608534,2,21,61,95,271
2.800054256907042,2,19,58,98,273
2.907513291592173,2,16,52,96,284
3.0161288872474405,2,16,48,91,293
3.1308776855039078,2,15,42,88,303
3.2319491754276686,2,14,38,84,312
3.341156176649126,2,14,32,81,321
3.4514659492384734,2,11,33,75,329
3.5818406745648317,1,12,30,67,340
3.7005117973913246,1,12,30,57,350
3.8014692215657946,1,9,29,56,355
3.9066690611243895,1,8,27,54,360
4.007511923569141,1,8,24,50,367
4.111686287244639,1,7,25,46,371
4.215892793754933,1,5,26,40,378
4.331194440098183,1,5,24,37,383
4.449193925760529,1,4,22,35,388
4.550453685166299,1,2,21,34,392
4.653455270575795,1,2,20,30,397
4.767951423284335,1,1,18,30,400
4.883548863110993,1,0,16,29,404
5.004347700079688,1,0,15,27,407
5.168184349396977,1,0,12,28,409
5.279911763897564,1,0,12,23,414
5.380010842116391,1,0,11,22,416
5.534189594909947,0,1,9,22,418
5.646272901009898,0,1,8,18,423
5.89969840515566,0,0,8,17,425
6.03514631316901,0,0,5,19,426
6.25263784740944,0,0,5,16,429
6.507667542337354,0,0,5,15,430
6.638338475919618,0,0,5,13,432
6.871685637345893,0,0,5,11,434
7.02063537242982,0,0,5,8,437
7.225723701378241,0,0,4,6,440
7.385117605240987,0,0,2,6,442
7.715610091659943,0,0,2,5,443
7.852848886307223,0,0,2,4,444
8.107429511833796,0,0,1,3,446
8.713310256529994,0,0,1,2,447
9.343158115014049,0,0,1,1,448
10.11223344212545,0,0,0,2,448
10.64339994387849,0,0,0,0,450
100,0,0,0,0,450
