#Time,A,B,C,D,E
0,0,0,0,78,62
0.11033221083472924,0,0,0,71,69
0.23029145697945544,0,0,0,63,77
0.35176810919407847,0,0,0,54,86
0.4536717037445543,0,0,0,47,93
0.5582357452912421,0,0,0,41,99
0.6664388261931153,0,0,0,36,104
0.7684828074807141,0,0,0,31,109
0.8861379016967289,0,0,0,29,111
1.0175382917356184,0,0,0,26,114
1.1302261873881934,0,0,0,23,117
1.2542555273217304,0,0,0,21,119
1.3683477335540075,0,0,0,19,121
1.6966731282171892,0,0,0,18,122
1.8138729104800424,0,0,0,16,124
1.91439556198003,0,0,0,13,127
2.0844397907652903,0,0,0,11,129
2.222353986180081,0,0,0,8,132
2.386929481297633,0,0,0,6,134
2.56719141808481,0,0,0,5,135
2.801101570308338,0,0,0,3,137
3.5820486343707576,0,0,0,1,139
100,0,0,0,0,140
