#Time,A,B,C,D,E
0,134,0,0,204,46
0.10078345814254296,129,5,0,185,65
0.20214077523841092,115,18,1,165,85
0.303244700800671,106,26,1,156,95
0.40452438243751043,94,33,5,144,108
0.5047171516304095,89,34,9,131,121
0.6062699186651349,80,38,12,122,132
0.716899595698821,71,41,15,108,149
0.8188032260429916,59,49,19,102,155
0.9216692744369638,51,49,24,94,166
1.02623363088942,50,46,25,89,174
1.1286222173608194,46,42,30,84,182
1.2293071642997775,40,43,32,76,193
1.3457476849518264,35,41,36,70,202
1.447296597279945,28,46,34,70,206
1.5533791323717336,23,46,37,64,214
1.655735439611648,22,41,41,59,221
1.756300425059692,18,39,41,59,227
1.857336012593623,16,36,43,56,233
1.963500860327495,13,36,43,53,239
2.074293258026151,12,29,47,51,245
2.175156300055686,12,24,50,52,246
2.2752636201982,10,22,50,49,253
2.3756702017571443,9,22,45,54,254
2.482112868783572,8,23,42,48,263
2.5926232102174773,7,24,36,45,272
2.6932803298112806,7,22,34,42,279
2.7962690122547045,7,21,34,39,283
2.910526748706649,6,21,32,38,287
3.031232554345152,6,19,33,35,291
3.133455269956681,6,18,31,33,296
3.259277952186733,5,16,32,31,300
3.3622181783290137,4,16,33,26,305
3.4708686330166296,4,15,28,31,306
3.5727597288817416,3,13,26,34,308
3.6834643931368105,3,10,26,34,311
3.788420568044285,3,9,22,35,315
3.8971837729564487,3,7,20,35,319
4.031160549893603,3,7,20,28,326
4.1352506785901255,2,7,20,26,329
4.2505641349080605,2,6,18,23,335
4.378998184678267,2,5,15,26,336
4.50934169916914,2,4,16,24,338
4.612596354742627,2,4,15,22,341
4.796335532123871,1,5,12,22,344
4.950851440201797,1,5,11,20,347
5.084530690169126,1,4,12,19,348
5.208402774303644,1,4,10,18,351
5.312601708374102,1,4,9,19,351
5.428669717621806,1,4,7,18,354
5.553428391763878,1,4,6,18,355
5.6549226387186975,0,5,6,15,358
5.775616880597144,0,4,7,13,360
5.891121498091559,0,3,7,14,360
6.068465659047565,0,3,7,13,361
6.2785112811466135,0,3,7,9,365
6.397858231047105,0,2,7,10,365
6.539765586430755,0,2,4,12,366
6.647300833782304,0,2,4,10,368
6.7563542664419085,0,2,4,6,372
6.869937443670941,0,2,3,5,374
7.138353847712844,0,2,2,5,375
7.325562625627088,0,2,2,4,376
7.473698832951302,0,1,3,4,376
7.578010494968866,0,1,3,3,377
7.733219282277007,0,1,3,2,378
8.282634145267334,0,1,2,2,379
8.426639821923056,0,1,2,1,380
8.821289646027662,0,1,1,2,380
9.110120953189943,0,1,0,2,381
9.671356483321832,0,1,0,1,382
10.235849668511166,0,0,1,1,382
11.870341470757662,0,0,1,0,383
12.354413347484195,0,0,0,1,383
13.50267977306881,0,0,0,0,384
100,0,0,0,0,384
