#Time,A,B,C,D,E
0,40,1,0,32,130
0.1231608005102224,37,4,0,28,134
0.23634912598924904,33,7,1,26,136
0.33860165280434895,27,12,2,23,139
0.46766490284334516,18,21,2,22,140
0.5746413762390048,15,24,2,20,142
0.6964625759433678,12,22,5,20,144
0.8003786069482062,11,19,8,18,147
0.9075279231242225,11,15,11,19,147
1.011098057563226,11,14,10,21,147
1.1145243574799946,10,13,12,18,150
1.2256062425751,10,12,10,18,153
1.4031961653472846,9,12,9,16,157
1.5784962541270215,8,10,11,16,158
1.6876560635100522,8,9,11,15,160
1.828250356674114,6,11,10,15,161
1.949138031832069,6,8,13,14,162
2.054393233988805,6,7,12,15,163
2.158016637805394,6,7,8,16,166
2.2793316914338053,6,6,9,13,169
2.4487868556998635,5,7,8,10,173
2.558762779977771,5,6,9,9,174
2.687442626824927,4,7,9,7,176
2.8704257216780844,4,7,8,5,179
3.081194371610085,4,6,8,5,180
3.2251843980541035,4,3,11,4,181
3.3437105861295877,4,3,10,4,182
3.4951886705924817,4,3,8,5,183
3.658563684658658,4,3,7,4,185
3.812010070781935,3,4,5,5,186
3.9830555549385034,2,5,5,3,188
4.2273396401330015,2,4,4,4,189
4.491831208208782,2,4,4,2,191
4.603203418808604,2,3,5,2,191
4.778093164745014,2,2,6,1,192
4.912661609709844,2,1,6,1,193
5.163546763414472,2,1,5,2,193
5.391838678043122,2,0,5,3,193
5.848646595561321,2,0,2,5,194
6.096639903029246,2,0,1,5,195
6.200470571653596,2,0,1,4,196
6.3943629774693616,1,1,1,3,197
6.509680158249807,1,1,1,2,198
6.622633478539565,1,1,1,1,199
7.019488325593885,0,2,0,2,199
7.177330860892344,0,1,1,1,200
7.905473396150181,0,0,2,0,201
8.463346661361781,0,0,1,1,201
8.613203316353491,0,0,0,2,201
8.860372865294993,0,0,0,1,202
9.618494244063339,0,0,0,0,203
100,0,0,0,0,203
