#Time,A,B,C,D,E
0,242,16,0,11,21
0.10031870234601101,214,42,2,10,22
0.20248770439000038,196,60,2,10,22
0.3066331817562056,181,68,9,7,25
0.41397736870887936,162,78,16,6,28
0.5149323590645837,147,84,21,8,30
0.6211875298947023,134,88,27,11,30
0.7217341274246285,127,85,36,8,34
0.8256716926260603,120,83,42,11,34
0.9264099049921939,98,93,47,17,35
1.0316186342701152,92,92,49,20,37
1.1341350396704841,84,94,50,23,39
1.2372789668580477,78,93,54,25,40
1.3477187807616129,68,95,54,30,43
1.4502714237352667,61,87,59,35,48
1.5577773435695041,58,80,63,38,51
1.6583503392333476,49,86,59,39,57
1.7782162074058876,45,79,62,43,61
1.8811856541514527,39,77,62,45,67
1.9814169654808764,35,76,64,41,74
2.082207542833956,32,71,63,45,79
2.1897098139315965,30,63,64,49,84
2.2917974046517844,28,58,61,54,89
2.3926507702828035,25,55,61,54,95
2.5000158707093614,25,51,56,58,100
2.6040284185301465,23,46,58,56,107
2.7073767274913743,22,46,54,55,113
2.8117135513686575,21,43,52,54,120
2.9135561294198076,18,42,50,56,124
3.0226181482325067,14,45,48,52,131
3.1241698045848674,13,43,49,47,138
3.2246276716423057,12,38,52,44,144
3.338017124471059,11,35,54,40,150
3.4539583192074965,10,33,49,46,152
3.5553669244431907,10,31,46,46,157
3.6575626411038744,10,28,44,48,160
3.7684985933039306,10,26,42,48,164
3.871896042959742,8,24,43,48,167
3.9741668446131437,7,24,39,47,173
4.0746193359658776,5,25,36,49,175
4.186705134281651,5,23,32,48,182
4.287440686787532,4,23,29,49,185
4.394460149291591,4,20,26,51,189
4.494819041325159,3,21,22,47,197
4.595025223097664,3,20,21,42,204
4.698459600452361,3,17,22,39,209
4.799996959145681,2,16,22,38,212
4.903424878025266,2,15,21,38,214
5.006766219818728,2,15,18,38,217
5.109231885852979,2,15,17,35,221
5.224868695082291,2,13,15,33,227
5.347015554648326,2,10,17,28,233
5.478514797464262,1,9,18,27,235
5.599678468149566,1,8,17,29,235
5.714642060544488,1,8,14,29,238
5.8427397450422145,1,7,11,30,241
5.9471507932793175,1,6,12,26,245
6.049198405441199,1,6,10,27,246
6.159803783871806,1,4,12,22,251
6.2822892575083396,1,4,11,22,252
6.407132521960636,1,4,10,18,257
6.540349666970317,1,2,9,18,260
6.705299532287134,1,1,8,16,264
6.807081685180728,0,1,9,14,266
6.914444331950344,0,1,5,17,267
7.023139950663949,0,1,3,16,270
7.12377239236658,0,1,3,12,274
7.226356975912683,0,0,4,10,276
7.348110846777905,0,0,4,8,278
7.661498483213499,0,0,3,5,282
8.264312437961832,0,0,1,6,283
8.431740347380384,0,0,1,4,285
8.997769954305637,0,0,0,4,286
9.286693606032925,0,0,0,3,287
9.40176954476556,0,0,0,2,288
9.830986124644841,0,0,0,1,289
13.218863007216676,0,0,0,0,290
100,0,0,0,0,290
