#Time,A,B,C,D,E
0,0,0,0,21,174
0.11906513527892457,0,0,0,19,176
0.21927039241416799,0,0,0,16,179
0.3561690255291281,0,0,0,15,180
0.5021174614657836,0,0,0,12,183
0.7178964082521111,0,0,0,10,185
0.8714360834460598,0,0,0,8,187
1.0195589085805756,0,0,0,7,188
1.1358119604317611,0,0,0,5,190
1.3406039760009816,0,0,0,4,191
1.5800774392451522,0,0,0,3,192
1.7104479873690872,0,0,0,2,193
4.137747919628367,0,0,0,0,195
100,0,0,0,0,195
