#Time,A,B,C,D,E
0,0,0,76,103,101
0.10690718369394459,0,0,64,107,109
0.20972768255117696,0,0,54,103,123
0.3103779046008288,0,0,46,105,129
0.44234018693168514,0,0,38,102,140
0.5436303791327826,0,0,37,96,147
0.644733773019757,0,0,36,84,160
0.7470257281264195,0,0,29,83,168
0.8576788883278988,0,0,25,79,176
0.9740377168319929,0,0,23,72,185
1.0893605590015374,0,0,21,70,189
1.1911313638403154,0,0,19,66,195
1.3000272033054567,0,0,17,62,201
1.408530404966862,0,0,14,56,210
1.511517072685482,0,0,14,48,218
1.614067341022074,0,0,11,49,220
1.7306357645795485,0,0,11,44,225
1.832616614752159,0,0,11,37,232
1.960323134066074,0,0,10,36,234
2.0798072751676595,0,0,10,35,235
2.1856714479553023,0,0,9,32,239
2.299011122762944,0,0,7,31,242
2.4858889414208614,0,0,7,25,248
2.638140489267009,0,0,7,21,252
2.810247775639706,0,0,6,19,255
2.932498627670726,0,0,4,20,256
3.0845629804606745,0,0,2,20,258
3.188089881140933,0,0,2,19,259
3.35155634295539,0,0,2,16,262
3.4656460846769015,0,0,2,13,265
3.6807147124491224,0,0,2,12,266
3.7884977253588454,0,0,2,10,268
3.9068356769559083,0,0,1,10,269
4.025729460834911,0,0,1,9,270
4.1819629289100275,0,0,1,8,271
4.343293938455254,0,0,1,6,273
4.524651837875453,0,0,1,5,274
4.632723056072676,0,0,1,3,276
4.83279487312784,0,0,1,2,277
5.215025569774865,0,0,0,1,279
5.640023457455511,0,0,0,0,280
100,0,0,0,0,280
