#Time,A,B,C,D,E
0,93,112,0,22,0
0.1021443280428085,87,103,15,20,2
0.20300045295452446,79,99,22,23,4
0.3073968147886738,72,93,35,23,4
0.41316943425999303,68,90,37,27,5
0.5134835061747266,56,91,45,27,8
0.6172607764493812,52,86,47,32,10
0.7194367389344505,51,73,55,34,14
0.8244721633449117,46,69,56,41,15
0.9245267523453421,44,57,63,44,19
1.0335015287957368,36,57,66,40,28
1.1416373578149923,33,55,60,47,32
1.2469954902210052,30,52,62,47,36
1.3523581171108239,27,48,62,52,38
1.4596578391296935,26,45,58,56,42
1.5637869952523749,24,41,57,57,48
1.6734336504650578,22,40,51,63,51
1.773528913891028,20,42,46,56,63
1.8746618702258995,19,41,43,55,69
1.9917718513350675,17,35,49,47,79
2.0945600734004954,17,32,48,44,86
2.196469405793244,14,32,45,44,92
2.297611989716279,10,33,46,41,97
2.4096212279042057,10,30,45,41,101
2.5136420293165815,9,29,44,43,102
2.619285595480591,6,28,42,40,111
2.7308898461883846,5,24,41,41,116
2.857204471332729,4,21,39,41,122
2.9678795645719744,3,18,42,40,124
3.078842551546566,3,15,37,45,127
3.192292193801401,3,14,30,48,132
3.315462972674663,3,13,27,48,136
3.4166561730956166,2,13,25,47,140
3.5416276579476915,2,10,28,40,147
3.654724725577018,2,10,25,39,151
3.761429809404927,2,9,25,37,154
3.8624043054575568,2,9,24,33,159
3.982625141752571,2,7,24,32,162
4.092070089924897,1,7,23,31,165
4.195249283079589,1,7,19,29,171
4.3146811937399825,1,4,22,23,177
4.446724826334397,1,4,20,25,177
4.558971446959548,1,3,17,26,180
4.671639896966912,1,3,16,24,183
4.805085248934371,1,3,14,20,189
4.9315919187201676,1,2,14,20,190
5.089974613622472,1,2,12,21,191
5.223623798546289,1,1,12,18,195
5.333498627791477,1,1,11,17,197
5.449861447531245,1,1,10,17,198
5.571532582998676,1,0,11,15,200
5.71582486688683,1,0,9,16,201
5.817850571736926,1,0,8,15,203
5.925650358736581,1,0,8,11,207
6.053850777860425,1,0,7,11,208
6.240176894489199,1,0,5,13,208
6.440340453790217,1,0,5,10,211
6.544401142493738,1,0,5,8,213
6.6896995242118615,1,0,4,8,214
6.9086867366862466,1,0,3,8,215
7.208527241767988,1,0,2,7,217
7.499460849756526,1,0,1,7,218
7.747344894678538,1,0,1,5,220
8.50258972249292,1,0,1,3,222
8.775783066948579,1,0,0,3,223
8.885663573788944,1,0,0,2,224
9.018823161620556,0,1,0,2,224
9.315319663073685,0,1,0,1,225
9.586996797369048,0,1,0,0,226
10.485918609811973,0,0,1,0,226
11.575346614265056,0,0,0,1,226
12.471647114462613,0,0,0,0,227
100,0,0,0,0,227
