#Time,A,B,C,D,E
0,0,90,0,0,0
0.15245992197731711,0,80,10,0,0
0.25520178252366044,0,71,17,2,0
0.35633315524112724,0,67,21,2,0
0.46073599968383,0,59,22,8,1
0.5782041361146103,0,50,27,11,2
0.6813989622599257,0,44,30,13,3
0.7892821621550353,0,42,30,14,4
0.9037591151443546,0,37,32,16,5
1.0109521218805886,0,32,30,21,7
1.1119118241495072,0,29,32,20,9
1.2122785088738055,0,22,36,21,11
1.3204896655563738,0,22,33,20,15
1.4250044437453815,0,22,29,23,16
1.5374140441803823,0,18,31,24,17
1.6462248661842687,0,18,28,27,17
1.748702973114557,0,17,23,33,17
1.866801084475811,0,14,24,32,20
1.9765813841023072,0,11,26,29,24
2.080273123138838,0,9,26,26,29
2.239321480360643,0,7,25,26,32
2.3781800639424744,0,4,24,28,34
2.5411300971329513,0,4,19,32,35
2.688302296514073,0,4,16,29,41
2.790528880758035,0,4,15,26,45
2.8943601133547108,0,4,13,25,48
3.0447381013009553,0,3,13,19,55
3.168846249254584,0,1,11,22,56
3.2798454967234347,0,1,11,19,59
3.3805048906320665,0,1,9,20,60
3.486120097066759,0,1,9,17,63
3.647839831886518,0,0,8,16,66
3.8119924119231237,0,0,5,15,70
3.9223819687458152,0,0,4,14,72
4.067015407294569,0,0,4,11,75
4.268618893061643,0,0,4,10,76
4.40272490902623,0,0,4,9,77
4.6357766154591955,0,0,4,8,78
4.842109750485088,0,0,3,8,79
5.121554693984332,0,0,2,8,80
5.2329153293075,0,0,2,6,82
5.343815522922581,0,0,2,4,84
5.64802128974308,0,0,1,4,85
5.907360634539384,0,0,1,3,86
6.05575428400028,0,0,0,4,86
6.563045440475992,0,0,0,3,87
6.801389768720707,0,0,0,2,88
7.171370864815778,0,0,0,0,90
100,0,0,0,0,90
