#Time,A,B,C,D,E
0,235,310,84,0,38
0.10285076526156467,217,286,117,8,39
0.20834590991178048,196,271,136,24,40
0.3105248659165207,179,263,146,38,41
0.4115305338469642,155,259,158,49,46
0.5117725085548799,141,253,164,54,55
0.6122403895765673,127,243,168,70,59
0.7177429004306951,117,230,178,77,65
0.8186615141299379,103,219,192,81,72
0.9189245757950466,98,197,193,101,78
1.0196638451314572,81,202,183,115,86
1.120424926958204,75,193,180,118,101
1.2246376613633096,66,184,180,129,108
1.3298822507432315,62,172,175,134,124
1.4328467067870885,54,160,180,131,142
1.5331645024778846,50,147,176,138,156
1.6366594752986134,45,134,180,137,171
1.7407471779905357,37,129,174,141,186
1.845432979194103,34,125,164,141,203
1.9466856996086275,32,122,149,145,219
2.0486691129634877,29,111,150,145,232
2.149976126397396,25,104,148,143,247
2.250742174774494,23,98,144,146,256
2.3548931940155913,21,93,139,142,272
2.4582774988796174,19,81,134,147,286
2.5639686462220106,16,71,129,155,296
2.6679022213869743,16,64,131,149,307
2.7680468298835468,16,54,122,147,328
2.8693345420761025,15,51,116,140,345
2.969997238731534,11,48,110,137,361
3.071898529365234,11,47,98,136,375
3.1749770375147417,10,38,93,139,387
3.2753064023401315,10,34,91,125,407
3.3759771677309343,8,34,89,118,418
3.48032421598357,7,33,82,108,437
3.586258146846392,5,34,69,110,449
3.686754388552793,5,31,61,115,455
3.7908590681468888,4,30,59,109,465
3.907287032167828,3,28,55,107,474
4.007332901537567,3,25,51,110,478
4.113797578814579,3,24,49,96,495
4.221917104924594,3,22,45,88,509
4.325425236502382,3,19,45,84,516
4.427410357446784,2,19,43,79,524
4.5360782132593584,2,19,39,80,527
4.638465017207946,2,18,34,78,535
4.745895238702928,2,15,31,76,543
4.885419348413508,2,13,31,72,549
4.985464600907269,2,13,25,71,556
5.111050502694182,1,13,25,59,569
5.216689222314463,0,14,22,57,574
5.320976202563191,0,12,22,55,578
5.428595115489016,0,12,18,56,581
5.541486192841613,0,10,20,49,588
5.662086272085289,0,9,20,47,591
5.767682840965434,0,9,18,44,596
5.881083763200253,0,7,19,40,601
5.988914160366759,0,6,18,39,604
6.117821850790185,0,6,16,39,606
6.239473259979346,0,6,15,34,612
6.342064496937712,0,4,14,35,614
6.464868264857827,0,3,14,32,618
6.565104555609584,0,3,12,29,623
6.672199709450593,0,2,10,27,628
6.772330521368624,0,1,10,26,630
6.87339916930404,0,1,8,25,633
7.048877702605561,0,1,8,23,635
7.242618931961634,0,1,7,21,638
7.347273250049463,0,1,6,19,641
7.477139782028391,0,1,5,19,642
7.624711688885689,0,1,5,16,645
7.766664292633937,0,1,4,15,647
7.914988393676116,0,1,3,15,648
8.089882660947152,0,1,3,12,651
8.362030605122083,0,0,3,13,651
8.572622029276529,0,0,2,14,651
8.785801020647705,0,0,2,12,653
8.91358857035122,0,0,2,11,654
9.172564584073655,0,0,2,8,657
9.31815005026216,0,0,2,7,658
9.901658693143192,0,0,2,5,660
10.391205223273804,0,0,2,4,661
10.837035141161323,0,0,2,3,662
11.174074570835863,0,0,1,3,663
11.437997662834707,0,0,1,1,665
11.89561808448103,0,0,0,2,665
12.055228503487637,0,0,0,1,666
13.041914225766607,0,0,0,0,667
100,0,0,0,0,667
