#Time,A,B,C,D,E
0,0,79,39,96,43
0.10972994923823869,0,66,47,93,51
0.21032027797473624,0,61,49,88,59
0.3160757708452496,0,57,50,82,68
0.41627666580145434,0,49,52,82,74
0.5215243744617665,0,44,49,80,84
0.635794147604713,0,41,47,78,91
0.737997537431965,0,34,50,75,98
0.8416369867465112,0,32,49,73,103
0.9495663238997382,0,29,50,65,113
1.0806871678291663,0,26,45,64,122
1.184675756984848,0,24,42,63,128
1.2869114765183203,0,22,39,64,132
1.395700920201395,0,19,37,60,141
1.4977036289903956,0,17,36,57,147
1.6320877026004088,0,13,38,56,150
1.7402782399503844,0,13,35,54,155
1.8473559505580464,0,11,36,49,161
1.9475912100552806,0,10,33,46,168
2.0500084343670695,0,9,28,50,170
2.1702526926913723,0,5,29,49,174
2.271529020141692,0,4,28,49,176
2.384753944880111,0,4,26,46,181
2.48483443464152,0,4,24,41,188
2.593310995412954,0,4,21,40,192
2.697738494652332,0,3,22,37,195
2.7995943157838776,0,3,22,33,199
2.9029459816710728,0,3,19,29,206
3.0053462713066548,0,3,18,27,209
3.12020129379474,0,3,16,28,210
3.253982330237782,0,3,15,27,212
3.3547331983693662,0,2,16,23,216
3.46246549724009,0,2,15,20,220
3.5801568067359164,0,1,15,19,222
3.7903039061100574,0,1,14,15,227
3.9625115953184165,0,1,14,13,229
4.065230671178326,0,1,13,11,232
4.180549639707052,0,0,13,12,232
4.285861637136216,0,0,12,12,233
4.38614659225913,0,0,10,10,237
4.488990237380125,0,0,8,12,237
4.616875241491998,0,0,7,10,240
4.718998807979229,0,0,5,12,240
4.822696927181989,0,0,3,11,243
4.987620983730459,0,0,1,12,244
5.211708190996213,0,0,1,10,246
5.3159584373907975,0,0,1,7,249
5.889404486362142,0,0,1,6,250
6.080479309682504,0,0,1,3,253
6.386109445832993,0,0,1,1,255
6.833760215564511,0,0,0,2,255
7.466353676644766,0,0,0,0,257
100,0,0,0,0,257
