#Time,A,B,C,D,E
0,0,79,39,96,43
0.10068230914173368,0,72,42,92,51
0.20217647219619586,0,59,47,93,58
0.3072830652326968,0,52,46,94,65
0.4090474010774139,0,44,47,91,75
0.5090507091802923,0,42,44,85,86
0.6112600386419648,0,33,45,88,91
0.7152954156258651,0,28,46,83,100
0.8265609313193698,0,25,41,82,109
0.943411650203603,0,24,40,78,115
1.0595248182614936,0,21,38,73,125
1.1598256460722358,0,20,37,67,133
1.2652547910233347,0,18,35,67,137
1.3679974342301928,0,16,34,63,144
1.4900423336275808,0,15,33,59,150
1.5903374372459338,0,13,30,56,158
1.7005941193112901,0,10,31,52,164
1.8015352243827132,0,9,30,49,169
1.9063767844206632,0,5,30,45,177
2.0459097856791675,0,5,27,39,186
2.1492154908849415,0,4,22,41,190
2.2579871992744924,0,4,18,40,195
2.367134915459866,0,3,15,36,203
2.469325413231523,0,2,14,36,205
2.5852082055564796,0,2,14,32,209
2.7009063553520214,0,2,14,28,213
2.8357387164000545,0,2,11,30,214
2.9785037197709148,0,2,9,30,216
3.0904317710912355,0,1,8,30,218
3.195673354461348,0,1,8,28,220
3.332740010869344,0,1,6,25,225
3.439442519214438,0,1,6,22,228
3.5419028271487827,0,1,6,18,232
3.6802456416417857,0,1,5,14,237
3.8393641940854835,0,0,6,13,238
3.991282593571351,0,0,5,12,240
4.150587790139096,0,0,5,11,241
4.343543117519906,0,0,5,8,244
4.4558784826887665,0,0,4,9,244
4.8249758525477775,0,0,4,8,245
4.9884388350636355,0,0,3,9,245
5.20777814745078,0,0,2,8,247
5.327361950507573,0,0,1,9,247
5.480430765784064,0,0,1,8,248
5.589359256196894,0,0,1,6,250
5.915467520787384,0,0,0,6,251
6.022868742047679,0,0,0,5,252
6.1969286641569825,0,0,0,4,253
6.506037558695473,0,0,0,2,255
6.664311216369724,0,0,0,0,257
100,0,0,0,0,257
