#Time,A,B,C,D,E
0,156,3,0,51,158
0.10435559748529513,139,18,1,46,164
0.2064726956378033,127,27,4,44,166
0.30681180933713337,110,39,9,42,168
0.41139446778717437,97,44,17,35,175
0.5175416527197683,89,44,20,33,182
0.6236593244191146,80,52,18,35,183
0.727464799033611,68,57,22,35,186
0.8280859757120778,61,59,25,32,191
0.9328198786420753,53,59,32,28,196
1.0404805905740975,43,61,37,27,200
1.1459277748038967,37,62,39,25,205
1.246237703147963,36,58,40,27,207
1.3462946830594393,30,57,45,27,209
1.455872679963769,27,58,41,29,213
1.57404360604446,22,54,42,33,217
1.6810607031758547,20,52,43,28,225
1.7885666767270225,20,48,42,30,228
1.8891730084077065,20,44,44,29,231
1.9895666365036873,18,43,42,32,233
2.109842425243235,17,40,42,34,235
2.2352091650115913,15,34,46,34,239
2.342356601291142,14,31,45,35,243
2.450206002372832,13,28,45,32,250
2.5928545819133437,10,25,48,33,252
2.70111430844847,9,23,47,33,256
2.814995819735431,9,19,48,34,258
2.916638501169875,9,16,47,36,260
3.017222243556788,9,15,44,36,264
3.12623269855365,9,13,41,38,267
3.272142935168447,8,10,44,36,270
3.379915017484173,6,12,39,36,275
3.4888625154278943,5,12,37,35,279
3.591752676367285,5,10,34,36,283
3.7244992350777735,5,10,31,38,284
3.839090610983205,4,10,31,37,286
3.993196617935182,4,8,31,34,291
4.121282178523714,4,8,27,36,293
4.2570324301428615,4,7,25,35,297
4.36764700655537,3,7,24,31,303
4.5054829275505215,2,8,22,28,308
4.618664078071639,2,8,20,25,313
4.765851695708203,2,8,17,24,317
4.885214416969286,2,7,15,25,319
5.0119662153856614,2,7,15,19,325
5.124054516980597,1,8,14,19,326
5.232697806350837,1,6,15,18,328
5.382833082573055,1,6,12,19,330
5.526187537233387,1,5,10,19,333
5.7048554993047045,1,4,11,16,336
5.812061948186403,1,3,11,15,338
5.946920943335191,1,3,9,15,340
6.04839133614439,1,3,7,14,343
6.170098760357223,1,3,7,10,347
6.335257653592276,1,2,8,8,349
6.468277082984628,1,2,7,8,350
6.579094952900125,0,2,7,8,351
6.69513236484469,0,1,8,8,351
6.831203390628006,0,1,7,8,352
6.989561859405377,0,1,6,8,353
7.242559952072783,0,1,4,10,353
7.379081317982532,0,0,4,9,355
7.646570544879027,0,0,4,7,357
7.802631983724386,0,0,4,5,359
7.968122237954188,0,0,3,4,361
8.231499532500631,0,0,2,3,363
8.816096171464412,0,0,2,2,364
8.973557252522955,0,0,1,1,366
10.024958050907028,0,0,0,1,367
11.766466710436596,0,0,0,0,368
100,0,0,0,0,368
