#Time,A,B,C,D,E
0,34,98,216,0,75
0.10052224703481302,31,91,207,18,76
0.20722986178544064,29,84,195,35,80
0.3084271745490389,26,76,190,48,83
0.4087207212953749,23,72,182,58,88
0.5131471052044736,21,61,177,69,95
0.6161328312938618,20,56,168,76,103
0.7179786270240358,16,56,156,80,115
0.8254057449682302,14,53,141,99,116
0.9278984245413149,14,50,135,99,125
1.0328733526990792,13,48,124,102,136
1.1344301378169437,12,45,118,99,149
1.2350215110266687,9,44,108,96,166
1.3429416105716188,8,44,100,92,179
1.4448812065323466,7,37,98,92,189
1.5506922528237306,6,32,96,87,202
1.6524745818448574,5,31,89,79,219
1.7601894680254357,5,28,84,79,227
1.862860022564611,5,26,81,71,240
1.9699920433900782,4,26,71,72,250
2.072292068654488,4,24,66,67,262
2.180046595720386,3,21,66,66,267
2.2858932223537836,3,17,65,67,271
2.412949307273984,3,16,62,63,279
2.51568195353973,2,16,57,63,285
2.625880006592633,2,14,54,62,291
2.7270122150235094,1,14,53,54,301
2.836682972537954,1,11,49,59,303
2.9449736258835304,1,7,45,63,307
3.0512885460922936,1,4,45,62,311
3.185443132957215,1,3,36,65,318
3.2906584616584165,1,1,36,62,323
3.3932128363384892,1,1,33,56,332
3.5080613573289727,1,0,30,56,336
3.6591001416690716,1,0,23,56,343
3.770910992819276,1,0,21,52,349
3.8872141608506845,1,0,19,52,351
3.9918667179595726,1,0,17,50,355
4.113228561192089,0,1,13,52,357
4.235697135469406,0,1,11,48,363
4.367796055867129,0,1,11,43,368
4.468622922139532,0,1,10,37,375
4.597089954486708,0,0,9,34,380
4.727550590672383,0,0,9,31,383
4.851961961672586,0,0,8,28,387
4.987884846393822,0,0,7,25,391
5.1026986443954145,0,0,5,24,394
5.217912635544911,0,0,5,22,396
5.3340014671270195,0,0,4,22,397
5.442229341053828,0,0,3,22,398
5.580243522029836,0,0,3,21,399
5.762186948233766,0,0,3,20,400
5.9055665045231756,0,0,3,18,402
6.042692983945393,0,0,3,15,405
6.159575881720461,0,0,2,14,407
6.261836096585155,0,0,2,12,409
6.3799726452629475,0,0,2,7,414
6.490105216614485,0,0,1,8,414
6.972007114557636,0,0,1,6,416
7.178300456929474,0,0,1,5,417
7.305027751763889,0,0,1,3,419
7.439286288231344,0,0,0,3,420
7.584088104460431,0,0,0,2,421
7.972227973977516,0,0,0,1,422
10.521080442521512,0,0,0,0,423
100,0,0,0,0,423
