#Time,A,B,C,D,E
0,0,277,152,72,59
0.10119692653008405,0,255,163,76,66
0.2043071653741776,0,227,176,82,75
0.3095663588483564,0,207,183,88,82
0.4132644162319728,0,186,189,99,86
0.5132933253966522,0,172,171,119,98
0.6143412920403291,0,155,173,123,109
0.7175416445088179,0,140,171,132,117
0.8177061686497604,0,131,159,139,131
0.9184710149757132,0,117,162,138,143
1.0205119550926485,0,108,157,143,152
1.1213119634114874,0,97,152,143,168
1.2241882522454075,0,89,143,148,180
1.3274411129822952,0,82,137,143,198
1.4317134355810517,0,71,133,145,211
1.5345512891794382,0,65,127,130,238
1.6375486016764293,0,59,118,133,250
1.743018486428286,0,55,106,140,259
1.845031171928913,0,50,103,125,282
1.9477090146655194,0,45,95,125,295
2.065005925973512,0,42,89,119,310
2.167492529342321,0,37,83,117,323
2.2769189410712456,0,33,80,113,334
2.3837126309529926,0,32,74,102,352
2.4963985239282707,0,26,69,103,362
2.59928998118796,0,21,69,99,371
2.7144792726083216,0,20,61,94,385
2.8175425089034967,0,20,57,88,395
2.931584820970721,0,17,58,83,402
3.0329275314311825,0,12,58,72,418
3.1422947483192694,0,9,54,69,428
3.244597372596816,0,9,51,66,434
3.3633373561354647,0,8,49,61,442
3.475615115000998,0,7,42,62,449
3.590288406700268,0,5,38,58,459
3.6933133603383097,0,5,34,54,467
3.798873250910965,0,5,31,50,474
3.9027554336635166,0,5,27,47,481
4.023966990213666,0,4,24,45,487
4.133442838113454,0,3,22,42,493
4.254229662169866,0,2,17,42,499
4.38219045325759,0,2,15,39,504
4.553007884567761,0,2,15,34,509
4.669765461860157,0,2,13,33,512
4.7794264022773305,0,2,12,30,516
4.8852526174712185,0,2,11,30,517
5.046049005698811,0,1,10,29,520
5.224309854877966,0,1,9,28,522
5.33960727149634,0,1,9,22,528
5.440169206856682,0,1,9,20,530
5.544748872837148,0,1,8,15,536
5.7482762157659195,0,1,8,13,538
5.8543699845901305,0,1,6,15,538
5.999212169388732,0,1,6,12,541
6.151726790374394,0,1,3,12,544
6.321519564791411,0,0,3,12,545
6.463961969043599,0,0,3,10,547
7.069706027735391,0,0,2,10,548
7.356536176922072,0,0,0,11,549
7.559566919851716,0,0,0,10,550
7.8853744757114725,0,0,0,9,551
8.093588622470117,0,0,0,5,555
8.727653898086487,0,0,0,3,557
9.13875541076034,0,0,0,2,558
10.614500298050626,0,0,0,0,560
100,0,0,0,0,560
