#Time,A,B,C,D,E
0,0,259,0,99,42
0.10858466778164393,0,240,18,91,51
0.20923833955399013,0,219,36,81,64
0.3109893859274321,0,198,55,80,67
0.41288823193451174,0,172,78,73,77
0.5145671625947296,0,158,83,72,87
0.6149882542574379,0,146,89,66,99
0.7186584503824354,0,135,88,69,108
0.8241236586227066,0,121,90,74,115
0.9270079174841538,0,113,84,75,128
1.0314595216431532,0,106,82,79,133
1.1326661737150239,0,100,80,81,139
1.2332847609291935,0,92,83,72,153
1.3380575473041494,0,84,86,66,164
1.438496468921606,0,75,84,74,167
1.543363252659391,0,66,84,76,174
1.6457352389076123,0,54,93,70,183
1.749011489203461,0,49,90,71,190
1.851992321563554,0,42,88,74,196
1.9595412465164657,0,39,84,77,200
2.0628418411059237,0,33,81,73,213
2.1666268666541435,0,33,73,75,219
2.2673724783983964,0,28,69,77,226
2.376519163660895,0,24,68,76,232
2.482641493777651,0,22,64,71,243
2.5827832069658387,0,22,55,76,247
2.688150426191997,0,22,52,70,256
2.7902418593981766,0,17,53,64,266
2.9022436399888845,0,17,52,58,273
3.0163480337990634,0,15,46,63,276
3.117855216629117,0,12,46,58,284
3.2191612175212083,0,11,43,53,293
3.3368817822268593,0,8,42,51,299
3.457683757762006,0,6,37,52,305
3.563679479723389,0,6,29,52,313
3.702865466254885,0,6,23,55,316
3.819012805578245,0,6,22,49,323
3.9230281342142495,0,5,22,44,329
4.026031356564514,0,5,17,45,333
4.130235500651498,0,5,16,43,336
4.284455419737592,0,4,16,40,340
4.3902462401294855,0,4,12,35,349
4.569071428792033,0,4,11,31,354
4.677007307384609,0,4,9,29,358
4.816409769959292,0,3,9,27,361
4.961516153469289,0,3,6,27,364
5.069988142778026,0,3,4,23,370
5.176053222097266,0,3,4,21,372
5.319933614384456,0,3,3,19,375
5.428220692121949,0,3,3,14,380
5.666972651997735,0,3,3,12,382
5.776520670398814,0,3,3,9,385
5.886016378342831,0,1,5,9,385
6.0478260273099895,0,1,4,8,387
6.163118454824256,0,1,3,8,388
6.351300369690546,0,1,1,10,388
6.581522001724064,0,1,0,9,390
6.777140206917487,0,1,0,8,391
6.877359079428626,0,0,1,5,394
7.038548679554102,0,0,1,4,395
7.349392235564173,0,0,0,4,396
7.462715618458892,0,0,0,2,398
7.7926338950141645,0,0,0,1,399
7.912280251489099,0,0,0,0,400
100,0,0,0,0,400
