#Time,A,B,C,D,E
0,0,128,116,0,0
0.10087050173534677,0,121,111,12,0
0.2059047282023322,0,111,110,18,5
0.3063963800840151,0,104,106,27,7
0.40657841943906814,0,94,110,29,11
0.5078829577914418,0,80,115,34,15
0.608278817320909,0,68,110,46,20
0.7174084977727064,0,63,102,53,26
0.8178285121495628,0,56,100,58,30
0.9180205522761996,0,52,94,59,39
1.0185990307576636,0,45,90,66,43
1.121913327710114,0,39,89,65,51
1.2239389356719101,0,38,80,64,62
1.3262841276502155,0,37,71,69,67
1.4494929354966395,0,32,69,70,73
1.5623213776974343,0,28,64,69,83
1.669172616866901,0,25,61,73,85
1.774799736172343,0,23,58,70,93
1.880416814739421,0,21,52,69,102
1.985579439925656,0,19,43,74,108
2.0880009719466828,0,16,40,73,115
2.192747281991646,0,16,35,69,124
2.3002187218924064,0,12,37,65,130
2.4068837888023977,0,12,32,66,134
2.5126090742408906,0,10,34,58,142
2.6130405319197147,0,10,31,53,150
2.7196337691341337,0,8,30,49,157
2.8759065088077986,0,7,26,51,160
2.9946126787013054,0,6,23,51,164
3.1001190849788323,0,6,21,46,171
3.201991749930955,0,6,19,38,181
3.31580712518928,0,5,16,37,186
3.443421943048786,0,3,17,33,191
3.578863992901471,0,3,15,33,193
3.6940436655518876,0,3,12,29,200
3.7976284100830497,0,3,11,26,204
3.9137333859078187,0,3,11,22,208
4.021891197339453,0,3,11,17,213
4.135704370981457,0,3,11,14,216
4.253741339330243,0,3,9,16,216
4.358237928381032,0,3,8,15,218
4.57969697647415,0,3,7,14,220
4.85180373857946,0,3,5,15,221
5.0227029436630355,0,2,5,14,223
5.151578608691692,0,1,4,15,224
5.27299898651136,0,1,3,14,226
5.382927199297462,0,1,3,11,229
5.515000421267441,0,1,1,13,229
5.757284631037386,0,1,1,11,231
5.917583060457093,0,1,0,12,231
6.079940015679727,0,1,0,9,234
6.188392836287488,0,1,0,8,235
6.767955012325611,0,1,0,6,237
6.99303323665129,0,1,0,5,238
7.183222946200914,0,1,0,4,239
7.314014036377771,0,0,1,3,240
7.451633802102245,0,0,0,2,242
8.053022173846161,0,0,0,0,244
100,0,0,0,0,244
