#Time,A,B,C,D,E
0,86,19,90,218,0
0.10292459437037763,78,27,80,211,17
0.2043727766493793,65,36,79,194,39
0.3051310729188928,57,41,70,190,55
0.40679161118072255,50,42,71,171,79
0.5071135193866267,46,44,68,158,97
0.6096528275804048,43,39,69,146,116
0.7125124218183472,34,46,69,134,130
0.8137291836322096,33,44,70,128,138
0.914148892105221,29,44,67,123,150
1.017264103108853,24,46,65,114,164
1.1275785721310618,22,41,62,107,181
1.2293054905329373,19,37,63,101,193
1.3319748548676162,15,34,64,98,202
1.441896830205458,12,35,59,96,211
1.5518398506619602,10,35,55,90,223
1.6576788096768733,9,33,54,89,228
1.7590573607431657,9,33,46,87,238
1.8592793429495835,8,28,45,84,248
1.9681977549503846,8,28,42,77,258
2.06908207748914,7,29,40,75,262
2.175599299259293,6,28,38,71,270
2.2860182810687433,6,26,35,69,277
2.4059069131825788,4,24,35,60,290
2.509607227585229,3,25,32,58,295
2.615723643643703,1,24,30,61,297
2.716910839967799,1,19,31,60,302
2.8235292768629217,1,18,29,53,312
2.9239474339702056,1,16,29,49,318
3.0271455118661623,1,16,27,45,324
3.1453036699398407,1,15,27,40,330
3.266837574579547,1,14,24,41,333
3.369181833877443,1,12,24,39,337
3.5042757064037864,1,12,21,34,345
3.617667468829774,1,11,19,34,348
3.72883418916049,1,11,16,31,354
3.8762764206892015,1,11,14,32,355
3.9856065176434012,1,8,17,31,356
4.12142594967428,1,5,20,27,360
4.249788700879975,1,4,19,27,362
4.40055678909214,0,4,19,24,366
4.504160254746647,0,4,17,22,370
4.630482627210582,0,4,16,21,372
4.758295291487215,0,4,13,22,374
4.862088793414149,0,4,13,19,377
4.981505103108026,0,4,10,22,377
5.103633099379438,0,4,8,21,380
5.222001372178309,0,4,8,19,382
5.358925118679294,0,3,9,16,385
5.4743785534040885,0,2,10,14,387
5.655174734351001,0,2,8,15,388
5.761308452216459,0,2,8,13,390
6.021821085252052,0,2,6,14,391
6.147512464901236,0,2,6,11,394
6.254534910056338,0,2,5,10,396
6.361528531283874,0,1,5,9,398
6.4885740886944046,0,1,4,9,399
6.719959516850299,0,0,5,8,400
6.855643443430734,0,0,5,7,401
7.091792829013168,0,0,4,8,401
7.27606540649557,0,0,4,5,404
7.39212167042852,0,0,3,5,405
7.691165037596627,0,0,3,3,407
7.842831075639206,0,0,2,3,408
8.746659667063588,0,0,2,2,409
9.391655348287598,0,0,1,3,409
10.403481808911657,0,0,1,1,411
10.878304080537145,0,0,0,1,412
11.441761832318356,0,0,0,0,413
100,0,0,0,0,413
