#Time,A,B,C,D,E
0,151,69,0,173,0
0.10076334563890425,140,70,10,157,16
0.20243312575571495,131,75,12,150,25
0.3073814831471884,118,80,16,139,40
0.40985210460341254,109,78,21,130,55
0.5255848984242736,103,75,26,124,65
0.626537983234238,91,80,30,115,77
0.7279050133906761,80,85,31,116,81
0.8319799973505968,71,81,41,107,93
0.9357400944097816,63,78,50,98,104
1.03663259165154,58,74,56,86,119
1.137335524079605,55,68,59,83,128
1.2376044496460559,46,72,59,81,135
1.352697528286032,43,69,59,80,142
1.4542742138799396,40,67,59,72,155
1.5632916501988583,36,61,64,67,165
1.6679396500143733,33,57,65,61,177
1.7694641599258947,26,58,66,65,178
1.8779058126959292,25,53,69,58,188
1.981381261565841,23,44,71,63,192
2.0835381984726657,19,46,65,64,199
2.1951744555742327,17,41,63,65,207
2.296685832323098,16,36,62,66,213
2.4012754218852512,11,35,61,70,216
2.5024887362447696,11,31,58,72,221
2.613743012023466,10,28,55,75,225
2.7149876470445835,8,28,52,73,232
2.8348873536862778,6,27,45,80,235
2.937368161710218,6,26,41,80,240
3.047076833444452,5,20,43,80,245
3.1473189422672663,4,20,40,78,251
3.2611053571979554,3,20,38,73,259
3.362431681711518,3,19,32,74,265
3.464927204631286,3,16,33,68,273
3.573755661038754,3,15,30,67,278
3.6783225989153765,3,13,28,60,289
3.782683378474063,3,13,22,58,297
3.8905002615949162,3,9,22,57,302
4.006448113922864,1,9,23,51,309
4.107433809377602,1,9,21,47,315
4.250829136506719,1,9,15,48,320
4.353696692264446,0,9,13,45,326
4.45947093088048,0,8,12,43,330
4.58163295593034,0,8,10,38,337
4.681669772183194,0,6,12,36,339
4.789008852713833,0,4,13,33,343
4.950600717088918,0,4,9,33,347
5.067270632112797,0,4,9,31,349
5.207508121752515,0,4,6,31,352
5.331035788574706,0,4,4,30,355
5.494058707220555,0,3,4,30,356
5.613122966493644,0,3,3,27,360
5.74116634526248,0,3,2,23,365
5.868140254939527,0,3,2,19,369
5.990261368563762,0,2,3,16,372
6.206075870672884,0,2,2,15,374
6.343052746926062,0,2,2,14,375
6.472994718888163,0,2,2,12,377
6.596294104431101,0,1,2,11,379
6.723511705949949,0,1,2,9,381
6.865609958880512,0,1,2,7,383
7.041604752146942,0,1,2,6,384
7.20930722038738,0,0,3,3,387
7.344669750713442,0,0,2,4,387
7.596438692954825,0,0,2,3,388
7.829402251332739,0,0,1,4,388
8.253489933189915,0,0,0,4,389
8.364230484431056,0,0,0,3,390
8.992551001254682,0,0,0,1,392
9.934124563237555,0,0,0,0,393
100,0,0,0,0,393
