#Time,A,B,C,D,E
0,0,187,22,47,55
0.1103594075911086,0,169,39,43,60
0.21121317542617374,0,154,50,42,65
0.31520768472364363,0,139,62,41,69
0.4155983644198263,0,123,75,41,72
0.5175512824023124,0,109,79,47,76
0.6214419360099734,0,103,82,46,80
0.7222826044746473,0,96,81,48,86
0.8247727705254464,0,84,87,50,90
0.924958563291067,0,75,83,59,94
1.0253858301618781,0,67,81,58,105
1.1327422898909345,0,64,71,63,113
1.246305188962197,0,59,70,61,121
1.349948178452314,0,55,68,61,127
1.4531724615271426,0,53,60,64,134
1.5636359420932597,0,48,60,59,144
1.6641266517380355,0,43,61,58,149
1.770509910939145,0,41,55,63,152
1.877619788775031,0,32,57,64,158
1.9779238205758158,0,26,59,61,165
2.0785020927317075,0,23,50,63,175
2.1798645727755317,0,19,46,67,179
2.3074596043024034,0,17,46,61,187
2.4205502150186873,0,16,44,58,193
2.5685962692859983,0,16,41,58,196
2.674660361305525,0,16,40,54,201
2.7759597971808825,0,15,38,52,206
2.8777015186855164,0,12,40,47,212
2.9797052182194226,0,11,37,46,217
3.097720074312194,0,11,32,48,220
3.2015500700007102,0,8,31,47,225
3.322774375864509,0,8,30,45,228
3.426873872415366,0,8,30,42,231
3.528920584733507,0,7,27,41,236
3.640097594481631,0,6,28,36,241
3.748881976970125,0,5,27,36,243
3.879508261303306,0,5,26,35,245
3.9938447184010117,0,5,22,36,248
4.098337170269137,0,4,21,35,251
4.215315054695336,0,3,21,27,260
4.400267639247938,0,3,18,27,263
4.511308737712104,0,2,17,27,265
4.63299984004235,0,2,13,30,266
4.748416170030252,0,2,12,30,267
4.868724156745173,0,2,10,27,272
5.000819688305745,0,2,7,25,277
5.112652916497884,0,1,6,24,280
5.241038497254365,0,1,4,26,280
5.365508898590484,0,1,4,22,284
5.516683027605177,0,1,4,16,290
5.639137496826414,0,1,2,16,292
5.742007329621129,0,1,2,15,293
6.0153022367011335,0,0,1,11,299
6.143081483319824,0,0,1,9,301
6.457246571780448,0,0,0,10,301
6.910231294714362,0,0,0,8,303
7.190661473925194,0,0,0,7,304
7.3169492639816855,0,0,0,6,305
7.420582393175843,0,0,0,5,306
8.155617247594131,0,0,0,3,308
8.58091938512983,0,0,0,1,310
9.287164489102686,0,0,0,0,311
100,0,0,0,0,311
