#Time,A,B,C,D,E
0,15,3,239,120,14
0.10176127699339427,14,4,210,139,24
0.20939497593130957,11,7,187,147,39
0.30951179326653966,10,7,166,149,59
0.41096539276143235,10,7,152,151,71
0.5143315153963544,10,6,138,148,89
0.6166511859500853,9,7,130,140,105
0.7179235313834302,9,7,117,133,125
0.8234532394733205,9,7,104,132,139
0.928583047522179,8,8,94,135,146
1.032196188896642,8,6,89,124,164
1.1359176305998062,8,5,79,130,169
1.237419599971132,6,7,70,122,186
1.3374210376670077,6,7,59,127,192
1.4480482411434352,6,7,53,117,208
1.5541888325962212,4,8,50,110,219
1.657306435153696,4,8,46,104,229
1.7610706380876153,2,10,45,95,239
1.8785924900804127,1,10,41,93,246
1.9823770441388897,1,10,32,92,256
2.084184505658584,0,7,33,88,263
2.1857885196531393,0,6,32,79,274
2.2918941087922478,0,6,29,73,283
2.3956832044697642,0,6,27,65,293
2.5023108810024746,0,5,24,59,303
2.603155177431554,0,5,22,55,309
2.778061501114397,0,4,21,55,311
2.899798356840432,0,4,20,47,320
3.011843225348606,0,4,17,44,326
3.1441044881120552,0,4,17,36,334
3.2513140086820402,0,4,16,31,340
3.37227138991318,0,4,14,31,342
3.5123114851840365,0,2,16,28,345
3.6132936483047353,0,2,14,27,348
3.7775305660746636,0,2,12,24,353
3.8940821562995724,0,2,9,22,358
4.125741971660405,0,1,10,19,361
4.262939181335127,0,1,8,19,363
4.3988338814396934,0,1,7,17,366
4.575509881706211,0,1,7,15,368
4.7057585343365576,0,1,7,13,370
4.896032554421574,0,1,7,11,372
5.014858242710356,0,0,6,12,373
5.356635131623295,0,0,4,12,375
5.577420768927981,0,0,3,12,376
5.795184057877228,0,0,3,11,377
5.907346574725873,0,0,2,10,379
6.070296997581205,0,0,2,8,381
6.360985014593074,0,0,1,7,383
6.746735074559137,0,0,1,5,385
6.9806684543256585,0,0,1,4,386
7.779509377959682,0,0,1,2,388
8.111190567552605,0,0,1,0,390
8.38744660028232,0,0,0,1,390
8.84359600421961,0,0,0,0,391
100,0,0,0,0,391
