#Time,A,B,C,D,E
0,0,18,113,164,94
0.10291028791352747,0,14,111,154,110
0.21706066491268586,0,13,96,158,122
0.31952305863039787,0,12,86,153,138
0.42883588234602704,0,10,79,143,157
0.5495336332423185,0,10,70,135,174
0.6589877991479767,0,10,61,131,187
0.7649021955115586,0,10,53,120,206
0.866992971496893,0,9,52,114,214
0.9716147718362884,0,8,45,112,224
1.0783266383790555,0,8,38,108,235
1.1811075720577262,0,7,34,104,244
1.284071781512621,0,7,29,98,255
1.386453955455992,0,7,27,94,261
1.4927447304915105,0,6,25,82,276
1.602888011385136,0,6,23,73,287
1.7057997970113001,0,6,21,67,295
1.829811214071064,0,6,18,63,302
1.931776313210672,0,5,17,60,307
2.032217162606866,0,5,15,55,314
2.1360687218538943,0,5,13,52,319
2.268397749374564,0,4,13,50,322
2.372427896837941,0,3,11,47,328
2.472700085584725,0,3,8,46,332
2.57521561703921,0,1,10,40,338
2.6823766294037945,0,1,8,37,343
2.79377212728555,0,1,8,33,347
2.899397415809582,0,1,6,33,349
3.0125120271768093,0,1,6,25,357
3.1446364239018076,0,1,5,22,361
3.279607006934162,0,1,3,24,361
3.4416206311742203,0,1,3,21,364
3.5580165671783432,0,1,3,19,366
3.708888011374858,0,0,3,20,366
3.812046928363174,0,0,2,17,370
3.9901104214517824,0,0,2,12,375
4.116704259984756,0,0,2,11,376
4.242196889678673,0,0,1,9,379
4.377704208501879,0,0,1,8,380
4.484098591130925,0,0,1,6,382
4.643258973254795,0,0,1,4,384
5.273437530217111,0,0,1,2,386
6.27893259148963,0,0,0,3,386
6.536662457909106,0,0,0,2,387
7.076135724908497,0,0,0,0,389
100,0,0,0,0,389
