#Time,A,B,C,D,E
0,80,441,0,34,0
0.10557914985287195,75,400,45,34,1
0.2074577570142622,67,373,70,40,5
0.3093643220437204,62,341,99,46,7
0.41049240153510286,54,320,120,52,9
0.5117608475383382,50,296,137,60,12
0.6126840905285599,43,278,145,68,21
0.7134213414994857,41,251,159,78,26
0.8156259514524941,37,229,164,88,37
0.9193091004739291,34,212,169,99,41
1.0223477439998763,33,193,169,106,54
1.123668284528349,30,175,178,109,63
1.2260443501765996,25,170,173,116,71
1.327995539671598,25,158,165,121,86
1.4362640777584774,22,145,165,124,99
1.5371150474707989,21,131,162,122,119
1.6416345677892656,21,121,162,118,133
1.746820471796683,21,109,157,118,150
1.8503958296085723,21,97,151,125,161
1.9521582714843817,20,85,154,124,172
2.053467219794102,19,76,156,121,183
2.153535324887343,19,68,149,120,199
2.2542350446241444,17,60,150,114,214
2.354307011620004,17,47,145,121,225
2.454430328685991,15,46,136,120,238
2.5559951559597334,13,45,124,124,249
2.657820965755951,13,41,119,124,258
2.7620382620066555,12,36,117,122,268
2.864158600145693,10,37,107,121,280
2.9685017618666607,8,32,104,118,293
3.0712032598072327,7,29,98,115,306
3.1742079118551847,6,26,92,116,315
3.2756274558859335,4,26,84,115,326
3.3756316160456534,3,24,73,123,332
3.476296548354517,3,23,67,123,339
3.579091693369105,3,21,61,116,354
3.6817097074403256,3,21,51,117,363
3.7825000638054203,3,20,45,110,377
3.88993960317254,2,19,42,106,386
3.9913727024125176,1,19,41,99,395
4.121963149796483,1,15,35,103,401
4.232019307895804,1,14,28,99,413
4.350911419490765,1,13,26,94,421
4.46453027465135,1,11,28,86,429
4.5757564346801445,1,9,28,82,435
4.675760677663955,1,9,25,77,443
4.779788046456241,1,7,26,71,450
4.880440883302713,1,5,24,72,453
4.983207126327456,1,5,20,68,461
5.089875329876785,0,5,21,60,469
5.202615462234427,0,4,21,57,473
5.303344591922206,0,4,19,54,478
5.412918138090114,0,4,17,48,486
5.572019259305396,0,3,17,45,490
5.687679689445707,0,2,16,46,491
5.810716336311608,0,2,14,42,497
5.929309896771423,0,2,11,30,512
6.04397849293339,0,2,8,26,519
6.1443556969759685,0,2,8,24,521
6.246537489340369,0,2,8,20,525
6.356541844941846,0,2,6,20,527
6.5540100955613525,0,2,6,15,532
6.665479264776552,0,1,7,12,535
6.776065686121537,0,1,5,12,537
6.889519022146117,0,1,2,13,539
7.04984336965035,0,1,2,12,540
7.359286134360649,0,1,2,10,542
7.474646586793605,0,0,3,8,544
7.655524052887254,0,0,2,9,544
7.777958903606287,0,0,2,8,545
8.134437555874053,0,0,2,7,546
8.384427506680419,0,0,2,6,547
8.639245660301373,0,0,2,5,548
8.846303856571724,0,0,1,6,548
9.056065715151515,0,0,1,5,549
9.350246663462466,0,0,1,4,550
9.982386111220352,0,0,1,2,552
10.710968108778486,0,0,1,1,553
12.652961652749058,0,0,1,0,554
15.461740871971688,0,0,0,1,554
15.893138797646206,0,0,0,0,555
100,0,0,0,0,555
