#Time,A,B,C,D,E
0,95,59,0,0,66
0.1063651813742356,89,59,6,0,66
0.20824484185024505,82,60,12,0,66
0.3381665539934517,75,62,17,0,66
0.43831814297153193,68,66,19,1,66
0.5398252759621094,65,58,25,6,66
0.6438454980507203,62,57,28,5,68
0.7465060779640746,58,55,30,7,70
0.8470556753261085,53,55,34,7,71
0.9478725516283858,48,52,38,10,72
1.0534360777912581,44,53,36,13,74
1.1602473893000933,40,52,33,18,77
1.2624462995113757,37,50,36,16,81
1.3654209749124888,34,49,36,16,85
1.4729214978664635,30,49,33,21,87
1.5767747602377815,23,50,35,23,89
1.687095745264742,20,48,37,24,91
1.7877852011918591,17,45,41,20,97
1.8983647614814438,16,42,43,18,101
2.002088057110244,13,42,44,18,103
2.111982551615735,13,40,42,20,105
2.212749993474119,13,37,39,22,109
2.3245185584330774,10,33,41,25,111
2.427947080456656,9,34,35,27,115
2.540246722238239,8,31,36,28,117
2.649599935441369,7,29,36,29,119
2.7599583060851254,6,25,35,30,124
2.8658309486124383,6,20,33,33,128
2.965881178797195,5,20,29,33,133
3.0753442532237596,3,20,29,35,133
3.1764939871529627,3,16,30,37,134
3.2906514595787817,3,14,30,35,138
3.4217707871819556,3,10,29,36,142
3.5500093062572224,3,10,28,35,144
3.6567574765835453,3,9,28,32,148
3.777106896716807,3,7,26,31,153
3.884859530132306,3,6,25,29,157
3.999508891633271,3,6,23,29,159
4.113632294436386,3,6,19,27,165
4.256812712739931,3,6,14,29,168
4.378819771753257,2,7,11,26,174
4.483829114323418,2,7,9,27,175
4.585682158602126,2,5,11,25,177
4.71143243341447,2,5,10,24,179
4.819675206074106,2,4,9,22,183
4.966659683938036,1,4,8,22,185
5.092644049475122,1,3,8,19,189
5.193290439703589,1,3,6,17,193
5.343877600540759,1,3,6,15,195
5.459355370706237,1,2,6,13,198
5.560979033696437,1,2,5,14,198
5.675812278848209,0,3,4,14,199
5.8242577394377015,0,2,3,14,201
5.945451958095568,0,2,2,13,203
6.059355527960847,0,2,1,12,205
6.289158182085895,0,2,1,11,206
6.4303190202245535,0,2,1,8,209
6.648280569340122,0,1,2,6,211
6.797488877332863,0,0,3,4,213
7.000785001988053,0,0,1,5,214
7.270583093468009,0,0,0,5,215
7.564587551693343,0,0,0,3,217
8.371284698603267,0,0,0,2,218
8.565183738214964,0,0,0,1,219
9.167932562124548,0,0,0,0,220
100,0,0,0,0,220
