#Time,A,B,C,D,E
0,15,3,239,120,14
0.10184634771855439,13,5,223,115,35
0.20337456943361817,10,6,199,131,45
0.3083033831395845,9,7,182,132,61
0.411000291059372,9,6,161,143,72
0.5148460066750806,8,6,149,135,93
0.616332622890959,8,5,141,132,105
0.7182623164774644,8,5,121,135,122
0.8254327230007462,7,6,101,138,139
0.930938745636848,5,8,87,133,158
1.032311261389473,5,8,76,132,170
1.1326495991963301,4,9,72,123,183
1.2360832689951122,4,8,63,124,192
1.3461353928326003,4,8,56,121,202
1.4475988690536041,4,8,47,119,213
1.549617236144464,4,7,43,115,222
1.6557621501445596,4,7,37,115,228
1.7701654938476763,4,5,34,109,239
1.8740892580141497,3,6,31,101,250
1.9812237475486605,3,5,31,89,263
2.0868666977320007,3,4,31,86,267
2.1936404511480316,2,4,28,80,277
2.2988587818773927,1,5,25,73,287
2.4018985273066824,1,5,22,66,297
2.50728628350865,1,5,19,61,305
2.6095187604011296,1,5,16,58,311
2.712762982097628,1,5,13,54,318
2.848859583015904,1,5,11,48,326
2.9565763640184826,1,4,11,44,331
3.064373205527225,1,4,9,39,338
3.184210492426817,1,4,8,37,341
3.3745337348731064,1,3,8,36,343
3.47615755256211,1,3,8,29,350
3.577612042515426,1,3,6,24,357
3.7038718779218476,0,3,7,20,361
3.819061312243707,0,3,7,15,366
3.9311720411676245,0,3,6,13,369
4.071910002163726,0,3,4,14,370
4.2785040999909105,0,3,3,12,373
4.3997664714657345,0,3,2,12,374
4.5329828831584065,0,2,3,12,374
4.724978004919405,0,1,4,10,376
4.970054075470747,0,1,2,11,377
5.070997493858143,0,1,2,10,378
5.207900398423415,0,1,2,8,380
5.324006465680046,0,1,1,9,380
5.472614242941939,0,0,2,8,381
5.631292858213272,0,0,2,7,382
5.769985513653821,0,0,1,7,383
6.036780226828673,0,0,1,6,384
6.244052092465958,0,0,1,5,385
6.4017246731961235,0,0,1,3,387
6.515882710475138,0,0,1,1,389
6.905108050028632,0,0,0,2,389
7.865154836657617,0,0,0,0,391
100,0,0,0,0,391
