#Time,A,B,C,D,E
0,107,0,20,131,276
0.10067227796488921,97,10,18,120,289
0.21395711012665755,87,18,19,112,298
0.3178079774061778,79,23,19,106,307
0.42729295754554875,69,32,19,100,314
0.5276988522698312,62,38,18,91,325
0.637047091437284,52,45,20,84,333
0.7441711533081468,49,44,23,75,343
0.8461883282788145,40,47,27,72,348
0.9574262308500787,36,47,30,67,354
1.0617517277965363,30,41,40,62,361
1.1661943192051472,30,37,38,62,367
1.2787819872285178,28,33,43,59,371
1.399842591591945,25,31,47,57,374
1.511752203692287,21,28,47,57,381
1.6174904217296135,18,30,44,59,383
1.7278286208059508,17,26,38,66,387
1.832630881236239,14,28,37,61,394
1.9345278165617459,13,28,37,53,403
2.0392854240006972,11,27,34,53,409
2.142819230746469,10,26,32,51,415
2.2430354678332542,8,21,35,50,420
2.345917109047673,8,17,36,48,425
2.449179834599003,8,16,35,42,433
2.5636806781126045,7,15,34,41,437
2.668058468791466,6,14,33,42,439
2.779801808364982,6,12,31,40,445
2.9078840200240035,5,11,31,37,450
3.0112737997179098,5,9,33,31,456
3.1344165004574447,5,9,30,32,458
3.2424615123047333,4,10,24,33,463
3.3690002550800324,4,7,25,32,466
3.4880694904520446,3,8,22,28,473
3.603222727877444,3,7,19,28,477
3.708869806154295,3,6,17,28,480
3.8161557898267895,2,7,14,28,483
3.9328683269829035,2,6,13,28,485
4.044455643828495,2,6,12,27,487
4.150619053588675,2,6,12,25,489
4.254423739891713,2,4,13,24,491
4.373882746247346,2,4,12,22,494
4.475521800051581,1,5,12,18,498
4.582759350600837,1,5,10,18,500
4.706541002037079,1,4,11,14,504
4.823429486203468,1,4,11,13,505
4.980350309535234,1,3,9,15,506
5.136348105481825,1,3,8,12,510
5.2487476271217055,0,3,8,12,511
5.467990533073825,0,3,7,12,512
5.59554162158038,0,2,5,15,512
5.839204439608617,0,2,5,13,514
5.997581779080228,0,2,5,11,516
6.127646895044107,0,2,2,11,519
6.317023219075823,0,2,2,9,521
6.822991670042133,0,2,2,7,523
7.041501276514891,0,2,2,6,524
7.281695579012373,0,1,3,4,526
7.454555552526031,0,1,3,3,527
7.592733587214466,0,1,2,4,527
7.703273107752482,0,1,0,6,527
7.893344327204744,0,1,0,5,528
8.145299914723603,0,1,0,3,530
8.43325237233183,0,1,0,2,531
8.645869674679792,0,1,0,1,532
8.770646087992741,0,1,0,0,533
9.57922703885997,0,0,1,0,533
11.533420435127942,0,0,0,1,533
15.357808539108081,0,0,0,0,534
100,0,0,0,0,534
