#Time,A,B,C,D,E
0,0,0,13,31,11
0.18168225306017727,0,0,12,29,14
0.29366626254154854,0,0,9,28,18
0.41412278284212267,0,0,7,27,21
0.519009087766142,0,0,6,26,23
0.6328547032243164,0,0,5,24,26
0.790695558032364,0,0,4,24,27
1.015157454814876,0,0,4,20,31
1.2137853018364946,0,0,4,12,39
1.3983979701861897,0,0,4,9,42
1.5159433562569098,0,0,2,9,44
1.6926282201804512,0,0,1,9,45
1.8113820397580078,0,0,1,5,49
1.9580023638629769,0,0,0,5,50
2.1263604528671505,0,0,0,4,51
2.2827774541165526,0,0,0,1,54
100,0,0,0,0,55
