#Time,A,B,C,D,E
0,227,55,91,0,1
0.10017977858952308,210,65,84,13,2
0.20523993323694512,190,79,83,19,3
0.3065424138673422,172,92,83,21,6
0.414768018076226,154,100,84,26,10
0.5159627871270099,137,106,86,33,12
0.6222215077450924,123,108,92,35,16
0.7247598520945364,117,99,98,42,18
0.825510186581252,105,101,98,44,26
0.9257284554042347,101,91,103,48,31
1.0294424924481196,88,95,105,45,41
1.1316880054063225,77,93,107,49,48
1.2341465970908578,70,86,114,55,49
1.3350934411996616,67,80,115,55,57
1.4352471276038465,58,83,110,59,64
1.537970563668907,52,82,105,65,70
1.6430469554372336,49,81,97,72,75
1.7443231799547403,45,80,91,75,83
1.8488570848402446,39,79,92,73,91
1.9501129898727418,33,73,97,67,104
2.0508030251209113,30,72,92,62,118
2.1513943431974356,27,63,93,68,123
2.2544920621176936,23,62,83,76,130
2.3571396941228024,20,61,78,77,138
2.463284264582941,19,53,79,81,142
2.564801372188671,18,49,75,84,148
2.6676773568213474,17,46,75,78,158
2.7722431277007553,16,44,71,77,166
2.875113345735031,13,41,75,70,175
2.978666145427815,10,41,69,73,181
3.079268269678002,9,35,70,70,190
3.1923014109802708,7,32,71,62,202
3.2971767932013494,6,29,70,63,206
3.4040844927054503,6,28,63,68,209
3.511565539641875,6,26,57,70,215
3.612638134441217,6,23,57,68,220
3.7340306377487416,5,23,53,69,224
3.8442978693938,5,23,51,68,227
3.9526322672088394,4,21,47,73,229
4.053729622509917,3,19,47,69,236
4.163330350436511,3,17,45,69,240
4.276698943068133,3,13,46,64,248
4.395148592430472,2,14,43,64,251
4.511990269765236,2,14,39,60,259
4.622129052160775,2,13,36,59,264
4.742578269931777,2,11,34,58,269
4.847197941688943,2,9,32,59,272
4.966204264237996,2,9,28,57,278
5.07309162299637,2,8,28,51,285
5.181320183433128,2,8,25,49,290
5.295629026199093,2,7,25,42,298
5.399421365360166,2,7,21,44,300
5.514437634528153,2,6,20,44,302
5.616555989142949,2,5,20,43,304
5.740885710617451,2,4,20,38,310
5.858578737854393,1,5,19,33,316
5.959374312575732,1,5,16,32,320
6.089737069476801,1,5,16,31,321
6.20129391343853,1,5,14,26,328
6.334997480088119,1,5,12,26,330
6.478737288712995,1,4,11,24,334
6.583828718631648,0,4,11,20,339
6.700328776828705,0,4,11,17,342
6.801314273267352,0,3,12,15,344
6.90564724431172,0,3,11,14,346
7.108400205559305,0,3,10,13,348
7.245881739387997,0,3,9,13,349
7.481390152504537,0,3,8,10,353
7.940081370232355,0,2,9,7,356
8.04409610254041,0,1,9,7,357
8.178519293244028,0,0,7,10,357
8.376507267872876,0,0,7,9,358
8.57509050248022,0,0,5,10,359
8.698448164303183,0,0,3,12,359
8.804704638812716,0,0,1,14,359
8.905015648903506,0,0,1,11,362
9.067479684628065,0,0,1,10,363
9.168957507893516,0,0,0,11,363
9.467826880907104,0,0,0,7,367
9.742071255158969,0,0,0,5,369
9.869098447615599,0,0,0,3,371
10.15924268497484,0,0,0,2,372
10.956739626410446,0,0,0,1,373
11.196475941641118,0,0,0,0,374
100,0,0,0,0,374
