#Time,A,B,C,D,E
0,62,7,0,304,58
0.10004258109486908,54,15,0,278,84
0.20174695194788175,51,17,1,253,109
0.30209744884012274,46,17,6,238,124
0.40327785163206287,40,16,12,218,145
0.503491446647251,38,16,12,206,159
0.609008366382349,30,22,13,184,182
0.7092651545699078,27,25,13,169,197
0.8152846724078496,26,22,16,139,228
0.9260111706847372,24,21,14,132,240
1.0293442408243993,20,24,12,119,256
1.1338208563780465,15,26,13,108,269
1.2382836780704343,13,24,16,97,281
1.34206868168386,12,22,17,93,287
1.4429182580918476,11,18,21,86,295
1.5734211028193064,8,18,20,79,306
1.678590341073699,8,18,19,72,314
1.7804012731257126,8,16,19,68,320
1.8878597837314408,6,16,17,63,329
1.997793727605454,6,14,18,61,332
2.10537481696102,5,13,16,62,335
2.206134598169397,5,10,16,57,343
2.3140469938539194,5,9,15,53,349
2.4191224885409364,5,7,14,49,356
2.5223294850569773,4,8,14,44,361
2.622348870414469,3,9,12,42,365
2.743185751102161,3,9,11,35,373
2.849938797114655,3,8,12,28,380
2.9524333693317235,3,7,10,28,383
3.0628997725548484,3,7,9,27,385
3.2352869777744386,3,6,7,28,387
3.3490814519106613,3,6,6,27,389
3.4568243144885353,2,7,5,24,393
3.5813363184671165,1,7,3,24,396
3.692783548311583,1,7,3,21,399
3.8693128888770576,1,6,4,19,401
4.012531580846534,1,5,4,16,405
4.177204907476667,1,2,7,12,409
4.279687926590686,1,2,6,12,410
4.386319949238233,1,2,6,11,411
4.5004144613631505,1,1,5,13,411
4.644988528187366,1,1,4,12,413
4.809926244688456,1,0,5,10,415
4.934850485169569,1,0,4,8,418
5.045883978775775,1,0,4,7,419
5.168294846985972,1,0,4,6,420
5.510525859115352,0,1,4,5,421
5.6537089529775715,0,0,3,6,422
5.818330890540643,0,0,3,4,424
6.047270193930288,0,0,2,5,424
6.150131415473564,0,0,2,4,425
6.274996000736469,0,0,1,4,426
6.580151769604376,0,0,0,4,427
6.871890792450062,0,0,0,3,428
7.136016866433587,0,0,0,2,429
9.839782735360696,0,0,0,1,430
11.482580868962225,0,0,0,0,431
100,0,0,0,0,431
