#Time,A,B,C,D,E
0,45,91,0,21,76
0.10388752124202846,42,88,6,20,77
0.22199315663136895,34,91,11,18,79
0.3307996769487077,32,85,18,16,82
0.4382357897686522,30,78,26,12,87
0.539214215533603,28,75,29,13,88
0.6456533521321917,26,68,34,14,91
0.7527518051378043,25,62,39,15,92
0.8676380651583222,22,60,42,15,94
0.978149687838359,20,53,46,17,97
1.0845349109497362,16,50,48,17,102
1.1857275755311971,15,47,48,20,103
1.2867462065931963,15,41,50,22,105
1.3888195043766631,13,39,49,23,109
1.4908101743562236,13,37,46,24,113
1.5974484594961156,11,33,44,31,114
1.719400832629959,10,31,38,37,117
1.8308915741595742,10,28,35,40,120
1.939388282911494,10,27,34,37,125
2.041605906811686,8,24,35,37,129
2.153215620353481,6,22,34,37,134
2.2573685252183306,6,19,36,35,137
2.367059936149598,6,19,29,36,143
2.488390243151747,5,18,27,35,148
2.589125455823664,5,15,26,37,150
2.69964049713507,4,14,24,36,155
2.8234123165784792,3,13,23,34,160
2.953376012401829,3,10,26,28,166
3.058208392129134,1,9,25,27,171
3.2081342945145823,0,10,25,25,173
3.339776518894592,0,10,23,22,178
3.4406937918047036,0,9,23,21,180
3.54694025683534,0,9,18,24,182
3.6482481441635564,0,7,17,24,185
3.7525221005722256,0,6,17,21,189
3.858239279382138,0,6,15,22,190
3.9642644743788042,0,6,13,22,192
4.076461309340244,0,6,9,25,193
4.249550588083057,0,6,8,21,198
4.365100544109133,0,6,8,19,200
4.4699968588796315,0,4,9,18,202
4.692570720420089,0,2,10,18,203
4.830652091677729,0,2,10,15,206
4.938167095255952,0,2,9,14,208
5.0714322258560545,0,2,7,14,210
5.193963809187704,0,1,8,12,212
5.299506243928347,0,1,6,14,212
5.477400704774061,0,1,5,14,213
5.6271225228119395,0,0,5,15,213
5.89941089326485,0,0,4,15,214
6.0377936338027975,0,0,4,13,216
6.1447495192053205,0,0,3,13,217
6.470505872198669,0,0,2,13,218
6.715744716356748,0,0,2,11,220
7.026603554898775,0,0,2,9,222
7.237057187392854,0,0,2,7,224
7.348167812375641,0,0,2,5,226
7.490916804326956,0,0,1,5,227
7.7238745846975565,0,0,1,3,229
8.338994479463581,0,0,0,4,229
8.457301167173867,0,0,0,1,232
11.220821972053708,0,0,0,0,233
100,0,0,0,0,233
