#Time,A,B,C,D,E
0,0,317,46,0,46
0.1001222735201016,0,279,74,9,47
0.201421072220525,0,263,84,11,51
0.3017856859911323,0,245,94,19,51
0.40560729423421304,0,223,102,33,51
0.5058445933644203,0,203,109,41,56
0.606253056686838,0,191,109,50,59
0.7097183655061597,0,173,116,54,66
0.8203407888942826,0,157,123,58,71
0.9208558718904757,0,141,127,62,79
1.022650721892305,0,126,131,67,85
1.1265105774866857,0,112,136,66,95
1.2273682048616767,0,101,129,79,100
1.3407316769915187,0,94,127,81,107
1.4417364610883125,0,86,120,86,117
1.5433326664107747,0,81,112,91,125
1.6570726814625447,0,72,106,99,132
1.7580061835817784,0,64,104,98,143
1.8585952339096765,0,61,96,99,153
1.9592889899451529,0,57,95,88,169
2.0674945317893534,0,52,89,86,182
2.167883622350029,0,46,86,86,191
2.271158454690824,0,44,79,82,204
2.3718908751790075,0,42,76,81,210
2.496338754889482,0,39,71,85,214
2.5974843160242878,0,36,63,91,219
2.7059603637867573,0,30,62,93,224
2.810594142491935,0,26,60,85,238
2.9145664543259264,0,21,58,85,245
3.0175761935973635,0,18,55,83,253
3.1185137509063123,0,16,49,75,269
3.2404287433297037,0,14,44,72,279
3.3426817430811333,0,13,38,72,286
3.4496362762312884,0,13,31,71,294
3.550857149541153,0,12,30,64,303
3.6572632540839125,0,12,29,56,312
3.758543667843571,0,11,26,54,318
3.8735447251153174,0,10,24,52,323
3.98294977707874,0,9,23,46,331
4.089456678219994,0,8,22,40,339
4.201551977611214,0,8,21,35,345
4.322903059730395,0,8,19,30,352
4.451942603855545,0,8,18,28,355
4.555428716167456,0,7,17,28,357
4.6784206772435875,0,7,15,27,360
4.783296441944372,0,6,16,24,363
4.898582508664878,0,5,16,22,366
5.060871269471333,0,4,14,23,368
5.185034008496555,0,4,11,25,369
5.34462521751338,0,4,8,26,371
5.44778342124436,0,4,7,24,374
5.595714569394785,0,4,6,22,377
5.718679764964754,0,4,4,21,380
5.836573771355291,0,3,5,20,381
6.055682194481107,0,3,5,17,384
6.1862640815582495,0,3,4,13,389
6.333217919540155,0,2,5,11,391
6.498172021504058,0,1,5,11,392
6.760641810655628,0,1,4,10,394
6.89051519534926,0,1,3,7,398
7.049535138171945,0,1,3,4,401
7.278866086456654,0,1,3,3,402
7.449408630578822,0,1,3,2,403
7.606637770488507,0,1,1,4,403
7.74589194415224,0,1,0,4,404
7.96762045694484,0,1,0,2,406
9.819409831272967,0,0,1,1,407
10.042181815301495,0,0,1,0,408
10.29912482764298,0,0,0,1,408
10.582039743088782,0,0,0,0,409
100,0,0,0,0,409
