#Time,A,B,C,D,E
0,227,55,91,0,1
0.10358894188814323,207,64,90,10,3
0.20546651218711534,183,83,84,19,5
0.3132737060453702,162,98,78,30,6
0.4140363890057554,148,95,87,35,9
0.5163917009874237,131,102,86,41,14
0.6174194211785755,118,103,88,47,18
0.7247184616716068,103,111,84,50,26
0.829416564014521,94,103,99,49,29
0.9295080315094498,83,106,97,52,36
1.0342877860911488,76,99,99,58,42
1.1393221532829634,71,93,100,65,45
1.241321982632902,63,94,98,70,49
1.3429806698842368,56,94,90,83,51
1.4457417568393434,53,87,89,87,58
1.546477650993387,47,85,89,85,68
1.6481470079837275,41,82,90,89,72
1.7508343034150136,40,77,89,82,86
1.8589521190955278,40,69,89,83,93
1.9594694946978095,38,63,90,84,99
2.064712023865107,35,63,83,84,109
2.167261094867907,31,57,84,86,116
2.2675750939102555,29,55,82,82,126
2.367579563306597,25,55,78,82,134
2.4774655553956455,24,53,74,77,146
2.579206929247517,22,46,73,84,149
2.6834842361938356,18,43,73,80,160
2.791827365458174,15,41,71,80,167
2.902780208845914,13,37,69,80,175
3.0181265622096345,12,35,62,81,184
3.118329491507299,12,32,56,88,186
3.225686793731217,9,32,53,84,196
3.3328274197686403,7,31,50,85,201
3.4334419231519897,7,27,44,90,206
3.5544218851657625,6,27,40,84,217
3.664618599201005,6,27,38,76,227
3.7654189185215716,6,26,36,70,236
3.868119697830713,5,24,35,62,248
3.9894732801360813,5,21,34,62,252
4.090638747333728,5,20,34,58,257
4.197198965823136,5,18,34,56,261
4.302256391586367,4,19,31,54,266
4.403098269941592,3,19,30,51,271
4.542823538655949,2,18,27,54,273
4.679809268393908,1,19,24,49,281
4.788792766092597,1,18,19,50,286
4.92751284758481,1,15,19,48,291
5.076024694464088,1,15,19,46,293
5.207477020430365,1,13,17,41,302
5.30895221435206,1,12,16,39,306
5.4162687610352345,1,12,13,35,313
5.5317739693551236,1,10,14,33,316
5.662339163734756,1,8,13,31,321
5.808883907915857,1,8,12,29,324
5.931991987278187,1,8,9,30,326
6.036123123813658,1,8,8,28,329
6.141935060517516,1,7,9,23,334
6.24315544714946,1,6,9,20,338
6.362192503912526,0,7,6,23,338
6.47280522728461,0,7,6,20,341
6.592198082906233,0,6,6,19,343
6.721023519122251,0,3,9,18,344
6.962082354457231,0,3,8,15,348
7.0664717218118644,0,3,7,15,349
7.170833067821346,0,3,6,12,353
7.285812242838471,0,2,6,11,355
7.4607947935423455,0,2,4,12,356
7.607420381960496,0,2,4,8,360
7.740661436132063,0,1,5,6,362
7.890590406036998,0,1,5,4,364
8.037132742624998,0,1,5,1,367
8.267978987629176,0,1,2,3,368
8.372102531223232,0,0,3,3,368
8.929243361460799,0,0,2,4,368
9.869985421160145,0,0,2,3,369
10.065347028980353,0,0,1,3,370
10.258174329911828,0,0,1,2,371
10.912410118490884,0,0,1,1,372
11.852786606068541,0,0,0,2,372
12.131870495652421,0,0,0,1,373
14.323495796582172,0,0,0,0,374
100,0,0,0,0,374
