#Time,A,B,C,D,E
0,0,82,44,110,0
0.10504569817351174,0,73,46,106,11
0.20845598241041052,0,67,47,104,18
0.30998687344906595,0,62,45,95,34
0.4122885477500751,0,54,50,89,43
0.5139235267482859,0,47,47,83,59
0.6245377609012193,0,45,42,78,71
0.7310480375289319,0,40,42,72,82
0.8427209898769384,0,37,43,68,88
0.944334825067669,0,28,45,71,92
1.0555670290997248,0,28,37,72,99
1.1567672678442729,0,26,35,67,108
1.258590614734167,0,26,34,59,117
1.362152276174833,0,23,33,61,119
1.4836554843272316,0,21,27,60,128
1.601602365113282,0,20,26,54,136
1.7018732869623054,0,18,24,51,143
1.8056441218268169,0,18,22,49,147
1.9133419620310703,0,18,21,41,156
2.0454599668959745,0,17,22,38,159
2.155666510405042,0,16,21,35,164
2.2687884291997396,0,15,18,33,170
2.3726406311719237,0,13,15,36,172
2.4766290068696777,0,12,14,37,173
2.6028503718232114,0,11,13,37,175
2.7099659051175458,0,10,13,37,176
2.81521152590736,0,8,14,34,180
2.915517615624415,0,8,12,32,184
3.028869885874696,0,6,13,28,189
3.1296808227070327,0,6,13,26,191
3.241544402393697,0,6,12,25,193
3.341971091101785,0,5,12,23,196
3.476723169178157,0,5,10,23,198
3.579052595263078,0,5,10,18,203
3.7089141804460692,0,4,9,15,208
3.816377967528068,0,4,8,14,210
3.9877355315974095,0,4,8,12,212
4.123883697207044,0,4,7,11,214
4.225541328594332,0,4,6,10,216
4.389357823406327,0,3,7,7,219
4.498347302475339,0,3,6,7,220
4.7093042359455355,0,2,5,9,220
4.850693442846427,0,2,5,7,222
5.02697948060537,0,2,3,8,223
5.180232181948101,0,2,3,6,225
5.3664914604445855,0,1,3,5,227
5.480256363794665,0,1,2,6,227
5.699342463323458,0,1,1,6,228
6.0754039151302575,0,1,1,5,229
6.23083094888395,0,1,1,4,230
6.528456795910048,0,0,2,3,231
6.647440372821139,0,0,1,3,232
6.960260472970073,0,0,1,2,233
7.121739881755507,0,0,0,3,233
7.865972579558004,0,0,0,2,234
8.039642099340202,0,0,0,1,235
11.008292660265845,0,0,0,0,236
100,0,0,0,0,236
