#Time,A,B,C,D,E
0,134,0,0,204,46
0.10011283827897008,118,15,1,183,67
0.20071486101245348,111,21,2,171,79
0.305769533716279,101,30,3,157,93
0.4080139045337408,91,36,7,141,109
0.5215184301072939,81,39,14,125,125
0.6228835311100681,72,45,16,117,134
0.7291700297925685,66,44,21,102,151
0.8313262824153181,58,47,24,93,162
0.9340637446993105,47,52,29,83,173
1.0342687948562106,45,49,31,78,181
1.1445716355730495,42,45,35,73,189
1.2493442035470053,37,45,34,70,198
1.366947021365194,35,44,34,66,205
1.4701046757536265,31,45,30,66,212
1.5717398211116835,29,42,32,62,219
1.6776665501261,25,42,31,61,225
1.792671858661459,22,43,27,58,234
1.9014366931574145,19,40,27,60,238
2.0056665422065096,16,39,25,65,239
2.1103462460571687,14,37,26,63,244
2.2125241078906495,12,33,26,63,250
2.330069435222452,10,32,25,61,256
2.434205343552295,9,30,25,58,262
2.549518383708203,8,29,24,52,271
2.6511721630024243,8,25,26,49,276
2.773615986596635,7,23,26,46,282
2.8828695121210495,6,20,26,46,286
2.9850613190568795,5,17,27,43,292
3.0990865722700582,5,17,25,41,296
3.214792574741545,5,14,23,40,302
3.328447013184331,3,14,24,35,308
3.465193993400416,3,12,25,30,314
3.5675886253066706,2,13,23,28,318
3.6759256877168656,2,10,25,26,321
3.778441833160909,2,9,23,25,325
3.878832159136263,2,8,20,26,328
3.9798477924855695,1,7,20,25,331
4.082451922763355,1,6,18,25,334
4.189125888543087,1,5,19,23,336
4.30800447099581,1,5,16,25,337
4.433138389030085,1,3,16,26,338
4.556400748025295,1,3,14,25,341
4.657505367903741,1,3,11,28,341
4.790143385569962,1,3,9,28,343
4.925454346703863,1,3,8,23,349
5.031934281565098,1,3,7,20,353
5.145448239872744,1,3,5,21,354
5.270394960330665,1,2,5,20,356
5.374254063771477,1,2,4,21,356
5.49524425660823,1,1,5,19,358
5.813198369326511,1,1,4,16,362
5.9607612426070515,0,1,4,12,367
6.077524849293866,0,1,4,10,369
6.24471774322975,0,1,4,8,371
6.422764856998406,0,1,4,6,373
6.544378798992764,0,1,4,5,374
6.711423532376151,0,1,4,4,375
6.863429178183232,0,1,3,3,377
7.047035345155352,0,1,2,4,377
7.342823573081952,0,1,2,2,379
7.472335726262333,0,1,1,0,382
8.274648306079595,0,1,0,1,382
8.433452386416576,0,0,1,1,382
8.856670927970516,0,0,0,1,383
11.463902285218769,0,0,0,0,384
100,0,0,0,0,384
