#Time,A,B,C,D,E
0,117,39,54,30,0
0.10909774836631153,104,46,58,29,3
0.21226128469988867,97,46,62,28,7
0.3179469204209483,86,52,63,31,8
0.42551985987363455,79,51,69,30,11
0.5422411528924522,74,50,68,36,12
0.6445647740061025,65,56,62,39,18
0.7460798455412007,57,61,63,38,21
0.848401976775375,53,59,62,41,25
0.9552066238201475,45,64,59,43,29
1.0662908174862369,38,63,62,38,39
1.1667314701978535,30,69,55,46,40
1.2704135197733435,22,69,59,45,45
1.3724163027537801,20,62,63,42,53
1.502073654984755,18,58,62,44,58
1.6021962298620132,14,56,61,50,59
1.71296664348106,12,52,60,49,67
1.8141489718221364,10,48,59,54,69
1.9258807315531878,8,45,56,54,77
2.0310113645361425,7,40,57,48,88
2.1414235074232058,7,34,62,44,93
2.2457542417270875,6,27,63,45,99
2.3507046460027103,6,23,61,45,105
2.4517933139029613,5,21,52,50,112
2.574612585022154,2,22,50,46,120
2.6863965443093725,2,20,48,42,128
2.7883658978116985,2,19,47,39,133
2.891904196702349,1,19,44,38,138
3.0255335532546406,1,18,42,35,144
3.1257028431528866,1,15,39,38,147
3.2306749376008033,1,13,37,41,148
3.335676533528187,1,12,34,43,150
3.4636353736405985,1,9,32,43,155
3.5737478517539656,1,9,28,40,162
3.69299079424179,1,8,28,38,165
3.79414642948803,1,7,26,38,168
3.909013806496946,1,5,24,38,172
4.009094965366931,0,6,20,38,176
4.113516907857336,0,6,17,38,179
4.2363061453576,0,5,18,29,188
4.337599741509063,0,3,17,28,192
4.443895541555043,0,2,17,26,195
4.67315824548115,0,2,16,25,197
4.819819071289893,0,1,15,26,198
4.926283298691846,0,0,14,26,200
5.038751961761537,0,0,12,26,202
5.168191396311181,0,0,11,26,203
5.285256354087746,0,0,11,23,206
5.392222568129774,0,0,11,20,209
5.5457289697491445,0,0,10,16,214
5.6496870871367575,0,0,9,16,215
5.776228661572023,0,0,9,14,217
5.906128717590554,0,0,9,11,220
6.024343954757214,0,0,8,12,220
6.1487191355389115,0,0,6,13,221
6.307365956550283,0,0,6,11,223
6.500412799234969,0,0,4,12,224
6.6406123477317465,0,0,4,10,226
6.792990935496918,0,0,3,10,227
6.993022803296368,0,0,3,7,230
7.10483756045304,0,0,3,6,231
7.29122967721917,0,0,2,6,232
7.560635680753492,0,0,1,7,232
7.821747814267585,0,0,1,6,233
8.598365725796922,0,0,1,3,236
8.905940075847775,0,0,0,4,236
9.08377522293348,0,0,0,2,238
9.228721390917302,0,0,0,1,239
9.776700040401328,0,0,0,0,240
100,0,0,0,0,240
