#Time,A,B,C,D,E,F
0,83,29,0,2,36,0
0.10249848309129853,83,29,0,2,25,11
0.21491292595334047,82,30,0,2,16,20
0.3445983007326674,82,30,0,2,9,27
0.4810602571719206,82,30,0,2,6,30
0.6728216712697133,82,30,0,2,4,32
0.807476796624116,81,31,0,2,3,33
0.9237088953488404,80,32,0,2,3,33
1.3940922307719543,78,34,0,2,3,33
2.0377470217519025,78,34,0,2,2,34
2.272457617416407,78,34,0,2,1,35
2.404106845477366,77,35,0,2,1,35
2.6361493724942004,76,36,0,2,1,35
2.770396139516136,73,39,0,2,1,35
2.9066650498227653,71,41,0,2,1,35
3.0712463323038657,70,42,0,2,0,36
3.407736134545342,69,43,0,2,0,36
3.6046801209775294,68,44,0,2,0,36
3.708614650528583,67,45,0,2,0,36
4.414244845927323,66,46,0,2,0,36
4.616571426750348,64,48,0,2,0,36
5.0455476071632726,63,49,0,2,0,36
5.404382419871793,61,51,0,2,0,36
5.510387238620048,60,52,0,2,0,36
5.644036766623086,58,54,0,2,0,36
6.529991308121831,57,55,0,2,0,36
6.955123103240223,55,57,0,2,0,36
7.598248124606195,54,58,0,2,0,36
8.906687830261191,53,59,0,2,0,36
9.449962328309253,52,60,0,2,0,36
9.685022738756503,51,61,0,2,0,36
9.84287247574074,49,63,0,2,0,36
10.002685717949486,48,64,0,2,0,36
10.469346229697123,47,65,0,2,0,36
10.749079728677598,46,66,0,2,0,36
11.388564391767193,45,67,0,2,0,36
11.53927288576286,44,68,0,2,0,36
12.004696260682989,43,69,0,2,0,36
13.607887260460682,42,70,0,2,0,36
14.367115346825294,41,71,0,2,0,36
14.64308508696687,40,72,0,2,0,36
15.241479217808488,39,73,0,2,0,36
16.44451962882487,38,74,0,2,0,36
18.261354656718613,37,75,0,2,0,36
18.61623670517099,36,76,0,2,0,36
19.92152234016475,35,77,0,2,0,36
20.80507263850849,34,78,0,2,0,36
20.959979283852977,33,79,0,2,0,36
22.49669140688723,32,80,0,2,0,36
23.19216211486252,31,81,0,2,0,36
23.70132814422151,30,82,0,2,0,36
23.8497629219753,29,83,0,2,0,36
24.468404868161787,28,84,0,2,0,36
27.98696064516911,27,85,0,2,0,36
28.4459691841989,26,86,0,2,0,36
28.638509615025015,25,87,0,2,0,36
29.69831593390238,24,88,0,2,0,36
31.929852977791143,23,89,0,2,0,36
34.49544570985043,22,90,0,2,0,36
34.72500602841791,21,91,0,2,0,36
35.46245572731055,20,92,0,2,0,36
37.89241635304041,19,93,0,2,0,36
38.0716208720239,18,94,0,2,0,36
38.33067295527249,16,96,0,2,0,36
39.796745462357656,15,97,0,2,0,36
40.16182570798591,14,98,0,2,0,36
40.681891466618154,13,99,0,2,0,36
46.789086998807825,12,100,0,2,0,36
49.28355695260549,11,101,0,2,0,36
50.74129290594391,10,102,0,2,0,36
52.97531478626585,9,103,0,2,0,36
58.163307276648965,8,104,0,2,0,36
60.501030079675736,7,105,0,2,0,36
65.15550458416449,6,106,0,2,0,36
67.61469415090045,5,107,0,2,0,36
68.49755148636804,4,108,0,2,0,36
93.46848477016451,3,109,0,2,0,36
103.18332024693564,2,110,0,2,0,36
