#Time,A,B,C,D,E,F
0,0,16,0,0,54,130
0.10417143806019097,0,16,0,0,38,146
0.21663443671671423,0,16,0,0,27,157
0.32440182683294005,0,16,0,0,18,166
0.4264645895853856,0,16,0,0,10,174
0.9634277901743411,0,16,0,0,3,181
1.066583313618802,0,16,0,0,1,183
1.3252987088988737,0,16,0,0,0,184
100,0,16,0,0,0,184
