#Time,A,B,C,D,E,F
0,379,92,5,21,0,442
0.10557834912044448,362,109,5,21,0,442
0.2067188968976737,350,121,4,22,0,442
0.3085218805196737,336,135,4,22,0,442
0.413914295532254,321,150,3,23,0,442
0.5170715393003713,306,165,3,23,0,442
0.6184356899911102,287,184,3,23,0,442
0.7280492625923866,279,192,2,24,0,442
0.8464616181840521,266,205,2,24,0,442
0.976378795760402,255,216,2,24,0,442
1.0914545392689354,232,239,2,24,0,442
1.1939877799175096,223,248,2,24,0,442
1.296270857395821,204,267,2,24,0,442
1.3993841480573628,191,280,2,24,0,442
1.5376196468917376,181,290,2,24,0,442
1.643935130811409,173,298,1,25,0,442
1.7546828382749458,165,306,1,25,0,442
1.8840247605625022,155,316,1,25,0,442
1.9936808415693006,146,325,1,25,0,442
2.105764522070276,136,335,1,25,0,442
2.212131357144582,126,345,1,25,0,442
2.322794865453266,118,353,1,25,0,442
2.448177063637711,115,356,1,25,0,442
2.548195934050681,110,361,0,26,0,442
2.658625719919434,101,370,0,26,0,442
2.771345246134608,95,376,0,26,0,442
2.937543740598207,86,385,0,26,0,442
3.0803961265456317,80,391,0,26,0,442
3.2057875334013244,73,398,0,26,0,442
3.352993719893507,69,402,0,26,0,442
3.460487666182255,66,405,0,26,0,442
3.5684294629946525,63,408,0,26,0,442
3.685262251054588,58,413,0,26,0,442
3.8264819530119225,52,419,0,26,0,442
3.9340976854997725,49,422,0,26,0,442
4.061403556070092,47,424,0,26,0,442
4.3308463712266105,42,429,0,26,0,442
4.54095067021193,40,431,0,26,0,442
4.712049071622309,38,433,0,26,0,442
4.888205765216397,35,436,0,26,0,442
5.057275001728207,33,438,0,26,0,442
5.189537575066545,29,442,0,26,0,442
5.316637322117673,27,444,0,26,0,442
5.460763972249328,25,446,0,26,0,442
5.565870779024296,23,448,0,26,0,442
5.732124060640605,20,451,0,26,0,442
5.92452603681097,16,455,0,26,0,442
6.08511456271532,14,457,0,26,0,442
6.492725423144988,12,459,0,26,0,442
7.136219767123214,11,460,0,26,0,442
7.347050728152036,9,462,0,26,0,442
7.625923279640781,6,465,0,26,0,442
7.7635804816107665,5,466,0,26,0,442
8.254631448060318,4,467,0,26,0,442
8.561492864112983,3,468,0,26,0,442
9.596814862864749,2,469,0,26,0,442
10.351169053847114,1,470,0,26,0,442
13.814335902252065,0,471,0,26,0,442
100,0,471,0,26,0,442
