#Time,A,B,C,D,E,F
0,75,110,110,49,40,65
0.10095439881216933,67,118,97,62,28,77
0.21039151589597657,57,128,87,72,19,86
0.3117663871523693,48,137,81,78,13,92
0.41668953379895596,41,144,75,84,11,94
0.5297735481616936,32,153,63,96,8,97
0.6424714777639282,26,159,58,101,7,98
0.7445516740923838,21,164,53,106,4,101
0.8464509989481316,19,166,45,114,3,102
0.9635874497111214,14,171,41,118,2,103
1.0682044705748188,12,173,37,122,1,104
1.2085043843596606,9,176,30,129,1,104
1.4271205251068055,8,177,27,132,1,104
1.528753765858304,7,178,24,135,1,104
1.6348820739939305,5,180,21,138,1,104
1.7948808642112772,3,182,18,141,1,104
1.9356494182095008,0,185,17,142,0,105
2.0921906644799066,0,185,15,144,0,105
2.268317051369114,0,185,13,146,0,105
2.384337889683699,0,185,12,147,0,105
2.646122240899651,0,185,10,149,0,105
2.830404387602149,0,185,8,151,0,105
3.0182005338251146,0,185,7,152,0,105
3.319437011331193,0,185,6,153,0,105
4.033255067068303,0,185,4,155,0,105
4.185026370442338,0,185,2,157,0,105
4.500937970607304,0,185,1,158,0,105
5.157598203581451,0,185,0,159,0,105
100,0,185,0,159,0,105
