#Time,A,B,C,D,E,F
0,275,0,227,0,15,4
0.10107484832472684,268,7,199,28,10,9
0.20164021461750395,251,24,184,43,6,13
0.3022013968427676,229,46,169,58,4,15
0.40609058263172343,209,66,157,70,4,15
0.5107473344304005,184,91,143,84,2,17
0.6121155647564704,140,135,123,104,1,18
0.7167419243612277,120,155,112,115,1,18
0.8179114458862935,94,181,100,127,0,19
0.9199290866681755,70,205,92,135,0,19
1.0218645513619766,47,228,82,145,0,19
1.1243465744331245,40,235,80,147,0,19
1.2247332093598435,29,246,72,155,0,19
1.3297635050463659,22,253,67,160,0,19
1.4355595215303243,18,257,60,167,0,19
1.553245679385644,8,267,54,173,0,19
1.6563251640948355,6,269,49,178,0,19
1.7580215465191371,3,272,47,180,0,19
1.86276215457104,2,273,42,185,0,19
2.0109143148259108,2,273,37,190,0,19
2.1305763912465325,2,273,31,196,0,19
2.2464438476514568,2,273,27,200,0,19
2.3478431353274756,1,274,26,201,0,19
2.4489117843577235,0,275,21,206,0,19
2.66284103555837,0,275,18,209,0,19
2.9269062968110457,0,275,14,213,0,19
3.057865326790281,0,275,11,216,0,19
3.1774249033629602,0,275,9,218,0,19
3.290481371604673,0,275,6,221,0,19
3.404930687639705,0,275,5,222,0,19
3.5626922633196205,0,275,3,224,0,19
4.359234732203363,0,275,2,225,0,19
4.888657965288869,0,275,1,226,0,19
5.133617515125552,0,275,0,227,0,19
100,0,275,0,227,0,19
