#Time,A,B,C,D,E,F
0,0,269,0,0,163,23
0.10506104252698552,0,269,0,0,112,74
0.2054080172924623,0,269,0,0,83,103
0.3145642218396684,0,269,0,0,60,126
0.4177789760368192,0,269,0,0,40,146
0.5357976643622667,0,269,0,0,29,157
0.6417085626613518,0,269,0,0,22,164
0.7853667225693416,0,269,0,0,17,169
0.8878422357674783,0,269,0,0,15,171
1.0278225751056704,0,269,0,0,9,177
1.1633026288523545,0,269,0,0,5,181
1.2693597342728373,0,269,0,0,4,182
1.4208307884295017,0,269,0,0,0,186
100,0,269,0,0,0,186
