#Time,A,B,C,D,E,F
0,8,32,222,83,0,3
0.10322099207307654,7,33,198,107,0,3
0.20751468577143323,3,37,178,127,0,3
0.31667321861973613,2,38,161,144,0,3
0.4272847579204475,1,39,148,157,0,3
0.5354625756712852,1,39,131,174,0,3
0.6436994815269734,1,39,114,191,0,3
0.7601273445959291,0,40,104,201,0,3
0.8627204113102899,0,40,93,212,0,3
0.9654870643284107,0,40,84,221,0,3
1.0686690773320384,0,40,75,230,0,3
1.1739364194633,0,40,66,239,0,3
1.2751247560005081,0,40,62,243,0,3
1.4173696660230897,0,40,55,250,0,3
1.5237754448479237,0,40,50,255,0,3
1.6292406382820723,0,40,45,260,0,3
1.8143070210638184,0,40,43,262,0,3
1.9200723191778895,0,40,39,266,0,3
2.028701212404828,0,40,33,272,0,3
2.154414959180193,0,40,30,275,0,3
2.2603320885234646,0,40,26,279,0,3
2.371431798050245,0,40,20,285,0,3
2.5225729756071487,0,40,14,291,0,3
2.7863641193916493,0,40,11,294,0,3
2.903573578023632,0,40,9,296,0,3
3.0097795381017787,0,40,8,297,0,3
3.2614768929682354,0,40,7,298,0,3
3.551500054167417,0,40,5,300,0,3
3.9601116715155373,0,40,4,301,0,3
4.152469757457909,0,40,2,303,0,3
4.312036892587624,0,40,1,304,0,3
5.055299358262034,0,40,0,305,0,3
100,0,40,0,305,0,3
