#Time,A,B,C,D,E,F
0,283,0,166,48,609,11
0.10048254422528624,258,25,153,61,457,163
0.20150567552370865,220,63,138,76,327,293
0.3020464920601674,186,97,123,91,242,378
0.40310944770274204,154,129,110,104,184,436
0.5046114464736947,108,175,97,117,123,497
0.605119976666042,73,210,84,130,88,532
0.7099590864000692,59,224,76,138,64,556
0.812130789747093,44,239,68,146,45,575
0.9124587214078517,28,255,60,154,31,589
1.016592749860077,22,261,56,158,24,596
1.1178374284911217,18,265,49,165,17,603
1.2211528211015086,15,268,45,169,10,610
1.3246595936218108,10,273,37,177,7,613
1.4349389468561766,8,275,28,186,5,615
1.5501714259230888,7,276,23,191,5,615
1.6938476672750733,7,276,21,193,3,617
1.8011469615348095,4,279,21,193,2,618
1.9749153971369895,1,282,21,193,1,619
2.0866464827562634,1,282,19,195,0,620
2.201204106792852,1,282,17,197,0,620
2.377819569736643,0,283,13,201,0,620
2.485537428973975,0,283,9,205,0,620
2.6619096435486473,0,283,7,207,0,620
2.8514114978536553,0,283,5,209,0,620
3.238019930404998,0,283,4,210,0,620
3.7391045530595357,0,283,3,211,0,620
3.901287367053853,0,283,2,212,0,620
4.0591749890732,0,283,1,213,0,620
4.972175148856347,0,283,0,214,0,620
100,0,283,0,214,0,620
