#Time,A,B,C,D,E,F
0,106,139,9,44,0,0
0.10041968132927902,97,148,8,45,0,0
0.2013671092585723,85,160,8,45,0,0
0.3094389447383489,79,166,8,45,0,0
0.41957826887500127,70,175,7,46,0,0
0.543316203343042,64,181,7,46,0,0
0.6661947223510079,59,186,5,48,0,0
0.8026137237169877,54,191,5,48,0,0
0.9282019117790208,50,195,4,49,0,0
1.073923355300289,44,201,3,50,0,0
1.189677372365173,36,209,2,51,0,0
1.3027272539241028,32,213,1,52,0,0
1.4063312421298368,30,215,1,52,0,0
1.5640895226837144,22,223,1,52,0,0
1.6761757870283565,21,224,1,52,0,0
1.8401232489051988,17,228,1,52,0,0
2.2431789279876293,12,233,0,53,0,0
2.4517953346437946,11,234,0,53,0,0
2.6187400580531324,9,236,0,53,0,0
2.7663115385928903,6,239,0,53,0,0
3.4491405856798827,5,240,0,53,0,0
3.691267539366177,4,241,0,53,0,0
4.076699871707009,2,243,0,53,0,0
4.230857394242094,1,244,0,53,0,0
100,0,245,0,53,0,0
