#Time,A,B,C,D,E,F
0,0,278,65,26,0,13
0.11427868456037187,0,278,55,36,0,13
0.22941783383451436,0,278,48,43,0,13
0.3458240046778527,0,278,42,49,0,13
0.4483426463657625,0,278,34,57,0,13
0.5526126319617073,0,278,32,59,0,13
0.7474436068131015,0,278,30,61,0,13
0.8552896006413252,0,278,26,65,0,13
1.0231617206385553,0,278,20,71,0,13
1.1327227026780653,0,278,16,75,0,13
1.2399157755328107,0,278,15,76,0,13
1.3522801865274312,0,278,11,80,0,13
1.5354515001193418,0,278,8,83,0,13
1.7427218840995158,0,278,7,84,0,13
2.192523505265499,0,278,5,86,0,13
2.337987155708097,0,278,3,88,0,13
2.668349895084262,0,278,2,89,0,13
3.8579678112590976,0,278,1,90,0,13
11.23420461228601,0,278,0,91,0,13
100,0,278,0,91,0,13
