#Time,A,B,C,D,E,F
0,0,21,125,167,0,74
0.11032462272264684,0,21,111,181,0,74
0.2274664169005282,0,21,103,189,0,74
0.3518102055487705,0,21,92,200,0,74
0.4524877525951183,0,21,84,208,0,74
0.5682235530740675,0,21,80,212,0,74
0.6904244372509553,0,21,71,221,0,74
0.849134598899248,0,21,61,231,0,74
0.9529921041596574,0,21,57,235,0,74
1.0632604521378275,0,21,52,240,0,74
1.1837925957811315,0,21,46,246,0,74
1.2876870529775457,0,21,38,254,0,74
1.500757926878347,0,21,34,258,0,74
1.6145612738650128,0,21,27,265,0,74
1.7286868739838495,0,21,23,269,0,74
1.8645415811768251,0,21,20,272,0,74
1.994468310084332,0,21,19,273,0,74
2.1098902531722175,0,21,17,275,0,74
2.2877267623634956,0,21,16,276,0,74
2.696796053660101,0,21,13,279,0,74
2.8431213488126876,0,21,10,282,0,74
3.5443172505855878,0,21,9,283,0,74
3.7546847628225857,0,21,7,285,0,74
4.104113831546902,0,21,6,286,0,74
4.2945725249057425,0,21,5,287,0,74
4.585945899711737,0,21,4,288,0,74
4.772568296351066,0,21,2,290,0,74
4.923348130851361,0,21,1,291,0,74
100,0,21,0,292,0,74
