#Time,A,B,C,D,E,F
0,0,269,0,0,163,23
0.10014150828270288,0,269,0,0,123,63
0.20166595277856683,0,269,0,0,81,105
0.3162816751684619,0,269,0,0,58,128
0.42389485610258687,0,269,0,0,44,142
0.5250324999187121,0,269,0,0,31,155
0.6305068072091035,0,269,0,0,23,163
0.7576957811936785,0,269,0,0,20,166
0.8602601006361071,0,269,0,0,13,173
1.0012483832269023,0,269,0,0,9,177
1.1224318537856626,0,269,0,0,6,180
1.2609082134046234,0,269,0,0,2,184
1.7428525959366028,0,269,0,0,0,186
100,0,269,0,0,0,186
