#Time,A,B,C,D,E,F
0,79,118,51,62,126,18
0.10972698772300177,70,127,50,63,84,60
0.21192959738271977,61,136,47,66,54,90
0.31200039607856545,53,144,42,71,40,104
0.41439936997947213,46,151,41,72,31,113
0.5199376369468495,40,157,38,75,22,122
0.6639401406845654,36,161,35,78,18,126
0.7823529028396898,31,166,33,80,12,132
0.8846807660396238,25,172,30,83,11,133
1.006636725966805,23,174,28,85,9,135
1.11037939896217,18,179,27,86,8,136
1.237777997801409,15,182,23,90,6,138
1.3733412627516122,12,185,20,93,4,140
1.4884790283525753,9,188,15,98,3,141
1.6394337607334044,5,192,13,100,2,142
1.7722846338289504,3,194,10,103,1,143
1.9807207933839264,2,195,9,104,1,143
2.195338470123982,2,195,6,107,1,143
2.321429865439738,2,195,5,108,0,144
2.7276846208179073,0,197,5,108,0,144
2.9936615464371474,0,197,3,110,0,144
3.1347221447741194,0,197,2,111,0,144
3.2423807837732235,0,197,1,112,0,144
4.248986751692962,0,197,0,113,0,144
100,0,197,0,113,0,144
