#Time,A,B,C,D,E,F
0,44,130,105,37,41,32
0.10263562809403849,42,132,93,49,29,44
0.21706203388698306,41,133,83,59,21,52
0.32014978358560003,38,136,75,67,18,55
0.42573264343482875,31,143,65,77,14,59
0.5264037825975318,27,147,62,80,11,62
0.6330545453837632,22,152,54,88,7,66
0.7461047009569023,17,157,50,92,5,68
0.8496711116891184,15,159,47,95,5,68
0.985184851116228,14,160,36,106,3,70
1.0861551973582784,11,163,30,112,2,71
1.2020053172570113,7,167,27,115,1,72
1.3035302038815562,4,170,24,118,0,73
1.473725941020569,4,170,19,123,0,73
1.6378765232161512,4,170,15,127,0,73
1.7884062158761036,4,170,12,130,0,73
1.900764710010237,2,172,11,131,0,73
2.119104371930098,1,173,9,133,0,73
2.4281545717127146,1,173,5,137,0,73
2.7437462869698424,0,174,5,137,0,73
2.866940942255598,0,174,4,138,0,73
3.105229874696959,0,174,3,139,0,73
3.3266513795602886,0,174,1,141,0,73
5.779902099019178,0,174,0,142,0,73
100,0,174,0,142,0,73
