#Time,A,B,C,D,E,F
0,0,65,150,210,189,57
0.10021969790607438,0,65,137,223,140,106
0.20036297145200385,0,65,118,242,107,139
0.30271179329194264,0,65,110,250,77,169
0.4032378307341288,0,65,101,259,51,195
0.5032659445202454,0,65,90,270,37,209
0.6039303319238096,0,65,77,283,31,215
0.72207247242661,0,65,66,294,27,219
0.826240590327019,0,65,60,300,15,231
0.9303566068024662,0,65,53,307,11,235
1.0404550694133465,0,65,49,311,7,239
1.2063843040279492,0,65,43,317,1,245
1.315827125870488,0,65,36,324,0,246
1.4173133011565564,0,65,32,328,0,246
1.6194730245378879,0,65,28,332,0,246
1.7259625233697518,0,65,27,333,0,246
1.846977965735635,0,65,23,337,0,246
1.9764741349448425,0,65,21,339,0,246
2.1032197381600795,0,65,19,341,0,246
2.3014166119283375,0,65,17,343,0,246
2.4267031966133303,0,65,10,350,0,246
2.6020888156830786,0,65,9,351,0,246
2.79968833621838,0,65,8,352,0,246
3.039606989000186,0,65,5,355,0,246
3.5404187137974334,0,65,4,356,0,246
3.7092314961300894,0,65,3,357,0,246
4.069118246596063,0,65,1,359,0,246
4.356206147821528,0,65,0,360,0,246
100,0,65,0,360,0,246
