#Time,A,B,C,D,E,F
0,79,118,51,62,126,18
0.10157991141912705,64,133,46,67,93,51
0.2027207804805739,54,143,43,70,71,73
0.31025087293447456,49,148,42,71,48,96
0.41026841343757725,40,157,40,73,37,107
0.5181123202488442,35,162,34,79,27,117
0.6228502062705107,23,174,32,81,21,123
0.7232225806804471,22,175,31,82,14,130
0.8513814594547404,19,178,28,85,11,133
0.9702574628214882,15,182,26,87,7,137
1.086068322381932,10,187,22,91,5,139
1.2306000018956071,9,188,19,94,5,139
1.3333446326181428,7,190,18,95,2,142
1.4357162841561688,5,192,16,97,2,142
1.5528463080258734,4,193,15,98,2,142
1.7316772026715928,4,193,12,101,2,142
1.9536616455148947,2,195,12,101,2,142
2.0585544868786436,1,196,8,105,1,143
2.253893375064813,1,196,8,105,0,144
2.4688442668397808,1,196,5,108,0,144
3.1475516079616654,0,197,3,110,0,144
3.519688497358833,0,197,2,111,0,144
6.176760657043394,0,197,0,113,0,144
100,0,197,0,113,0,144
