#Time,A,B,C,D,E,F
0,131,36,79,0,79,166
0.10038436066799063,131,36,72,7,57,188
0.2014368795650911,129,38,62,17,44,201
0.304654415087578,124,43,58,21,36,209
0.4183881826160381,112,55,52,27,28,217
0.519313664074143,97,70,47,32,22,223
0.6250424365780113,93,74,40,39,17,228
0.7279372593707443,85,82,34,45,15,230
0.8321133240675483,74,93,33,46,11,234
0.9480379646869412,68,99,31,48,7,238
1.049159599035595,62,105,30,49,6,239
1.1561913720275723,54,113,25,54,4,241
1.2575789915137694,48,119,24,55,2,243
1.3612792465918029,37,130,21,58,2,243
1.489296769281645,33,134,18,61,1,244
1.6013170775240324,31,136,16,63,1,244
1.7143886032316311,27,140,13,66,1,244
1.8220678871926679,25,142,11,68,1,244
1.9324965850738294,21,146,6,73,1,244
2.0468432483211116,20,147,5,74,1,244
2.162539500169708,18,149,4,75,0,245
2.3068539120169427,16,151,4,75,0,245
2.4620197422581223,13,154,4,75,0,245
2.572645458402665,10,157,3,76,0,245
2.7437378766360494,8,159,3,76,0,245
2.8489340193170327,6,161,2,77,0,245
2.952980516689511,4,163,2,77,0,245
3.1100019570980804,2,165,2,77,0,245
3.253145412055826,2,165,1,78,0,245
3.6980476879509596,2,165,0,79,0,245
4.014519196637773,1,166,0,79,0,245
4.524900164415605,0,167,0,79,0,245
100,0,167,0,79,0,245
