#Time,A,B,C,D,E,F
0,0,87,135,10,28,34
0.10021283808172202,0,87,120,25,22,40
0.20037219740529955,0,87,109,36,13,49
0.301604135560199,0,87,98,47,11,51
0.4153075848789592,0,87,86,59,4,58
0.5173351608999109,0,87,73,72,3,59
0.6369011813429641,0,87,69,76,2,60
0.8131913625529752,0,87,60,85,2,60
0.9755898244349014,0,87,51,94,1,61
1.0970959066654864,0,87,48,97,1,61
1.2889739653723415,0,87,41,104,0,62
1.448208473630062,0,87,37,108,0,62
1.6157910196630283,0,87,31,114,0,62
1.7331911785636507,0,87,25,120,0,62
1.8985193306129249,0,87,22,123,0,62
2.0354001650049245,0,87,17,128,0,62
2.217948459158062,0,87,16,129,0,62
2.392153418470116,0,87,12,133,0,62
2.742425956095229,0,87,10,135,0,62
2.8580464831134833,0,87,9,136,0,62
3.0001734614090876,0,87,6,139,0,62
3.7190146812573706,0,87,4,141,0,62
3.9652522272121704,0,87,2,143,0,62
4.154920745746689,0,87,1,144,0,62
8.839563594290452,0,87,0,145,0,62
100,0,87,0,145,0,62
