#Time,A,B,C,D,E,F
0,0,0,169,89,185,95
0.10312089389200388,0,0,149,109,139,141
0.20529335456746942,0,0,130,128,102,178
0.3053172903834136,0,0,125,133,71,209
0.40553006545162606,0,0,107,151,47,233
0.5205333558489454,0,0,96,162,33,247
0.6210300691773479,0,0,82,176,28,252
0.741866865729575,0,0,70,188,24,256
0.8455159222843146,0,0,65,193,16,264
0.9477596600554009,0,0,58,200,11,269
1.0564097466666207,0,0,53,205,8,272
1.1569481196052833,0,0,47,211,6,274
1.259589613415929,0,0,42,216,3,277
1.4284599951323866,0,0,38,220,1,279
1.5663954581517614,0,0,32,226,1,279
1.6724057819378253,0,0,26,232,1,279
1.795919522498976,0,0,23,235,0,280
1.9814811671131642,0,0,22,236,0,280
2.1078556174039513,0,0,18,240,0,280
2.2131059228550813,0,0,15,243,0,280
2.3952235059806197,0,0,12,246,0,280
2.5000780791755806,0,0,10,248,0,280
2.926871212812058,0,0,8,250,0,280
3.1146190918040495,0,0,7,251,0,280
3.8913709339430915,0,0,4,254,0,280
4.515791700888522,0,0,3,255,0,280
5.11118001694649,0,0,2,256,0,280
5.393307228357277,0,0,1,257,0,280
5.497653586538234,0,0,0,258,0,280
100,0,0,0,258,0,280
