#Time,A,B,C,D,E,F
0,195,117,46,31,75,7
0.10396747180540102,186,126,45,32,52,30
0.20824949983468735,169,143,42,35,36,46
0.3198057894923394,157,155,38,39,28,54
0.4208545426267907,140,172,34,43,20,62
0.5210224107469101,130,182,31,46,16,66
0.6242346343218008,120,192,28,49,15,67
0.7255667843828336,104,208,24,53,12,70
0.832523300753941,93,219,23,54,7,75
0.942356492629103,80,232,19,58,4,78
1.0426375881714725,71,241,14,63,3,79
1.1428526905369847,60,252,11,66,2,80
1.2437044400991384,52,260,8,69,1,81
1.351091585799101,45,267,6,71,1,81
1.48567238354015,41,271,6,71,0,82
1.606090462485984,35,277,6,71,0,82
1.7458699898885783,33,279,6,71,0,82
1.8640619006986843,27,285,6,71,0,82
2.0066644197604635,24,288,3,74,0,82
2.1440469198821672,21,291,3,74,0,82
2.261743256523459,16,296,2,75,0,82
2.3622863555743874,13,299,2,75,0,82
2.4983552373289823,11,301,1,76,0,82
2.6385728850011474,10,302,0,77,0,82
2.7625089915333634,6,306,0,77,0,82
2.9697961907868775,4,308,0,77,0,82
3.673857139484163,3,309,0,77,0,82
4.441034510969064,2,310,0,77,0,82
100,0,312,0,77,0,82
