#Time,A,B,C,D,E,F
0,0,54,16,51,147,12
0.11474776788626127,0,54,16,51,95,64
0.215425428274024,0,54,12,55,68,91
0.31577984754555094,0,54,11,56,49,110
0.42428238134491736,0,54,11,56,39,120
0.5812016459627385,0,54,11,56,27,132
0.7353277742632387,0,54,11,56,21,138
0.8561453342192515,0,54,10,57,13,146
0.9926485086966105,0,54,10,57,9,150
1.1358478618485115,0,54,10,57,6,153
1.2870718218569308,0,54,9,58,4,155
1.4014362549882837,0,54,8,59,3,156
1.7248291851155502,0,54,6,61,0,159
2.190243422081402,0,54,4,63,0,159
2.7155380311101713,0,54,2,65,0,159
3.7595654746254272,0,54,1,66,0,159
4.024764380912442,0,54,0,67,0,159
100,0,54,0,67,0,159
