#Time,A,B,C,D,E,F
0,65,4,118,0,78,164
0.10238834563038922,65,4,111,7,59,183
0.20319773935194307,65,4,96,22,39,203
0.3058530848371778,59,10,91,27,34,208
0.407276345596235,55,14,74,44,25,217
0.5295821311275286,46,23,65,53,19,223
0.6339880736922482,41,28,60,58,13,229
0.7476592633820972,39,30,55,63,8,234
0.8745841607256406,26,43,48,70,7,235
0.9868699267276283,22,47,47,71,5,237
1.11214827136071,17,52,37,81,3,239
1.2161576021381693,17,52,32,86,3,239
1.3202269284325758,16,53,29,89,2,240
1.427839981108691,14,55,26,92,2,240
1.64623686821407,12,57,24,94,2,240
1.7488824999348098,9,60,20,98,2,240
1.926262342566304,9,60,14,104,2,240
2.0435123094750605,7,62,13,105,1,241
2.1625164956675125,6,63,12,106,0,242
2.375753212313619,4,65,10,108,0,242
2.5144287523773032,2,67,8,110,0,242
2.633156790384984,2,67,6,112,0,242
2.9626083013489914,1,68,5,113,0,242
3.3497962509961043,1,68,4,114,0,242
3.609939046749119,1,68,2,116,0,242
3.896851908841209,0,69,2,116,0,242
100,0,69,0,118,0,242
