#Time,A,B,C,D,E,F
0,0,17,0,244,69,29
0.10674564447833136,0,17,0,244,47,51
0.21054011861589073,0,17,0,244,32,66
0.3227891671468521,0,17,0,244,23,75
0.463351943203498,0,17,0,244,17,81
0.574634159109797,0,17,0,244,11,87
0.7890275505351776,0,17,0,244,7,91
0.8922725180477956,0,17,0,244,3,95
1.0603132303224676,0,17,0,244,2,96
1.2475117179320818,0,17,0,244,1,97
1.6349005771832827,0,17,0,244,0,98
100,0,17,0,244,0,98
