#Time,A,B,C,D,E,F
0,65,4,118,0,78,164
0.10140947034353823,63,6,103,15,62,180
0.20722728171978527,60,9,92,26,45,197
0.309162998810224,54,15,85,33,34,208
0.41243744304880425,49,20,73,45,26,216
0.5171832141884358,40,29,66,52,15,227
0.6282714066727657,35,34,58,60,10,232
0.7477652075871929,32,37,53,65,5,237
0.8552670679397999,29,40,48,70,2,240
0.955312358190863,24,45,42,76,2,240
1.056901606666605,23,46,38,80,1,241
1.1820363930962763,20,49,31,87,1,241
1.2897185345268596,19,50,27,91,1,241
1.3903875690927896,15,54,26,92,1,241
1.6810065235434049,9,60,23,95,0,242
1.8358505200978639,4,65,21,97,0,242
1.9783244848326798,4,65,20,98,0,242
2.1000245574700287,4,65,17,101,0,242
2.227149179798647,4,65,14,104,0,242
2.3523783546834904,3,66,13,105,0,242
2.4609811812936795,3,66,9,109,0,242
2.608356392208511,2,67,7,111,0,242
2.7944846412709747,1,68,6,112,0,242
3.034066817890031,0,69,4,114,0,242
3.1444413893029703,0,69,3,115,0,242
3.333099241740416,0,69,2,116,0,242
3.66994650541073,0,69,1,117,0,242
3.8511445800175332,0,69,0,118,0,242
100,0,69,0,118,0,242
