#Time,A,B,C,D,E,F
0,0,54,16,51,147,12
0.10976046513335065,0,54,15,52,110,49
0.2193172349663813,0,54,14,53,85,74
0.3400723675409107,0,54,11,56,62,97
0.4449304915666643,0,54,10,57,49,110
0.551507248383856,0,54,9,58,37,122
0.6631538033176515,0,54,8,59,24,135
0.7686303478250589,0,54,7,60,17,142
0.9170025963813758,0,54,7,60,12,147
1.044814425553948,0,54,5,62,6,153
1.2665818050524906,0,54,3,64,5,154
1.4007786259566686,0,54,2,65,3,156
1.5309000762149383,0,54,1,66,2,157
1.7382657355485587,0,54,1,66,0,159
1.8416266309783842,0,54,0,67,0,159
100,0,54,0,67,0,159
