#Time,A,B,C,D,E,F
0,0,0,194,0,8,10
0.10338368996458175,0,0,170,24,6,12
0.20937375109753656,0,0,144,50,6,12
0.3125887065125719,0,0,130,64,4,14
0.4130260029140516,0,0,114,80,3,15
0.5135303104672543,0,0,101,93,2,16
0.638101050058245,0,0,88,106,1,17
0.7450220614007921,0,0,82,112,0,18
0.8524875359643272,0,0,74,120,0,18
0.953769206216983,0,0,65,129,0,18
1.10718955062201,0,0,60,134,0,18
1.2097653922652496,0,0,53,141,0,18
1.3570500066948645,0,0,46,148,0,18
1.6079239639855047,0,0,38,156,0,18
1.7608282327706146,0,0,36,158,0,18
1.8699832934687763,0,0,33,161,0,18
1.9841604015654453,0,0,28,166,0,18
2.084895921495138,0,0,25,169,0,18
2.1960824366063827,0,0,23,171,0,18
2.3011092998988834,0,0,22,172,0,18
2.4378435136020395,0,0,21,173,0,18
2.5392949700588976,0,0,19,175,0,18
2.7433514407026522,0,0,15,179,0,18
2.9001329047353397,0,0,13,181,0,18
3.081506607079789,0,0,10,184,0,18
3.473984571781495,0,0,7,187,0,18
3.6196575993102305,0,0,4,190,0,18
4.341319954003062,0,0,2,192,0,18
5.289411902047237,0,0,1,193,0,18
6.56783698427305,0,0,0,194,0,18
100,0,0,0,194,0,18
