#Time,A,B,C,D,E,F
0,0,17,0,244,69,29
0.11512356913692742,0,17,0,244,48,50
0.22429177207785103,0,17,0,244,36,62
0.32927463701835963,0,17,0,244,27,71
0.43885976920155684,0,17,0,244,22,76
0.6178883744117607,0,17,0,244,14,84
0.7183485265716293,0,17,0,244,7,91
0.8465760331212279,0,17,0,244,5,93
0.978588560025788,0,17,0,244,2,96
1.1631253283847713,0,17,0,244,1,97
1.3498196382541814,0,17,0,244,0,98
100,0,17,0,244,0,98
