#Time,A,B,C,D,E,F
0,131,36,79,0,79,166
0.10241961364905355,130,37,70,9,56,189
0.20297928722930642,128,39,61,18,42,203
0.30718862716446144,124,43,54,25,27,218
0.4245423125874491,118,49,51,28,20,225
0.5268707479836463,106,61,47,32,15,230
0.6292862509256273,101,66,43,36,10,235
0.7402314662158549,92,75,41,38,7,238
0.8412034234772175,87,80,37,42,7,238
0.952371854448594,80,87,34,45,5,240
1.054418139959701,68,99,29,50,3,242
1.166794956324501,56,111,22,57,1,244
1.2756451992882425,50,117,20,59,1,244
1.407908854385047,44,123,20,59,0,245
1.5288178995354227,39,128,17,62,0,245
1.630376654841375,34,133,16,63,0,245
1.7429861753736209,32,135,15,64,0,245
1.8483094140953376,29,138,13,66,0,245
1.952533780739213,25,142,12,67,0,245
2.07646627399822,18,149,9,70,0,245
2.1852889418723986,16,151,7,72,0,245
2.2905249011299254,12,155,6,73,0,245
2.4469958414964514,9,158,6,73,0,245
2.575375447412965,7,160,4,75,0,245
2.7820663341892593,5,162,4,75,0,245
2.9854769815447226,3,164,4,75,0,245
3.245168065431781,3,164,3,76,0,245
3.381310809999767,2,165,2,77,0,245
4.268484773105574,1,166,2,77,0,245
4.399468107841528,1,166,1,78,0,245
4.938275719040084,0,167,0,79,0,245
100,0,167,0,79,0,245
