#Time,A,B,C,D,E,F
0,42,33,0,11,25,176
0.1223117157727339,42,33,0,11,19,182
0.2483160520359763,41,34,0,11,16,185
0.36782410570394125,39,36,0,11,11,190
0.4794363536723075,38,37,0,11,10,191
0.5888537422726792,38,37,0,11,4,197
0.7863333612847138,37,38,0,11,3,198
0.9278616059600766,36,39,0,11,2,199
1.147736062876429,34,41,0,11,0,201
1.31128496655403,33,42,0,11,0,201
1.5091667575661383,28,47,0,11,0,201
1.6674673135017892,26,49,0,11,0,201
1.7817281401928209,24,51,0,11,0,201
2.2261362625599475,22,53,0,11,0,201
2.485469677854162,21,54,0,11,0,201
2.659751947214806,20,55,0,11,0,201
2.8399285724980516,19,56,0,11,0,201
3.22129493296474,18,57,0,11,0,201
3.5004836371795705,16,59,0,11,0,201
3.6324661268688305,15,60,0,11,0,201
3.780219412303127,14,61,0,11,0,201
4.071584332015897,11,64,0,11,0,201
4.267991683660046,10,65,0,11,0,201
4.404509056287194,9,66,0,11,0,201
5.087780613062356,7,68,0,11,0,201
7.289059746628835,6,69,0,11,0,201
7.395629310825515,5,70,0,11,0,201
8.398594244338556,3,72,0,11,0,201
10.5671270159695,2,73,0,11,0,201
14.34235145470382,1,74,0,11,0,201
14.899262309017324,0,75,0,11,0,201
100,0,75,0,11,0,201
