#Time,A,B,C,D,E,F
0,82,0,0,27,414,177
0.10062332861867301,78,4,0,27,309,282
0.20178523321762742,75,7,0,27,245,346
0.3021203874439689,70,12,0,27,185,406
0.40283331843648584,64,18,0,27,135,456
0.5036465122861724,62,20,0,27,107,484
0.6045339244432281,60,22,0,27,78,513
0.705041068474776,59,23,0,27,58,533
0.8065239180948381,56,26,0,27,40,551
0.910213014702457,54,28,0,27,30,561
1.0164840529940111,49,33,0,27,15,576
1.1236022874202414,47,35,0,27,10,581
1.2415161019761947,44,38,0,27,9,582
1.3505683618488344,40,42,0,27,6,585
1.500150204796486,35,47,0,27,4,587
1.6462242861900271,33,49,0,27,3,588
1.8389259755912672,30,52,0,27,2,589
1.9952294235088033,29,53,0,27,1,590
2.1324749069006756,26,56,0,27,1,590
2.249314284382678,23,59,0,27,1,590
2.3632347824244357,22,60,0,27,0,591
2.487662359474447,21,61,0,27,0,591
2.688849127525956,17,65,0,27,0,591
3.1829045163724863,16,66,0,27,0,591
3.477993749835551,13,69,0,27,0,591
3.7006769812235545,12,70,0,27,0,591
3.8217470708843684,11,71,0,27,0,591
4.06409013232715,9,73,0,27,0,591
4.322409660770426,7,75,0,27,0,591
4.597960865499572,6,76,0,27,0,591
4.719160101206848,5,77,0,27,0,591
5.121024853190556,4,78,0,27,0,591
5.388984811289124,2,80,0,27,0,591
6.708959871387967,1,81,0,27,0,591
6.860419726331682,0,82,0,27,0,591
100,0,82,0,27,0,591
