#Time,A,B,C,D,E,F
0,275,0,227,0,15,4
0.10825061525164711,268,7,212,15,13,6
0.20943848419564406,259,16,185,42,8,11
0.31027764633362626,233,42,168,59,7,12
0.4121728464362197,198,77,149,78,4,15
0.517136827845178,157,118,135,92,2,17
0.6190194171779159,126,149,123,104,1,18
0.7202201656416853,102,173,113,114,1,18
0.8207906126044383,72,203,107,120,0,19
0.9282925322224016,58,217,103,124,0,19
1.033853537360358,39,236,87,140,0,19
1.137114486665518,32,243,80,147,0,19
1.2412257672177152,20,255,69,158,0,19
1.3589650528365251,15,260,61,166,0,19
1.4590251070886948,10,265,54,173,0,19
1.564077193597252,9,266,51,176,0,19
1.6644142684255918,7,268,45,182,0,19
1.7772650563981216,5,270,44,183,0,19
1.8795914451487046,2,273,39,188,0,19
1.9887118268153243,0,275,38,189,0,19
2.1888969914737757,0,275,35,192,0,19
2.311643066444356,0,275,34,193,0,19
2.433237671312325,0,275,30,197,0,19
2.573059798961271,0,275,26,201,0,19
2.7994369442468336,0,275,22,205,0,19
2.9605254718388747,0,275,19,208,0,19
3.075217970527959,0,275,17,210,0,19
3.287507617824576,0,275,12,215,0,19
3.392058930100956,0,275,11,216,0,19
3.515849506909276,0,275,10,217,0,19
3.624335776287835,0,275,9,218,0,19
3.7802050412865387,0,275,7,220,0,19
4.041053597083487,0,275,5,222,0,19
4.772191972646176,0,275,4,223,0,19
5.259326814154855,0,275,3,224,0,19
5.757980341258298,0,275,2,225,0,19
6.769783580638286,0,275,1,226,0,19
6.878420526000617,0,275,0,227,0,19
100,0,275,0,227,0,19
