#Time,A,B,C,D,E,F
0,8,32,222,83,0,3
0.10528690001787706,8,32,199,106,0,3
0.21270288099424894,7,33,175,130,0,3
0.3128782471631272,5,35,158,147,0,3
0.42004119881839647,4,36,144,161,0,3
0.5226211270072671,2,38,121,184,0,3
0.6278745960883553,1,39,108,197,0,3
0.7279348655599533,1,39,102,203,0,3
0.830567752737649,0,40,92,213,0,3
0.9394967187637846,0,40,81,224,0,3
1.0467429678763698,0,40,72,233,0,3
1.1648180023009291,0,40,59,246,0,3
1.270584226967914,0,40,54,251,0,3
1.3799949977623618,0,40,47,258,0,3
1.4910268026604534,0,40,39,266,0,3
1.597940812726189,0,40,38,267,0,3
1.7266295304808412,0,40,33,272,0,3
1.8266756883969417,0,40,29,276,0,3
1.93600880870809,0,40,27,278,0,3
2.0825541862245243,0,40,24,281,0,3
2.228005573221875,0,40,22,283,0,3
2.3994514193250933,0,40,15,290,0,3
2.6557684437066387,0,40,14,291,0,3
2.814494358070647,0,40,11,294,0,3
2.9245744869381003,0,40,9,296,0,3
3.31686357585024,0,40,7,298,0,3
3.4426804639048236,0,40,6,299,0,3
3.6627872526702685,0,40,5,300,0,3
4.415545133834254,0,40,3,302,0,3
5.278533252262274,0,40,0,305,0,3
100,0,40,0,305,0,3
