#Time,A,B,C,D,E,F
0,9,0,61,95,0,64
0.10621604732012005,8,1,55,101,0,64
0.21429824558881377,7,2,53,103,0,64
0.36406396676160363,5,4,41,115,0,64
0.4650997901501357,2,7,37,119,0,64
0.5827228208448056,1,8,33,123,0,64
0.7293999377870917,0,9,27,129,0,64
0.9482232347390704,0,9,23,133,0,64
1.1120033698504075,0,9,19,137,0,64
1.2971325709671855,0,9,16,140,0,64
1.4744750165757308,0,9,13,143,0,64
1.8463182346381861,0,9,11,145,0,64
1.9616862982652608,0,9,9,147,0,64
2.3147819324607672,0,9,5,151,0,64
2.4933340897957184,0,9,4,152,0,64
2.8063891970533477,0,9,3,153,0,64
3.427277038432985,0,9,2,154,0,64
5.548829237310475,0,9,1,155,0,64
100,0,9,0,156,0,64
