#Time,A,B,C,D,E,F
0,0,278,65,26,0,13
0.10360179942850686,0,278,59,32,0,13
0.21542786156801094,0,278,55,36,0,13
0.34056622930997393,0,278,49,42,0,13
0.45709688332814624,0,278,45,46,0,13
0.645219109618281,0,278,42,49,0,13
0.7618263530104377,0,278,38,53,0,13
0.8935926071466826,0,278,33,58,0,13
1.0002526629574657,0,278,29,62,0,13
1.1086774389271523,0,278,28,63,0,13
1.2179153571684793,0,278,25,66,0,13
1.5465363769538105,0,278,22,69,0,13
1.7771217372667842,0,278,20,71,0,13
1.9126409310764176,0,278,16,75,0,13
2.07376445975783,0,278,15,76,0,13
2.2651411687463767,0,278,9,82,0,13
2.3803346308479436,0,278,8,83,0,13
2.5057594254187694,0,278,7,84,0,13
2.825552459453901,0,278,5,86,0,13
2.959332904234494,0,278,3,88,0,13
3.1225173004825244,0,278,2,89,0,13
3.4162177720689337,0,278,1,90,0,13
3.5956934831817144,0,278,0,91,0,13
100,0,278,0,91,0,13
