#Time,A,B,C,D,E,F
0,0,0,81,401,27,126
0.12014935188092452,0,0,73,409,20,133
0.238664769574135,0,0,65,417,12,141
0.3927989343602608,0,0,56,426,8,145
0.5022156144075309,0,0,49,433,5,148
0.6830410233239753,0,0,43,439,5,148
0.8352218475541832,0,0,37,445,4,149
0.9432172682864061,0,0,33,449,2,151
1.0676145048020391,0,0,30,452,1,152
1.1701658615087673,0,0,27,455,1,152
1.2941268384143254,0,0,26,456,0,153
1.4382351345080342,0,0,24,458,0,153
1.5410137883558375,0,0,19,463,0,153
1.6713574138735063,0,0,16,466,0,153
1.8197650525335112,0,0,14,468,0,153
2.2510253565947798,0,0,9,473,0,153
2.451241491664193,0,0,8,474,0,153
3.4143464670146457,0,0,5,477,0,153
3.904692224215264,0,0,4,478,0,153
4.586317807007251,0,0,1,481,0,153
100,0,0,0,482,0,153
