#Time,A,B,C,D,E,F
0,34,67,174,0,0,51
0.10271983706014184,33,68,156,18,0,51
0.20427860159660619,32,69,145,29,0,51
0.31995199171674876,30,71,127,47,0,51
0.42334986247613743,26,75,115,59,0,51
0.5249314701395063,21,80,105,69,0,51
0.6258004218040082,17,84,96,78,0,51
0.7316699327779734,14,87,84,90,0,51
0.8578031053229672,10,91,76,98,0,51
0.9983157154311063,10,91,66,108,0,51
1.1004457641317154,9,92,62,112,0,51
1.2268611288356053,6,95,57,117,0,51
1.3362474273106197,2,99,47,127,0,51
1.4695705725710269,2,99,46,128,0,51
1.5765455819529905,2,99,44,130,0,51
1.7016364840510927,1,100,41,133,0,51
1.8192680003855775,1,100,34,140,0,51
1.9705176897569123,0,101,28,146,0,51
2.0807349085939495,0,101,25,149,0,51
2.202906615805369,0,101,22,152,0,51
2.377932189230048,0,101,20,154,0,51
2.4842884602813187,0,101,19,155,0,51
2.621674446419024,0,101,15,159,0,51
2.8066320980804,0,101,13,161,0,51
3.0061793789658178,0,101,12,162,0,51
3.167831950774244,0,101,11,163,0,51
3.6185355033767093,0,101,10,164,0,51
3.758799392970435,0,101,7,167,0,51
3.999887311722215,0,101,5,169,0,51
4.192444107558968,0,101,4,170,0,51
4.471035858307809,0,101,2,172,0,51
5.513472245248099,0,101,1,173,0,51
7.357359351407584,0,101,0,174,0,51
100,0,101,0,174,0,51
