#Time,A,B,C,D,E,F
0,34,67,174,0,0,51
0.10016128119168775,32,69,160,14,0,51
0.20077332651874377,26,75,151,23,0,51
0.30333816562627397,25,76,132,42,0,51
0.4121389427105985,22,79,119,55,0,51
0.5150190514437482,17,84,104,70,0,51
0.6188914905612034,16,85,94,80,0,51
0.7238423903296269,14,87,84,90,0,51
0.8301739641522247,10,91,73,101,0,51
0.9629152925899348,8,93,67,107,0,51
1.085536052867116,4,97,59,115,0,51
1.1886880882321185,3,98,49,125,0,51
1.3096452704298143,1,100,42,132,0,51
1.423534931959605,0,101,39,135,0,51
1.5922441388826358,0,101,32,142,0,51
1.8158622511365308,0,101,27,147,0,51
1.9863478530679342,0,101,26,148,0,51
2.1189785702373305,0,101,21,153,0,51
2.248530542539288,0,101,19,155,0,51
2.4048512548976406,0,101,15,159,0,51
2.7205180949665917,0,101,11,163,0,51
2.9417328640457883,0,101,10,164,0,51
3.061723843937394,0,101,8,166,0,51
3.184336450330124,0,101,6,168,0,51
3.5627748479220793,0,101,5,169,0,51
4.139333458976462,0,101,4,170,0,51
4.416113705533794,0,101,3,171,0,51
4.8149729060926685,0,101,2,172,0,51
4.9991202620083435,0,101,0,174,0,51
100,0,101,0,174,0,51
