#Time,A,B,C,D,E,F
0,69,247,107,0,5,266
0.10271922841440626,69,247,95,12,2,269
0.20828137201183705,63,253,92,15,2,269
0.31296000101739196,61,255,79,28,1,270
0.42596910570841023,58,258,68,39,1,270
0.5420299147906676,50,266,57,50,1,270
0.6479389818133745,44,272,53,54,0,271
0.7596927024246486,35,281,48,59,0,271
0.8693220562006394,30,286,45,62,0,271
1.0365448495046603,26,290,40,67,0,271
1.1559296888391775,22,294,34,73,0,271
1.2692298243765423,17,299,28,79,0,271
1.3748340064481972,16,300,27,80,0,271
1.4870253052553921,12,304,22,85,0,271
1.6292868770520053,9,307,20,87,0,271
1.732327519553027,7,309,17,90,0,271
1.847101647013564,5,311,15,92,0,271
1.967557053465091,4,312,12,95,0,271
2.2079877717646093,3,313,12,95,0,271
2.43544610617973,2,314,11,96,0,271
2.591260866396883,1,315,8,99,0,271
2.7712980358168253,0,316,6,101,0,271
2.905914024464686,0,316,4,103,0,271
3.6216506596996294,0,316,3,104,0,271
3.7997746331910838,0,316,2,105,0,271
4.9393771962535755,0,316,1,106,0,271
5.234198333227203,0,316,0,107,0,271
100,0,316,0,107,0,271
