#Time,A,B,C,D,E,F
0,83,29,0,2,36,0
0.11367465964998137,83,29,0,2,24,12
0.22000443748506224,83,29,0,2,18,18
0.36171082570466373,83,29,0,2,13,23
0.4664003041780303,82,30,0,2,8,28
0.5939919257180476,81,31,0,2,6,30
0.7481974029731397,81,31,0,2,2,34
1.0373356210983085,80,32,0,2,0,36
1.2812521055177553,79,33,0,2,0,36
1.4990036054183646,78,34,0,2,0,36
2.060338088386821,77,35,0,2,0,36
2.423420530111535,76,36,0,2,0,36
2.7186330952142024,75,37,0,2,0,36
3.304455984779121,73,39,0,2,0,36
5.227924721082951,72,40,0,2,0,36
5.340347707314776,70,42,0,2,0,36
5.466032847829958,68,44,0,2,0,36
7.837353001727622,66,46,0,2,0,36
8.093568684721907,65,47,0,2,0,36
8.342385663911173,63,49,0,2,0,36
8.594133740246093,62,50,0,2,0,36
8.756865822253944,61,51,0,2,0,36
8.989466829528153,60,52,0,2,0,36
9.59705936506171,59,53,0,2,0,36
10.2157017593828,58,54,0,2,0,36
10.76235558081572,57,55,0,2,0,36
10.962760493267222,55,57,0,2,0,36
11.326707105289582,54,58,0,2,0,36
11.987022288858736,53,59,0,2,0,36
12.246145185217518,52,60,0,2,0,36
12.366410054857926,51,61,0,2,0,36
13.795304327371047,50,62,0,2,0,36
16.03945892437768,49,63,0,2,0,36
16.32265696018056,48,64,0,2,0,36
16.951487770137426,47,65,0,2,0,36
17.539838575859733,46,66,0,2,0,36
17.830475279596037,43,69,0,2,0,36
18.20964926755149,42,70,0,2,0,36
18.405430281762722,41,71,0,2,0,36
18.576036060317467,40,72,0,2,0,36
20.215476290465272,38,74,0,2,0,36
21.22982733503929,37,75,0,2,0,36
22.01058229337382,36,76,0,2,0,36
23.028708556718986,35,77,0,2,0,36
23.79524681554965,34,78,0,2,0,36
25.261537754039562,33,79,0,2,0,36
25.522311718736272,31,81,0,2,0,36
26.003159821602356,29,83,0,2,0,36
27.240150046887404,28,84,0,2,0,36
28.598671160105862,27,85,0,2,0,36
29.771355370418487,26,86,0,2,0,36
32.38935865732521,25,87,0,2,0,36
33.05566969397437,24,88,0,2,0,36
34.5714795420268,23,89,0,2,0,36
34.87205352021219,22,90,0,2,0,36
36.39932051012009,21,91,0,2,0,36
37.918545876745426,20,92,0,2,0,36
39.628010406529654,19,93,0,2,0,36
40.739248761339574,18,94,0,2,0,36
42.05058050618465,17,95,0,2,0,36
42.53224770476019,16,96,0,2,0,36
44.19343858433919,15,97,0,2,0,36
52.759180962871255,14,98,0,2,0,36
57.009753793721345,13,99,0,2,0,36
59.496264739668895,12,100,0,2,0,36
61.663961154841864,11,101,0,2,0,36
68.86917354723835,10,102,0,2,0,36
81.15550865536848,9,103,0,2,0,36
82.06834820139632,8,104,0,2,0,36
84.007498117793,7,105,0,2,0,36
88.42793935082716,6,106,0,2,0,36
92.62568219786175,5,107,0,2,0,36
97.26967695149348,4,108,0,2,0,36
115.57443652877261,3,109,0,2,0,36
