#Time,A,B,C,D,E,F
0,3,44,0,144,92,119
0.10133955468309058,3,44,0,144,63,148
0.20691520870462748,3,44,0,144,46,165
0.31360384267622743,2,45,0,144,31,180
0.4411548897475176,1,46,0,144,22,189
0.5549107832183052,0,47,0,144,13,198
0.6754074066318633,0,47,0,144,6,205
0.7820676607051557,0,47,0,144,5,206
0.9632034137146819,0,47,0,144,1,210
1.2164640821551846,0,47,0,144,0,211
100,0,47,0,144,0,211
