#Time,A,B,C,D,E,F
0,34,48,16,105,196,35
0.10142396393157742,28,54,14,107,143,88
0.2046128785178209,23,59,13,108,101,130
0.30624390691676356,17,65,12,109,75,156
0.4163443755110045,13,69,11,110,56,175
0.5191963587037361,11,71,11,110,46,185
0.638226428247414,10,72,11,110,28,203
0.7406707734632073,7,75,10,111,21,210
0.8575919001215937,5,77,9,112,16,215
0.9732360876976883,5,77,9,112,10,221
1.0916858944028094,2,80,9,112,7,224
1.233892917589605,2,80,8,113,4,227
1.334059689694523,2,80,8,113,2,229
1.6595279854924283,1,81,8,113,1,230
1.7806076897296348,1,81,6,115,1,230
1.898230490685133,0,82,5,116,1,230
2.0046154835708108,0,82,3,118,1,230
2.4338349869221205,0,82,1,120,1,230
4.4880719221678795,0,82,0,121,0,231
100,0,82,0,121,0,231
