#Time,A,B,C,D,E,F
0,178,6,0,62,130,0
0.10412248933375805,160,24,0,62,98,32
0.2046479993077492,139,45,0,62,76,54
0.30507392990991267,122,62,0,62,57,73
0.4053163267224799,108,76,0,62,37,93
0.5075119459687103,98,86,0,62,24,106
0.6099110193652151,84,100,0,62,18,112
0.7264000883120482,73,111,0,62,12,118
0.8380474880574512,66,118,0,62,9,121
0.9632732362194246,61,123,0,62,6,124
1.0733152436151119,52,132,0,62,4,126
1.1867722459803418,46,138,0,62,4,126
1.3078615645339362,41,143,0,62,3,127
1.4171776978032289,37,147,0,62,2,128
1.5697491524901954,32,152,0,62,2,128
1.6883109728447747,29,155,0,62,0,130
1.7976818099611178,26,158,0,62,0,130
1.9012241935735832,23,161,0,62,0,130
2.073192968654019,15,169,0,62,0,130
2.3583203118850786,13,171,0,62,0,130
2.6671423237040024,10,174,0,62,0,130
2.7777578853919254,6,178,0,62,0,130
2.9096721746191827,4,180,0,62,0,130
3.1444020955840792,1,183,0,62,0,130
3.409344361035686,0,184,0,62,0,130
100,0,184,0,62,0,130
