#Time,A,B,C,D,E,F
0,0,112,0,40,30,0
0.10564259672039095,0,112,0,40,25,5
0.2896183716904505,0,112,0,40,18,12
0.4205324427589492,0,112,0,40,11,19
0.5569416106177119,0,112,0,40,7,23
0.7290141273133842,0,112,0,40,4,26
0.9545104514406162,0,112,0,40,2,28
1.0774893519786146,0,112,0,40,1,29
2.05773497237707,0,112,0,40,0,30
100,0,112,0,40,0,30
