#Time,A,B,C,D,E,F
0,0,65,150,210,189,57
0.10262442326898427,0,65,138,222,146,100
0.2040883486829062,0,65,122,238,106,140
0.30849956995586786,0,65,101,259,79,167
0.4230822769050878,0,65,91,269,56,190
0.5348778857760419,0,65,81,279,35,211
0.6491404680836809,0,65,72,288,28,218
0.7543641634130064,0,65,67,293,20,226
0.8581049953912507,0,65,59,301,17,229
0.9748017618109618,0,65,56,304,12,234
1.0874099771411068,0,65,52,308,8,238
1.191216222958145,0,65,50,310,7,239
1.3096262665169505,0,65,43,317,6,240
1.427706515986606,0,65,39,321,6,240
1.5572195437094756,0,65,36,324,5,241
1.6573449608611401,0,65,32,328,3,243
1.7733698944611913,0,65,29,331,1,245
1.951808938800279,0,65,27,333,0,246
2.1160309976833243,0,65,25,335,0,246
2.275106753588043,0,65,24,336,0,246
2.403726221074904,0,65,17,343,0,246
2.5645595087155666,0,65,15,345,0,246
2.679522273652122,0,65,14,346,0,246
2.8335890224026326,0,65,11,349,0,246
2.972248449074784,0,65,9,351,0,246
3.2912082293345586,0,65,7,353,0,246
3.4856681438521333,0,65,5,355,0,246
3.6063840307056245,0,65,4,356,0,246
3.7684825394784145,0,65,3,357,0,246
4.1603890011518825,0,65,1,359,0,246
4.59819034090272,0,65,0,360,0,246
100,0,65,0,360,0,246
