#Time,A,B,C,D,E,F
0,0,17,0,244,69,29
0.10456024759932869,0,17,0,244,49,49
0.20830023000303557,0,17,0,244,34,64
0.3089002147677837,0,17,0,244,24,74
0.47384932449865513,0,17,0,244,14,84
0.6134924652775557,0,17,0,244,7,91
0.7284315180887971,0,17,0,244,5,93
0.92511165523134,0,17,0,244,3,95
1.0654926724839788,0,17,0,244,1,97
100,0,17,0,244,0,98
