#Time,A,B,C,D,E,F
0,172,0,173,18,22,137
0.10120876729744845,161,11,162,29,17,142
0.20123528107844957,152,20,141,50,11,148
0.30207158999263833,132,40,124,67,7,152
0.40210039763044386,110,62,110,81,5,154
0.5034300350208984,94,78,103,88,4,155
0.6086243330232891,81,91,92,99,4,155
0.7204318112436161,60,112,82,109,3,156
0.8219155763254853,48,124,75,116,2,157
0.9468755357195163,38,134,58,133,2,157
1.0590004905425083,31,141,53,138,1,158
1.1645881917528424,27,145,50,141,1,158
1.2987607953041718,19,153,48,143,0,159
1.4122189868677957,17,155,44,147,0,159
1.519340869211594,11,161,40,151,0,159
1.6266997716135279,7,165,34,157,0,159
1.758727893566252,6,166,28,163,0,159
1.8888756284794352,1,171,24,167,0,159
2.032216580309894,1,171,17,174,0,159
2.16770457985146,1,171,15,176,0,159
2.3656397676944976,1,171,13,178,0,159
2.4688244673672215,1,171,12,179,0,159
2.6430386891508357,0,172,10,181,0,159
2.923251359198593,0,172,7,184,0,159
3.471706520635819,0,172,5,186,0,159
3.885365656201469,0,172,3,188,0,159
4.165610648739626,0,172,2,189,0,159
5.055864223599997,0,172,1,190,0,159
5.224231381621912,0,172,0,191,0,159
100,0,172,0,191,0,159
