#Time,A,B,C,D,E,F
0,72,352,0,80,57,67
0.10181242987487346,63,361,0,80,38,86
0.20891818066701806,52,372,0,80,27,97
0.3095246533999607,46,378,0,80,17,107
0.4098523310130867,41,383,0,80,15,109
0.5115369284259679,36,388,0,80,10,114
0.6182393440579265,31,393,0,80,10,114
0.7267225449816893,25,399,0,80,8,116
0.8284934180596027,18,406,0,80,6,118
0.9349932869015615,15,409,0,80,3,121
1.0678073119429767,11,413,0,80,3,121
1.1702064857217114,10,414,0,80,2,122
1.3210444674830952,9,415,0,80,1,123
1.4260378196319397,7,417,0,80,0,124
1.624265236142842,5,419,0,80,0,124
1.8638974618705855,4,420,0,80,0,124
2.0615196900193213,2,422,0,80,0,124
2.5847502387898476,1,423,0,80,0,124
2.69027805160805,0,424,0,80,0,124
100,0,424,0,80,0,124
