#Time,A,B,C,D,E,F
0,28,96,0,127,1,22
0.11250531186059419,19,105,0,127,1,22
0.30643441891223094,12,112,0,127,1,22
0.44409195894405773,9,115,0,127,0,23
0.5620253088789519,8,116,0,127,0,23
0.6745091236287789,5,119,0,127,0,23
1.101253915220747,2,122,0,127,0,23
1.2608800732539662,1,123,0,127,0,23
100,0,124,0,127,0,23
