#Time,A,B,C,D,E,F
0,100,0,64,26,36,98
0.1089111135482657,90,10,53,37,31,103
0.2097907483518134,85,15,48,42,24,110
0.312598802669948,74,26,43,47,14,120
0.41278498122515284,66,34,39,51,10,124
0.5225329123717197,62,38,37,53,7,127
0.6264691951354215,54,46,34,56,7,127
0.7265996601586061,50,50,28,62,6,128
0.8373597916185564,44,56,23,67,3,131
0.9514897519120715,38,62,22,68,2,132
1.0639110800879055,33,67,20,70,1,133
1.1656172303221393,31,69,20,70,1,133
1.3110215277988366,25,75,18,72,0,134
1.415691249261054,21,79,17,73,0,134
1.5595669839836086,17,83,15,75,0,134
1.6690704152483362,15,85,13,77,0,134
1.813928436375813,13,87,11,79,0,134
1.9160977669066592,12,88,11,79,0,134
2.0279050732436033,9,91,10,80,0,134
2.1339289915931405,8,92,10,80,0,134
2.236428338697993,6,94,9,81,0,134
2.3479751187313744,4,96,7,83,0,134
2.475010947831066,4,96,6,84,0,134
2.798985381782791,3,97,5,85,0,134
3.0155882797257036,3,97,4,86,0,134
3.2047723664170995,2,98,3,87,0,134
3.4229698872236103,1,99,3,87,0,134
3.5258882897925417,1,99,2,88,0,134
3.6325332332129316,1,99,1,89,0,134
3.759383138594254,1,99,0,90,0,134
6.696079870407852,0,100,0,90,0,134
100,0,100,0,90,0,134
