#Time,A,B,C,D,E,F
0,269,110,62,306,22,0
0.10128367713686348,138,241,55,313,14,8
0.20250172113196357,74,305,47,321,11,11
0.3161008590370251,40,339,42,326,10,12
0.41982440239924756,23,356,37,331,5,17
0.5309433622305687,10,369,33,335,2,20
0.6475468257746594,4,375,28,340,1,21
0.7499807131678901,2,377,27,341,0,22
0.8841917371185177,2,377,25,343,0,22
1.02519400805711,1,378,21,347,0,22
1.1455288894182123,1,378,18,350,0,22
1.2552982234735992,0,379,17,351,0,22
1.3907127371945167,0,379,16,352,0,22
1.5105670806642844,0,379,15,353,0,22
1.6517657308129456,0,379,14,354,0,22
1.8863429215406369,0,379,13,355,0,22
2.0849762404313537,0,379,11,357,0,22
2.2297179808478647,0,379,10,358,0,22
2.341045908462624,0,379,9,359,0,22
2.4673524378846596,0,379,7,361,0,22
2.6051135488458836,0,379,6,362,0,22
2.7290249572799445,0,379,4,364,0,22
3.0386192828155076,0,379,2,366,0,22
3.428417394185302,0,379,1,367,0,22
5.047482740077896,0,379,0,368,0,22
100,0,379,0,368,0,22
