#Time,A,B,C,D,E,F
0,0,107,64,20,120,23
0.10570142546986637,0,107,60,24,86,57
0.20614658898953778,0,107,54,30,68,75
0.3073817325785474,0,107,50,34,49,94
0.40760420764708216,0,107,44,40,36,107
0.5104893971771688,0,107,42,42,22,121
0.6108198508858078,0,107,39,45,16,127
0.7179715696041757,0,107,37,47,13,130
0.8272818584720076,0,107,35,49,10,133
0.9410458092855105,0,107,32,52,7,136
1.052610799403529,0,107,30,54,6,137
1.1706562925904787,0,107,25,59,5,138
1.314229574969073,0,107,24,60,4,139
1.425970258275681,0,107,19,65,2,141
1.552807490934789,0,107,16,68,2,141
1.7043621205701383,0,107,14,70,0,143
2.0159624771395492,0,107,13,71,0,143
2.123051306687222,0,107,12,72,0,143
2.384837612657183,0,107,10,74,0,143
2.5005272024978704,0,107,9,75,0,143
2.643548066406633,0,107,6,78,0,143
2.827638002226911,0,107,3,81,0,143
3.1647776266516296,0,107,2,82,0,143
3.323308229994696,0,107,1,83,0,143
4.028578064894142,0,107,0,84,0,143
100,0,107,0,84,0,143
