#Time,A,B,C,D,E,F
0,62,100,165,26,262,0
0.10060465427398659,57,105,151,40,188,74
0.20705371603132403,51,111,137,54,139,123
0.30970687618010734,43,119,122,69,100,162
0.41061146932820697,38,124,111,80,71,191
0.5175013333689936,31,131,97,94,52,210
0.6312426270296271,26,136,89,102,36,226
0.7319312886818802,19,143,84,107,29,233
0.8574176200717255,13,149,79,112,22,240
0.9654744444586482,9,153,72,119,14,248
1.0897670617023025,4,158,67,124,10,252
1.1906804174996646,3,159,61,130,9,253
1.2934253935121152,3,159,58,133,8,254
1.4075195275521835,3,159,54,137,6,256
1.517019062722262,3,159,50,141,6,256
1.6386889283953807,3,159,42,149,5,257
1.7603782684165232,2,160,36,155,3,259
1.861510390402071,2,160,30,161,1,261
1.9882047520432768,1,161,26,165,1,261
2.0932146321389986,1,161,23,168,1,261
2.2049788735277365,0,162,22,169,1,261
2.317213144111356,0,162,19,172,1,261
2.5443892101730556,0,162,16,175,0,262
2.665375181921848,0,162,12,179,0,262
2.820786357720323,0,162,11,180,0,262
2.965435408036442,0,162,10,181,0,262
3.510989088855957,0,162,6,185,0,262
3.89348438511031,0,162,4,187,0,262
4.192364964408926,0,162,3,188,0,262
4.360394735267658,0,162,2,189,0,262
5.240456704681414,0,162,0,191,0,262
100,0,162,0,191,0,262
