#Time,A,B,C,D,E,F
0,83,23,0,0,73,0
0.12893634896349287,83,23,0,0,47,26
0.23205954051008448,83,23,0,0,32,41
0.33614027983828243,83,23,0,0,26,47
0.43720079301445325,83,23,0,0,20,53
0.573460425891911,83,23,0,0,15,58
0.6824122127383878,83,23,0,0,9,64
0.8257254339173545,83,23,0,0,5,68
0.9494079778295605,83,23,0,0,3,70
1.0768339757926237,83,23,0,0,2,71
1.1969379544679026,83,23,0,0,1,72
100,83,23,0,0,0,73
