#Time,A,B,C,D,E,F
0,49,334,66,0,162,0
0.10010496091730757,49,334,62,4,118,44
0.2051014971981344,49,334,56,10,84,78
0.3077372636844126,48,335,49,17,60,102
0.4127434310259143,47,336,47,19,50,112
0.5252410070242008,43,340,44,22,36,126
0.6465759856024207,37,346,38,28,24,138
0.7473214671967833,33,350,36,30,14,148
0.8478411124352864,31,352,33,33,8,154
0.9536701241120348,27,356,30,36,8,154
1.0980042997722608,25,358,27,39,5,157
1.21341953685516,23,360,23,43,3,159
1.3335227206319589,21,362,20,46,3,159
1.460667429385134,19,364,16,50,3,159
1.5647952506692109,18,365,16,50,2,160
1.7285613626974026,15,368,14,52,1,161
1.8315362104510886,14,369,10,56,1,161
1.9837046279571064,13,370,9,57,1,161
2.086809621134302,12,371,9,57,0,162
2.1963955466316265,9,374,7,59,0,162
2.3000046839132073,7,376,7,59,0,162
2.559576317605838,5,378,6,60,0,162
2.9293709911025525,3,380,5,61,0,162
3.1244798093190504,2,381,5,61,0,162
3.547638784720018,0,383,4,62,0,162
4.202449602888205,0,383,2,64,0,162
4.496780372592668,0,383,1,65,0,162
5.563063386847814,0,383,0,66,0,162
100,0,383,0,66,0,162
