#Time,A,B,C,D,E,F
0,44,130,105,37,41,32
0.1029845299218422,42,132,98,44,31,42
0.20543551216103312,39,135,91,51,23,50
0.3098407359653486,33,141,85,57,16,57
0.4134944328897355,28,146,77,65,12,61
0.5150552147159411,23,151,70,72,11,62
0.6518633823814635,19,155,59,83,8,65
0.7537416286241655,15,159,51,91,6,67
0.8768368818668566,13,161,46,96,5,68
0.9825754744686983,10,164,41,101,3,70
1.082654234539193,6,168,38,104,2,71
1.246406387102887,6,168,35,107,2,71
1.358110741218769,4,170,31,111,1,72
1.4673399712638737,4,170,28,114,1,72
1.5757706596984238,3,171,28,114,0,73
1.6873355008219426,2,172,21,121,0,73
1.7963120425293193,2,172,20,122,0,73
1.9020500293899623,1,173,16,126,0,73
2.03295256242967,1,173,14,128,0,73
2.1348756501414985,0,174,14,128,0,73
2.2984737209525257,0,174,11,131,0,73
2.4435448938453646,0,174,10,132,0,73
2.7128828354085406,0,174,9,133,0,73
2.834386192601782,0,174,8,134,0,73
3.099364427875541,0,174,7,135,0,73
3.5156354065132662,0,174,5,137,0,73
3.640026766567591,0,174,3,139,0,73
3.9852288124229887,0,174,1,141,0,73
4.43501439951073,0,174,0,142,0,73
100,0,174,0,142,0,73
