#Time,A,B,C,D,E,F
0,62,100,165,26,262,0
0.1005465663582465,60,102,151,40,196,66
0.2051138747276395,52,110,138,53,142,120
0.3109202870394933,50,112,127,64,96,166
0.4113684750283135,44,118,117,74,71,191
0.5116401634554528,35,127,105,86,56,206
0.6123573606651513,27,135,96,95,43,219
0.7135833055868891,24,138,83,108,33,229
0.8260281375048002,20,142,72,119,25,237
0.929501470039634,17,145,61,130,17,245
1.030968744395999,13,149,56,135,12,250
1.1368077116862465,11,151,53,138,8,254
1.2430375620027507,9,153,50,141,5,257
1.3515227854310057,6,156,45,146,4,258
1.4586912089875679,5,157,38,153,2,260
1.563916137521607,5,157,35,156,1,261
1.6662088691146888,4,158,33,158,1,261
1.8185256810312076,2,160,31,160,0,262
2.0062809768316567,0,162,25,166,0,262
2.1518655696850995,0,162,20,171,0,262
2.2601662725141165,0,162,18,173,0,262
2.4491574258342776,0,162,16,175,0,262
2.563840335534287,0,162,15,176,0,262
2.680245798531481,0,162,10,181,0,262
2.8072973203198575,0,162,8,183,0,262
3.2754270508895393,0,162,7,184,0,262
3.3878814847195726,0,162,5,186,0,262
3.5374731986542174,0,162,2,189,0,262
3.838274886980817,0,162,1,190,0,262
4.469907648094725,0,162,0,191,0,262
100,0,162,0,191,0,262
