#Time,A,B,C,D,E,F
0,106,139,9,44,0,0
0.1351011436643127,95,150,9,44,0,0
0.2365209968141018,86,159,9,44,0,0
0.3433557984858372,75,170,8,45,0,0
0.49675645104891836,68,177,8,45,0,0
0.6432884819374534,59,186,8,45,0,0
0.7531872837425709,53,192,8,45,0,0
0.8534668015535255,47,198,8,45,0,0
0.9607770131918884,44,201,7,46,0,0
1.0910764259824979,40,205,7,46,0,0
1.197861024976587,36,209,6,47,0,0
1.3090713828494174,30,215,6,47,0,0
1.479612662461978,28,217,6,47,0,0
1.5982461044100362,24,221,5,48,0,0
1.710945366832967,19,226,4,49,0,0
1.83483292400445,16,229,3,50,0,0
1.935512966255579,15,230,3,50,0,0
2.1714573847761485,11,234,2,51,0,0
2.3140322198929,9,236,1,52,0,0
2.8688544381059122,6,239,0,53,0,0
3.026315426438388,5,240,0,53,0,0
3.1458431618163893,3,242,0,53,0,0
3.5492994648493466,2,243,0,53,0,0
3.889097957253012,1,244,0,53,0,0
7.03632342652231,0,245,0,53,0,0
100,0,245,0,53,0,0
