#Time,A,B,C,D,E,F
0,0,62,2,0,297,59
0.10126590059720604,0,62,2,0,222,134
0.2038893831911949,0,62,2,0,169,187
0.3054129703551628,0,62,2,0,124,232
0.40872090839370206,0,62,1,1,89,267
0.5088263008982055,0,62,1,1,71,285
0.6092894718277765,0,62,0,2,48,308
0.7351711111177514,0,62,0,2,34,322
0.8396215767842881,0,62,0,2,24,332
0.9554409909421336,0,62,0,2,20,336
1.091157929856956,0,62,0,2,13,343
1.2038800970917976,0,62,0,2,9,347
1.40402583666303,0,62,0,2,6,350
1.5480638070751305,0,62,0,2,5,351
1.695803339255149,0,62,0,2,3,353
1.8522119238570562,0,62,0,2,2,354
2.1224053423090714,0,62,0,2,0,356
100,0,62,0,2,0,356
