#Time,A,B,C,D,E,F
0,58,3,96,76,0,67
0.10642029578651846,53,8,84,88,0,67
0.2342748261714109,47,14,76,96,0,67
0.33626203233926183,41,20,67,105,0,67
0.44508575088164515,29,32,61,111,0,67
0.5482503198162548,23,38,53,119,0,67
0.6527549566812103,14,47,51,121,0,67
0.7554446679963042,10,51,47,125,0,67
0.8588187122988253,8,53,41,131,0,67
1.0346207864237817,8,53,35,137,0,67
1.162966660604144,7,54,32,140,0,67
1.2814888959638258,3,58,31,141,0,67
1.390929952460232,2,59,28,144,0,67
1.5425275234847213,1,60,24,148,0,67
1.6615919604562066,1,60,21,151,0,67
1.8279614044592674,1,60,19,153,0,67
2.006022090403127,0,61,16,156,0,67
2.3036686348000863,0,61,10,162,0,67
2.6687999446637924,0,61,9,163,0,67
2.7730295802631484,0,61,8,164,0,67
3.2260571139769985,0,61,7,165,0,67
3.8470265011891387,0,61,6,166,0,67
4.045144565515417,0,61,5,167,0,67
4.3498581408662895,0,61,4,168,0,67
5.544473934695217,0,61,3,169,0,67
5.7275104632384455,0,61,2,170,0,67
5.9519815403474015,0,61,1,171,0,67
6.382692927867073,0,61,0,172,0,67
100,0,61,0,172,0,67
