#Time,A,B,C,D,E,F
0,0,278,65,26,0,13
0.1262614206089705,0,278,57,34,0,13
0.2556250044783387,0,278,47,44,0,13
0.3645316913483584,0,278,43,48,0,13
0.5343298312851552,0,278,39,52,0,13
0.655784882392401,0,278,33,58,0,13
0.7828770301336375,0,278,23,68,0,13
0.9452289970488336,0,278,19,72,0,13
1.0610643494704948,0,278,18,73,0,13
1.1646728487180946,0,278,13,78,0,13
1.46454140706101,0,278,10,81,0,13
1.5755844711138023,0,278,9,82,0,13
1.7572462081115738,0,278,8,83,0,13
1.9042863613541066,0,278,7,84,0,13
2.141410366558878,0,278,6,85,0,13
2.257759538492755,0,278,5,86,0,13
2.4281379756405914,0,278,2,89,0,13
2.566266819898153,0,278,1,90,0,13
3.8583942466836074,0,278,0,91,0,13
100,0,278,0,91,0,13
