#Time,A,B,C,D,E,F
0,41,8,167,65,76,90
0.10125245672990422,33,16,151,81,58,108
0.2081872096106887,30,19,133,99,45,121
0.3171501222435792,21,28,119,113,34,132
0.41822299796617207,15,34,108,124,27,139
0.5387979712552171,11,38,97,135,16,150
0.6458905859587063,9,40,87,145,10,156
0.755138337281304,8,41,76,156,9,157
0.869740728649135,5,44,66,166,8,158
1.0141574512369558,5,44,57,175,5,161
1.118253254378005,5,44,52,180,5,161
1.2200197745498258,3,46,49,183,4,162
1.3397664980415298,2,47,43,189,2,164
1.4600766806458017,2,47,40,192,1,165
1.5854030179791738,2,47,34,198,0,166
1.693937064568438,2,47,29,203,0,166
1.8031445093652902,0,49,27,205,0,166
1.9186819198662972,0,49,24,208,0,166
2.060019624295795,0,49,19,213,0,166
2.2013263092993247,0,49,18,214,0,166
2.3644269527702053,0,49,15,217,0,166
2.4852853137920543,0,49,13,219,0,166
2.5921024317338155,0,49,12,220,0,166
2.710857789149699,0,49,11,221,0,166
3.0773218919778498,0,49,8,224,0,166
3.2305184332091184,0,49,6,226,0,166
3.3475736375384377,0,49,5,227,0,166
3.5769371077013794,0,49,4,228,0,166
3.850589242011069,0,49,3,229,0,166
4.0913292133432275,0,49,2,230,0,166
4.296865313843986,0,49,1,231,0,166
4.416941751760815,0,49,0,232,0,166
100,0,49,0,232,0,166
