#Time,A,B,C,D,E,F
0,183,48,75,132,27,0
0.1019019221595253,137,94,69,138,19,8
0.20327457700988052,116,115,66,141,14,13
0.3122588175169248,83,148,59,148,10,17
0.4154820265520877,60,171,50,157,8,19
0.5168245630608502,39,192,46,161,6,21
0.6386504628567233,27,204,43,164,4,23
0.7415571692079299,21,210,36,171,2,25
0.8469052877810748,15,216,33,174,0,27
0.9585367612790557,11,220,30,177,0,27
1.0587582530932313,6,225,27,180,0,27
1.1918295553159555,3,228,26,181,0,27
1.3800454111881915,1,230,24,183,0,27
1.5053199609102959,1,230,22,185,0,27
1.6412063591195454,1,230,18,189,0,27
1.7585358911086253,0,231,17,190,0,27
1.8952442638844718,0,231,15,192,0,27
2.029415804142447,0,231,13,194,0,27
2.3063401333376845,0,231,12,195,0,27
2.6049885664417562,0,231,10,197,0,27
2.843852786662627,0,231,8,199,0,27
3.0146797170234705,0,231,5,202,0,27
3.3610710731953146,0,231,3,204,0,27
3.4786070366555566,0,231,2,205,0,27
3.8243935437377465,0,231,1,206,0,27
8.269604109537314,0,231,0,207,0,27
100,0,231,0,207,0,27
