#Time,A,B,C,D,E,F
0,62,100,165,26,262,0
0.10153637493609939,55,107,147,44,192,70
0.20153761447127885,43,119,130,61,138,124
0.30644724055461137,36,126,116,75,109,153
0.40688673470277126,28,134,105,86,71,191
0.5088616782919985,21,141,94,97,48,214
0.6273611846737157,19,143,87,104,35,227
0.7376947124575091,14,148,70,121,23,239
0.8885218081336892,11,151,59,132,15,247
0.9920733267569143,9,153,48,143,13,249
1.1199956767204913,7,155,43,148,9,253
1.2212789195524922,4,158,39,152,7,255
1.323784342357848,2,160,37,154,6,256
1.4442651043653902,1,161,34,157,4,258
1.5726865081068535,1,161,32,159,3,259
1.687357527204436,1,161,24,167,3,259
1.7910789894671106,1,161,22,169,3,259
1.9208632482229935,1,161,18,173,3,259
2.062081460826508,1,161,17,174,3,259
2.170237673601057,1,161,15,176,2,260
2.273793478111258,1,161,12,179,0,262
2.376395593643542,0,162,11,180,0,262
2.4918211714881475,0,162,10,181,0,262
2.6265491659269458,0,162,7,184,0,262
3.0957039007458516,0,162,5,186,0,262
3.2477489777383726,0,162,4,187,0,262
3.351756009563192,0,162,3,188,0,262
4.013552504768114,0,162,2,189,0,262
5.148247842916712,0,162,0,191,0,262
100,0,162,0,191,0,262
