#Time,A,B,C,D,E,F
0,73,224,19,140,27,89
0.11494204862005862,57,240,18,141,22,94
0.21690493084971108,44,253,15,144,16,100
0.3182111706900599,33,264,12,147,13,103
0.4286413263489261,22,275,12,147,10,106
0.557165041141844,14,283,11,148,5,111
0.6592184979937584,12,285,8,151,3,113
0.7632453233581256,5,292,7,152,0,116
0.9978984774350682,2,295,7,152,0,116
1.1129879241167686,2,295,6,153,0,116
1.3509830938332872,2,295,5,154,0,116
1.4613875065285538,0,297,5,154,0,116
1.691738890877995,0,297,3,156,0,116
2.2589189105627256,0,297,2,157,0,116
2.3861621125123675,0,297,1,158,0,116
3.4261949247499084,0,297,0,159,0,116
100,0,297,0,159,0,116
