#Time,A,B,C,D,E,F
0,0,0,26,0,0,153
0.11371519890818996,0,0,23,3,0,153
0.3181578872681914,0,0,21,5,0,153
0.4326505980525496,0,0,18,8,0,153
0.5776032002769736,0,0,17,9,0,153
0.7392743898019989,0,0,16,10,0,153
0.8586899312134413,0,0,13,13,0,153
1.1992527990823025,0,0,11,15,0,153
1.6113900526544902,0,0,9,17,0,153
1.7590590885694777,0,0,7,19,0,153
1.9158715730605795,0,0,6,20,0,153
2.442220269240812,0,0,5,21,0,153
2.954604390530087,0,0,4,22,0,153
3.065890200930671,0,0,3,23,0,153
3.7210710911483185,0,0,2,24,0,153
4.207145845705026,0,0,1,25,0,153
4.7683662610320665,0,0,0,26,0,153
100,0,0,0,26,0,153
