#Time,A,B,C,D,E,F
0,0,0,90,0,12,119
0.12442638809835568,0,0,86,4,11,120
0.23486031181260614,0,0,80,10,8,123
0.37055942042167395,0,0,73,17,3,128
0.47323734966847614,0,0,64,26,2,129
0.6013208685966763,0,0,59,31,1,130
0.7158941117883486,0,0,54,36,1,130
0.8644881358660127,0,0,44,46,1,130
0.9735739760710653,0,0,40,50,1,130
1.0888539541214377,0,0,35,55,0,131
1.276590870816647,0,0,31,59,0,131
1.4025853968590873,0,0,27,63,0,131
1.510788764334063,0,0,26,64,0,131
1.6640609851832544,0,0,22,68,0,131
1.8041980557579593,0,0,20,70,0,131
1.9870178749213807,0,0,17,73,0,131
2.1194929385184587,0,0,15,75,0,131
2.2665349242379893,0,0,13,77,0,131
2.588576899598895,0,0,11,79,0,131
2.7944964004730437,0,0,9,81,0,131
3.065208399217359,0,0,7,83,0,131
3.2912549716098294,0,0,6,84,0,131
3.7087366294570305,0,0,3,87,0,131
3.9517745516737572,0,0,2,88,0,131
4.36231275550214,0,0,1,89,0,131
5.42121583368726,0,0,0,90,0,131
100,0,0,0,90,0,131
