#Time,A,B,C,D,E,F
0,69,247,107,0,5,266
0.10071557018884267,69,247,95,12,4,267
0.20536174501888294,68,248,84,23,3,268
0.3095453981402303,64,252,76,31,1,270
0.41856224395756786,61,255,68,39,1,270
0.5220486568047658,54,262,64,43,0,271
0.6226795293798449,47,269,59,48,0,271
0.7238153920572775,44,272,54,53,0,271
0.8404842389561478,37,279,48,59,0,271
0.9500554808492052,34,282,39,68,0,271
1.0515722781808405,26,290,34,73,0,271
1.1642048916410392,22,294,31,76,0,271
1.3022473249855406,18,298,27,80,0,271
1.409491389088355,13,303,25,82,0,271
1.5248705990155051,9,307,21,86,0,271
1.6866748138469563,6,310,21,86,0,271
1.7957095439025035,5,311,19,88,0,271
1.897351579896364,5,311,17,90,0,271
2.005829999793253,5,311,15,92,0,271
2.113311740496022,4,312,13,94,0,271
2.2452509459439933,3,313,12,95,0,271
2.494985112461189,2,314,9,98,0,271
2.683892707659169,2,314,7,100,0,271
2.82010098258732,1,315,7,100,0,271
3.039194524582005,1,315,6,101,0,271
3.1803388882229497,1,315,3,104,0,271
3.534640736070136,0,316,3,104,0,271
3.694195663258045,0,316,1,106,0,271
6.42853673548569,0,316,0,107,0,271
100,0,316,0,107,0,271
