#Time,A,B,C,D,E,F
0,42,151,0,361,0,0
0.1327945675180496,19,174,0,361,0,0
0.2675526209408384,11,182,0,361,0,0
0.3922328074998619,3,190,0,361,0,0
0.5549143357565278,1,192,0,361,0,0
100,0,193,0,361,0,0
