#Time,A,B,C,D,E,F
0,13,0,1,26,56,84
0.10412409433480484,13,0,1,26,41,99
0.22012736955872175,13,0,1,26,27,113
0.3222050644770285,13,0,1,26,15,125
0.43727899852936086,13,0,1,26,10,130
0.5664499093184023,11,2,1,26,6,134
0.7722410079859556,10,3,1,26,6,134
0.9636293132468923,7,6,1,26,4,136
1.0679615644741118,6,7,1,26,3,137
1.3323634512449103,5,8,1,26,1,139
1.491223263952493,5,8,0,27,1,139
1.621910585225569,4,9,0,27,1,139
1.9701245656631248,2,11,0,27,0,140
2.4631187349978716,1,12,0,27,0,140
2.7703433282036425,0,13,0,27,0,140
100,0,13,0,27,0,140
