#Time,A,B,C,D,E,F
0,324,268,0,0,84,11
0.10274285658508948,324,268,0,0,59,36
0.21441967780172444,324,268,0,0,39,56
0.321429871833934,324,268,0,0,28,67
0.4433091951947892,324,268,0,0,22,73
0.5663286320342686,324,268,0,0,14,81
0.6839957263383144,324,268,0,0,11,84
0.7965558325122901,324,268,0,0,8,87
0.9091593378009215,324,268,0,0,6,89
1.0658976862889267,324,268,0,0,4,91
1.3985021509780249,324,268,0,0,1,94
1.9136313619551877,324,268,0,0,0,95
100,324,268,0,0,0,95
