#Time,A,B,C,D,E,F
0,0,275,0,89,59,0
0.10398406942817483,0,275,0,89,41,18
0.22161298417441647,0,275,0,89,27,32
0.3255201875834109,0,275,0,89,20,39
0.44014740251957457,0,275,0,89,14,45
0.5600504745654469,0,275,0,89,9,50
0.7853985036977523,0,275,0,89,8,51
0.97469514277651,0,275,0,89,5,54
1.180412594319781,0,275,0,89,4,55
1.476385743358975,0,275,0,89,1,58
2.015144977975438,0,275,0,89,0,59
100,0,275,0,89,0,59
