#Time,A,B,C,D,E,F
0,0,107,64,20,120,23
0.10229256130871275,0,107,58,26,92,51
0.20367931482787358,0,107,52,32,63,80
0.30528040981288995,0,107,51,33,52,91
0.4133854479044588,0,107,44,40,41,102
0.531507737982254,0,107,41,43,30,113
0.6435734056879676,0,107,34,50,25,118
0.7507869098302723,0,107,32,52,14,129
0.8851337527982469,0,107,26,58,10,133
1.0434146932880106,0,107,23,61,6,137
1.1662769699009,0,107,19,65,2,141
1.2754611408278589,0,107,18,66,1,142
1.460151604494763,0,107,15,69,0,143
1.595405064270171,0,107,13,71,0,143
1.7129838810796736,0,107,9,75,0,143
1.8290025314405907,0,107,8,76,0,143
2.1392930097110505,0,107,6,78,0,143
2.4271108846175062,0,107,5,79,0,143
2.5310732218204546,0,107,4,80,0,143
2.722493917995302,0,107,2,82,0,143
3.147707936443272,0,107,1,83,0,143
5.168135954506267,0,107,0,84,0,143
100,0,107,0,84,0,143
