#Time,A,B,C,D,E,F
0,128,134,312,174,45,151
0.10231927044657117,83,179,285,201,30,166
0.2029303714778079,54,208,266,220,21,175
0.3030975982725067,35,227,245,241,14,182
0.4063385768506597,22,240,220,266,12,184
0.5093006910393895,11,251,205,281,8,188
0.6133680353232159,4,258,188,298,7,189
0.7254844623309009,2,260,170,316,3,193
0.826424795839243,2,260,158,328,2,194
0.9313806849855776,1,261,143,343,1,195
1.033852438861329,1,261,125,361,0,196
1.1381225010324272,1,261,110,376,0,196
1.2428670807757285,0,262,102,384,0,196
1.3607125818079384,0,262,88,398,0,196
1.5203670876261544,0,262,83,403,0,196
1.6350743829921595,0,262,73,413,0,196
1.737234956017424,0,262,66,420,0,196
1.8592469985048024,0,262,58,428,0,196
1.9882173791406246,0,262,49,437,0,196
2.091912659495227,0,262,43,443,0,196
2.2022768548995164,0,262,35,451,0,196
2.330773595991823,0,262,34,452,0,196
2.4384350769206606,0,262,32,454,0,196
2.5475034902817115,0,262,31,455,0,196
2.6751832215833966,0,262,28,458,0,196
2.7784709542528088,0,262,24,462,0,196
2.972583460826944,0,262,22,464,0,196
3.12432424451416,0,262,19,467,0,196
3.2988106359504132,0,262,18,468,0,196
3.4652904346601794,0,262,16,470,0,196
3.5744980466018603,0,262,14,472,0,196
3.6753169161856745,0,262,10,476,0,196
3.964367698946325,0,262,9,477,0,196
4.244910020156886,0,262,8,478,0,196
4.5715757390801866,0,262,6,480,0,196
4.802920165855142,0,262,4,482,0,196
5.157880466940863,0,262,2,484,0,196
5.405922353045933,0,262,1,485,0,196
6.133382138210432,0,262,0,486,0,196
100,0,262,0,486,0,196
