#Time,A,B,C,D,E,F
0,157,483,143,126,41,130
0.1003450008207811,125,515,127,142,30,141
0.202534899888655,92,548,118,151,23,148
0.30614538092338317,65,575,106,163,16,155
0.40975026963237005,47,593,91,178,11,160
0.5102971241585168,31,609,84,185,10,161
0.6364434431220041,20,620,80,189,8,163
0.7525243613931374,8,632,68,201,6,165
0.8641583090749564,2,638,59,210,4,167
0.9840866286550227,1,639,57,212,2,169
1.1660758172233763,1,639,51,218,2,169
1.2857838443879248,1,639,43,226,2,169
1.4159748526354354,1,639,38,231,2,169
1.5233767716732793,0,640,30,239,1,170
1.674474805672556,0,640,24,245,1,170
1.9407091062722466,0,640,22,247,0,171
2.0997353007794017,0,640,18,251,0,171
2.2680405570164037,0,640,17,252,0,171
2.5296792186113466,0,640,14,255,0,171
2.7587847857683903,0,640,12,257,0,171
2.869413503744695,0,640,10,259,0,171
3.0963851747055675,0,640,9,260,0,171
3.3331974780396614,0,640,8,261,0,171
3.4469097043054724,0,640,7,262,0,171
3.684190127253359,0,640,5,264,0,171
3.864927619456123,0,640,4,265,0,171
3.979890102984873,0,640,3,266,0,171
4.2506739953019315,0,640,2,267,0,171
5.407356467396346,0,640,0,269,0,171
100,0,640,0,269,0,171
