#Time,A,B,C,D,E,F
0,12,16,47,0,92,122
0.10286849939008441,12,16,46,1,67,147
0.20743831646787766,12,16,42,5,50,164
0.31392372770111987,12,16,37,10,38,176
0.42003399139453784,12,16,32,15,28,186
0.5229724540463904,11,17,28,19,19,195
0.6319042340118903,11,17,26,21,13,201
0.7402199525697298,10,18,23,24,11,203
0.8541255769774609,10,18,22,25,6,208
0.9606322210962442,9,19,21,26,4,210
1.063176030007643,8,20,19,28,4,210
1.1650584063473712,7,21,18,29,3,211
1.2786961537702821,6,22,14,33,2,212
1.4011935229677477,6,22,13,34,2,212
1.503507316321248,5,23,12,35,1,213
1.6356105599680175,4,24,9,38,1,213
1.9233518224030597,4,24,7,40,1,213
2.2165186820379925,3,25,6,41,0,214
2.328864580112305,3,25,4,43,0,214
2.765651267988614,2,26,3,44,0,214
3.380151675887025,1,27,1,46,0,214
4.330556005515873,0,28,1,46,0,214
5.487494199703222,0,28,0,47,0,214
100,0,28,0,47,0,214
