#Time,A,B,C,D,E,F
0,77,16,118,32,49,4
0.10125494352588829,71,22,103,47,37,16
0.20158709678394726,64,29,93,57,27,26
0.3080675869688393,55,38,82,68,20,33
0.41477084409376497,48,45,74,76,14,39
0.5170642002322567,37,56,64,86,9,44
0.625900410066557,30,63,57,93,5,48
0.7373416317945602,25,68,53,97,2,51
0.8445382012868242,23,70,52,98,1,52
0.9491225360975054,21,72,46,104,1,52
1.0554471257024036,16,77,38,112,1,52
1.1812295979741638,11,82,34,116,1,52
1.3521365596898747,7,86,31,119,1,52
1.4878395406876004,3,90,29,121,1,52
1.587945054166899,3,90,25,125,1,52
1.70833122835877,3,90,22,128,0,53
1.8294753238480554,2,91,19,131,0,53
1.9667173183129474,1,92,16,134,0,53
2.082294873604571,0,93,16,134,0,53
2.267242964158445,0,93,15,135,0,53
2.3899854462651717,0,93,14,136,0,53
2.65823498386936,0,93,13,137,0,53
2.8351027368821553,0,93,10,140,0,53
3.0327192373638527,0,93,8,142,0,53
3.1970881647372793,0,93,6,144,0,53
3.4723625179102866,0,93,4,146,0,53
3.5966483604860326,0,93,3,147,0,53
3.760939191288934,0,93,2,148,0,53
4.239386490858451,0,93,1,149,0,53
4.5014872274538185,0,93,0,150,0,53
100,0,93,0,150,0,53
