#Time,A,B,C,D,E,F
0,83,29,0,2,36,0
0.10181224691589288,83,29,0,2,23,13
0.2243713998644134,83,29,0,2,13,23
0.36403987311903907,83,29,0,2,7,29
0.5774899922130025,83,29,0,2,5,31
0.7359565021131174,83,29,0,2,4,32
0.879457755061503,82,30,0,2,4,32
1.022723160571724,82,30,0,2,2,34
1.5138840336974957,81,31,0,2,1,35
1.8878771466572006,79,33,0,2,0,36
2.4671561545434297,77,35,0,2,0,36
3.016101721635358,76,36,0,2,0,36
4.573352370123656,74,38,0,2,0,36
4.901854850071334,73,39,0,2,0,36
5.241628439288551,72,40,0,2,0,36
5.570026339173552,71,41,0,2,0,36
6.549554320417742,69,43,0,2,0,36
6.814407815042568,66,46,0,2,0,36
7.155912766934832,65,47,0,2,0,36
7.463502284787643,64,48,0,2,0,36
7.610185423224346,63,49,0,2,0,36
7.865385303540091,62,50,0,2,0,36
8.178721206993988,61,51,0,2,0,36
8.289573451434899,59,53,0,2,0,36
8.428205414562518,57,55,0,2,0,36
8.613046954245759,56,56,0,2,0,36
8.865662110042587,55,57,0,2,0,36
9.21698644963525,53,59,0,2,0,36
9.42243417229132,52,60,0,2,0,36
9.526262588378172,51,61,0,2,0,36
10.007520067164597,50,62,0,2,0,36
10.3812105940138,49,63,0,2,0,36
10.75549825606478,48,64,0,2,0,36
11.182013673630276,47,65,0,2,0,36
11.36232304607431,46,66,0,2,0,36
12.397183284629909,45,67,0,2,0,36
13.292485111281154,44,68,0,2,0,36
13.769273133429886,43,69,0,2,0,36
14.221007798585159,42,70,0,2,0,36
15.006348925761865,40,72,0,2,0,36
15.311039887131551,39,73,0,2,0,36
16.425876662031552,38,74,0,2,0,36
17.867611345479574,35,77,0,2,0,36
18.162438865086223,34,78,0,2,0,36
19.051007408657284,33,79,0,2,0,36
20.216030506368167,32,80,0,2,0,36
21.00294981089286,31,81,0,2,0,36
21.409534218027726,30,82,0,2,0,36
24.075969954236385,29,83,0,2,0,36
24.655820663201716,28,84,0,2,0,36
24.860177203933322,27,85,0,2,0,36
25.100778100632738,25,87,0,2,0,36
25.807139632129754,23,89,0,2,0,36
26.108634552570287,22,90,0,2,0,36
26.86959934578782,21,91,0,2,0,36
27.033632782216618,20,92,0,2,0,36
28.51711338776972,19,93,0,2,0,36
34.40022680001128,18,94,0,2,0,36
34.654213631860095,17,95,0,2,0,36
35.4747540603112,16,96,0,2,0,36
36.359439073148444,15,97,0,2,0,36
36.58916127913028,14,98,0,2,0,36
38.55094933994462,13,99,0,2,0,36
38.780056478522326,12,100,0,2,0,36
40.036540603526696,11,101,0,2,0,36
40.35060777463285,10,102,0,2,0,36
41.5599255338613,9,103,0,2,0,36
43.340045856436994,8,104,0,2,0,36
44.742750825270974,7,105,0,2,0,36
45.10741195310322,5,107,0,2,0,36
54.64156316347751,4,108,0,2,0,36
66.87486635969736,3,109,0,2,0,36
75.90313096092346,2,110,0,2,0,36
95.75982209063218,1,111,0,2,0,36
138.98385412541057,0,112,0,2,0,36
