#Time,A,B,C,D,E,F
0,210,97,43,30,24,43
0.10194944728018998,198,109,39,34,14,53
0.20359387915036084,184,123,34,39,5,62
0.3079122763509459,169,138,30,43,2,65
0.41277033280762815,155,152,25,48,0,67
0.5158961817252047,142,165,22,51,0,67
0.6234202772410661,128,179,22,51,0,67
0.7263580131515383,114,193,18,55,0,67
0.8400897730753073,102,205,16,57,0,67
0.9469584430304625,90,217,16,57,0,67
1.0519555734437926,81,226,12,61,0,67
1.1533887804811562,75,232,10,63,0,67
1.269068953472042,64,243,8,65,0,67
1.3735945074531595,55,252,7,66,0,67
1.5138999390669567,46,261,7,66,0,67
1.6252387777049302,44,263,4,69,0,67
1.7383916738059129,36,271,2,71,0,67
1.8385014169598959,32,275,2,71,0,67
1.946600300501372,27,280,2,71,0,67
2.0998668367706927,25,282,2,71,0,67
2.255720473069381,22,285,2,71,0,67
2.38792829849044,17,290,2,71,0,67
2.581585819645014,13,294,2,71,0,67
2.6987883645480815,9,298,2,71,0,67
2.8431312551345167,7,300,2,71,0,67
2.945614873517049,6,301,2,71,0,67
3.162060341389463,4,303,2,71,0,67
3.518056191752215,3,304,1,72,0,67
3.7060002516061656,2,305,1,72,0,67
3.868987187298822,1,306,1,72,0,67
4.2471357089707915,1,306,0,73,0,67
4.5806290705605495,0,307,0,73,0,67
100,0,307,0,73,0,67
