#Time,A,B,C,D,E,F
0,32,109,228,27,0,0
0.11861167699266745,32,109,201,54,0,0
0.2213619992410864,30,111,180,75,0,0
0.32412166788242897,18,123,160,95,0,0
0.43127806705464056,15,126,142,113,0,0
0.5319790445627348,12,129,126,129,0,0
0.649810000762122,9,132,116,139,0,0
0.7524700061466623,4,137,104,151,0,0
0.8639529631887914,3,138,97,158,0,0
0.9721089621866326,3,138,81,174,0,0
1.0774305882970758,3,138,69,186,0,0
1.181130784975673,2,139,62,193,0,0
1.3139031762952,2,139,56,199,0,0
1.4170577398524467,1,140,45,210,0,0
1.5399100918192152,0,141,39,216,0,0
1.6403304568929358,0,141,29,226,0,0
1.9194155327892857,0,141,27,228,0,0
2.0826992262115347,0,141,22,233,0,0
2.2235378541552504,0,141,18,237,0,0
2.324256974474732,0,141,16,239,0,0
2.5041622882462584,0,141,14,241,0,0
2.754745046968343,0,141,13,242,0,0
2.8591736007670465,0,141,11,244,0,0
2.9897160572604937,0,141,10,245,0,0
3.639651148591945,0,141,8,247,0,0
3.897869787488882,0,141,6,249,0,0
4.084534060700022,0,141,4,251,0,0
4.26542353463384,0,141,3,252,0,0
4.616769058327424,0,141,2,253,0,0
5.273096515788396,0,141,1,254,0,0
6.019983809224386,0,141,0,255,0,0
100,0,141,0,255,0,0
