#Time,A,B,C,D,E,F
0,91,36,0,0,209,0
0.10227775525349582,91,36,0,0,160,49
0.20354819353883227,91,36,0,0,113,96
0.3055286628337829,91,36,0,0,77,132
0.4122545492761338,91,36,0,0,65,144
0.5204515909407232,91,36,0,0,52,157
0.6235598316323895,91,36,0,0,40,169
0.7310091004863353,91,36,0,0,32,177
0.8404637160879679,91,36,0,0,22,187
0.9677718778568182,91,36,0,0,9,200
1.1134998307463275,91,36,0,0,7,202
1.3310877219084363,91,36,0,0,4,205
1.4979559969444156,91,36,0,0,1,208
1.708279786702066,91,36,0,0,0,209
100,91,36,0,0,0,209
