#Time,A,B,C,D,E,F
0,29,31,5,34,9,30
0.11777907412674131,25,35,5,34,7,32
0.269824067694991,22,38,4,35,6,33
0.372547745558193,21,39,3,36,4,35
0.511859923004256,19,41,3,36,2,37
0.7102632402236523,19,41,3,36,0,39
0.8933528149554743,18,42,3,36,0,39
1.1305751192114113,18,42,1,38,0,39
1.477978281556053,17,43,1,38,0,39
1.5842096790753157,15,45,1,38,0,39
1.7164764708061981,14,46,1,38,0,39
1.8789480053563945,13,47,1,38,0,39
2.021823094255744,10,50,1,38,0,39
2.1225165059708555,9,51,1,38,0,39
2.2481303122993874,8,52,1,38,0,39
2.8210873576227433,7,53,1,38,0,39
3.037950075124081,6,54,1,38,0,39
3.139737452616401,5,55,1,38,0,39
3.331556470244493,5,55,0,39,0,39
3.6892594893473185,4,56,0,39,0,39
4.014345752985698,3,57,0,39,0,39
4.506713369885363,1,59,0,39,0,39
4.8587025348870245,0,60,0,39,0,39
100,0,60,0,39,0,39
