#Time,A,B,C,D,E,F
0,205,93,122,0,0,153
0.10074933824422466,202,96,108,14,0,153
0.20340453476094747,192,106,96,26,0,153
0.3070264683807735,178,120,86,36,0,153
0.40957807177854905,165,133,73,49,0,153
0.5155327046449777,150,148,62,60,0,153
0.6208760634484743,125,173,58,64,0,153
0.7209934630055872,105,193,52,70,0,153
0.8256829519959209,92,206,49,73,0,153
0.9446729795084493,79,219,45,77,0,153
1.0461444735439873,71,227,41,81,0,153
1.1502516606128255,57,241,39,83,0,153
1.252197766513127,49,249,35,87,0,153
1.3536346098701786,42,256,32,90,0,153
1.4590003000203122,35,263,32,90,0,153
1.6228496045447192,26,272,27,95,0,153
1.723965838650895,22,276,23,99,0,153
1.8298616588993608,19,279,20,102,0,153
1.9353810842855965,15,283,18,104,0,153
2.071020541751177,13,285,16,106,0,153
2.173294335447327,10,288,14,108,0,153
2.2954646696883754,9,289,12,110,0,153
2.4216188289844895,7,291,9,113,0,153
2.707507682434269,6,292,9,113,0,153
2.8252732588512317,6,292,8,114,0,153
2.9641578174498173,3,295,6,116,0,153
3.119487868167242,0,298,5,117,0,153
3.504801011793346,0,298,4,118,0,153
3.980349565749208,0,298,3,119,0,153
4.1859348769939135,0,298,1,121,0,153
100,0,298,0,122,0,153
