#Time,A,B,C,D,E,F
0,88,158,233,8,0,173
0.10158438896761002,87,159,212,29,0,173
0.2036988506257078,80,166,191,50,0,173
0.3094097811248805,74,172,172,69,0,173
0.41314350317643417,65,181,154,87,0,173
0.5136585464776628,51,195,142,99,0,173
0.6156013801173552,42,204,131,110,0,173
0.7212817309161385,37,209,121,120,0,173
0.8248137610385265,27,219,108,133,0,173
0.9309265177418699,19,227,94,147,0,173
1.039794824806827,12,234,89,152,0,173
1.1632520105017081,7,239,82,159,0,173
1.271347071502308,5,241,74,167,0,173
1.4088087591828258,3,243,69,172,0,173
1.5347759815183548,1,245,65,176,0,173
1.6563952203312728,1,245,61,180,0,173
1.7696808625698803,0,246,57,184,0,173
1.9398821831126587,0,246,48,193,0,173
2.0816296665353726,0,246,42,199,0,173
2.1915974598464785,0,246,33,208,0,173
2.318207002860536,0,246,27,214,0,173
2.425158369509485,0,246,22,219,0,173
2.5415981827279164,0,246,18,223,0,173
2.646735335459019,0,246,14,227,0,173
2.855135768791428,0,246,12,229,0,173
2.9588158205301474,0,246,10,231,0,173
3.2328754465395466,0,246,5,236,0,173
3.3536424583638724,0,246,4,237,0,173
3.55350583175065,0,246,3,238,0,173
3.7773773441722303,0,246,2,239,0,173
4.267026301265058,0,246,0,241,0,173
100,0,246,0,241,0,173
