#Time,A,B,C,D,E,F
0,12,16,47,0,92,122
0.10492418304762592,12,16,39,8,67,147
0.21437119881149902,11,17,34,13,51,163
0.31876393834869243,9,19,33,14,38,176
0.43595951475184336,9,19,32,15,23,191
0.5381190365819003,9,19,29,18,19,195
0.6387197942913626,7,21,26,21,13,201
0.7714453144664827,7,21,24,23,8,206
0.9198739087582318,7,21,20,27,3,211
1.0284076503324695,7,21,18,29,2,212
1.1382230764342038,7,21,16,31,1,213
1.3505417997305682,7,21,14,33,0,214
1.5272825556353846,7,21,13,34,0,214
1.6460086728034697,6,22,11,36,0,214
1.7610539082769014,6,22,10,37,0,214
1.9111997241529861,5,23,7,40,0,214
2.0380818379387637,5,23,5,42,0,214
2.1429231941551503,3,25,4,43,0,214
2.2966700188198965,1,27,4,43,0,214
2.534527055270943,1,27,3,44,0,214
2.6348416927173757,1,27,2,45,0,214
2.9664223002520917,1,27,1,46,0,214
3.138826054548745,0,28,1,46,0,214
3.8835888980925466,0,28,0,47,0,214
100,0,28,0,47,0,214
