#Time,A,B,C,D,E,F
0,42,33,0,11,25,176
0.1151243118441215,42,33,0,11,22,179
0.23337758026315056,41,34,0,11,15,186
0.34870175472849396,41,34,0,11,13,188
0.4626716314246079,40,35,0,11,9,192
0.8119768116649776,38,37,0,11,6,195
1.0457045441810737,37,38,0,11,4,197
1.1648557478316712,37,38,0,11,0,201
1.318834969587474,36,39,0,11,0,201
1.6001757489533828,34,41,0,11,0,201
1.9878379889658977,32,43,0,11,0,201
2.090525155043399,30,45,0,11,0,201
2.3644487228779365,27,48,0,11,0,201
2.588679796849107,25,50,0,11,0,201
2.77178425342637,23,52,0,11,0,201
3.276841165545684,22,53,0,11,0,201
3.5006065779805557,19,56,0,11,0,201
3.825828994973755,17,58,0,11,0,201
4.0687099058496825,15,60,0,11,0,201
4.463978848707461,14,61,0,11,0,201
4.771648342719406,13,62,0,11,0,201
5.154268086321391,12,63,0,11,0,201
5.669112621880223,10,65,0,11,0,201
7.940988787627207,7,68,0,11,0,201
10.565884377225922,6,69,0,11,0,201
11.096480426681879,5,70,0,11,0,201
11.733879671852982,4,71,0,11,0,201
15.34647033101149,3,72,0,11,0,201
18.396130934971296,1,74,0,11,0,201
20.254803408144642,0,75,0,11,0,201
100,0,75,0,11,0,201
