#Time,A,B,C,D,E,F
0,83,29,0,2,36,0
0.10711855701611196,83,29,0,2,27,9
0.2531026484560061,83,29,0,2,20,16
0.353621994422312,83,29,0,2,13,23
0.4807268856721283,82,30,0,2,12,24
0.5856942373904479,82,30,0,2,8,28
0.7310448789474544,82,30,0,2,6,30
0.9039036993177361,80,32,0,2,4,32
1.0040053646268146,80,32,0,2,3,33
1.1241814119286158,79,33,0,2,1,35
1.5298593356514363,78,34,0,2,0,36
1.7301971579061668,76,36,0,2,0,36
2.761755327150576,75,37,0,2,0,36
3.203772154210419,74,38,0,2,0,36
3.474482168167759,73,39,0,2,0,36
3.8085176379080723,72,40,0,2,0,36
4.157267085464727,71,41,0,2,0,36
4.310940100112772,69,43,0,2,0,36
4.4958750155822305,68,44,0,2,0,36
4.738522219447077,67,45,0,2,0,36
4.8924540858997,66,46,0,2,0,36
5.677075806614633,65,47,0,2,0,36
5.828407795434287,64,48,0,2,0,36
6.000591985080845,63,49,0,2,0,36
6.164483257482693,62,50,0,2,0,36
6.961091074836464,61,51,0,2,0,36
7.191229249428169,60,52,0,2,0,36
7.693885895670545,59,53,0,2,0,36
8.286423885921758,58,54,0,2,0,36
8.54286037825081,57,55,0,2,0,36
8.787586530994512,56,56,0,2,0,36
9.09434717020424,54,58,0,2,0,36
9.605400901610064,53,59,0,2,0,36
10.473072511317872,52,60,0,2,0,36
10.972673336521535,51,61,0,2,0,36
11.184582046422674,50,62,0,2,0,36
11.286139195977618,49,63,0,2,0,36
11.83789215171825,48,64,0,2,0,36
12.264918804067028,46,66,0,2,0,36
13.377232579992416,45,67,0,2,0,36
14.04836066281233,44,68,0,2,0,36
14.226781818968572,43,69,0,2,0,36
14.897114481491974,42,70,0,2,0,36
15.636082336890743,41,71,0,2,0,36
15.745928321861477,40,72,0,2,0,36
16.195814591739985,39,73,0,2,0,36
16.597489002693656,38,74,0,2,0,36
16.929461711431728,37,75,0,2,0,36
17.698305726669982,36,76,0,2,0,36
19.580451753475266,35,77,0,2,0,36
20.925695083341697,34,78,0,2,0,36
21.335051384344013,33,79,0,2,0,36
22.91557462293781,32,80,0,2,0,36
23.740293966299962,31,81,0,2,0,36
24.62344916395737,30,82,0,2,0,36
25.237644926882407,28,84,0,2,0,36
25.559111271460225,27,85,0,2,0,36
27.773301350220407,26,86,0,2,0,36
28.02097562587221,25,87,0,2,0,36
28.991300250021922,23,89,0,2,0,36
29.787520841226264,22,90,0,2,0,36
31.0729559825836,21,91,0,2,0,36
32.807608266221685,20,92,0,2,0,36
33.15529722066227,19,93,0,2,0,36
34.31377492979326,18,94,0,2,0,36
34.85592959135339,17,95,0,2,0,36
35.51206253557833,16,96,0,2,0,36
39.038099237249156,15,97,0,2,0,36
39.675638812620065,14,98,0,2,0,36
40.99667700019048,13,99,0,2,0,36
45.000607535545,12,100,0,2,0,36
45.239068989652544,11,101,0,2,0,36
56.451174605421635,10,102,0,2,0,36
58.48646439628466,8,104,0,2,0,36
63.476729305555686,7,105,0,2,0,36
65.14959272888726,6,106,0,2,0,36
65.9844767102475,5,107,0,2,0,36
71.29990010991125,4,108,0,2,0,36
71.50786909163207,3,109,0,2,0,36
77.11814365126585,2,110,0,2,0,36
91.90312785294961,1,111,0,2,0,36
92.75985933759446,0,112,0,2,0,36
100,0,112,0,2,0,36
