#Time,A,B,C,D,E,F
0,0,69,11,83,0,245
0.13704808700407084,0,69,8,86,0,245
0.4194494263216566,0,69,5,89,0,245
1.1326647504494634,0,69,2,92,0,245
2.370342718248041,0,69,1,93,0,245
3.647226380602972,0,69,0,94,0,245
100,0,69,0,94,0,245
