#Time,A,B,C,D,E,F
0,60,32,21,139,19,8
0.10155026609720096,46,46,17,143,14,13
0.20878422839943592,38,54,16,144,12,15
0.3104152997620433,25,67,13,147,7,20
0.4269303146814761,19,73,11,149,5,22
0.5292872997131296,13,79,11,149,5,22
0.6892499220683469,9,83,10,150,3,24
0.823793124094191,7,85,9,151,2,25
0.9328284924239805,6,86,7,153,1,26
1.0498703422601943,6,86,6,154,1,26
1.2629340608393753,4,88,5,155,1,26
1.411776603008558,2,90,4,156,1,26
1.7188285403804602,1,91,4,156,1,26
1.848624948181741,0,92,3,157,1,26
1.9771989568417432,0,92,2,158,0,27
2.9525896842484274,0,92,1,159,0,27
100,0,92,0,160,0,27
