#Time,A,B,C,D,E,F
0,185,29,36,19,105,6
0.10064427635282794,170,44,33,22,79,32
0.2022056009861232,162,52,31,24,61,50
0.30386574146022405,157,57,28,27,40,71
0.406675755600459,147,67,27,28,29,82
0.5093916530830142,143,71,24,31,23,88
0.6119564768430534,139,75,23,32,18,93
0.7132206202129657,133,81,21,34,11,100
0.8268413114236483,123,91,21,34,6,105
0.9271895762211717,116,98,17,38,3,108
1.0272209561494956,110,104,16,39,2,109
1.152968434333323,99,115,12,43,2,109
1.2540712546374313,88,126,10,45,2,109
1.3566467977951346,80,134,8,47,0,111
1.4757196416435614,65,149,8,47,0,111
1.5855156530648564,60,154,8,47,0,111
1.7219239983518684,53,161,8,47,0,111
1.8234923939788044,49,165,8,47,0,111
1.955036466923941,45,169,7,48,0,111
2.0629475761408433,39,175,5,50,0,111
2.172079084862624,37,177,4,51,0,111
2.340967431192935,34,180,3,52,0,111
2.4644139618233174,30,184,2,53,0,111
2.64372263289872,25,189,2,53,0,111
2.7780627649621925,19,195,1,54,0,111
2.884266761406215,14,200,1,54,0,111
3.0141567209904863,13,201,1,54,0,111
3.118749152311918,11,203,1,54,0,111
3.3145918379236594,10,204,1,54,0,111
3.4522477018479583,9,205,1,54,0,111
3.8996825328276015,8,206,1,54,0,111
4.26250766436877,7,207,1,54,0,111
4.426357171780189,4,210,1,54,0,111
4.589602323116062,2,212,1,54,0,111
4.882529057956475,1,213,1,54,0,111
5.464045613537505,1,213,0,55,0,111
8.429820076942713,0,214,0,55,0,111
100,0,214,0,55,0,111
