#Time,A,B,C,D,E,F
0,0,55,303,24,0,62
0.10356108556974021,0,55,269,58,0,62
0.2038188968232355,0,55,245,82,0,62
0.3069313541720711,0,55,225,102,0,62
0.4076581290573349,0,55,194,133,0,62
0.5126174487239678,0,55,179,148,0,62
0.6143917491085494,0,55,154,173,0,62
0.7193268915332555,0,55,144,183,0,62
0.8578053435318014,0,55,132,195,0,62
0.971570635851979,0,55,117,210,0,62
1.101552460889809,0,55,111,216,0,62
1.2015803212758736,0,55,102,225,0,62
1.3321282215485086,0,55,89,238,0,62
1.4333034890136294,0,55,80,247,0,62
1.5481666129147509,0,55,73,254,0,62
1.6646078337536525,0,55,59,268,0,62
1.784931483944881,0,55,55,272,0,62
1.8874120279333015,0,55,50,277,0,62
2.005813235459174,0,55,46,281,0,62
2.1199124347942004,0,55,40,287,0,62
2.2614204783478344,0,55,33,294,0,62
2.3807994013240488,0,55,30,297,0,62
2.50236386707607,0,55,28,299,0,62
2.6034336544442542,0,55,24,303,0,62
2.7045567040146787,0,55,19,308,0,62
2.806376093786384,0,55,18,309,0,62
3.219466457005369,0,55,15,312,0,62
3.3977846312100404,0,55,13,314,0,62
3.600775325772484,0,55,10,317,0,62
3.7600770095895846,0,55,7,320,0,62
4.134825207721633,0,55,6,321,0,62
4.297704025307788,0,55,4,323,0,62
4.41032201647782,0,55,3,324,0,62
5.763072299537377,0,55,1,326,0,62
10.244914954289403,0,55,0,327,0,62
100,0,55,0,327,0,62
