#Time,A,B,C,D,E,F
0,17,50,44,161,385,0
0.10067800380729663,14,53,38,167,297,88
0.20145970500233545,9,58,35,170,224,161
0.30240652108656046,4,63,28,177,152,233
0.4027657785688388,2,65,27,178,116,269
0.5070466986733428,2,65,23,182,88,297
0.6081607564549999,1,66,21,184,69,316
0.7101677419713207,1,66,17,188,52,333
0.8137531728966224,1,66,14,191,38,347
0.9157976270987721,0,67,13,192,30,355
1.0232679917045473,0,67,13,192,17,368
1.1272120067797058,0,67,11,194,14,371
1.2449981135245647,0,67,10,195,9,376
1.4815129810505032,0,67,6,199,6,379
1.5882774942448397,0,67,4,201,4,381
1.6967536887724985,0,67,3,202,3,382
1.812107506372259,0,67,2,203,2,383
2.4322599414759316,0,67,2,203,1,384
2.55935755198556,0,67,1,204,1,384
2.860078369856126,0,67,1,204,0,385
3.2946689164096563,0,67,0,205,0,385
100,0,67,0,205,0,385
