#Time,A,B,C,D,E,F
0,313,27,43,59,34,0
0.10107529716498463,271,69,40,62,27,7
0.2019228703833234,245,95,36,66,24,10
0.30622635732500575,209,131,33,69,20,14
0.408390422848812,178,162,29,73,17,17
0.5085509012287991,151,189,25,77,12,22
0.6106335130558881,125,215,24,78,10,24
0.7150451834000047,98,242,16,86,6,28
0.8174719731318478,82,258,15,87,3,31
0.9193478192473663,67,273,14,88,2,32
1.0235389077775248,56,284,14,88,2,32
1.1359272196704693,46,294,11,91,1,33
1.2558022105069147,39,301,9,93,1,33
1.3809529921963934,27,313,8,94,1,33
1.5261903353261523,21,319,7,95,1,33
1.6396899122539699,17,323,6,96,0,34
1.7766630463729567,13,327,5,97,0,34
1.9455311048343433,10,330,4,98,0,34
2.1578240485853586,8,332,4,98,0,34
2.3779938994229246,6,334,4,98,0,34
2.585712204037419,4,336,4,98,0,34
2.7628023912441018,3,337,4,98,0,34
3.1042967176482503,2,338,2,100,0,34
3.316200025477511,1,339,2,100,0,34
3.528293970009974,0,340,1,101,0,34
3.8586548822852293,0,340,0,102,0,34
100,0,340,0,102,0,34
