#Time,A,B,C,D,E,F
0,0,44,104,0,0,285
0.15596812240860916,0,44,98,6,0,285
0.26298583919797036,0,44,84,20,0,285
0.38103331620096803,0,44,74,30,0,285
0.49389096116670206,0,44,62,42,0,285
0.5977355217611943,0,44,53,51,0,285
0.7245492257364384,0,44,48,56,0,285
0.8623397716620074,0,44,45,59,0,285
0.9829814573018634,0,44,39,65,0,285
1.1547348320884046,0,44,35,69,0,285
1.275314179837273,0,44,31,73,0,285
1.4305224253397828,0,44,28,76,0,285
1.5363445957643551,0,44,25,79,0,285
1.643826310463218,0,44,22,82,0,285
1.8142808761954616,0,44,16,88,0,285
1.9288441160246304,0,44,15,89,0,285
2.0422979969780446,0,44,13,91,0,285
2.1743604317937346,0,44,12,92,0,285
2.3422573885063733,0,44,10,94,0,285
2.4956198989763956,0,44,9,95,0,285
2.864124513857079,0,44,8,96,0,285
3.111527811792783,0,44,7,97,0,285
3.3210586058693634,0,44,5,99,0,285
3.5669344426782956,0,44,3,101,0,285
3.848367632786084,0,44,2,102,0,285
4.270498480290372,0,44,1,103,0,285
6.063424432488831,0,44,0,104,0,285
100,0,44,0,104,0,285
