#Time,A,B,C,D,E,F
0,275,0,227,0,15,4
0.10348563761236419,267,8,207,20,8,11
0.20640984807595625,253,22,193,34,5,14
0.307702477377504,231,44,170,57,4,15
0.41056628171896964,190,85,151,76,2,17
0.5108352719335026,160,115,142,85,1,18
0.6113254794757854,138,137,129,98,0,19
0.7139316335413487,110,165,117,110,0,19
0.8149735788301413,81,194,109,118,0,19
0.9188292033523634,65,210,105,122,0,19
1.019807250305084,45,230,99,128,0,19
1.1257396687920895,36,239,89,138,0,19
1.2386424461540475,23,252,81,146,0,19
1.3464741663644808,18,257,72,155,0,19
1.4511247729148093,13,262,65,162,0,19
1.5661220945583214,9,266,58,169,0,19
1.6710981253540174,7,268,52,175,0,19
1.8017496705342486,5,270,44,183,0,19
1.908841002925543,3,272,40,187,0,19
2.09343167145719,2,273,35,192,0,19
2.2635333576625034,1,274,29,198,0,19
2.426065242949907,1,274,23,204,0,19
2.571653558953525,0,275,20,207,0,19
2.711515450864999,0,275,19,208,0,19
2.826846428236624,0,275,15,212,0,19
2.937549563094952,0,275,13,214,0,19
3.0517818994397605,0,275,12,215,0,19
3.2050175084198442,0,275,11,216,0,19
3.394892108218956,0,275,10,217,0,19
3.5728688735858998,0,275,9,218,0,19
3.681314615162376,0,275,6,221,0,19
3.8496962808387045,0,275,5,222,0,19
4.089395726994068,0,275,4,223,0,19
4.9503421713560085,0,275,3,224,0,19
5.05609593175497,0,275,2,225,0,19
5.326338471273388,0,275,1,226,0,19
6.5409055845720285,0,275,0,227,0,19
100,0,275,0,227,0,19
