#Time,A,B,C,D,E,F
0,67,0,0,31,164,0
0.10156082502667363,61,6,0,31,115,49
0.2021325404678554,58,9,0,31,86,78
0.30458037114652403,54,13,0,31,62,102
0.4069213629253666,50,17,0,31,46,118
0.5235112203732074,46,21,0,31,25,139
0.63645530212727,43,24,0,31,21,143
0.7383090132254271,39,28,0,31,12,152
0.8695178166794107,35,32,0,31,7,157
0.9730870499407356,31,36,0,31,4,160
1.112947579413249,26,41,0,31,1,163
1.2163362855475466,23,44,0,31,0,164
1.4722066688408821,21,46,0,31,0,164
1.6444485719972484,19,48,0,31,0,164
1.887323453044543,17,50,0,31,0,164
1.9956053579273973,16,51,0,31,0,164
2.117245743725053,14,53,0,31,0,164
2.385815892596451,9,58,0,31,0,164
2.884194877812021,7,60,0,31,0,164
3.194356780332927,5,62,0,31,0,164
3.9255669650105105,4,63,0,31,0,164
4.087876612100526,3,64,0,31,0,164
4.400854595428866,2,65,0,31,0,164
7.028422917705772,1,66,0,31,0,164
7.308283611264263,0,67,0,31,0,164
100,0,67,0,31,0,164
