#Time,A,B,C,D,E,F
0,313,27,43,59,34,0
0.10334986755138754,276,64,39,63,24,10
0.2045102733576926,240,100,35,67,16,18
0.3060354287193565,209,131,35,67,11,23
0.4127872874524349,175,165,31,71,9,25
0.5172501047817192,151,189,28,74,7,27
0.617973494394592,127,213,25,77,5,29
0.7213988974992649,108,232,22,80,4,30
0.8216138965685044,98,242,21,81,3,31
0.9248348916572837,82,258,20,82,2,32
1.0267480937039273,72,268,19,83,1,33
1.1392680340204444,57,283,17,85,1,33
1.2417173697798929,49,291,15,87,0,34
1.3747172151333178,44,296,14,88,0,34
1.4749363844367351,33,307,13,89,0,34
1.5797748850419047,28,312,10,92,0,34
1.7188081055187217,22,318,7,95,0,34
1.8260741964556622,18,322,6,96,0,34
1.9579252834385215,13,327,4,98,0,34
2.0670766492993184,9,331,4,98,0,34
2.178996541154436,6,334,4,98,0,34
2.3293624499250507,5,335,3,99,0,34
2.456169709024364,2,338,3,99,0,34
2.864077130308843,1,339,2,100,0,34
3.5851621714161617,0,340,1,101,0,34
4.873656740146303,0,340,0,102,0,34
100,0,340,0,102,0,34
