#Time,A,B,C,D,E,F
0,0,16,0,0,54,130
0.11453591963997825,0,16,0,0,40,144
0.21935316950289516,0,16,0,0,31,153
0.33025083593919585,0,16,0,0,19,165
0.46200896684962944,0,16,0,0,14,170
0.6016127632044108,0,16,0,0,7,177
0.7958801466394703,0,16,0,0,4,180
0.9118938355935102,0,16,0,0,2,182
1.149190383835771,0,16,0,0,1,183
1.4352191360803812,0,16,0,0,0,184
100,0,16,0,0,0,184
