#Time,A,B,C,D,E,F
0,157,483,143,126,41,130
0.10009375815414616,123,517,130,139,35,136
0.20066413549032128,91,549,113,156,26,145
0.30087125841772444,62,578,100,169,23,148
0.40635868872388625,49,591,91,178,16,155
0.513453937334136,31,609,84,185,13,158
0.6150139077220246,20,620,75,194,10,161
0.7156076365071652,13,627,63,206,5,166
0.8178591109082753,10,630,54,215,4,167
0.9192484883615453,9,631,46,223,3,168
1.0285845014985902,5,635,40,229,2,169
1.1290670126970854,4,636,36,233,1,170
1.2641071235680508,1,639,31,238,1,170
1.3675873571827604,1,639,29,240,1,170
1.4679826272899563,1,639,23,246,1,170
1.5910606886078176,1,639,22,247,0,171
1.8417780281905414,0,640,19,250,0,171
2.007988969700268,0,640,16,253,0,171
2.2439290710149407,0,640,12,257,0,171
2.371533786103099,0,640,10,259,0,171
2.6295697504415063,0,640,9,260,0,171
2.771802626640767,0,640,6,263,0,171
3.083390953699693,0,640,4,265,0,171
3.3873158408803397,0,640,3,266,0,171
3.93774828724976,0,640,2,267,0,171
4.620250729490161,0,640,1,268,0,171
100,0,640,0,269,0,171
