#Time,A,B,C,D,E,F
0,205,93,122,0,0,153
0.11507211215950697,204,94,112,10,0,153
0.2158026123308527,195,103,101,21,0,153
0.3227367372372551,183,115,86,36,0,153
0.4315860195364385,171,127,81,41,0,153
0.5365797732922978,155,143,70,52,0,153
0.6371233132124698,134,164,64,58,0,153
0.7526180021966342,118,180,60,62,0,153
0.8541064798639735,110,188,51,71,0,153
0.963008753665475,89,209,48,74,0,153
1.06376979787506,83,215,46,76,0,153
1.166276492983335,71,227,43,79,0,153
1.2752442809193394,54,244,39,83,0,153
1.379419527668284,46,252,39,83,0,153
1.4827167239290477,40,258,33,89,0,153
1.5925838427639052,35,263,29,93,0,153
1.7153906970318171,30,268,26,96,0,153
1.8380965286679456,23,275,21,101,0,153
1.9551486680224583,18,280,19,103,0,153
2.071878597845677,14,284,16,106,0,153
2.172625883944671,9,289,16,106,0,153
2.306725831255661,8,290,14,108,0,153
2.450030566733937,5,293,13,109,0,153
2.6092913183883284,4,294,12,110,0,153
2.9197097639128624,3,295,12,110,0,153
3.042787677784652,2,296,10,112,0,153
3.149846554540932,1,297,9,113,0,153
3.515063225651313,1,297,8,114,0,153
3.6176408427446636,0,298,6,116,0,153
3.86206798558391,0,298,5,117,0,153
4.1895781709707505,0,298,3,119,0,153
4.994489964193205,0,298,1,121,0,153
100,0,298,0,122,0,153
