#Time,A,B,C,D,E,F
0,0,69,11,83,0,245
0.11882966028211371,0,69,10,84,0,245
0.23623105262361288,0,69,9,85,0,245
0.4043037462390495,0,69,7,87,0,245
0.5309869012503563,0,69,5,89,0,245
0.8154230073375286,0,69,4,90,0,245
0.9622194785706646,0,69,3,91,0,245
1.3649787509325308,0,69,2,92,0,245
2.6883384784408983,0,69,1,93,0,245
3.060844025212925,0,69,0,94,0,245
100,0,69,0,94,0,245
