#Time,A,B,C,D,E,F
0,9,0,61,95,0,64
0.10470514014502622,8,1,55,101,0,64
0.2337045470107045,7,2,50,106,0,64
0.34202607071933766,6,3,41,115,0,64
0.4586788989755517,4,5,40,116,0,64
0.5595036564103044,1,8,36,120,0,64
0.6730260491142954,1,8,32,124,0,64
0.7734094446543934,1,8,28,128,0,64
1.1483172558541284,1,8,21,135,0,64
1.387594030593027,0,9,16,140,0,64
1.6074669986232741,0,9,10,146,0,64
1.7556406551687054,0,9,7,149,0,64
2.155493967279459,0,9,6,150,0,64
2.817244789715389,0,9,5,151,0,64
2.9697706073728853,0,9,4,152,0,64
3.1462154966093263,0,9,3,153,0,64
3.6761001105224835,0,9,2,154,0,64
4.290581249577271,0,9,1,155,0,64
5.14353538340862,0,9,0,156,0,64
100,0,9,0,156,0,64
