#Time,A,B,C,D,E,F
0,0,0,194,0,8,10
0.10278335126351888,0,0,180,14,6,12
0.21112294641229434,0,0,161,33,5,13
0.3155923268425689,0,0,139,55,3,15
0.42254723858880694,0,0,124,70,2,16
0.5297850525991317,0,0,113,81,1,17
0.6387163617097658,0,0,100,94,1,17
0.73888886542676,0,0,91,103,1,17
0.8402643367996573,0,0,77,117,1,17
0.9598846108241121,0,0,71,123,1,17
1.0707308093494534,0,0,64,130,1,17
1.1832035701290944,0,0,51,143,1,17
1.2871021065071115,0,0,46,148,0,18
1.4003050303434652,0,0,37,157,0,18
1.511160708351864,0,0,32,162,0,18
1.7695600706037269,0,0,27,167,0,18
1.881379048579003,0,0,25,169,0,18
1.9967619074936052,0,0,22,172,0,18
2.0990145348517935,0,0,19,175,0,18
2.232041365032044,0,0,13,181,0,18
2.4418118264671733,0,0,12,182,0,18
2.601703969229741,0,0,11,183,0,18
2.8158440185400906,0,0,9,185,0,18
2.963127448560131,0,0,8,186,0,18
3.0636147999537977,0,0,7,187,0,18
3.4926694839033416,0,0,6,188,0,18
3.8894061584515787,0,0,5,189,0,18
4.423427572809791,0,0,4,190,0,18
4.5947337019050645,0,0,3,191,0,18
5.311466402548711,0,0,2,192,0,18
5.70301205344358,0,0,1,193,0,18
6.3103012704117365,0,0,0,194,0,18
100,0,0,0,194,0,18
