#Time,A,B,C,D,E,F
0,0,0,313,7,48,2
0.10070613936914304,0,0,275,45,36,14
0.2017668528549214,0,0,250,70,24,26
0.3033333736079265,0,0,224,96,16,34
0.41178968745953626,0,0,200,120,9,41
0.5156326738901995,0,0,178,142,7,43
0.618443807826912,0,0,160,160,4,46
0.72283082068274,0,0,146,174,3,47
0.8479895789767723,0,0,131,189,3,47
0.9516005666474872,0,0,119,201,2,48
1.0520754141349915,0,0,109,211,1,49
1.167486021606402,0,0,95,225,1,49
1.2751976349587713,0,0,83,237,1,49
1.3892996906422759,0,0,70,250,1,49
1.5306392395950787,0,0,63,257,1,49
1.6662939512122108,0,0,54,266,1,49
1.7851531176239503,0,0,50,270,0,50
1.9134639842254861,0,0,47,273,0,50
2.0360840447802344,0,0,38,282,0,50
2.138851424998777,0,0,33,287,0,50
2.2750380076503287,0,0,28,292,0,50
2.511967659686513,0,0,25,295,0,50
2.612584145353668,0,0,23,297,0,50
2.7192678130309234,0,0,20,300,0,50
2.9003799447158065,0,0,18,302,0,50
3.0339363116887985,0,0,16,304,0,50
3.2998480346568893,0,0,14,306,0,50
3.4362149049363886,0,0,12,308,0,50
3.9173054068426088,0,0,9,311,0,50
4.051491681503743,0,0,8,312,0,50
4.252219965338097,0,0,7,313,0,50
4.725287804059747,0,0,5,315,0,50
5.157616539907358,0,0,4,316,0,50
5.308421191936411,0,0,3,317,0,50
5.604131451147934,0,0,2,318,0,50
5.853466366539089,0,0,1,319,0,50
100,0,0,0,320,0,50
