#Time,A,B,C,D,E,F
0,60,32,21,139,19,8
0.10822979831456382,43,49,19,141,14,13
0.20918856327768728,29,63,18,142,9,18
0.32801531237230935,17,75,14,146,7,20
0.4394325595659231,11,81,11,149,5,22
0.5682932650239151,7,85,11,149,4,23
0.6823743380161058,7,85,9,151,3,24
0.7857344235981666,7,85,7,153,3,24
0.9326200964295964,5,87,7,153,3,24
1.0721376400830593,2,90,6,154,2,25
1.178060322136166,1,91,6,154,1,26
1.2887314246382637,1,91,5,155,1,26
1.4688529200885891,0,92,5,155,1,26
1.673429082781908,0,92,4,156,1,26
1.8441310054547067,0,92,4,156,0,27
2.483718634084888,0,92,2,158,0,27
2.8274556250176834,0,92,1,159,0,27
4.912163718894105,0,92,0,160,0,27
100,0,92,0,160,0,27
