#Time,A,B,C,D,E,F
0,88,0,221,90,566,190
0.10050125453491775,69,19,195,116,399,357
0.20082458052069746,48,40,168,143,292,464
0.301427328594453,35,53,153,158,211,545
0.40208881156295395,29,59,126,185,160,596
0.5052530357266495,20,68,116,195,120,636
0.605952600946818,13,75,99,212,91,665
0.7108164335600207,10,78,94,217,70,686
0.8131436830794306,8,80,87,224,50,706
0.9245887575086831,4,84,78,233,32,724
1.024866543467099,1,87,71,240,18,738
1.1263234410220613,1,87,64,247,15,741
1.2273454191332327,1,87,54,257,8,748
1.3536225600211165,1,87,51,260,5,751
1.4621155950548281,1,87,41,270,2,754
1.5784055887762494,0,88,34,277,1,755
1.6864174677339994,0,88,32,279,1,755
1.7900685034816175,0,88,26,285,0,756
1.9720172292291136,0,88,23,288,0,756
2.1837503105083504,0,88,18,293,0,756
2.294895698837643,0,88,14,297,0,756
2.411241145678241,0,88,11,300,0,756
2.5494087469281173,0,88,9,302,0,756
2.9238024524239883,0,88,5,306,0,756
3.1502755623369105,0,88,3,308,0,756
3.9300184156455047,0,88,2,309,0,756
4.495326264222659,0,88,1,310,0,756
5.488650395659592,0,88,0,311,0,756
100,0,88,0,311,0,756
