#Time,A,B,C,D,E,F
0,91,168,0,218,55,0
0.10041537638211766,62,197,0,218,36,19
0.20078177373883316,42,217,0,218,25,30
0.33335228270356587,25,234,0,218,18,37
0.4413154990880611,19,240,0,218,14,41
0.5425214300837624,11,248,0,218,11,44
0.6588353950245424,7,252,0,218,9,46
0.8076460705194071,3,256,0,218,2,53
0.9157048673681301,1,258,0,218,2,53
100,0,259,0,218,0,55
