#Time,A,B,C,D,E,F
0,39,120,358,52,6,10
0.10614482969989326,34,125,324,86,5,11
0.2088999385369904,25,134,291,119,5,11
0.30939379954722684,15,144,264,146,5,11
0.4201733814133982,11,148,237,173,5,11
0.5300291970011533,8,151,212,198,3,13
0.6305502983429834,5,154,201,209,2,14
0.7319423752844835,5,154,185,225,1,15
0.8364965923585584,5,154,169,241,0,16
0.9393374497712476,1,158,157,253,0,16
1.049031250180375,1,158,131,279,0,16
1.1564364505870126,1,158,116,294,0,16
1.2575201656760824,1,158,102,308,0,16
1.3641037614520708,1,158,94,316,0,16
1.4658766003386101,1,158,85,325,0,16
1.5791878465341722,1,158,77,333,0,16
1.6829380801125369,1,158,70,340,0,16
1.7977415715420744,1,158,64,346,0,16
1.9172876178977885,1,158,61,349,0,16
2.022183587044395,0,159,52,358,0,16
2.1259929227408887,0,159,46,364,0,16
2.2477835692161894,0,159,41,369,0,16
2.3637154488912286,0,159,36,374,0,16
2.490185103306975,0,159,31,379,0,16
2.617318650159374,0,159,25,385,0,16
2.796083843313976,0,159,23,387,0,16
2.9018614357205466,0,159,21,389,0,16
3.0516909157709113,0,159,17,393,0,16
3.1644743369261907,0,159,15,395,0,16
3.3110299876460907,0,159,14,396,0,16
3.4197621145936066,0,159,12,398,0,16
3.5889202680398533,0,159,9,401,0,16
3.7075071368294372,0,159,8,402,0,16
3.82512090373134,0,159,6,404,0,16
4.030722503937966,0,159,4,406,0,16
4.180790008344571,0,159,3,407,0,16
4.439664300724186,0,159,2,408,0,16
4.549225603433072,0,159,1,409,0,16
100,0,159,0,410,0,16
