#Time,A,B,C,D,E,F
0,65,4,118,0,78,164
0.10011349446514536,65,4,112,6,58,184
0.2058672595231508,61,8,101,17,42,200
0.3061078951248376,58,11,92,26,31,211
0.40925857470175464,57,12,79,39,24,218
0.5232062374116029,52,17,66,52,21,221
0.6281465197361673,47,22,57,61,20,222
0.7422591739575725,36,33,47,71,18,224
0.8426938422916164,32,37,44,74,15,227
0.9429581699557168,23,46,43,75,12,230
1.0671865835909784,17,52,38,80,7,235
1.1850535459314127,16,53,34,84,5,237
1.291404147199774,12,57,33,85,4,238
1.4298520063815592,11,58,29,89,4,238
1.532671583810852,10,59,27,91,1,241
1.6346471222278829,7,62,25,93,0,242
1.7596248483358419,5,64,21,97,0,242
1.8904773566819635,3,66,19,99,0,242
2.047443468393353,1,68,15,103,0,242
2.285609171732865,1,68,12,106,0,242
2.462063718992258,0,69,10,108,0,242
2.6150508156082264,0,69,7,111,0,242
2.715560126401246,0,69,6,112,0,242
2.9791660039353256,0,69,5,113,0,242
3.095133990343372,0,69,3,115,0,242
3.5187940895981353,0,69,2,116,0,242
3.877132167180864,0,69,0,118,0,242
100,0,69,0,118,0,242
