#Time,A,B,C,D,E,F
0,0,17,0,244,69,29
0.10216016262978503,0,17,0,244,49,49
0.20412395646230466,0,17,0,244,39,59
0.3118593717960938,0,17,0,244,27,71
0.4197483074711818,0,17,0,244,21,77
0.5312041687837431,0,17,0,244,16,82
0.6577264396755127,0,17,0,244,11,87
0.7788356949287045,0,17,0,244,5,93
0.8891882862363062,0,17,0,244,3,95
1.3547017520987545,0,17,0,244,0,98
100,0,17,0,244,0,98
