#Time,A,B,C,D,E,F
0,145,0,8,40,30,385
0.11023633718499784,132,13,8,40,21,394
0.23051776980973834,118,27,7,41,12,403
0.3340527274024542,103,42,6,42,8,407
0.43715762797128255,94,51,5,43,5,410
0.5741434187986391,89,56,3,45,4,411
0.6778842830415646,78,67,2,46,4,411
0.7797998727814899,71,74,2,46,2,413
0.9072655368592952,62,83,2,46,2,413
1.0328862121276872,53,92,2,46,2,413
1.153165671608737,47,98,2,46,1,414
1.2850779337553997,42,103,2,46,1,414
1.3928697613088927,39,106,1,47,1,414
1.4932722785138004,36,109,1,47,1,414
1.5954782972321888,33,112,1,47,1,414
1.7030658090014268,32,113,1,47,1,414
1.842381141572202,29,116,1,47,0,415
1.9525742059678806,27,118,1,47,0,415
2.07979795675717,24,121,1,47,0,415
2.215809251863759,21,124,1,47,0,415
2.361802916028138,20,125,0,48,0,415
2.50211212151599,17,128,0,48,0,415
2.649709143697997,13,132,0,48,0,415
2.8343011894611765,10,135,0,48,0,415
2.9897733654595404,9,136,0,48,0,415
3.1013538754938335,5,140,0,48,0,415
3.3575381643351307,2,143,0,48,0,415
3.8893757141826013,1,144,0,48,0,415
4.048035744832364,0,145,0,48,0,415
100,0,145,0,48,0,415
