#Time,A,B,C,D,E,F
0,69,247,107,0,5,266
0.10447538321890149,69,247,87,20,3,268
0.21366889090679764,65,251,71,36,3,268
0.32570568970039504,57,259,66,41,2,269
0.43560728666691084,52,264,58,49,2,269
0.5403059987646368,48,268,58,49,1,270
0.6409028264665827,44,272,54,53,0,271
0.7454651026921774,36,280,47,60,0,271
0.877052192362055,30,286,43,64,0,271
0.9973655857946477,27,289,38,69,0,271
1.0985505455364504,20,296,34,73,0,271
1.2197111526000453,18,298,30,77,0,271
1.327155610108331,12,304,26,81,0,271
1.4533285665457218,10,306,23,84,0,271
1.5535471149930316,8,308,21,86,0,271
1.7212648073076975,7,309,19,88,0,271
1.9667082846253445,5,311,18,89,0,271
2.1481860410431253,5,311,15,92,0,271
2.299316439584796,4,312,15,92,0,271
2.438309142936787,3,313,14,93,0,271
2.750243722882877,3,313,12,95,0,271
2.8618815930155437,2,314,9,98,0,271
3.0754884290842517,2,314,7,100,0,271
3.298895070391816,1,315,6,101,0,271
3.889502264746298,1,315,5,102,0,271
4.027208696599306,1,315,3,104,0,271
4.461989105317917,0,316,3,104,0,271
4.665088603340341,0,316,2,105,0,271
5.247622551535031,0,316,1,106,0,271
7.542413252936116,0,316,0,107,0,271
100,0,316,0,107,0,271
