#Time,A,B,C,D,E,F
0,9,0,61,95,0,64
0.11890414945034503,7,2,55,101,0,64
0.22374933325462876,7,2,48,108,0,64
0.35531583807220146,6,3,41,115,0,64
0.4632835940576945,4,5,33,123,0,64
0.6116038209730739,1,8,32,124,0,64
0.7482019582462643,1,8,27,129,0,64
0.8521816418370328,1,8,24,132,0,64
0.988796313663919,0,9,24,132,0,64
1.1902988120012847,0,9,20,136,0,64
1.295475094224443,0,9,18,138,0,64
1.5160237440104403,0,9,15,141,0,64
1.6302734377992665,0,9,10,146,0,64
1.9448782502838091,0,9,8,148,0,64
2.1903947105496657,0,9,6,150,0,64
2.3712308835129137,0,9,5,151,0,64
2.902571975286017,0,9,4,152,0,64
3.0294037360924846,0,9,2,154,0,64
3.4875019282444724,0,9,1,155,0,64
5.755061933024953,0,9,0,156,0,64
100,0,9,0,156,0,64
