#Time,A,B,C,D,E,F
0,185,29,36,19,105,6
0.10158547257406356,177,37,32,23,84,27
0.20266667388240822,162,52,28,27,56,55
0.30315090480443213,151,63,27,28,38,73
0.4077403122093351,142,72,24,31,28,83
0.5187751664451996,132,82,23,32,21,90
0.6189880811747062,125,89,20,35,15,96
0.7216331535680144,118,96,19,36,11,100
0.8294411318375124,112,102,17,38,11,100
0.9353062433133751,103,111,16,39,10,101
1.0359089119371079,92,122,13,42,9,102
1.1527367525425982,87,127,12,43,5,106
1.2573446260942067,81,133,10,45,4,107
1.390322351245843,73,141,8,47,3,108
1.4956243557463227,66,148,7,48,1,110
1.597979831768004,58,156,7,48,1,110
1.7236021989268433,52,162,7,48,1,110
1.8743486779970147,48,166,5,50,0,111
2.0318181997946314,36,178,5,50,0,111
2.133140832216638,32,182,5,50,0,111
2.241370636876718,29,185,4,51,0,111
2.3427103969875542,24,190,3,52,0,111
2.5038174079221416,22,192,2,53,0,111
2.649096770195331,18,196,2,53,0,111
2.8352077918756136,12,202,2,53,0,111
2.95286943667834,9,205,2,53,0,111
3.2489725681758928,7,207,2,53,0,111
3.3662498983019127,5,209,2,53,0,111
3.607764256201902,4,210,2,53,0,111
3.781864225683444,3,211,1,54,0,111
4.591517236566409,1,213,1,54,0,111
6.247632983860013,0,214,0,55,0,111
100,0,214,0,55,0,111
