#Time,A,B,C,D,E,F
0,39,120,358,52,6,10
0.10589603080110316,35,124,320,90,5,11
0.20822703606132426,28,131,276,134,3,13
0.31510904309463095,20,139,247,163,1,15
0.417669154411307,13,146,222,188,1,15
0.527078709211019,9,150,207,203,0,16
0.6272193278145307,5,154,185,225,0,16
0.7284695807998854,1,158,169,241,0,16
0.8524237279950659,1,158,152,258,0,16
0.9527965717424451,0,159,140,270,0,16
1.0534433739104485,0,159,122,288,0,16
1.1574529274143563,0,159,109,301,0,16
1.260798733532322,0,159,97,313,0,16
1.366632774517878,0,159,87,323,0,16
1.4773701199377947,0,159,77,333,0,16
1.6260930409636163,0,159,69,341,0,16
1.7301869121652451,0,159,60,350,0,16
1.8345577530759247,0,159,54,356,0,16
1.944267240949291,0,159,46,364,0,16
2.05499483838488,0,159,43,367,0,16
2.185431340796273,0,159,39,371,0,16
2.3434906262562785,0,159,34,376,0,16
2.4509043837447924,0,159,33,377,0,16
2.602730446176418,0,159,28,382,0,16
2.726459239010292,0,159,25,385,0,16
2.8408800818598676,0,159,23,387,0,16
3.0450284614223366,0,159,20,390,0,16
3.222003789782621,0,159,16,394,0,16
3.354928181780469,0,159,14,396,0,16
3.5907129176256647,0,159,12,398,0,16
3.7241928066864505,0,159,9,401,0,16
3.8835709608537585,0,159,7,403,0,16
4.06207192832137,0,159,6,404,0,16
4.183996883786255,0,159,5,405,0,16
4.7276634641260324,0,159,4,406,0,16
4.832163373486487,0,159,1,409,0,16
5.73208228648073,0,159,0,410,0,16
100,0,159,0,410,0,16
