#Time,A,B,C,D,E,F
0,150,47,52,243,117,0
0.10114076347222484,94,103,45,250,92,25
0.20166732057089773,57,140,42,253,68,49
0.30363935005318643,34,163,39,256,48,69
0.4051916503238397,17,180,37,258,32,85
0.514271389561951,11,186,34,261,19,98
0.614860735118549,5,192,30,265,15,102
0.7253516826669433,3,194,27,268,9,108
0.8454172823452363,1,196,24,271,6,111
0.9676480813061396,0,197,23,272,5,112
1.0818032278488519,0,197,20,275,3,114
1.197291976891544,0,197,19,276,0,117
1.3277206284498022,0,197,17,278,0,117
1.4313184124017,0,197,15,280,0,117
1.570052300906139,0,197,13,282,0,117
1.7541752899270917,0,197,12,283,0,117
2.234179943696901,0,197,11,284,0,117
2.404364200504153,0,197,10,285,0,117
2.600202858146696,0,197,8,287,0,117
2.722899006613065,0,197,7,288,0,117
3.1133731983446924,0,197,6,289,0,117
3.3096375146306927,0,197,4,291,0,117
3.5223434289835636,0,197,2,293,0,117
3.7359045106153985,0,197,1,294,0,117
5.2653211207969886,0,197,0,295,0,117
100,0,197,0,295,0,117
