#Time,A,B,C,D,E,F
0,3,44,0,144,92,119
0.1028321367167202,0,47,0,144,70,141
0.203029970550046,0,47,0,144,46,165
0.3111880657750282,0,47,0,144,28,183
0.4483584544920736,0,47,0,144,19,192
0.5753192593814229,0,47,0,144,13,198
0.6756347826584275,0,47,0,144,9,202
0.8146459057956843,0,47,0,144,8,203
0.9380082898597302,0,47,0,144,5,206
1.1457240795642005,0,47,0,144,4,207
1.4885089674050442,0,47,0,144,1,210
2.443338720161945,0,47,0,144,0,211
100,0,47,0,144,0,211
