#Time,A,B,C,D,E,F
0,0,34,30,34,116,215
0.10513618314849775,0,34,28,36,78,253
0.209770965442369,0,34,26,38,54,277
0.3173851080916739,0,34,24,40,43,288
0.4238836755987378,0,34,20,44,33,298
0.5286997355879672,0,34,19,45,24,307
0.6490540367714333,0,34,19,45,17,314
0.7545393882222194,0,34,16,48,11,320
0.8858490698162882,0,34,16,48,6,325
1.0234156174181164,0,34,12,52,5,326
1.1812367475085077,0,34,10,54,4,327
1.2973361732664508,0,34,9,55,3,328
1.3977190024948432,0,34,8,56,2,329
1.5601259355361108,0,34,6,58,0,331
3.0157552817132527,0,34,4,60,0,331
3.83715100449645,0,34,3,61,0,331
4.150956550546115,0,34,2,62,0,331
5.046898513364516,0,34,1,63,0,331
7.135633848741019,0,34,0,64,0,331
100,0,34,0,64,0,331
