#Time,A,B,C,D,E,F
0,178,6,0,62,130,0
0.10470338409769814,158,26,0,62,102,28
0.20817416955498255,135,49,0,62,76,54
0.3089427116272524,118,66,0,62,57,73
0.4145434876502478,96,88,0,62,44,86
0.5210547540375532,86,98,0,62,36,94
0.6212195368174355,74,110,0,62,29,101
0.7220774189795137,62,122,0,62,20,110
0.8269605608150503,55,129,0,62,14,116
0.928457969334484,46,138,0,62,12,118
1.044195044745943,38,146,0,62,9,121
1.1449598858251355,32,152,0,62,7,123
1.2557962035248145,30,154,0,62,4,126
1.359794511491847,25,159,0,62,4,126
1.5075774442503953,22,162,0,62,2,128
1.6250765960086346,17,167,0,62,2,128
1.7498590214827128,15,169,0,62,2,128
1.8513331840971499,12,172,0,62,0,130
2.1274862372876964,11,173,0,62,0,130
2.4386600424772182,9,175,0,62,0,130
2.7820663101242222,8,176,0,62,0,130
2.8911016607466773,7,177,0,62,0,130
3.0463878795090316,4,180,0,62,0,130
3.3164364671977866,3,181,0,62,0,130
6.26784328144104,0,184,0,62,0,130
100,0,184,0,62,0,130
