#Time,A,B,C,D,E,F
0,156,0,148,67,76,103
0.10074881939729495,128,28,132,83,56,123
0.20705027320371386,108,48,112,103,39,140
0.31227159050644326,80,76,98,117,28,151
0.4217213840667811,63,93,88,127,21,158
0.5225264967623307,44,112,76,139,16,163
0.623269044187623,33,123,70,145,11,168
0.7236491675425187,26,130,63,152,11,168
0.8254944971669961,18,138,58,157,5,174
0.9528528027220182,13,143,51,164,3,176
1.0638338629217454,8,148,44,171,2,177
1.1727859618711876,4,152,40,175,2,177
1.310198943479443,2,154,38,177,2,177
1.4458946381672624,1,155,34,181,2,177
1.5568411348439959,1,155,28,187,2,177
1.6870887262216379,0,156,23,192,1,178
1.811297795142636,0,156,19,196,1,178
1.9287555031132437,0,156,17,198,1,178
2.0524438447097944,0,156,15,200,0,179
2.1711095552936484,0,156,13,202,0,179
2.4218211714559006,0,156,9,206,0,179
2.5226437304806972,0,156,8,207,0,179
2.6357420018285813,0,156,5,210,0,179
2.77362274339787,0,156,4,211,0,179
3.2425023741144527,0,156,1,214,0,179
4.296907225028893,0,156,0,215,0,179
100,0,156,0,215,0,179
