#Time,A,B,C,D,E,F
0,105,124,3,143,0,0
0.10031415375362551,75,154,3,143,0,0
0.23548733893271823,57,172,3,143,0,0
0.3368959396435278,42,187,3,143,0,0
0.44051885066389834,30,199,3,143,0,0
0.5486461538476384,20,209,3,143,0,0
0.6575809662942919,16,213,3,143,0,0
0.7898180421250534,9,220,3,143,0,0
0.9292725350598777,8,221,1,145,0,0
1.1360734212790062,5,224,1,145,0,0
1.5171959666823402,4,225,0,146,0,0
1.645034901850001,1,228,0,146,0,0
1.874766592577378,0,229,0,146,0,0
100,0,229,0,146,0,0
