#Time,A,B,C,D,E,F
0,72,352,0,80,57,67
0.10860802428327115,64,360,0,80,37,87
0.21480259024517184,52,372,0,80,27,97
0.3333163419309744,43,381,0,80,19,105
0.45171940096026825,35,389,0,80,11,113
0.5530905163877575,30,394,0,80,10,114
0.6723489066705461,24,400,0,80,7,117
0.7740846227466607,20,404,0,80,6,118
0.8794320103944455,17,407,0,80,4,120
1.1000526000962711,13,411,0,80,3,121
1.2176887874992546,10,414,0,80,1,123
1.3455620452538324,8,416,0,80,0,124
1.4461859371233188,7,417,0,80,0,124
1.584163883576354,6,418,0,80,0,124
1.7717119912393038,3,421,0,80,0,124
2.036569627648049,2,422,0,80,0,124
2.3899526913334586,0,424,0,80,0,124
100,0,424,0,80,0,124
