#Time,A,B,C,D,E,F
0,58,201,0,625,107,140
0.10129380693319029,10,249,0,625,91,156
0.2013141607241948,3,256,0,625,68,179
0.30851364182488417,1,258,0,625,50,197
0.428367763905761,0,259,0,625,30,217
0.5364397915014979,0,259,0,625,22,225
0.7213609440010861,0,259,0,625,12,235
0.8325339144740699,0,259,0,625,5,242
0.9414409484528611,0,259,0,625,2,245
1.6237064034906132,0,259,0,625,0,247
100,0,259,0,625,0,247
