#Time,A,B,C,D,E,F
0,82,0,0,27,414,177
0.10161481319671081,76,6,0,27,301,290
0.2022203104762957,68,14,0,27,214,377
0.30521340270480096,62,20,0,27,157,434
0.405436540303263,57,25,0,27,101,490
0.510332692498578,55,27,0,27,72,519
0.6313304075755801,54,28,0,27,50,541
0.7317301039081693,52,30,0,27,37,554
0.8386664813772621,52,30,0,27,23,568
0.9613728835532274,51,31,0,27,13,578
1.067137033499577,44,38,0,27,11,580
1.179656165364723,42,40,0,27,8,583
1.3126623612394759,38,44,0,27,2,589
1.553617243090495,33,49,0,27,1,590
1.676906645299343,32,50,0,27,1,590
1.8125794926681351,31,51,0,27,0,591
2.0018965253802445,28,54,0,27,0,591
2.103486479645541,25,57,0,27,0,591
2.329528334761991,24,58,0,27,0,591
2.448931304685677,22,60,0,27,0,591
2.6020445296148793,17,65,0,27,0,591
2.821754965344366,15,67,0,27,0,591
2.9768042916569333,14,68,0,27,0,591
3.5531126116308274,13,69,0,27,0,591
3.777410693635501,12,70,0,27,0,591
3.984380273850146,11,71,0,27,0,591
4.0861657806384315,10,72,0,27,0,591
4.278471145985535,9,73,0,27,0,591
4.409322808425359,7,75,0,27,0,591
5.1428598743652065,6,76,0,27,0,591
5.319140988350843,5,77,0,27,0,591
5.7397641055700435,3,79,0,27,0,591
6.011825722704834,1,81,0,27,0,591
6.455392857904286,0,82,0,27,0,591
100,0,82,0,27,0,591
