#Time,A,B,C,D,E,F
0,17,50,44,161,385,0
0.10130563338469116,10,57,43,162,288,97
0.2013645843239717,7,60,41,164,198,187
0.30163779525160805,3,64,39,166,154,231
0.40460867476030027,3,64,36,169,124,261
0.509759655511331,3,64,33,172,90,295
0.6108262345741065,2,65,28,177,75,310
0.7136386141354042,1,66,25,180,59,326
0.8142334636944862,1,66,24,181,47,338
0.9184139624754168,0,67,19,186,35,350
1.0233326398630886,0,67,19,186,23,362
1.1233848410687195,0,67,17,188,13,372
1.235329041006098,0,67,16,189,8,377
1.3399080475508147,0,67,14,191,6,379
1.4544109984616478,0,67,12,193,3,382
1.5758757383728343,0,67,10,195,3,382
1.7450343503876737,0,67,8,197,1,384
2.005527183394187,0,67,8,197,0,385
2.131174509838864,0,67,7,198,0,385
2.3770750221899872,0,67,5,200,0,385
2.5580691401547546,0,67,3,202,0,385
5.130556896596241,0,67,2,203,0,385
5.6456178949392495,0,67,1,204,0,385
8.076512369533893,0,67,0,205,0,385
100,0,67,0,205,0,385
