#Time,A,B,C,D,E,F
0,106,139,9,44,0,0
0.10629029538413196,98,147,8,45,0,0
0.21019066568370498,87,158,7,46,0,0
0.3134211985648858,82,163,6,47,0,0
0.42171537341494686,69,176,5,48,0,0
0.52809564422916,62,183,5,48,0,0
0.6368028403637443,56,189,5,48,0,0
0.7760947881853592,52,193,4,49,0,0
0.8971098868491069,49,196,2,51,0,0
1.0519736714036736,45,200,1,52,0,0
1.1522891908462967,38,207,1,52,0,0
1.252618833002199,34,211,1,52,0,0
1.4116425155648356,30,215,1,52,0,0
1.5450344754445553,27,218,1,52,0,0
1.6550868947784754,25,220,0,53,0,0
1.8655355323287979,22,223,0,53,0,0
1.9972502588873648,19,226,0,53,0,0
2.127419964689412,17,228,0,53,0,0
2.2327240244733573,15,230,0,53,0,0
2.345740167472643,14,231,0,53,0,0
2.6592357104813478,13,232,0,53,0,0
2.7664386085820927,9,236,0,53,0,0
2.881484371121888,8,237,0,53,0,0
3.1539430594325784,6,239,0,53,0,0
3.5621550071057944,5,240,0,53,0,0
3.8157819084653735,3,242,0,53,0,0
4.075168244108019,2,243,0,53,0,0
4.232052702647184,1,244,0,53,0,0
6.881879245125614,0,245,0,53,0,0
100,0,245,0,53,0,0
