#Time,A,B,C,D,E,F
0,81,82,0,85,122,282
0.10016853431052047,72,91,0,85,87,317
0.21196345219696877,62,101,0,85,65,339
0.31310795388693874,49,114,0,85,48,356
0.41398685235163285,43,120,0,85,36,368
0.525806516775904,35,128,0,85,30,374
0.6288211762091408,30,133,0,85,20,384
0.7327913836457229,22,141,0,85,11,393
0.8359647806567345,18,145,0,85,8,396
0.9406812620825841,15,148,0,85,6,398
1.18113812787145,9,154,0,85,4,400
1.308232011972615,7,156,0,85,3,401
1.5082457074187485,6,157,0,85,1,403
1.6600718091041093,5,158,0,85,1,403
1.7607386108259881,4,159,0,85,1,403
1.8971746428184422,1,162,0,85,0,404
2.1704573644458436,0,163,0,85,0,404
100,0,163,0,85,0,404
