#Time,A,B,C,D,E,F
0,13,0,1,26,56,84
0.10264523598844977,11,2,1,26,46,94
0.20527461293765065,11,2,1,26,38,102
0.30682952239114447,11,2,1,26,27,113
0.41274230481497154,8,5,1,26,19,121
0.5353682898802922,8,5,1,26,13,127
0.6390110539227418,8,5,0,27,10,130
0.7500630963551245,8,5,0,27,8,132
1.0581169991393407,8,5,0,27,2,138
1.2699258673152296,7,6,0,27,1,139
1.3804202080493397,7,6,0,27,0,140
1.7338164713947934,6,7,0,27,0,140
2.5790071380008586,4,9,0,27,0,140
3.096181192531753,3,10,0,27,0,140
3.5984320519604465,2,11,0,27,0,140
4.57038706665541,1,12,0,27,0,140
4.81341797340982,0,13,0,27,0,140
100,0,13,0,27,0,140
