#Time,A,B,C,D,E,F
0,32,109,228,27,0,0
0.10178947402982082,29,112,205,50,0,0
0.20903406055154058,27,114,180,75,0,0
0.30966206419045345,21,120,164,91,0,0
0.41560286677821323,15,126,149,106,0,0
0.5200786163101336,14,127,131,124,0,0
0.6221103417343103,13,128,123,132,0,0
0.7276732036164617,9,132,112,143,0,0
0.8282587881608268,8,133,98,157,0,0
0.9343856355706378,5,136,83,172,0,0
1.0475855644355534,3,138,75,180,0,0
1.1650327759532468,0,141,69,186,0,0
1.2842531693350743,0,141,60,195,0,0
1.3915247253885619,0,141,56,199,0,0
1.5256790965803477,0,141,50,205,0,0
1.6292087641398671,0,141,45,210,0,0
1.7918646253821067,0,141,39,216,0,0
1.9515637781272894,0,141,31,224,0,0
2.104679189898745,0,141,27,228,0,0
2.2135085385926923,0,141,25,230,0,0
2.3666070515822573,0,141,23,232,0,0
2.4891956778056055,0,141,21,234,0,0
2.6055207439343495,0,141,15,240,0,0
2.939246644898719,0,141,14,241,0,0
3.0617769673197,0,141,12,243,0,0
3.2444471124011685,0,141,11,244,0,0
3.5268177985733877,0,141,9,246,0,0
3.6913524401482984,0,141,8,247,0,0
3.940302772961787,0,141,7,248,0,0
4.082404703799425,0,141,6,249,0,0
4.331532475582687,0,141,2,253,0,0
4.548556076535724,0,141,1,254,0,0
5.5335020845638425,0,141,0,255,0,0
100,0,141,0,255,0,0
