#Time,A,B,C,D,E,F
0,42,33,0,11,25,176
0.10595816735512385,39,36,0,11,15,186
0.2150341632857773,37,38,0,11,9,192
0.34370642810259305,37,38,0,11,4,197
0.4554516743805047,37,38,0,11,2,199
0.7520093670460237,34,41,0,11,2,199
0.9732299202038808,33,42,0,11,1,200
1.1425069097826113,32,43,0,11,1,200
1.274429018562673,28,47,0,11,0,201
1.5758089971766307,27,48,0,11,0,201
1.693112774880147,26,49,0,11,0,201
2.4067526431561306,25,50,0,11,0,201
2.5126479945727276,23,52,0,11,0,201
2.990008355142129,22,53,0,11,0,201
3.1596813927073515,20,55,0,11,0,201
3.596873351572262,19,56,0,11,0,201
3.70502307252715,17,58,0,11,0,201
4.447852469168661,16,59,0,11,0,201
4.586522535652302,15,60,0,11,0,201
5.001665607446234,14,61,0,11,0,201
5.282306729496573,13,62,0,11,0,201
7.133422781909317,12,63,0,11,0,201
7.473866072626291,11,64,0,11,0,201
8.93541134837214,10,65,0,11,0,201
9.413918198340053,9,66,0,11,0,201
9.779543453404756,8,67,0,11,0,201
10.05053522301424,7,68,0,11,0,201
11.251257488954245,6,69,0,11,0,201
12.721242353360026,5,70,0,11,0,201
13.306033327521174,4,71,0,11,0,201
16.144849466575295,3,72,0,11,0,201
19.755193387104086,2,73,0,11,0,201
21.18911699962597,0,75,0,11,0,201
100,0,75,0,11,0,201
