#Time,A,B,C,D,E,F
0,105,124,3,143,0,0
0.10424149350604806,71,158,1,145,0,0
0.20680782292768857,50,179,1,145,0,0
0.3132752255872173,39,190,1,145,0,0
0.4291465244241342,27,202,1,145,0,0
0.5308161878585993,15,214,1,145,0,0
0.6461545889890962,12,217,1,145,0,0
0.7911329298718313,7,222,1,145,0,0
1.0215778523863575,5,224,0,146,0,0
1.2386862367103149,2,227,0,146,0,0
1.9096305293630733,0,229,0,146,0,0
100,0,229,0,146,0,0
