#Time,F,E,D,C,B,A
0,10.1216,0,8.17749,190.406,41.5038,0
3.1e-5,10.1216,0,8.18339,190.4,41.5038,0
0.000715814,10.1216,0,8.31372,190.27,41.5038,0
0.00155554,10.1216,0,8.4734,190.11,41.5038,0
0.00286664,10.1216,0,8.72249,189.861,41.5038,0
0.00930204,10.1216,0,9.9404,188.643,41.5038,0
0.0304228,10.1216,0,13.883,184.701,41.5038,0
0.0515436,10.1216,0,17.7431,180.841,41.5038,0
0.0785327,10.1216,0,22.5586,176.025,41.5038,0
0.166099,10.1216,0,37.3168,161.267,41.5038,0
0.260984,10.1216,0,51.9149,146.669,41.5038,0
0.368996,10.1216,0,66.9312,131.653,41.5038,0
0.483509,10.1216,0,81.1758,117.408,41.5038,0
0.607087,10.1216,0,94.824,103.76,41.5038,0
0.733574,10.1216,0,107.152,91.432,41.5038,0
0.940188,10.1216,0,124.219,74.3645,41.5038,0
1.17609,10.1216,0,139.846,58.7375,41.5038,0
1.44515,10.1216,0,153.703,44.8809,41.5038,0
1.70237,10.1216,0,163.882,34.7016,41.5038,0
1.96805,10.1216,0,171.979,26.605,41.5038,0
2.23373,10.1216,0,178.186,20.3976,41.5038,0
2.57574,10.1216,0,184.095,14.4893,41.5038,0
2.96497,10.1216,0,188.766,9.81772,41.5038,0
3.3683,10.1216,0,192.025,6.55919,41.5038,0
3.77867,10.1216,0,194.232,4.35139,41.5038,0
4.18905,10.1216,0,195.697,2.88673,41.5038,0
4.60157,10.1216,0,196.673,1.91096,41.5038,0
5.01838,10.1216,0,197.324,1.25961,41.5038,0
5.45338,10.1216,0,197.769,0.815306,41.5038,0
5.8971,10.1216,0,198.061,0.523138,41.5038,0
6.37456,10.1216,0,198.259,0.324537,41.5038,0
6.8693,10.1216,0,198.386,0.197882,41.5038,0
7.40461,10.1216,0,198.468,0.115861,41.5038,0
7.97943,10.1216,0,198.519,0.0652094,41.5038,0
8.59665,10.1216,0,198.549,0.0351793,41.5038,0
9.30459,10.1216,0,198.567,0.0173339,41.5038,0
10.0537,10.1216,0,198.576,0.00819697,41.5038,0
10.9601,10.1216,0,198.581,0.00331451,41.5038,0
11.9198,10.1216,0,198.583,0.00127072,41.5038,0
12.9198,10.1216,0,198.583,0.000469817,41.5038,0
13.8435,10.1216,0,198.584,0.000184196,41.5038,0
14.8435,10.1216,0,198.584,6.84045e-5,41.5038,0
15.8435,10.1216,0,198.584,2.34435e-5,41.5038,0
16.8435,10.1216,0,198.584,7.55797e-6,41.5038,0
17.8435,10.1216,0,198.584,3.04354e-6,41.5038,0
18.8435,10.1216,0,198.584,5.9109e-7,41.5038,0
19.8435,10.1216,0,198.584,1.70092e-6,41.5038,0
20.8435,10.1216,0,198.584,1.33228e-6,41.5038,0
21.8435,10.1216,0,198.584,2.47906e-7,41.5038,0
22.8435,10.1216,0,198.584,-2.05549e-8,41.5038,0
23.8435,10.1216,0,198.584,-6.60252e-8,41.5038,0
24.8435,10.1216,0,198.584,-4.87091e-8,41.5038,0
25.8435,10.1216,0,198.584,-2.57623e-8,41.5038,0
26.8435,10.1216,0,198.584,-1.0868e-8,41.5038,0
27.8435,10.1216,0,198.584,-3.54194e-9,41.5038,0
28.8435,10.1216,0,198.584,-6.59953e-10,41.5038,0
29.8435,10.1216,0,198.584,1.80425e-10,41.5038,0
30.8435,10.1216,0,198.584,2.76331e-10,41.5038,0
31.8435,10.1216,0,198.584,1.8498e-10,41.5038,0
32.8435,10.1216,0,198.584,9.24899e-11,41.5038,0
33.8435,10.1216,0,198.584,4.62449e-11,41.5038,0
34.8435,10.1216,0,198.584,2.31225e-11,41.5038,0
35.8435,10.1216,0,198.584,1.15612e-11,41.5038,0
36.8435,10.1216,0,198.584,5.78062e-12,41.5038,0
37.8435,10.1216,0,198.584,2.89031e-12,41.5038,0
38.8435,10.1216,0,198.584,1.44515e-12,41.5038,0
39.8435,10.1216,0,198.584,7.22577e-13,41.5038,0
40.8435,10.1216,0,198.584,3.61289e-13,41.5038,0
41.8435,10.1216,0,198.584,1.80644e-13,41.5038,0
42.8435,10.1216,0,198.584,9.03221e-14,41.5038,0
43.8435,10.1216,0,198.584,4.51611e-14,41.5038,0
44.8435,10.1216,0,198.584,2.25805e-14,41.5038,0
45.8435,10.1216,0,198.584,1.12903e-14,41.5038,0
46.8435,10.1216,0,198.584,5.64513e-15,41.5038,0
47.8435,10.1216,0,198.584,2.82257e-15,41.5038,0
48.8435,10.1216,0,198.584,1.41128e-15,41.5038,0
49.8435,10.1216,0,198.584,7.05642e-16,41.5038,0
50.8435,10.1216,0,198.584,3.52821e-16,41.5038,0
51.8435,10.1216,0,198.584,1.7641e-16,41.5038,0
52.8435,10.1216,0,198.584,8.82052e-17,41.5038,0
53.8435,10.1216,0,198.584,4.41026e-17,41.5038,0
54.8435,10.1216,0,198.584,2.20513e-17,41.5038,0
55.8435,10.1216,0,198.584,1.10257e-17,41.5038,0
56.8435,10.1216,0,198.584,5.51283e-18,41.5038,0
57.8435,10.1216,0,198.584,2.75641e-18,41.5038,0
58.8435,10.1216,0,198.584,1.37821e-18,41.5038,0
59.8435,10.1216,0,198.584,6.89103e-19,41.5038,0
60.8435,10.1216,0,198.584,3.44552e-19,41.5038,0
61.8435,10.1216,0,198.584,1.72276e-19,41.5038,0
62.8435,10.1216,0,198.584,8.61379e-20,41.5038,0
63.8435,10.1216,0,198.584,4.3069e-20,41.5038,0
64.8435,10.1216,0,198.584,2.15345e-20,41.5038,0
65.8435,10.1216,0,198.584,1.07672e-20,41.5038,0
66.8435,10.1216,0,198.584,5.38362e-21,41.5038,0
67.8435,10.1216,0,198.584,2.69181e-21,41.5038,0
68.8435,10.1216,0,198.584,1.3459e-21,41.5038,0
69.8435,10.1216,0,198.584,6.72952e-22,41.5038,0
70.8435,10.1216,0,198.584,3.36476e-22,41.5038,0
71.8435,10.1216,0,198.584,1.68238e-22,41.5038,0
72.8435,10.1216,0,198.584,8.41191e-23,41.5038,0
73.8435,10.1216,0,198.584,4.20595e-23,41.5038,0
74.8435,10.1216,0,198.584,2.10298e-23,41.5038,0
75.8435,10.1216,0,198.584,1.05149e-23,41.5038,0
76.8435,10.1216,0,198.584,5.25744e-24,41.5038,0
77.8435,10.1216,0,198.584,2.62872e-24,41.5038,0
78.8435,10.1216,0,198.584,1.31436e-24,41.5038,0
79.8435,10.1216,0,198.584,6.5718e-25,41.5038,0
80.8435,10.1216,0,198.584,3.2859e-25,41.5038,0
81.8435,10.1216,0,198.584,1.64295e-25,41.5038,0
82.8435,10.1216,0,198.584,8.21475e-26,41.5038,0
83.8435,10.1216,0,198.584,4.10738e-26,41.5038,0
84.8435,10.1216,0,198.584,2.05369e-26,41.5038,0
85.8435,10.1216,0,198.584,1.02684e-26,41.5038,0
86.8435,10.1216,0,198.584,5.13422e-27,41.5038,0
87.8435,10.1216,0,198.584,2.56711e-27,41.5038,0
88.8435,10.1216,0,198.584,1.28355e-27,41.5038,0
89.8435,10.1216,0,198.584,6.41777e-28,41.5038,0
90.8435,10.1216,0,198.584,3.20889e-28,41.5038,0
91.8435,10.1216,0,198.584,1.60444e-28,41.5038,0
92.8435,10.1216,0,198.584,8.02222e-29,41.5038,0
93.8435,10.1216,0,198.584,4.01111e-29,41.5038,0
94.8435,10.1216,0,198.584,2.00555e-29,41.5038,0
95.8435,10.1216,0,198.584,1.00278e-29,41.5038,0
96.8435,10.1216,0,198.584,5.01389e-30,41.5038,0
97.8435,10.1216,0,198.584,2.50694e-30,41.5038,0
98.8435,10.1216,0,198.584,1.25347e-30,41.5038,0
99.8435,10.1216,0,198.584,6.26736e-31,41.5038,0
100,10.1216,0,198.584,5.41927e-31,41.5038,0
