#Time,F,E,D,C,B,A
0,0,98.1284,0,30.4161,0,249.948
1.63221e-5,0.0048048,98.1236,0.000496448,30.4156,3.03301e-6,249.948
4.72883e-5,0.0139198,98.1145,0.00143829,30.4147,2.04377e-5,249.948
9.50333e-5,0.0279722,98.1004,0.0028904,30.4132,7.26894e-5,249.948
0.000315786,0.0929185,98.0355,0.00960347,30.4065,0.000762485,249.947
0.00148875,0.437289,97.6911,0.0452484,30.3709,0.0168447,249.931
0.00322064,0.943544,97.1849,0.0978019,30.3183,0.0787595,249.869
0.00477645,1.39609,96.7323,0.144935,30.2712,0.173106,249.775
0.00640702,1.86812,96.2603,0.194254,30.2219,0.311215,249.637
0.0101038,2.92977,95.1986,0.30577,30.1104,0.772292,249.176
0.0142287,4.10059,94.0278,0.429718,29.9864,1.52719,248.421
0.0185906,5.32299,92.8054,0.560231,29.8559,2.59767,247.35
0.0233907,6.64982,91.4786,0.703197,29.7129,4.09331,245.855
0.0287701,8.11429,90.0141,0.862608,29.5535,6.15567,243.792
0.0345888,9.67195,88.4565,1.03407,29.3821,8.83162,241.116
0.0410738,11.3762,86.7522,1.224,29.1921,12.337,237.611
0.0483182,13.2413,84.8871,1.43471,28.9814,16.8701,233.078
0.0563266,15.2564,82.872,1.66588,28.7503,22.5869,227.361
0.0654735,17.4996,80.6288,1.92766,28.4885,29.9395,220.009
0.0760479,20.0172,78.1112,2.22732,28.1888,39.3977,210.55
0.0892755,23.0562,75.0722,2.59773,27.8184,52.4179,197.53
0.107984,27.1537,70.9747,3.11335,27.3028,72.4407,177.507
0.123682,30.4185,67.7099,3.53858,26.8775,90.0439,159.904
0.138027,33.2706,64.8578,3.92139,26.4947,106.274,143.674
0.151696,35.8765,62.2519,4.28108,26.135,121.515,128.433
0.165365,38.3776,59.7508,4.63589,25.7802,136.254,113.694
0.179034,40.7782,57.3502,4.98588,25.4302,150.267,99.681
0.19735,43.8445,54.2839,5.44742,24.9687,167.608,82.34
0.220982,47.5598,50.5686,6.03057,24.3856,187.173,62.7749
0.244614,51.0208,47.1076,6.6001,23.816,203.375,46.5727
0.266206,53.9755,44.1529,7.10882,23.3073,215.309,34.6389
0.286778,56.618,41.5104,7.5834,22.8327,224.345,25.6028
0.30735,59.1024,39.026,8.04831,22.3678,231.386,18.5617
0.332471,61.9355,36.1929,8.60322,21.8129,237.732,12.2158
0.360079,64.8123,33.3161,9.19719,21.2189,242.476,7.47241
0.387687,67.4605,30.6679,9.77499,20.6411,245.523,4.42538
0.415295,69.8982,28.2302,10.3371,20.0791,247.408,2.53965
0.443022,72.1514,25.977,10.8861,19.53,248.538,1.40987
0.476067,74.6031,23.5253,11.521,18.8952,249.276,0.672292
0.510742,76.9273,21.2011,12.1649,18.2512,249.652,0.295678
0.541066,78.7709,19.3575,12.7101,17.7061,249.809,0.139062
0.5698,80.3697,17.7587,13.2116,17.2045,249.882,0.0660249
0.600063,81.9109,16.2175,13.7245,16.6917,249.919,0.0292216
0.631231,83.3586,14.7698,14.2367,16.1795,249.936,0.0122254
0.663652,84.7275,13.4009,14.7528,15.6633,249.943,0.00477731
0.700742,86.1387,11.9897,15.3231,15.093,249.947,0.00156751
0.740378,87.4828,10.6456,15.9096,14.5065,249.948,0.000455433
0.788643,88.9179,9.21054,16.5932,13.8229,249.948,9.62524e-5
0.847081,90.399,7.72942,17.3778,13.0383,249.948,1.47063e-5
0.910685,91.7417,6.38672,18.1813,12.2348,249.948,7.73834e-7
1.00496,93.3151,4.8133,19.2821,11.1341,249.948,1.46095e-6
1.10314,94.543,3.58535,20.3232,10.0929,249.948,-2.51974e-7
1.2198,95.6018,2.5266,21.4346,8.98154,249.948,-1.64434e-7
1.35611,96.4498,1.6786,22.5791,7.83707,249.948,7.84234e-8
1.49536,97.023,1.10541,23.5978,6.81833,249.948,2.78265e-7
1.64358,97.4198,0.708621,24.5371,5.87905,249.948,9.21235e-8
1.79588,97.6797,0.448733,25.3676,5.04852,249.948,-9.42964e-7
1.9555,97.8504,0.27799,26.1124,4.30371,249.948,-2.73833e-7
2.12223,97.9598,0.168578,26.7734,3.64276,249.948,7.54091e-7
2.29881,98.0291,0.0992546,27.363,3.05312,249.948,2.02275e-6
2.45666,98.0666,0.0618156,27.8088,2.6073,249.948,-8.45922e-7
2.58853,98.0868,0.0416188,28.1309,2.28519,249.948,-9.88859e-7
2.73595,98.1017,0.0267431,28.4442,1.97194,249.948,-4.53931e-7
2.8971,98.1119,0.0164914,28.7377,1.67845,249.948,1.57592e-6
3.04147,98.1177,0.0106948,28.9633,1.45282,249.948,6.41628e-7
3.17955,98.1213,0.00706747,29.1507,1.26544,249.948,-5.28472e-7
3.31764,98.1237,0.00467042,29.3139,1.10223,249.948,-7.25735e-7
3.4692,98.1254,0.00296415,29.4689,0.947222,249.948,-1.33585e-7
3.61555,98.1265,0.00191084,29.5979,0.818261,249.948,5.30808e-7
3.76481,98.1272,0.00122113,29.7113,0.704806,249.948,-2.5532e-9
3.9578,98.1277,0.000684431,29.835,0.581102,249.948,-4.00556e-7
4.23634,98.1281,0.000296976,29.9763,0.439829,249.948,-7.6319e-7
4.38222,98.1282,0.000191712,30.036,0.38013,249.948,6.99204e-7
4.52434,98.1283,0.000125162,30.0864,0.329768,249.948,-4.99943e-8
4.75444,98.1283,6.27124e-5,30.1541,0.261984,249.948,1.07806e-8
5.09171,98.1284,2.26638e-5,30.2291,0.18698,249.948,2.30964e-8
5.46975,98.1284,7.21455e-6,30.288,0.128116,249.948,6.4073e-9
5.87242,98.1284,2.12924e-6,30.3305,0.085647,249.948,2.96599e-9
6.2981,98.1284,5.81748e-7,30.3602,0.0559528,249.948,-9.95414e-10
6.76666,98.1284,1.38271e-7,30.3811,0.0350186,249.948,-4.64824e-9
7.26623,98.1284,2.95685e-8,30.3949,0.0212468,249.948,-4.48614e-9
7.8194,98.1284,5.09346e-9,30.4039,0.0122173,249.948,2.77572e-8
8.44399,98.1284,6.53534e-10,30.4096,0.00654006,249.948,1.70562e-9
9.1204,98.1284,4.59827e-11,30.4128,0.00332341,249.948,2.45202e-10
9.92701,98.1284,-5.38479e-12,30.4146,0.00148143,249.948,-5.1927e-10
10.8235,98.1284,7.0277e-15,30.4155,0.000603034,249.948,-3.06006e-9
11.8235,98.1284,-3.56965e-13,30.4159,0.000220561,249.948,1.28025e-9
12.8235,98.1284,7.96013e-13,30.416,8.06667e-5,249.948,6.83956e-11
13.8235,98.1284,-2.20178e-12,30.4161,3.13893e-5,249.948,-1.34471e-9
14.8235,98.1284,6.4421e-13,30.4161,1.22542e-5,249.948,1.57702e-9
15.8235,98.1284,-3.52492e-13,30.4161,4.65044e-6,249.948,-1.84156e-9
16.8235,98.1284,2.27404e-14,30.4161,1.45351e-6,249.948,-4.3512e-9
17.8235,98.1284,4.92726e-14,30.4161,2.32719e-7,249.948,-1.24173e-10
18.8235,98.1284,1.93722e-14,30.4161,-1.04527e-7,249.948,3.09327e-11
19.8235,98.1284,3.13515e-15,30.4161,-1.30165e-7,249.948,6.36318e-12
20.8235,98.1284,-7.59072e-16,30.4161,-8.32268e-8,249.948,1.78868e-13
21.8235,98.1284,-6.85715e-16,30.4161,-4.05484e-8,249.948,-5.92021e-14
22.8235,98.1284,-1.71429e-16,30.4161,-2.02742e-8,249.948,-3.97212e-15
23.8235,98.1284,-4.28572e-17,30.4161,-1.01371e-8,249.948,-1.11809e-16
24.8235,98.1284,-1.07143e-17,30.4161,-5.06855e-9,249.948,-7.42075e-19
25.8235,98.1284,-2.67857e-18,30.4161,-2.53427e-9,249.948,2.52268e-18
26.8235,98.1284,-6.69644e-19,30.4161,-1.26714e-9,249.948,1.36419e-18
27.8235,98.1284,-1.67411e-19,30.4161,-6.33569e-10,249.948,6.8681e-19
28.8235,98.1284,-4.18527e-20,30.4161,-3.16784e-10,249.948,3.43587e-19
29.8235,98.1284,-1.04632e-20,30.4161,-1.58392e-10,249.948,1.71801e-19
30.8235,98.1284,-2.6158e-21,30.4161,-7.91961e-11,249.948,8.59011e-20
31.8235,98.1284,-6.53949e-22,30.4161,-3.9598e-11,249.948,4.29505e-20
32.8235,98.1284,-1.63487e-22,30.4161,-1.9799e-11,249.948,2.14753e-20
33.8235,98.1284,-4.08718e-23,30.4161,-9.89951e-12,249.948,1.07376e-20
34.8235,98.1284,-1.0218e-23,30.4161,-4.94976e-12,249.948,5.36882e-21
35.8235,98.1284,-2.55449e-24,30.4161,-2.47488e-12,249.948,2.68441e-21
36.8235,98.1284,-6.38622e-25,30.4161,-1.23744e-12,249.948,1.3422e-21
37.8235,98.1284,-1.59656e-25,30.4161,-6.18719e-13,249.948,6.71102e-22
38.8235,98.1284,-3.99139e-26,30.4161,-3.0936e-13,249.948,3.35551e-22
39.8235,98.1284,-9.97847e-27,30.4161,-1.5468e-13,249.948,1.67776e-22
40.8235,98.1284,-2.49462e-27,30.4161,-7.73399e-14,249.948,8.38878e-23
41.8235,98.1284,-6.23654e-28,30.4161,-3.867e-14,249.948,4.19439e-23
42.8235,98.1284,-1.55914e-28,30.4161,-1.9335e-14,249.948,2.09719e-23
43.8235,98.1284,-3.89784e-29,30.4161,-9.66749e-15,249.948,3.39175e-25
44.8235,98.1284,-9.7446e-30,30.4161,-4.83375e-15,249.948,5.4854e-27
45.8235,98.1284,-2.43615e-30,30.4161,-2.41687e-15,249.948,8.87142e-29
46.8235,98.1284,-6.09037e-31,30.4161,-1.20844e-15,249.948,1.43476e-30
47.8235,98.1284,-1.52259e-31,30.4161,-6.04218e-16,249.948,2.3204e-32
48.8235,98.1284,-3.80648e-32,30.4161,-3.02109e-16,249.948,3.75274e-34
49.8235,98.1284,-9.51621e-33,30.4161,-1.51055e-16,249.948,6.06922e-36
50.8235,98.1284,-2.37905e-33,30.4161,-7.55273e-17,249.948,9.81562e-38
51.8235,98.1284,-5.94763e-34,30.4161,-3.77636e-17,249.948,1.58746e-39
52.8235,98.1284,-1.48691e-34,30.4161,-1.88818e-17,249.948,2.56736e-41
53.8235,98.1284,-3.71727e-35,30.4161,-9.44091e-18,249.948,4.15214e-43
54.8235,98.1284,-9.29317e-36,30.4161,-4.72045e-18,249.948,6.71516e-45
55.8235,98.1284,-2.32329e-36,30.4161,-2.36023e-18,249.948,1.08597e-46
56.8235,98.1284,-5.80823e-37,30.4161,-1.18011e-18,249.948,1.75335e-48
57.8235,98.1284,-1.45206e-37,30.4161,-5.90057e-19,249.948,2.68763e-50
58.8235,98.1284,-3.63015e-38,30.4161,-2.95028e-19,249.948,-3.05524e-52
59.8235,98.1284,-9.07536e-39,30.4161,-1.47514e-19,249.948,-3.75035e-52
60.8235,98.1284,-2.26884e-39,30.4161,-7.37571e-20,249.948,-1.91112e-52
61.8235,98.1284,-5.6721e-40,30.4161,-3.68786e-20,249.948,-9.56143e-53
62.8235,98.1284,-1.41803e-40,30.4161,-1.84393e-20,249.948,-4.78081e-53
63.8235,98.1284,-3.54506e-41,30.4161,-9.21964e-21,249.948,-2.39041e-53
64.8235,98.1284,-8.86266e-42,30.4161,-4.60982e-21,249.948,-1.1952e-53
65.8235,98.1284,-2.21567e-42,30.4161,-2.30491e-21,249.948,-5.97602e-54
66.8235,98.1284,-5.53916e-43,30.4161,-1.15245e-21,249.948,-2.98801e-54
67.8235,98.1284,-1.38479e-43,30.4161,-5.76227e-22,249.948,-1.494e-54
68.8235,98.1284,-3.46198e-44,30.4161,-2.88114e-22,249.948,-7.47002e-55
69.8235,98.1284,-8.65494e-45,30.4161,-1.44057e-22,249.948,-3.73501e-55
70.8235,98.1284,-2.16374e-45,30.4161,-7.20284e-23,249.948,-1.86751e-55
71.8235,98.1284,-5.40934e-46,30.4161,-3.60142e-23,249.948,-9.33753e-56
72.8235,98.1284,-1.35233e-46,30.4161,-1.80071e-23,249.948,-4.66876e-56
73.8235,98.1284,-3.38084e-47,30.4161,-9.00355e-24,249.948,-2.33438e-56
74.8235,98.1284,-8.45209e-48,30.4161,-4.50178e-24,249.948,-1.16719e-56
75.8235,98.1284,-2.11302e-48,30.4161,-2.25089e-24,249.948,-5.83595e-57
76.8235,98.1284,-5.28256e-49,30.4161,-1.12544e-24,249.948,-2.91798e-57
77.8235,98.1284,-1.32064e-49,30.4161,-5.62722e-25,249.948,-1.45899e-57
78.8235,98.1284,-3.3016e-50,30.4161,-2.81361e-25,249.948,-7.29494e-58
79.8235,98.1284,-8.254e-51,30.4161,-1.40681e-25,249.948,-3.64747e-58
80.8235,98.1284,-2.0635e-51,30.4161,-7.03403e-26,249.948,-1.82374e-58
81.8235,98.1284,-5.15875e-52,30.4161,-3.51701e-26,249.948,-9.11868e-59
82.8235,98.1284,-1.28969e-52,30.4161,-1.75851e-26,249.948,-4.55934e-59
83.8235,98.1284,-3.22422e-53,30.4161,-8.79253e-27,249.948,-2.27967e-59
84.8235,98.1284,-8.06054e-54,30.4161,-4.39627e-27,249.948,-1.13983e-59
85.8235,98.1284,-2.01514e-54,30.4161,-2.19813e-27,249.948,-5.69917e-60
86.8235,98.1284,-5.03784e-55,30.4161,-1.09907e-27,249.948,-2.84959e-60
87.8235,98.1284,-1.25946e-55,30.4161,-5.49533e-28,249.948,-1.42479e-60
88.8235,98.1284,-3.14865e-56,30.4161,-2.74767e-28,249.948,-7.12397e-61
89.8235,98.1284,-7.87162e-57,30.4161,-1.37383e-28,249.948,-3.56198e-61
90.8235,98.1284,-1.96791e-57,30.4161,-6.86917e-29,249.948,-1.78099e-61
91.8235,98.1284,-4.91977e-58,30.4161,-3.43458e-29,249.948,-8.90496e-62
92.8235,98.1284,-1.22994e-58,30.4161,-1.71729e-29,249.948,-4.45248e-62
93.8235,98.1284,-3.07485e-59,30.4161,-8.58646e-30,249.948,-2.22624e-62
94.8235,98.1284,-7.68713e-60,30.4161,-4.29323e-30,249.948,-1.11312e-62
95.8235,98.1284,-1.92178e-60,30.4161,-2.14661e-30,249.948,-5.5656e-63
96.8235,98.1284,-4.80446e-61,30.4161,-1.07331e-30,249.948,-2.7828e-63
97.8235,98.1284,-1.20111e-61,30.4161,-5.36654e-31,249.948,-1.3914e-63
98.8235,98.1284,-3.00279e-62,30.4161,-2.68327e-31,249.948,-6.957e-64
99.8235,98.1284,-7.50697e-63,30.4161,-1.34163e-31,249.948,-3.4785e-64
100,98.1284,-4.90859e-63,30.4161,-1.14041e-31,249.948,-2.96449e-65
