#Time,F,E,D,C,B,A
0,12.2079,108.347,3.61253,0,29.3446,28.3054
3.1e-5,12.2179,108.337,3.61253,0,29.3509,28.299
0.000406,12.3397,108.216,3.61253,0,29.4275,28.2225
0.00105373,12.5498,108.005,3.61253,0,29.5592,28.0907
0.00445939,13.6477,106.908,3.61253,0,30.242,27.4079
0.0111075,15.7588,104.796,3.61253,0,31.5275,26.1225
0.0177557,17.8282,102.727,3.61253,0,32.7526,24.8973
0.02574,20.2596,100.296,3.61253,0,34.1483,23.5017
0.0436864,25.5166,95.0386,3.61253,0,37.0062,20.6437
0.0616624,30.5061,90.0491,3.61253,0,39.5205,18.1294
0.0808047,35.5317,85.0236,3.61253,0,41.8622,15.7877
0.114689,43.7497,76.8056,3.61253,0,45.2905,12.3594
0.151282,51.7351,68.8201,3.61253,0,48.162,9.48795
0.187876,58.8903,61.6649,3.61253,0,50.3663,7.28363
0.225096,65.4055,55.1498,3.61253,0,52.0838,5.56616
0.277626,73.4462,47.109,3.61253,0,53.8416,3.8083
0.339653,81.4451,39.1102,3.61253,0,55.2171,2.43278
0.392577,87.1868,33.3685,3.61253,0,55.9902,1.65974
0.45674,93.0295,27.5257,3.61253,0,56.6059,1.04403
0.520341,97.8108,22.7444,3.61253,0,56.9905,0.659398
0.584267,101.78,18.7753,3.61253,0,57.2344,0.415493
0.655953,105.413,15.1422,3.61253,0,57.4024,0.247535
0.737234,108.69,11.8656,3.61253,0,57.5123,0.137596
0.807024,110.931,9.62411,3.61253,0,57.5668,0.0831036
0.895417,113.173,7.38235,3.61253,0,57.606,0.043883
0.990881,115.011,5.54391,3.61253,0,57.6279,0.0220177
1.09892,116.546,4.00916,3.61253,0,57.6398,0.0100905
1.22284,117.791,2.76441,3.61253,0,57.6458,0.00412453
1.34526,118.641,1.91472,3.61253,0,57.6482,0.00170364
1.49337,119.327,1.22781,3.61253,0,57.6493,0.00058549
1.6452,119.777,0.778627,3.61253,0,57.6497,0.00019571
1.80222,120.069,0.486122,3.61253,0,57.6499,6.31523e-5
1.96596,120.258,0.297455,3.61253,0,57.6499,1.94822e-5
2.13369,120.375,0.179846,3.61253,0,57.6499,5.80239e-6
2.31688,120.451,0.103808,3.61253,0,57.6499,1.57473e-6
2.51012,120.497,0.0581402,3.61253,0,57.6499,3.94515e-7
2.72438,120.525,0.030575,3.61253,0,57.6499,8.65356e-8
2.95991,120.54,0.0150854,3.61253,0,57.6499,1.93128e-8
3.21839,120.548,0.00694916,3.61253,0,57.6499,2.67911e-9
3.52753,120.553,0.00275162,3.61253,0,57.6499,1.12892e-9
3.86644,120.554,0.000997261,3.61253,0,57.6499,2.07562e-10
4.27465,120.555,0.000295322,3.61253,0,57.6499,2.88116e-10
4.79965,120.555,6.20429e-5,3.61253,0,57.6499,1.0216e-9
5.39775,120.555,1.02707e-5,3.61253,0,57.6499,4.97368e-10
6.2769,120.555,1.99305e-6,3.61253,0,57.6499,2.94649e-9
7.2769,120.555,-8.66311e-7,3.61253,0,57.6499,-4.16177e-10
8.2769,120.555,-2.52979e-7,3.61253,0,57.6499,8.48685e-12
9.2769,120.555,-1.47726e-7,3.61253,0,57.6499,7.89942e-10
10.2769,120.555,-3.11657e-7,3.61253,0,57.6499,4.55908e-10
11.2769,120.555,8.11947e-7,3.61253,0,57.6499,-1.93527e-9
12.2769,120.555,-7.01014e-7,3.61253,0,57.6499,3.30863e-9
13.2769,120.555,7.97809e-7,3.61253,0,57.6499,-5.86889e-9
14.2769,120.555,-4.22637e-8,3.61253,0,57.6499,-7.71454e-10
15.2769,120.555,-1.03221e-7,3.61253,0,57.6499,2.33836e-11
16.2769,120.555,-4.11802e-8,3.61253,0,57.6499,4.95692e-11
17.2769,120.555,-6.83328e-9,3.61253,0,57.6499,1.00225e-11
18.2769,120.555,1.53857e-9,3.61253,0,57.6499,-5.43224e-13
19.2769,120.555,1.44306e-9,3.61253,0,57.6499,-6.98872e-13
20.2769,120.555,4.70409e-10,3.61253,0,57.6499,-1.29069e-13
21.2769,120.555,4.87303e-11,3.61253,0,57.6499,1.04639e-14
22.2769,120.555,-3.06097e-11,3.61253,0,57.6499,9.79504e-15
23.2769,120.555,-7.65243e-12,3.61253,0,57.6499,1.19088e-15
24.2769,120.555,-1.91311e-12,3.61253,0,57.6499,1.44787e-16
25.2769,120.555,-4.78277e-13,3.61253,0,57.6499,1.76032e-17
26.2769,120.555,-1.19569e-13,3.61253,0,57.6499,2.14019e-18
27.2769,120.555,-2.98923e-14,3.61253,0,57.6499,2.60204e-19
28.2769,120.555,-7.47307e-15,3.61253,0,57.6499,3.16355e-20
29.2769,120.555,-1.86827e-15,3.61253,0,57.6499,3.84624e-21
30.2769,120.555,-4.67067e-16,3.61253,0,57.6499,4.67625e-22
31.2769,120.555,-1.16767e-16,3.61253,0,57.6499,5.68538e-23
32.2769,120.555,-2.91917e-17,3.61253,0,57.6499,6.91227e-24
33.2769,120.555,-7.29792e-18,3.61253,0,57.6499,8.40393e-25
34.2769,120.555,-1.82448e-18,3.61253,0,57.6499,1.02175e-25
35.2769,120.555,-4.5612e-19,3.61253,0,57.6499,1.24224e-26
36.2769,120.555,-1.1403e-19,3.61253,0,57.6499,1.51031e-27
37.2769,120.555,-2.85075e-20,3.61253,0,57.6499,1.83623e-28
38.2769,120.555,-7.12688e-21,3.61253,0,57.6499,2.23249e-29
39.2769,120.555,-1.78172e-21,3.61253,0,57.6499,2.71426e-30
40.2769,120.555,-4.4543e-22,3.61253,0,57.6499,3.29999e-31
41.2769,120.555,-1.11357e-22,3.61253,0,57.6499,4.01212e-32
42.2769,120.555,-2.78394e-23,3.61253,0,57.6499,4.87793e-33
43.2769,120.555,-6.95984e-24,3.61253,0,57.6499,5.93057e-34
44.2769,120.555,-1.73996e-24,3.61253,0,57.6499,7.21038e-35
45.2769,120.555,-4.3499e-25,3.61253,0,57.6499,8.76637e-36
46.2769,120.555,-1.08748e-25,3.61253,0,57.6499,1.06581e-36
47.2769,120.555,-2.71869e-26,3.61253,0,57.6499,1.29581e-37
48.2769,120.555,-6.79672e-27,3.61253,0,57.6499,1.57545e-38
49.2769,120.555,-1.69918e-27,3.61253,0,57.6499,1.91543e-39
50.2769,120.555,-4.24795e-28,3.61253,0,57.6499,2.32877e-40
51.2769,120.555,-1.06199e-28,3.61253,0,57.6499,2.83132e-41
52.2769,120.555,-2.65497e-29,3.61253,0,57.6499,3.44231e-42
53.2769,120.555,-6.63742e-30,3.61253,0,57.6499,4.18515e-43
54.2769,120.555,-1.65936e-30,3.61253,0,57.6499,5.0883e-44
55.2769,120.555,-4.14839e-31,3.61253,0,57.6499,6.18635e-45
56.2769,120.555,-1.0371e-31,3.61253,0,57.6499,7.52135e-46
57.2769,120.555,-2.59274e-32,3.61253,0,57.6499,9.14444e-47
58.2769,120.555,-6.48186e-33,3.61253,0,57.6499,1.11178e-47
59.2769,120.555,-1.62046e-33,3.61253,0,57.6499,1.3517e-48
60.2769,120.555,-4.05116e-34,3.61253,0,57.6499,1.64339e-49
61.2769,120.555,-1.01279e-34,3.61253,0,57.6499,1.99803e-50
62.2769,120.555,-2.53198e-35,3.61253,0,57.6499,2.42921e-51
63.2769,120.555,-6.32994e-36,3.61253,0,57.6499,2.95342e-52
64.2769,120.555,-1.58248e-36,3.61253,0,57.6499,3.59077e-53
65.2769,120.555,-3.95621e-37,3.61253,0,57.6499,4.36565e-54
66.2769,120.555,-9.89053e-38,3.61253,0,57.6499,5.30775e-55
67.2769,120.555,-2.47263e-38,3.61253,0,57.6499,6.45315e-56
68.2769,120.555,-6.18158e-39,3.61253,0,57.6499,7.84573e-57
69.2769,120.555,-1.5454e-39,3.61253,0,57.6499,9.53882e-58
70.2769,120.555,-3.86349e-40,3.61253,0,57.6499,1.15973e-58
71.2769,120.555,-9.65872e-41,3.61253,0,57.6499,1.40999e-59
72.2769,120.555,-2.41468e-41,3.61253,0,57.6499,1.71427e-60
73.2769,120.555,-6.0367e-42,3.61253,0,57.6499,2.0842e-61
74.2769,120.555,-1.50918e-42,3.61253,0,57.6499,2.53397e-62
75.2769,120.555,-3.77294e-43,3.61253,0,57.6499,3.0808e-63
76.2769,120.555,-9.43234e-44,3.61253,0,57.6499,3.74563e-64
77.2769,120.555,-2.35809e-44,3.61253,0,57.6499,4.55393e-65
78.2769,120.555,-5.89522e-45,3.61253,0,57.6499,5.53666e-66
79.2769,120.555,-1.4738e-45,3.61253,0,57.6499,6.73146e-67
80.2769,120.555,-3.68451e-46,3.61253,0,57.6499,8.18409e-68
81.2769,120.555,-9.21127e-47,3.61253,0,57.6499,9.9502e-69
82.2769,120.555,-2.30282e-47,3.61253,0,57.6499,1.20974e-69
83.2769,120.555,-5.75705e-48,3.61253,0,57.6499,1.4708e-70
84.2769,120.555,-1.43926e-48,3.61253,0,57.6499,1.7882e-71
85.2769,120.555,-3.59815e-49,3.61253,0,57.6499,2.17409e-72
86.2769,120.555,-8.99538e-50,3.61253,0,57.6499,2.64326e-73
87.2769,120.555,-2.24885e-50,3.61253,0,57.6499,3.21367e-74
88.2769,120.555,-5.62212e-51,3.61253,0,57.6499,3.90717e-75
89.2769,120.555,-1.40553e-51,3.61253,0,57.6499,4.75033e-76
90.2769,120.555,-3.51382e-52,3.61253,0,57.6499,5.77544e-77
91.2769,120.555,-8.78456e-53,3.61253,0,57.6499,7.02177e-78
92.2769,120.555,-2.19614e-53,3.61253,0,57.6499,8.53705e-79
93.2769,120.555,-5.49035e-54,3.61253,0,57.6499,1.03793e-79
94.2769,120.555,-1.37259e-54,3.61253,0,57.6499,1.26192e-80
95.2769,120.555,-3.43147e-55,3.61253,0,57.6499,1.53424e-81
96.2769,120.555,-8.57867e-56,3.61253,0,57.6499,1.86532e-82
97.2769,120.555,-2.14467e-56,3.61253,0,57.6499,2.26785e-83
98.2769,120.555,-5.36167e-57,3.61253,0,57.6499,2.75725e-84
99.2769,120.555,-1.34042e-57,3.61253,0,57.6499,3.35226e-85
100,120.555,-4.2294e-58,3.61253,0,57.6499,5.38568e-86
