#Time,F,E,D,C,B,A
0,0,445.771,29.674,5.20008,54.6999,0
2.61753e-5,0.0350023,445.736,29.6741,5.19994,54.6999,0
8.67011e-5,0.115928,445.655,29.6744,5.19963,54.6999,0
0.000184332,0.246437,445.525,29.6749,5.19912,54.6999,0
0.000690981,0.923097,444.848,29.6776,5.19649,54.6999,0
0.00372636,4.95557,440.816,29.6933,5.18074,54.6999,0
0.00745073,9.85346,435.918,29.7126,5.16148,54.6999,0
0.0116057,15.2534,430.518,29.734,5.14008,54.6999,0
0.016605,21.6621,424.109,29.7596,5.11445,54.6999,0
0.0377643,47.7469,398.024,29.8667,5.00737,54.6999,0
0.0660452,80.1233,365.648,30.0063,4.86774,54.6999,0
0.098695,114.24,331.532,30.1627,4.71137,54.6999,0
0.133304,146.935,298.836,30.323,4.55111,54.6999,0
0.1711,178.968,266.803,30.4918,4.3823,54.6999,0
0.2119,209.705,236.066,30.667,4.2071,54.6999,0
0.254646,238.116,207.655,30.843,4.03106,54.6999,0
0.297391,263.108,182.663,31.0117,3.86238,54.6999,0
0.366091,297.129,148.642,31.2681,3.60594,54.6999,0
0.444499,328.286,117.486,31.5401,3.33401,54.6999,0
0.534077,355.972,89.7995,31.8257,3.04834,54.6999,0
0.619602,376.294,69.4773,32.0756,2.79847,54.6999,0
0.708022,392.482,53.2894,32.3124,2.56165,54.6999,0
0.796441,404.898,40.8732,32.5292,2.34488,54.6999,0
0.909748,416.677,29.0948,32.7804,2.09369,54.6999,0
1.03854,426.001,19.7706,33.0334,1.84068,54.6999,0
1.17178,432.515,13.2562,33.263,1.61106,54.6999,0
1.30726,436.942,8.82903,33.4671,1.40694,54.6999,0
1.44273,439.891,5.88042,33.6454,1.22868,54.6999,0
1.5782,441.855,3.91655,33.8011,1.07301,54.6999,0
1.71368,443.163,2.60855,33.937,0.937064,54.6999,0
1.85142,444.046,1.72558,34.0576,0.816484,54.6999,0
1.99123,444.637,1.13444,34.1641,0.709952,54.6999,0
2.13765,445.04,0.731171,34.2608,0.613254,54.6999,0
2.28713,445.304,0.466946,34.346,0.528107,54.6999,0
2.44831,445.483,0.287926,34.4246,0.449495,54.6999,0
2.61588,445.597,0.174161,34.4939,0.380142,54.6999,0
2.79743,445.67,0.101024,34.557,0.317029,54.6999,0
2.99309,445.715,0.0561727,34.6134,0.260692,54.6999,0
3.20366,445.742,0.0298685,34.6629,0.211192,54.6999,0
3.44599,445.757,0.0144399,34.7083,0.165743,54.6999,0
3.70284,445.765,0.00668399,34.7459,0.128199,54.6999,0
4.01554,445.769,0.00261885,34.7803,0.0937745,54.6999,0
4.34715,445.77,0.000969653,34.8068,0.0673082,54.6999,0
4.7709,445.771,0.000275139,34.83,0.0440594,54.6999,0
5.22465,445.771,7.00416e-5,34.8461,0.0279885,54.6999,0
5.82422,445.771,1.31303e-5,34.8587,0.015368,54.6999,0
6.5723,445.771,1.98573e-6,34.8668,0.00727494,54.6999,0
7.41659,445.771,2.33459e-7,34.8709,0.00312945,54.6999,0
8.41659,445.771,-9.71814e-9,34.8729,0.00115262,54.6999,0
9.41659,445.771,-1.23791e-7,34.8736,0.000426074,54.6999,0
10.4166,445.771,1.38363e-7,34.8739,0.000154427,54.6999,0
11.4166,445.771,-6.80486e-8,34.874,5.74027e-5,54.6999,0
12.4166,445.771,1.84386e-7,34.8741,1.96141e-5,54.6999,0
13.4166,445.771,3.07519e-8,34.8741,6.241e-6,54.6999,0
14.4166,445.771,-2.11249e-8,34.8741,2.59512e-6,54.6999,0
15.4166,445.771,6.24971e-8,34.8741,4.74408e-7,54.6999,0
16.4166,445.771,-3.77517e-7,34.8741,1.54081e-6,54.6999,0
17.4166,445.771,-1.20014e-7,34.8741,1.26262e-6,54.6999,0
18.4166,445.771,6.88657e-8,34.8741,1.96699e-7,54.6999,0
19.4166,445.771,-1.54467e-8,34.8741,-2.89297e-8,54.6999,0
20.4166,445.771,-1.45169e-8,34.8741,-6.24836e-8,54.6999,0
21.4166,445.771,-4.73567e-9,34.8741,-4.42009e-8,54.6999,0
22.4166,445.771,-4.91751e-10,34.8741,-2.2864e-8,54.6999,0
23.4166,445.771,3.0763e-10,34.8741,-9.45103e-9,54.6999,0
24.4166,445.771,1.91363e-10,34.8741,-2.98802e-9,54.6999,0
25.4166,445.771,4.78408e-11,34.8741,-1.49401e-9,54.6999,0
26.4166,445.771,1.19602e-11,34.8741,-7.47006e-10,54.6999,0
27.4166,445.771,2.99005e-12,34.8741,-3.73503e-10,54.6999,0
28.4166,445.771,7.47513e-13,34.8741,-1.86751e-10,54.6999,0
29.4166,445.771,1.86878e-13,34.8741,-9.33757e-11,54.6999,0
30.4166,445.771,4.67196e-14,34.8741,-4.66879e-11,54.6999,0
31.4166,445.771,1.16799e-14,34.8741,-2.33439e-11,54.6999,0
32.4166,445.771,2.91997e-15,34.8741,-1.1672e-11,54.6999,0
33.4166,445.771,7.29993e-16,34.8741,-5.83598e-12,54.6999,0
34.4166,445.771,1.82498e-16,34.8741,-2.91799e-12,54.6999,0
35.4166,445.771,4.56246e-17,34.8741,-1.459e-12,54.6999,0
36.4166,445.771,1.14061e-17,34.8741,-7.29498e-13,54.6999,0
37.4166,445.771,2.85154e-18,34.8741,-3.64749e-13,54.6999,0
38.4166,445.771,7.12884e-19,34.8741,-1.82374e-13,54.6999,0
39.4166,445.771,1.78221e-19,34.8741,-9.11872e-14,54.6999,0
40.4166,445.771,4.45552e-20,34.8741,-4.55936e-14,54.6999,0
41.4166,445.771,1.11388e-20,34.8741,-2.27968e-14,54.6999,0
42.4166,445.771,2.7847e-21,34.8741,-1.13984e-14,54.6999,0
43.4166,445.771,6.96176e-22,34.8741,-5.6992e-15,54.6999,0
44.4166,445.771,1.74044e-22,34.8741,-2.8496e-15,54.6999,0
45.4166,445.771,4.3511e-23,34.8741,-1.4248e-15,54.6999,0
46.4166,445.771,1.08777e-23,34.8741,-7.124e-16,54.6999,0
47.4166,445.771,2.71944e-24,34.8741,-3.562e-16,54.6999,0
48.4166,445.771,6.79859e-25,34.8741,-1.781e-16,54.6999,0
49.4166,445.771,1.69965e-25,34.8741,-8.905e-17,54.6999,0
50.4166,445.771,4.24912e-26,34.8741,-4.4525e-17,54.6999,0
51.4166,445.771,1.06228e-26,34.8741,-2.22625e-17,54.6999,0
52.4166,445.771,2.6557e-27,34.8741,-1.11313e-17,54.6999,0
53.4166,445.771,6.63925e-28,34.8741,-5.56563e-18,54.6999,0
54.4166,445.771,1.65981e-28,34.8741,-2.78281e-18,54.6999,0
55.4166,445.771,4.14953e-29,34.8741,-1.39141e-18,54.6999,0
56.4166,445.771,1.03738e-29,34.8741,-6.95703e-19,54.6999,0
57.4166,445.771,2.59346e-30,34.8741,-3.47852e-19,54.6999,0
58.4166,445.771,6.48364e-31,34.8741,-1.73926e-19,54.6999,0
59.4166,445.771,1.62091e-31,34.8741,-8.69629e-20,54.6999,0
60.4166,445.771,4.05228e-32,34.8741,-4.34815e-20,54.6999,0
61.4166,445.771,1.01307e-32,34.8741,-2.17407e-20,54.6999,0
62.4166,445.771,2.53267e-33,34.8741,-1.08704e-20,54.6999,0
63.4166,445.771,6.33168e-34,34.8741,-5.43518e-21,54.6999,0
64.4166,445.771,1.58292e-34,34.8741,-2.71759e-21,54.6999,0
65.4166,445.771,3.9573e-35,34.8741,-1.3588e-21,54.6999,0
66.4166,445.771,9.89325e-36,34.8741,-6.79398e-22,54.6999,0
67.4166,445.771,2.47331e-36,34.8741,-3.39699e-22,54.6999,0
68.4166,445.771,6.18328e-37,34.8741,-1.69849e-22,54.6999,0
69.4166,445.771,1.54582e-37,34.8741,-8.49247e-23,54.6999,0
70.4166,445.771,3.86455e-38,34.8741,-4.24624e-23,54.6999,0
71.4166,445.771,9.66138e-39,34.8741,-2.12312e-23,54.6999,0
72.4166,445.771,2.41534e-39,34.8741,-1.06156e-23,54.6999,0
73.4166,445.771,6.03836e-40,34.8741,-5.30779e-24,54.6999,0
74.4166,445.771,1.50959e-40,34.8741,-2.6539e-24,54.6999,0
75.4166,445.771,3.77398e-41,34.8741,-1.32695e-24,54.6999,0
76.4166,445.771,9.43494e-42,34.8741,-6.63474e-25,54.6999,0
77.4166,445.771,2.35873e-42,34.8741,-3.31737e-25,54.6999,0
78.4166,445.771,5.89684e-43,34.8741,-1.65869e-25,54.6999,0
79.4166,445.771,1.47421e-43,34.8741,-8.29343e-26,54.6999,0
80.4166,445.771,3.68552e-44,34.8741,-4.14671e-26,54.6999,0
81.4166,445.771,9.21381e-45,34.8741,-2.07336e-26,54.6999,0
82.4166,445.771,2.30345e-45,34.8741,-1.03668e-26,54.6999,0
83.4166,445.771,5.75863e-46,34.8741,-5.18339e-27,54.6999,0
84.4166,445.771,1.43966e-46,34.8741,-2.5917e-27,54.6999,0
85.4166,445.771,3.59914e-47,34.8741,-1.29585e-27,54.6999,0
86.4166,445.771,8.99786e-48,34.8741,-6.47924e-28,54.6999,0
87.4166,445.771,2.24946e-48,34.8741,-3.23962e-28,54.6999,0
88.4166,445.771,5.62366e-49,34.8741,-1.61981e-28,54.6999,0
89.4166,445.771,1.40592e-49,34.8741,-8.09905e-29,54.6999,0
90.4166,445.771,3.51479e-50,34.8741,-4.04953e-29,54.6999,0
91.4166,445.771,8.78697e-51,34.8741,-2.02476e-29,54.6999,0
92.4166,445.771,2.19674e-51,34.8741,-1.01238e-29,54.6999,0
93.4166,445.771,5.49186e-52,34.8741,-5.06191e-30,54.6999,0
94.4166,445.771,1.37296e-52,34.8741,-2.53095e-30,54.6999,0
95.4166,445.771,3.43241e-53,34.8741,-1.26548e-30,54.6999,0
96.4166,445.771,8.58103e-54,34.8741,-6.32738e-31,54.6999,0
97.4166,445.771,2.14526e-54,34.8741,-3.16369e-31,54.6999,0
98.4166,445.771,5.36314e-55,34.8741,-1.58185e-31,54.6999,0
99.4166,445.771,1.34079e-55,34.8741,-7.90923e-32,54.6999,0
100,445.771,4.87517e-56,34.8741,-4.99506e-32,54.6999,0
