#Time,F,E,D,C,B,A
0,83.1605,0,323.909,0,18.4998,0
3.1e-5,83.1605,0,323.909,0,18.4998,0
0.003906,83.1605,0,323.909,0,18.4998,0
0.488281,83.1605,0,323.909,0,18.4998,0
1.48828,83.1605,0,323.909,0,18.4998,0
2.48828,83.1605,0,323.909,0,18.4998,0
3.48828,83.1605,0,323.909,0,18.4998,0
4.48828,83.1605,0,323.909,0,18.4998,0
5.48828,83.1605,0,323.909,0,18.4998,0
6.48828,83.1605,0,323.909,0,18.4998,0
7.48828,83.1605,0,323.909,0,18.4998,0
8.48828,83.1605,0,323.909,0,18.4998,0
9.48828,83.1605,0,323.909,0,18.4998,0
10.4883,83.1605,0,323.909,0,18.4998,0
11.4883,83.1605,0,323.909,0,18.4998,0
12.4883,83.1605,0,323.909,0,18.4998,0
13.4883,83.1605,0,323.909,0,18.4998,0
14.4883,83.1605,0,323.909,0,18.4998,0
15.4883,83.1605,0,323.909,0,18.4998,0
16.4883,83.1605,0,323.909,0,18.4998,0
17.4883,83.1605,0,323.909,0,18.4998,0
18.4883,83.1605,0,323.909,0,18.4998,0
19.4883,83.1605,0,323.909,0,18.4998,0
20.4883,83.1605,0,323.909,0,18.4998,0
21.4883,83.1605,0,323.909,0,18.4998,0
22.4883,83.1605,0,323.909,0,18.4998,0
23.4883,83.1605,0,323.909,0,18.4998,0
24.4883,83.1605,0,323.909,0,18.4998,0
25.4883,83.1605,0,323.909,0,18.4998,0
26.4883,83.1605,0,323.909,0,18.4998,0
27.4883,83.1605,0,323.909,0,18.4998,0
28.4883,83.1605,0,323.909,0,18.4998,0
29.4883,83.1605,0,323.909,0,18.4998,0
30.4883,83.1605,0,323.909,0,18.4998,0
31.4883,83.1605,0,323.909,0,18.4998,0
32.4883,83.1605,0,323.909,0,18.4998,0
33.4883,83.1605,0,323.909,0,18.4998,0
34.4883,83.1605,0,323.909,0,18.4998,0
35.4883,83.1605,0,323.909,0,18.4998,0
36.4883,83.1605,0,323.909,0,18.4998,0
37.4883,83.1605,0,323.909,0,18.4998,0
38.4883,83.1605,0,323.909,0,18.4998,0
39.4883,83.1605,0,323.909,0,18.4998,0
40.4883,83.1605,0,323.909,0,18.4998,0
41.4883,83.1605,0,323.909,0,18.4998,0
42.4883,83.1605,0,323.909,0,18.4998,0
43.4883,83.1605,0,323.909,0,18.4998,0
44.4883,83.1605,0,323.909,0,18.4998,0
45.4883,83.1605,0,323.909,0,18.4998,0
46.4883,83.1605,0,323.909,0,18.4998,0
47.4883,83.1605,0,323.909,0,18.4998,0
48.4883,83.1605,0,323.909,0,18.4998,0
49.4883,83.1605,0,323.909,0,18.4998,0
50.4883,83.1605,0,323.909,0,18.4998,0
51.4883,83.1605,0,323.909,0,18.4998,0
52.4883,83.1605,0,323.909,0,18.4998,0
53.4883,83.1605,0,323.909,0,18.4998,0
54.4883,83.1605,0,323.909,0,18.4998,0
55.4883,83.1605,0,323.909,0,18.4998,0
56.4883,83.1605,0,323.909,0,18.4998,0
57.4883,83.1605,0,323.909,0,18.4998,0
58.4883,83.1605,0,323.909,0,18.4998,0
59.4883,83.1605,0,323.909,0,18.4998,0
60.4883,83.1605,0,323.909,0,18.4998,0
61.4883,83.1605,0,323.909,0,18.4998,0
62.4883,83.1605,0,323.909,0,18.4998,0
63.4883,83.1605,0,323.909,0,18.4998,0
64.4883,83.1605,0,323.909,0,18.4998,0
65.4883,83.1605,0,323.909,0,18.4998,0
66.4883,83.1605,0,323.909,0,18.4998,0
67.4883,83.1605,0,323.909,0,18.4998,0
68.4883,83.1605,0,323.909,0,18.4998,0
69.4883,83.1605,0,323.909,0,18.4998,0
70.4883,83.1605,0,323.909,0,18.4998,0
71.4883,83.1605,0,323.909,0,18.4998,0
72.4883,83.1605,0,323.909,0,18.4998,0
73.4883,83.1605,0,323.909,0,18.4998,0
74.4883,83.1605,0,323.909,0,18.4998,0
75.4883,83.1605,0,323.909,0,18.4998,0
76.4883,83.1605,0,323.909,0,18.4998,0
77.4883,83.1605,0,323.909,0,18.4998,0
78.4883,83.1605,0,323.909,0,18.4998,0
79.4883,83.1605,0,323.909,0,18.4998,0
80.4883,83.1605,0,323.909,0,18.4998,0
81.4883,83.1605,0,323.909,0,18.4998,0
82.4883,83.1605,0,323.909,0,18.4998,0
83.4883,83.1605,0,323.909,0,18.4998,0
84.4883,83.1605,0,323.909,0,18.4998,0
85.4883,83.1605,0,323.909,0,18.4998,0
86.4883,83.1605,0,323.909,0,18.4998,0
87.4883,83.1605,0,323.909,0,18.4998,0
88.4883,83.1605,0,323.909,0,18.4998,0
89.4883,83.1605,0,323.909,0,18.4998,0
90.4883,83.1605,0,323.909,0,18.4998,0
91.4883,83.1605,0,323.909,0,18.4998,0
92.4883,83.1605,0,323.909,0,18.4998,0
93.4883,83.1605,0,323.909,0,18.4998,0
94.4883,83.1605,0,323.909,0,18.4998,0
95.4883,83.1605,0,323.909,0,18.4998,0
96.4883,83.1605,0,323.909,0,18.4998,0
97.4883,83.1605,0,323.909,0,18.4998,0
98.4883,83.1605,0,323.909,0,18.4998,0
99.4883,83.1605,0,323.909,0,18.4998,0
100,83.1605,0,323.909,0,18.4998,0
