#Time,F,E,D,C,B,A
0,40.4614,12.2137,42.9327,93.3951,0,10.9864
1.00644e-5,40.4617,12.2134,42.9337,93.3942,0.00948855,10.9769
2.36609e-5,40.4622,12.2129,42.9349,93.3929,0.0222943,10.9641
4.48285e-5,40.463,12.2121,42.9369,93.3909,0.042205,10.9442
0.000149209,40.4668,12.2083,42.9467,93.3812,0.139876,10.8465
0.000426305,40.477,12.1981,42.9725,93.3553,0.395063,10.5913
0.000721983,40.4878,12.1873,43.0001,93.3277,0.660908,10.3255
0.00109467,40.5014,12.1737,43.0349,93.2929,0.986732,9.99964
0.0022208,40.5425,12.1326,43.1399,93.1879,1.91153,9.07484
0.00344789,40.587,12.0881,43.2542,93.0736,2.82434,8.16203
0.0048327,40.6372,12.038,43.383,92.9448,3.74711,7.23926
0.00629232,40.6898,11.9854,43.5186,92.8093,4.6095,6.37687
0.00783445,40.7451,11.93,43.6616,92.6662,5.41168,5.57469
0.0094668,40.8034,11.8718,43.8127,92.5151,6.15345,4.83292
0.0119881,40.8928,11.7823,44.0457,92.2821,7.11375,3.87262
0.0152213,41.0065,11.6686,44.3436,91.9843,8.0764,2.90997
0.0184921,41.1205,11.5546,44.6439,91.6839,8.81126,2.17511
0.021838,41.2359,11.4392,44.9502,91.3776,9.37466,1.61171
0.026259,41.3866,11.2885,45.3533,90.9745,9.90516,1.08121
0.0312973,41.5559,11.1192,45.8105,90.5173,10.3034,0.68302
0.0367811,41.7374,10.9377,46.3055,90.0223,10.5742,0.41215
0.042408,41.9205,10.7547,46.8106,89.5172,10.7423,0.244067
0.0484158,42.1126,10.5626,47.3468,88.981,10.8477,0.138627
0.054603,42.3068,10.3683,47.8957,88.4322,10.9095,0.0769018
0.0614529,42.5177,10.1574,48.4993,87.8285,10.9466,0.0397375
0.0688026,42.7392,9.9359,49.1425,87.1853,10.967,0.0193899
0.0769593,42.9794,9.69572,49.8507,86.4771,10.9777,0.00865011
0.086174,43.2438,9.43136,50.6439,85.6839,10.9829,0.00342854
0.096262,43.5249,9.1502,51.504,84.8238,10.9851,0.00122514
0.108888,43.865,8.81011,52.5682,83.7596,10.986,0.000332013
0.121897,44.2022,8.4729,53.6508,82.6771,10.9863,8.3585e-5
0.140197,44.6548,8.02027,55.15,81.1778,10.9864,1.39145e-5
0.158828,45.0908,7.58428,56.6485,79.6794,10.9864,1.40593e-6
0.182839,45.6179,7.05717,58.5389,77.7889,10.9864,1.83353e-7
0.21936,46.3503,6.32482,61.3285,74.9993,10.9864,-5.31761e-7
0.274539,47.3152,5.35989,65.3548,70.973,10.9864,-9.32951e-8
0.365685,48.5975,4.07757,71.5377,64.7902,10.9864,5.26019e-8
0.456891,49.5736,3.10148,77.1854,59.1424,10.9864,6.70172e-9
0.554197,50.3588,2.31627,82.6692,53.6586,10.9864,-9.20956e-9
0.651502,50.9453,1.72985,87.6445,48.6833,10.9864,-1.02271e-8
0.761431,51.4312,1.2439,92.7125,43.6153,10.9864,-7.31143e-8
0.902229,51.8598,0.815352,98.4407,37.8871,10.9864,7.39928e-8
1.05304,52.1565,0.518629,103.745,32.5832,10.9864,-1.51964e-6
1.15017,52.2876,0.387532,106.761,29.5672,10.9864,7.96781e-7
1.22261,52.3633,0.311839,108.827,27.5012,10.9864,-1.6167e-6
1.28883,52.4195,0.255651,110.589,25.7389,10.9864,-4.9169e-7
1.33329,52.4514,0.22373,111.708,24.6197,10.9864,1.41813e-6
1.36561,52.4721,0.203055,112.491,23.8367,10.9864,-1.2393e-6
1.40362,52.4939,0.181175,113.38,22.9477,10.9864,-6.61401e-7
1.43945,52.5124,0.162712,114.188,22.1401,10.9864,7.2084e-9
1.49875,52.5389,0.136193,115.463,20.8653,10.9864,4.12253e-8
1.57919,52.5681,0.106997,117.075,19.2527,10.9864,-2.97743e-9
1.65962,52.591,0.0840603,118.563,17.7648,10.9864,-1.38552e-9
1.74228,52.6095,0.0656012,119.972,16.3554,10.9864,-2.5214e-10
1.82939,52.6246,0.0505172,121.337,14.991,10.9864,1.26007e-10
1.92324,52.637,0.038123,122.68,13.6481,10.9864,7.1364e-11
2.04605,52.6487,0.0263743,124.257,12.0709,10.9864,1.25459e-10
2.22192,52.6596,0.0155582,126.204,10.1242,10.9864,4.0866e-11
2.43135,52.6668,0.00829786,128.117,8.21116,10.9864,-1.72266e-10
2.66859,52.671,0.00406927,129.851,6.47692,10.9864,-1.23013e-10
2.92611,52.6732,0.00187749,131.321,5.00642,10.9864,-9.04961e-11
3.2055,52.6743,0.000810527,132.542,3.78607,10.9864,7.16976e-10
3.48489,52.6748,0.000350015,133.465,2.86319,10.9864,4.89244e-10
3.76427,52.675,0.000151128,134.163,2.16527,10.9864,-3.41431e-9
4.08726,52.6751,5.74246e-5,134.76,1.56763,10.9864,-4.85496e-9
4.51122,52.6751,1.63279e-5,135.302,1.02594,10.9864,-9.31937e-9
4.95342,52.6751,4.3683e-6,135.669,0.659292,10.9864,-3.48114e-8
5.42356,52.6751,1.08512e-6,135.916,0.412009,10.9864,-6.99149e-8
5.91642,52.6751,2.57272e-7,136.076,0.251689,10.9864,2.04651e-7
6.42875,52.6751,5.43855e-8,136.177,0.15079,10.9864,2.21364e-6
6.77497,52.6751,1.99381e-8,136.221,0.106663,10.9864,3.77435e-7
7.00197,52.6751,1.01249e-8,136.243,0.0850015,10.9864,3.33901e-8
7.31574,52.6751,3.95947e-9,136.266,0.0621088,10.9864,4.31048e-9
7.76595,52.6751,9.89209e-10,136.288,0.0395914,10.9864,1.94464e-7
8.24789,52.6751,2.26275e-10,136.303,0.024449,10.9864,2.50717e-7
8.80807,52.6751,3.73901e-11,136.314,0.0139603,10.9864,1.37772e-6
9.04843,52.6751,1.82187e-11,136.317,0.0109776,10.9864,2.1072e-7
9.33807,52.6751,7.6972e-12,136.32,0.00821775,10.9864,7.12927e-9
9.7938,52.6751,2.07205e-12,136.323,0.00521237,10.9864,-3.13699e-9
10.2799,52.6751,5.16497e-13,136.325,0.00320779,10.9864,-5.11128e-10
10.827,52.6751,1.10617e-13,136.326,0.001858,10.9864,-2.10702e-10
11.4647,52.6751,1.95823e-14,136.327,0.000983773,10.9864,9.0644e-10
12.1951,52.6751,2.77822e-15,136.327,0.000475515,10.9864,-3.88009e-9
13.0712,52.6751,2.53727e-16,136.328,0.000199452,10.9864,4.04765e-8
13.8919,52.6751,-3.45653e-19,136.328,8.83275e-5,10.9864,-2.4748e-9
14.8919,52.6751,1.09004e-18,136.328,3.33208e-5,10.9864,-1.51768e-10
15.8919,52.6751,2.9253e-19,136.328,1.15285e-5,10.9864,7.7265e-11
16.8919,52.6751,-6.27307e-22,136.328,3.3826e-6,10.9864,-1.40248e-11
17.8919,52.6751,-8.86204e-21,136.328,9.2096e-7,10.9864,6.64471e-12
18.8919,52.6751,-1.91632e-21,136.328,4.45039e-7,10.9864,1.78517e-15
19.8919,52.6751,-4.79079e-22,136.328,2.2252e-7,10.9864,1.47446e-17
20.8919,52.6751,-1.1977e-22,136.328,1.1126e-7,10.9864,2.44337e-18
21.8919,52.6751,-2.99424e-23,136.328,5.56299e-8,10.9864,1.19746e-18
22.8919,52.6751,-7.48561e-24,136.328,2.7815e-8,10.9864,5.98604e-19
23.8919,52.6751,-1.8714e-24,136.328,1.39075e-8,10.9864,2.99301e-19
24.8919,52.6751,-4.6785e-25,136.328,6.95374e-9,10.9864,1.49651e-19
25.8919,52.6751,-1.16963e-25,136.328,3.47687e-9,10.9864,7.48254e-20
26.8919,52.6751,-2.92407e-26,136.328,1.73844e-9,10.9864,3.74127e-20
27.8919,52.6751,-7.31016e-27,136.328,8.69218e-10,10.9864,1.87063e-20
28.8919,52.6751,-1.82754e-27,136.328,4.34609e-10,10.9864,9.35317e-21
29.8919,52.6751,-4.56885e-28,136.328,2.17304e-10,10.9864,4.67658e-21
30.8919,52.6751,-1.14221e-28,136.328,1.08652e-10,10.9864,2.33829e-21
31.8919,52.6751,-2.85553e-29,136.328,5.43261e-11,10.9864,1.16915e-21
32.8919,52.6751,-7.13883e-30,136.328,2.7163e-11,10.9864,5.84573e-22
33.8919,52.6751,-1.78471e-30,136.328,1.35815e-11,10.9864,2.92287e-22
34.8919,52.6751,-4.46177e-31,136.328,6.79076e-12,10.9864,1.46143e-22
35.8919,52.6751,-1.11544e-31,136.328,3.39538e-12,10.9864,7.30716e-23
36.8919,52.6751,-2.78861e-32,136.328,1.69769e-12,10.9864,3.65358e-23
37.8919,52.6751,-6.97151e-33,136.328,8.48845e-13,10.9864,1.82679e-23
38.8919,52.6751,-1.74288e-33,136.328,4.24423e-13,10.9864,9.13395e-24
39.8919,52.6751,-4.3572e-34,136.328,2.12211e-13,10.9864,4.56698e-24
40.8919,52.6751,-1.0893e-34,136.328,1.06106e-13,10.9864,2.28349e-24
41.8919,52.6751,-2.72325e-35,136.328,5.30528e-14,10.9864,1.14174e-24
42.8919,52.6751,-6.80812e-36,136.328,2.65264e-14,10.9864,5.70872e-25
43.8919,52.6751,-1.70203e-36,136.328,1.32632e-14,10.9864,2.85436e-25
44.8919,52.6751,-4.25507e-37,136.328,6.6316e-15,10.9864,1.42718e-25
45.8919,52.6751,-1.06377e-37,136.328,3.3158e-15,10.9864,7.1359e-26
46.8919,52.6751,-2.65942e-38,136.328,1.6579e-15,10.9864,3.56795e-26
47.8919,52.6751,-6.64855e-39,136.328,8.2895e-16,10.9864,1.78398e-26
48.8919,52.6751,-1.66214e-39,136.328,4.14475e-16,10.9864,8.91988e-27
49.8919,52.6751,-4.15535e-40,136.328,2.07238e-16,10.9864,4.45994e-27
50.8919,52.6751,-1.03884e-40,136.328,1.03619e-16,10.9864,2.22997e-27
51.8919,52.6751,-2.59709e-41,136.328,5.18094e-17,10.9864,1.11498e-27
52.8919,52.6751,-6.49273e-42,136.328,2.59047e-17,10.9864,5.57492e-28
53.8919,52.6751,-1.62318e-42,136.328,1.29524e-17,10.9864,2.78746e-28
54.8919,52.6751,-4.05796e-43,136.328,6.47618e-18,10.9864,1.39373e-28
55.8919,52.6751,-1.01449e-43,136.328,3.23809e-18,10.9864,6.96865e-29
56.8919,52.6751,-2.53622e-44,136.328,1.61904e-18,10.9864,3.48433e-29
57.8919,52.6751,-6.34056e-45,136.328,8.09522e-19,10.9864,1.74216e-29
58.8919,52.6751,-1.58514e-45,136.328,4.04761e-19,10.9864,8.71082e-30
59.8919,52.6751,-3.96285e-46,136.328,2.0238e-19,10.9864,4.35541e-30
60.8919,52.6751,-9.90712e-47,136.328,1.0119e-19,10.9864,2.1777e-30
61.8919,52.6751,-2.47678e-47,136.328,5.05951e-20,10.9864,7.95783e-33
62.8919,52.6751,-6.19195e-48,136.328,2.52976e-20,10.9864,2.90797e-35
63.8919,52.6751,-1.54799e-48,136.328,1.26488e-20,10.9864,1.06264e-37
64.8919,52.6751,-3.86997e-49,136.328,6.32439e-21,10.9864,3.88312e-40
65.8919,52.6751,-9.67492e-50,136.328,3.16219e-21,10.9864,1.41898e-42
66.8919,52.6751,-2.41873e-50,136.328,1.5811e-21,10.9864,5.18528e-45
67.8919,52.6751,-6.04682e-51,136.328,7.90549e-22,10.9864,1.89482e-47
68.8919,52.6751,-1.51171e-51,136.328,3.95274e-22,10.9864,6.92411e-50
69.8919,52.6751,-3.77927e-52,136.328,1.97637e-22,10.9864,2.53023e-52
70.8919,52.6751,-9.44816e-53,136.328,9.88186e-23,10.9864,9.24602e-55
71.8919,52.6751,-2.36204e-53,136.328,4.94093e-23,10.9864,3.37871e-57
72.8919,52.6751,-5.9051e-54,136.328,2.47046e-23,10.9864,1.23466e-59
73.8919,52.6751,-1.47628e-54,136.328,1.23523e-23,10.9864,4.51174e-62
74.8919,52.6751,-3.69069e-55,136.328,6.17616e-24,10.9864,1.64999e-64
75.8919,52.6751,-9.22672e-56,136.328,3.08808e-24,10.9864,6.67713e-67
76.8919,52.6751,-2.30668e-56,136.328,1.54404e-24,10.9864,3.4825e-68
77.8919,52.6751,-5.7667e-57,136.328,7.7202e-25,10.9864,1.63198e-68
78.8919,52.6751,-1.44168e-57,136.328,3.8601e-25,10.9864,8.1559e-69
79.8919,52.6751,-3.60419e-58,136.328,1.93005e-25,10.9864,4.07794e-69
80.8919,52.6751,-9.01047e-59,136.328,9.65025e-26,10.9864,2.03897e-69
81.8919,52.6751,-2.25262e-59,136.328,4.82513e-26,10.9864,1.01948e-69
82.8919,52.6751,-5.63154e-60,136.328,2.41256e-26,10.9864,5.09742e-70
83.8919,52.6751,-1.40789e-60,136.328,1.20628e-26,10.9864,2.54871e-70
84.8919,52.6751,-3.51972e-61,136.328,6.03141e-27,10.9864,1.27436e-70
85.8919,52.6751,-8.79929e-62,136.328,3.0157e-27,10.9864,6.37178e-71
86.8919,52.6751,-2.19982e-62,136.328,1.50785e-27,10.9864,3.18589e-71
87.8919,52.6751,-5.49956e-63,136.328,7.53926e-28,10.9864,1.59294e-71
88.8919,52.6751,-1.37489e-63,136.328,3.76963e-28,10.9864,7.96472e-72
89.8919,52.6751,-3.43722e-64,136.328,1.88482e-28,10.9864,3.98236e-72
90.8919,52.6751,-8.59305e-65,136.328,9.42408e-29,10.9864,1.99118e-72
91.8919,52.6751,-2.14826e-65,136.328,4.71204e-29,10.9864,9.9559e-73
92.8919,52.6751,-5.37066e-66,136.328,2.35602e-29,10.9864,4.97795e-73
93.8919,52.6751,-1.34266e-66,136.328,1.17801e-29,10.9864,2.48898e-73
94.8919,52.6751,-3.35666e-67,136.328,5.89005e-30,10.9864,1.24449e-73
95.8919,52.6751,-8.39166e-68,136.328,2.94502e-30,10.9864,6.22244e-74
96.8919,52.6751,-2.09791e-68,136.328,1.47251e-30,10.9864,3.11122e-74
97.8919,52.6751,-5.24478e-69,136.328,7.36256e-31,10.9864,1.55561e-74
98.8919,52.6751,-1.3112e-69,136.328,3.68128e-31,10.9864,7.77805e-75
99.8919,52.6751,-3.27799e-70,136.328,1.84064e-31,10.9864,3.88902e-75
100,52.6751,-2.47502e-70,136.328,1.66101e-31,10.9864,1.27569e-76
