#Time,F,E,D,C,B,A
0,39.9185,0,5.42574,0,83.7452,169.422
3.1e-5,39.9185,0,5.42574,0,83.8021,169.365
0.00027999,39.9185,0,5.42574,0,84.2589,168.908
0.00066548,39.9185,0,5.42574,0,84.964,168.203
0.00271565,39.9185,0,5.42574,0,88.6648,164.502
0.00622939,39.9185,0,5.42574,0,94.8193,158.347
0.00974313,39.9185,0,5.42574,0,100.744,152.423
0.0142627,39.9185,0,5.42574,0,108.039,145.128
0.0262554,39.9185,0,5.42574,0,125.748,127.419
0.0381312,39.9185,0,5.42574,0,141.154,112.013
0.0507556,39.9185,0,5.42574,0,155.494,97.6726
0.0730114,39.9185,0,5.42574,0,176.451,76.7159
0.0970419,39.9185,0,5.42574,0,194.06,59.1063
0.121072,39.9185,0,5.42574,0,207.628,45.539
0.14544,39.9185,0,5.42574,0,218.209,34.9578
0.179316,39.9185,0,5.42574,0,228.962,24.2047
0.218227,39.9185,0,5.42574,0,237.299,15.8681
0.251175,39.9185,0,5.42574,0,242.069,11.098
0.28883,39.9185,0,5.42574,0,245.791,7.37552
0.329222,39.9185,0,5.42574,0,248.409,4.75811
0.363129,39.9185,0,5.42574,0,249.873,3.29337
0.402551,39.9185,0,5.42574,0,251.02,2.14712
0.446973,39.9185,0,5.42574,0,251.841,1.32591
0.483913,39.9185,0,5.42574,0,252.279,0.888014
0.529292,39.9185,0,5.42574,0,252.624,0.542706
0.578281,39.9185,0,5.42574,0,252.848,0.318933
0.620066,39.9185,0,5.42574,0,252.964,0.202665
0.672965,39.9185,0,5.42574,0,253.053,0.114155
0.726839,39.9185,0,5.42574,0,253.103,0.0636222
0.783253,39.9185,0,5.42574,0,253.132,0.0344967
0.855397,39.9185,0,5.42574,0,253.151,0.0157713
0.92834,39.9185,0,5.42574,0,253.16,0.00714799
1.00854,39.9185,0,5.42574,0,253.164,0.00299626
1.11313,39.9185,0,5.42574,0,253.166,0.000961323
1.22937,39.9185,0,5.42574,0,253.166,0.000274496
1.37056,39.9185,0,5.42574,0,253.167,6.13474e-5
1.52763,39.9185,0,5.42574,0,253.167,1.18552e-5
1.77647,39.9185,0,5.42574,0,253.167,2.49014e-6
2.03029,39.9185,0,5.42574,0,253.167,-2.49329e-7
2.37736,39.9185,0,5.42574,0,253.167,5.45799e-7
2.91436,39.9185,0,5.42574,0,253.167,8.14774e-7
3.54813,39.9185,0,5.42574,0,253.167,-3.55406e-7
4.33863,39.9185,0,5.42574,0,253.167,-6.21126e-9
5.33863,39.9185,0,5.42574,0,253.167,2.81486e-8
6.33863,39.9185,0,5.42574,0,253.167,-2.49523e-7
7.33863,39.9185,0,5.42574,0,253.167,7.22153e-8
8.33863,39.9185,0,5.42574,0,253.167,-1.02076e-7
9.33863,39.9185,0,5.42574,0,253.167,1.06463e-7
10.3386,39.9185,0,5.42574,0,253.167,-1.64467e-8
11.3386,39.9185,0,5.42574,0,253.167,2.70293e-8
12.3386,39.9185,0,5.42574,0,253.167,2.86312e-8
13.3386,39.9185,0,5.42574,0,253.167,-1.16909e-7
14.3386,39.9185,0,5.42574,0,253.167,-1.76583e-9
15.3386,39.9185,0,5.42574,0,253.167,1.03091e-8
16.3386,39.9185,0,5.42574,0,253.167,1.74077e-9
17.3386,39.9185,0,5.42574,0,253.167,1.46882e-10
18.3386,39.9185,0,5.42574,0,253.167,1.23936e-11
19.3386,39.9185,0,5.42574,0,253.167,1.04574e-12
20.3386,39.9185,0,5.42574,0,253.167,8.82374e-14
21.3386,39.9185,0,5.42574,0,253.167,7.44526e-15
22.3386,39.9185,0,5.42574,0,253.167,6.28214e-16
23.3386,39.9185,0,5.42574,0,253.167,5.30072e-17
24.3386,39.9185,0,5.42574,0,253.167,4.47263e-18
25.3386,39.9185,0,5.42574,0,253.167,3.7739e-19
26.3386,39.9185,0,5.42574,0,253.167,3.18433e-20
27.3386,39.9185,0,5.42574,0,253.167,2.68686e-21
28.3386,39.9185,0,5.42574,0,253.167,2.26711e-22
29.3386,39.9185,0,5.42574,0,253.167,1.91294e-23
30.3386,39.9185,0,5.42574,0,253.167,1.61409e-24
31.3386,39.9185,0,5.42574,0,253.167,1.36193e-25
32.3386,39.9185,0,5.42574,0,253.167,1.14917e-26
33.3386,39.9185,0,5.42574,0,253.167,9.69641e-28
34.3386,39.9185,0,5.42574,0,253.167,8.1816e-29
35.3386,39.9185,0,5.42574,0,253.167,6.90345e-30
36.3386,39.9185,0,5.42574,0,253.167,5.82497e-31
37.3386,39.9185,0,5.42574,0,253.167,4.91497e-32
38.3386,39.9185,0,5.42574,0,253.167,4.14714e-33
39.3386,39.9185,0,5.42574,0,253.167,3.49926e-34
40.3386,39.9185,0,5.42574,0,253.167,2.95259e-35
41.3386,39.9185,0,5.42574,0,253.167,2.49133e-36
42.3386,39.9185,0,5.42574,0,253.167,2.10213e-37
43.3386,39.9185,0,5.42574,0,253.167,1.77373e-38
44.3386,39.9185,0,5.42574,0,253.167,1.49663e-39
45.3386,39.9185,0,5.42574,0,253.167,1.26282e-40
46.3386,39.9185,0,5.42574,0,253.167,1.06554e-41
47.3386,39.9185,0,5.42574,0,253.167,8.99076e-43
48.3386,39.9185,0,5.42574,0,253.167,7.5862e-44
49.3386,39.9185,0,5.42574,0,253.167,6.40106e-45
50.3386,39.9185,0,5.42574,0,253.167,5.40106e-46
51.3386,39.9185,0,5.42574,0,253.167,4.55729e-47
52.3386,39.9185,0,5.42574,0,253.167,3.84534e-48
53.3386,39.9185,0,5.42574,0,253.167,3.24461e-49
54.3386,39.9185,0,5.42574,0,253.167,2.73772e-50
55.3386,39.9185,0,5.42574,0,253.167,2.31003e-51
56.3386,39.9185,0,5.42574,0,253.167,1.94915e-52
57.3386,39.9185,0,5.42574,0,253.167,1.64464e-53
58.3386,39.9185,0,5.42574,0,253.167,1.38771e-54
59.3386,39.9185,0,5.42574,0,253.167,1.17092e-55
60.3386,39.9185,0,5.42574,0,253.167,9.87995e-57
61.3386,39.9185,0,5.42574,0,253.167,8.33647e-58
62.3386,39.9185,0,5.42574,0,253.167,7.03412e-59
63.3386,39.9185,0,5.42574,0,253.167,5.93523e-60
64.3386,39.9185,0,5.42574,0,253.167,5.00801e-61
65.3386,39.9185,0,5.42574,0,253.167,4.22564e-62
66.3386,39.9185,0,5.42574,0,253.167,3.5655e-63
67.3386,39.9185,0,5.42574,0,253.167,3.00848e-64
68.3386,39.9185,0,5.42574,0,253.167,2.53849e-65
69.3386,39.9185,0,5.42574,0,253.167,2.14192e-66
70.3386,39.9185,0,5.42574,0,253.167,1.8073e-67
71.3386,39.9185,0,5.42574,0,253.167,1.52496e-68
72.3386,39.9185,0,5.42574,0,253.167,1.28672e-69
73.3386,39.9185,0,5.42574,0,253.167,1.08571e-70
74.3386,39.9185,0,5.42574,0,253.167,9.16095e-72
75.3386,39.9185,0,5.42574,0,253.167,7.7298e-73
76.3386,39.9185,0,5.42574,0,253.167,6.52223e-74
77.3386,39.9185,0,5.42574,0,253.167,5.5033e-75
78.3386,39.9185,0,5.42574,0,253.167,4.64356e-76
79.3386,39.9185,0,5.42574,0,253.167,3.91813e-77
80.3386,39.9185,0,5.42574,0,253.167,3.30602e-78
81.3386,39.9185,0,5.42574,0,253.167,2.78955e-79
82.3386,39.9185,0,5.42574,0,253.167,2.35375e-80
83.3386,39.9185,0,5.42574,0,253.167,1.98604e-81
84.3386,39.9185,0,5.42574,0,253.167,1.67578e-82
85.3386,39.9185,0,5.42574,0,253.167,1.41398e-83
86.3386,39.9185,0,5.42574,0,253.167,1.19308e-84
87.3386,39.9185,0,5.42574,0,253.167,1.0067e-85
88.3386,39.9185,0,5.42574,0,253.167,8.49428e-87
89.3386,39.9185,0,5.42574,0,253.167,7.16727e-88
90.3386,39.9185,0,5.42574,0,253.167,6.04758e-89
91.3386,39.9185,0,5.42574,0,253.167,5.10281e-90
92.3386,39.9185,0,5.42574,0,253.167,4.30563e-91
93.3386,39.9185,0,5.42574,0,253.167,3.63299e-92
94.3386,39.9185,0,5.42574,0,253.167,3.06543e-93
95.3386,39.9185,0,5.42574,0,253.167,2.58654e-94
96.3386,39.9185,0,5.42574,0,253.167,2.18246e-95
97.3386,39.9185,0,5.42574,0,253.167,1.84151e-96
98.3386,39.9185,0,5.42574,0,253.167,1.55382e-97
99.3386,39.9185,0,5.42574,0,253.167,1.31108e-98
100,39.9185,0,5.42574,0,253.167,1.60341e-99
