#Time,F,E,D,C,B,A
0,66.4948,26.6593,376.352,98.15,217.412,81.9318
4.4031e-6,66.4951,26.6589,376.352,98.1495,217.683,81.6608
9.50775e-6,66.4955,26.6585,376.353,98.149,217.996,81.3479
1.73804e-5,66.4962,26.6579,376.354,98.1483,218.476,80.8673
6.28503e-5,66.4998,26.6542,376.358,98.1438,221.197,78.1463
0.00011805,66.5042,26.6498,376.363,98.1384,224.378,74.9656
0.00017325,66.5086,26.6454,376.369,98.133,227.429,71.9143
0.000246136,66.5144,26.6396,376.376,98.1258,231.269,68.0751
0.000424552,66.5287,26.6253,376.394,98.1083,239.824,59.5198
0.000596071,66.5424,26.6116,376.41,98.0915,247.033,52.3102
0.000777235,66.5569,26.5972,376.428,98.0737,253.703,45.641
0.0009584,66.5713,26.5827,376.446,98.0559,259.522,39.8219
0.00117386,66.5885,26.5656,376.467,98.0348,265.485,33.8586
0.00151949,66.616,26.538,376.501,98.0009,273.243,26.1002
0.00186511,66.6435,26.5105,376.535,97.9671,279.224,20.1191
0.00221074,66.671,26.483,376.569,97.9332,283.835,15.5083
0.00261218,66.7029,26.4512,376.608,97.8939,287.882,11.4618
0.00309552,66.7412,26.4128,376.655,97.8466,291.379,7.96408
0.00367045,66.7867,26.3673,376.711,97.7904,294.179,5.16454
0.00422911,66.8309,26.3232,376.766,97.7358,295.953,3.39016
0.00477522,66.874,26.2801,376.819,97.6824,297.097,2.24642
0.00537679,66.9213,26.2327,376.878,97.6237,297.916,1.42753
0.00599546,66.97,26.1841,376.939,97.5633,298.448,0.89546
0.0066019,67.0176,26.1365,376.998,97.5041,298.777,0.566871
0.00726005,67.0691,26.0849,377.062,97.44,298.998,0.34511
0.00800048,67.127,26.027,377.134,97.3679,299.146,0.197444
0.008636,67.1766,25.9775,377.196,97.306,299.221,0.12225
0.00943978,67.2392,25.9149,377.274,97.2278,299.277,0.0666659
0.0102991,67.3059,25.8482,377.358,97.1443,299.309,0.0348576
0.0112537,67.3798,25.7742,377.45,97.0516,299.327,0.0169608
0.0123499,67.4644,25.6896,377.557,96.9453,299.336,0.00741668
0.0134295,67.5475,25.6066,377.661,96.8407,299.34,0.00328208
0.0148628,67.6574,25.4967,377.8,96.702,299.342,0.00111378
0.0167038,67.7978,25.3563,377.978,96.5241,299.343,0.000280204
0.0183333,67.9214,25.2326,378.135,96.3669,299.343,8.02876e-5
0.0206099,68.0932,25.0609,378.354,96.1478,299.344,1.59022e-5
0.0231608,68.2842,24.8698,378.599,95.9029,299.344,1.85547e-6
0.0267281,68.549,24.6051,378.941,95.5614,299.344,1.17697e-6
0.0317389,68.9161,24.238,379.418,95.0837,299.344,-1.09579e-7
0.0411421,69.5903,23.5638,380.308,94.1938,299.344,6.03049e-7
0.0527507,70.3968,22.7573,381.395,93.1067,299.344,-4.73553e-7
0.0669192,71.3438,21.8102,382.705,91.7968,299.344,-1.974e-7
0.0871001,72.6251,20.529,384.539,89.9628,299.344,-4.91554e-8
0.118026,74.444,18.71,387.279,87.2232,299.344,-2.00455e-7
0.153507,76.3333,16.8208,390.319,84.1827,299.344,-1.34039e-7
0.205472,78.7614,14.3927,394.582,79.9199,299.344,4.31444e-7
0.278415,81.5901,11.5639,400.204,74.2978,299.344,-2.28069e-6
0.324662,83.0882,10.0659,403.562,70.94,299.344,-3.42308e-7
0.374911,84.4967,8.65731,407.038,67.4634,299.344,-1.01599e-7
0.437628,85.9815,7.17249,411.14,63.3623,299.344,-5.87646e-7
0.52394,87.6178,5.53625,416.379,58.1227,299.344,-2.72378e-7
0.583351,88.5216,4.63245,419.732,54.7702,299.344,-6.98193e-8
0.669599,89.5777,3.57635,424.258,50.2443,299.344,6.8631e-8
0.77107,90.5163,2.63775,429.106,45.3961,299.344,-2.34289e-7
0.906612,91.3976,1.75648,434.86,39.6418,299.344,-5.34218e-8
1.04253,91.9857,1.16832,439.898,34.604,299.344,1.55679e-7
1.18783,92.3985,0.755527,444.578,29.9241,299.344,1.17133e-6
1.31614,92.6399,0.514143,448.181,26.3208,299.344,1.99211e-7
1.37428,92.7222,0.431849,449.668,24.8341,299.344,2.09469e-9
1.44709,92.8069,0.347108,451.412,23.0901,299.344,4.22048e-8
1.55711,92.9045,0.249526,453.817,20.6845,299.344,9.06809e-10
1.67975,92.9813,0.17271,456.205,18.2971,299.344,-7.94076e-10
1.80776,93.0364,0.117634,458.403,16.0987,299.344,-5.61658e-10
1.94095,93.0752,0.0788831,460.411,14.0911,299.344,-3.31473e-10
2.08803,93.1033,0.0507376,462.338,12.1638,299.344,-8.32949e-10
2.24156,93.122,0.0320093,464.069,10.4326,299.344,-1.03879e-9
2.41417,93.135,0.019069,465.723,8.77867,299.344,6.21114e-9
2.60194,93.1432,0.0108546,467.226,7.27584,299.344,1.42906e-9
2.81321,93.1483,0.00575665,468.612,5.89014,299.344,6.63655e-10
3.05409,93.1512,0.00279278,469.873,4.6293,299.344,8.95889e-10
3.31307,93.1528,0.00128261,470.929,3.57304,299.344,-4.09293e-9
3.58277,93.1535,0.000570353,471.773,2.7284,299.344,-7.70939e-9
3.85247,93.1538,0.000253613,472.418,2.08342,299.344,3.51579e-8
4.13201,93.1539,0.000109457,472.927,1.57532,299.344,3.53611e-8
4.41156,93.154,4.72414e-5,473.311,1.19114,299.344,-6.02334e-9
4.70314,93.154,1.96562e-5,473.612,0.889877,299.344,-2.86071e-10
4.99936,93.154,8.06501e-6,473.84,0.661729,299.344,4.66265e-11
5.31527,93.154,3.11529e-6,474.019,0.482479,299.344,-6.23668e-12
5.63616,93.154,1.18564e-6,474.152,0.350034,299.344,-2.28357e-12
5.9792,93.154,4.21286e-7,474.253,0.248384,299.344,-1.0551e-11
6.33691,93.154,1.43188e-7,474.328,0.173687,299.344,-2.38108e-11
6.70991,93.154,4.63384e-8,474.382,0.119609,299.344,-4.05236e-13
7.11912,93.154,1.3386e-8,474.422,0.0794388,299.344,-2.58024e-13
7.54468,93.154,3.66835e-9,474.45,0.0519032,299.344,-1.08021e-13
8.01779,93.154,8.54437e-10,474.47,0.0323364,299.344,-1.9826e-13
8.52839,93.154,1.76551e-10,474.482,0.019404,299.344,-4.2793e-13
9.08451,93.154,2.98502e-11,474.491,0.0111248,299.344,1.46148e-12
9.71958,93.154,3.6129e-12,474.496,0.00589287,299.344,-7.70196e-12
10.415,93.154,2.97797e-13,474.499,0.002938,299.344,-2.11145e-12
11.2183,93.154,-4.14592e-14,474.501,0.00131391,299.344,-2.0022e-12
12.1722,93.154,-3.05519e-15,474.501,0.000504539,299.344,-1.61937e-11
13.1722,93.154,-9.39777e-16,474.502,0.000184528,299.344,-2.87938e-11
14.1722,93.154,2.37064e-15,474.502,6.68765e-5,299.344,-3.21125e-14
15.1722,93.154,-4.92268e-15,474.502,2.69503e-5,299.344,2.53475e-13
16.1722,93.154,-1.23866e-16,474.502,1.07514e-5,299.344,-3.22421e-12
17.1722,93.154,3.86826e-17,474.502,4.08628e-6,299.344,2.9202e-12
18.1722,93.154,-1.08965e-16,474.502,1.5941e-6,299.344,-2.1577e-14
19.1722,93.154,7.82181e-16,474.502,3.79799e-7,299.344,-1.76522e-13
20.1722,93.154,8.04129e-16,474.502,-5.67254e-8,299.344,-7.65492e-14
21.1722,93.154,2.48854e-16,474.502,-7.35902e-8,299.344,-7.36277e-16
22.1722,93.154,-4.11527e-17,474.502,-3.20581e-9,299.344,5.73812e-17
23.1722,93.154,-4.73164e-17,474.502,2.88916e-8,299.344,-2.50479e-17
24.1722,93.154,5.65054e-19,474.502,2.36306e-8,299.344,-6.97785e-19
25.1722,93.154,1.2197e-17,474.502,9.34794e-9,299.344,5.23368e-20
26.1722,93.154,5.35811e-18,474.502,2.75223e-9,299.344,9.59226e-22
27.1722,93.154,1.02616e-18,474.502,3.32198e-10,299.344,1.12946e-22
28.1722,93.154,-1.39275e-19,474.502,-2.84688e-10,299.344,9.10198e-23
29.1722,93.154,-1.75918e-19,474.502,-2.9419e-10,299.344,4.62288e-23
30.1722,93.154,-4.39794e-20,474.502,-1.47095e-10,299.344,5.7226e-24
31.1722,93.154,-1.09949e-20,474.502,-7.35475e-11,299.344,2.8431e-24
32.1722,93.154,-2.74871e-21,474.502,-3.67738e-11,299.344,1.42147e-24
33.1722,93.154,-6.87179e-22,474.502,-1.83869e-11,299.344,7.10734e-25
34.1722,93.154,-1.71795e-22,474.502,-9.19344e-12,299.344,3.55367e-25
35.1722,93.154,-4.29487e-23,474.502,-4.59672e-12,299.344,1.77683e-25
36.1722,93.154,-1.07372e-23,474.502,-2.29836e-12,299.344,8.88417e-26
37.1722,93.154,-2.68429e-24,474.502,-1.14918e-12,299.344,4.44209e-26
38.1722,93.154,-6.71073e-25,474.502,-5.7459e-13,299.344,2.22104e-26
39.1722,93.154,-1.67768e-25,474.502,-2.87295e-13,299.344,1.11052e-26
40.1722,93.154,-4.19421e-26,474.502,-1.43648e-13,299.344,5.55261e-27
41.1722,93.154,-1.04855e-26,474.502,-7.18238e-14,299.344,2.7763e-27
42.1722,93.154,-2.62138e-27,474.502,-3.59119e-14,299.344,1.38815e-27
43.1722,93.154,-6.55345e-28,474.502,-1.79559e-14,299.344,6.94076e-28
44.1722,93.154,-1.63836e-28,474.502,-8.97797e-15,299.344,3.47038e-28
45.1722,93.154,-4.0959e-29,474.502,-4.48899e-15,299.344,1.73519e-28
46.1722,93.154,-1.02398e-29,474.502,-2.24449e-15,299.344,8.67595e-29
47.1722,93.154,-2.55994e-30,474.502,-1.12225e-15,299.344,4.33798e-29
48.1722,93.154,-6.39985e-31,474.502,-5.61123e-16,299.344,2.16899e-29
49.1722,93.154,-1.59996e-31,474.502,-2.80562e-16,299.344,1.08449e-29
50.1722,93.154,-3.99991e-32,474.502,-1.40281e-16,299.344,5.42247e-30
51.1722,93.154,-9.99976e-33,474.502,-7.01404e-17,299.344,5.70784e-33
52.1722,93.154,-2.49994e-33,474.502,-3.50702e-17,299.344,6.00823e-36
53.1722,93.154,-6.24985e-34,474.502,-1.75351e-17,299.344,6.32443e-39
54.1722,93.154,-1.56246e-34,474.502,-8.76755e-18,299.344,6.65726e-42
55.1722,93.154,-3.90616e-35,474.502,-4.38378e-18,299.344,7.00762e-45
56.1722,93.154,-9.76539e-36,474.502,-2.19189e-18,299.344,7.37641e-48
57.1722,93.154,-2.44135e-36,474.502,-1.09594e-18,299.344,7.76461e-51
58.1722,93.154,-6.10337e-37,474.502,-5.47972e-19,299.344,8.17325e-54
59.1722,93.154,-1.52584e-37,474.502,-2.73986e-19,299.344,8.60338e-57
60.1722,93.154,-3.81461e-38,474.502,-1.36993e-19,299.344,9.05616e-60
61.1722,93.154,-9.53652e-39,474.502,-6.84965e-20,299.344,9.53316e-63
62.1722,93.154,-2.38413e-39,474.502,-3.42482e-20,299.344,1.02369e-65
63.1722,93.154,-5.96032e-40,474.502,-1.71241e-20,299.344,1.11811e-67
64.1722,93.154,-1.49008e-40,474.502,-8.56206e-21,299.344,5.06354e-68
65.1722,93.154,-3.7252e-41,474.502,-4.28103e-21,299.344,2.53122e-68
66.1722,93.154,-9.31301e-42,474.502,-2.14052e-21,299.344,1.26561e-68
67.1722,93.154,-2.32825e-42,474.502,-1.07026e-21,299.344,6.32804e-69
68.1722,93.154,-5.82063e-43,474.502,-5.35129e-22,299.344,3.16402e-69
69.1722,93.154,-1.45516e-43,474.502,-2.67564e-22,299.344,1.58201e-69
70.1722,93.154,-3.63789e-44,474.502,-1.33782e-22,299.344,7.91004e-70
71.1722,93.154,-9.09473e-45,474.502,-6.68911e-23,299.344,3.95502e-70
72.1722,93.154,-2.27368e-45,474.502,-3.34456e-23,299.344,1.97751e-70
73.1722,93.154,-5.68421e-46,474.502,-1.67228e-23,299.344,9.88756e-71
74.1722,93.154,-1.42105e-46,474.502,-8.36139e-24,299.344,4.94378e-71
75.1722,93.154,-3.55263e-47,474.502,-4.18069e-24,299.344,2.47189e-71
76.1722,93.154,-8.88157e-48,474.502,-2.09035e-24,299.344,1.23594e-71
77.1722,93.154,-2.22039e-48,474.502,-1.04517e-24,299.344,6.17972e-72
78.1722,93.154,-5.55098e-49,474.502,-5.22587e-25,299.344,3.08986e-72
79.1722,93.154,-1.38775e-49,474.502,-2.61293e-25,299.344,1.54493e-72
80.1722,93.154,-3.46937e-50,474.502,-1.30647e-25,299.344,7.72465e-73
81.1722,93.154,-8.67341e-51,474.502,-6.53233e-26,299.344,3.86233e-73
82.1722,93.154,-2.16835e-51,474.502,-3.26617e-26,299.344,1.93116e-73
83.1722,93.154,-5.42088e-52,474.502,-1.63308e-26,299.344,9.65582e-74
84.1722,93.154,-1.35522e-52,474.502,-8.16542e-27,299.344,4.82791e-74
85.1722,93.154,-3.38805e-53,474.502,-4.08271e-27,299.344,2.41395e-74
86.1722,93.154,-8.47013e-54,474.502,-2.04135e-27,299.344,1.20698e-74
87.1722,93.154,-2.11753e-54,474.502,-1.02068e-27,299.344,6.03489e-75
88.1722,93.154,-5.29383e-55,474.502,-5.10339e-28,299.344,3.01744e-75
89.1722,93.154,-1.32346e-55,474.502,-2.55169e-28,299.344,1.50872e-75
90.1722,93.154,-3.30864e-56,474.502,-1.27585e-28,299.344,7.54361e-76
91.1722,93.154,-8.27161e-57,474.502,-6.37923e-29,299.344,3.7718e-76
92.1722,93.154,-2.0679e-57,474.502,-3.18962e-29,299.344,1.8859e-76
93.1722,93.154,-5.16976e-58,474.502,-1.59481e-29,299.344,9.42951e-77
94.1722,93.154,-1.29244e-58,474.502,-7.97404e-30,299.344,4.71475e-77
95.1722,93.154,-3.2311e-59,474.502,-3.98702e-30,299.344,2.35738e-77
96.1722,93.154,-8.07775e-60,474.502,-1.99351e-30,299.344,1.17869e-77
97.1722,93.154,-2.01944e-60,474.502,-9.96755e-31,299.344,5.89344e-78
98.1722,93.154,-5.04859e-61,474.502,-4.98378e-31,299.344,2.94672e-78
99.1722,93.154,-1.26215e-61,474.502,-2.49189e-31,299.344,1.47336e-78
100,93.154,-7.37406e-63,474.502,-1.28289e-31,299.344,5.48949e-79
