#Time,F,E,D,C,B,A
0,66.1997,308.166,0,254.453,64.3116,123.586
3.1e-5,66.2284,308.137,0.00788784,254.445,64.3117,123.586
0.000154049,66.3421,308.024,0.0391944,254.414,64.3126,123.585
0.000343782,66.5174,307.848,0.0874604,254.366,64.3156,123.582
0.00122681,67.3318,307.034,0.311973,254.141,64.3592,123.539
0.00393938,69.8202,304.545,1.00041,253.453,64.7981,123.1
0.00625754,71.9308,302.435,1.58728,252.866,65.5342,122.364
0.00831639,73.7931,300.573,2.10735,252.346,66.4613,121.436
0.0103312,75.6044,298.761,2.61527,251.838,67.6112,120.287
0.014507,79.3238,295.042,3.66471,250.788,70.7247,117.173
0.018865,83.1561,291.21,4.75527,249.698,74.9466,112.951
0.0234611,87.1438,287.222,5.90027,248.553,80.3452,107.553
0.0286547,91.5842,282.781,7.1878,247.265,87.4134,100.484
0.0350668,96.9719,277.394,8.76823,245.685,97.1866,90.7112
0.0424389,103.039,271.326,10.5728,243.88,109.242,78.6555
0.0480911,107.601,266.764,11.9473,242.506,118.644,69.2538
0.0530421,111.534,262.831,13.145,241.308,126.735,61.1627
0.057993,115.409,258.956,14.3368,240.116,134.516,53.3815
0.0622317,118.681,255.684,15.3524,239.101,140.829,47.0691
0.0664703,121.912,252.454,16.3637,238.089,146.75,41.1481
0.0713102,125.551,248.815,17.5132,236.94,152.972,34.9253
0.0790259,131.244,243.121,19.3343,235.119,161.615,26.2823
0.0867415,136.807,237.558,21.1415,233.312,168.666,19.2322
0.0937748,141.767,232.598,22.7767,231.676,173.776,14.1213
0.100467,146.39,227.975,24.3219,230.131,177.594,10.3035
0.107159,150.922,223.444,25.8568,228.596,180.533,7.36454
0.114697,155.918,218.448,27.5734,226.88,182.975,4.92299
0.123061,161.331,213.034,29.4633,224.99,184.843,3.05506
0.132426,167.233,207.133,31.5604,222.893,186.173,1.72514
0.14147,172.777,201.589,33.5671,220.886,186.941,0.957214
0.150455,178.138,196.227,35.5428,218.91,187.383,0.51443
0.161895,184.759,189.607,38.033,216.42,187.676,0.221685
0.173383,191.182,183.184,40.505,213.948,187.808,0.0899294
0.184674,197.283,177.082,42.9072,211.546,187.863,0.0350657
0.194266,202.306,172.06,44.9264,209.527,187.883,0.0151008
0.205798,208.157,166.209,47.3288,207.124,187.893,0.00521397
0.218151,214.204,160.162,49.8717,204.581,187.896,0.00157108
0.230391,219.978,154.387,52.3606,202.092,187.897,0.000450428
0.246669,227.337,147.029,55.6236,198.829,187.898,8.01899e-5
0.263546,234.595,139.77,58.951,195.502,187.898,1.14399e-5
0.2853,243.426,130.94,63.1581,191.295,187.898,7.38346e-7
0.314837,254.529,119.836,68.7258,185.727,187.898,3.80206e-7
0.346593,265.419,108.947,74.531,179.922,187.898,-5.08888e-7
0.384221,277.048,97.3172,81.1753,173.278,187.898,-3.04206e-6
0.416959,286.152,88.2135,86.7564,167.697,187.898,1.53605e-6
0.442851,292.745,81.6208,91.0426,163.41,187.898,1.49562e-6
0.466098,298.243,76.1225,94.7975,159.655,187.898,-2.79662e-7
0.491365,303.8,70.5657,98.781,155.672,187.898,-1.32829e-7
0.527376,311.026,63.3396,104.287,150.166,187.898,1.56533e-7
0.579077,320.126,54.2394,111.854,142.599,187.898,-3.93032e-7
0.630942,327.942,46.4238,119.061,135.392,187.898,-2.47331e-6
0.673492,333.505,40.8604,124.701,129.752,187.898,3.96833e-7
0.705776,337.277,37.0886,128.823,125.63,187.898,6.45545e-7
0.736953,340.589,33.777,132.679,121.774,187.898,1.85622e-7
0.772248,343.982,30.3833,136.903,117.55,187.898,-1.53714e-7
0.818471,347.916,26.4492,142.212,112.241,187.898,2.06139e-6
0.847548,350.126,24.2398,145.429,109.024,187.898,-3.20517e-7
0.882093,352.512,21.8535,149.131,105.322,187.898,-8.86523e-7
0.921181,354.93,19.4354,153.168,101.285,187.898,-1.70033e-6
0.954559,356.782,17.5835,156.493,97.9598,187.898,9.66917e-7
0.982853,358.213,16.1526,159.226,95.227,187.898,4.76845e-7
1.01224,359.576,14.7894,161.984,92.4691,187.898,-1.5264e-8
1.04427,360.931,13.4346,164.899,89.5545,187.898,-3.82121e-7
1.09071,362.678,11.6874,168.962,85.4908,187.898,3.50634e-8
1.14415,364.409,9.95625,173.411,81.0422,187.898,1.40176e-7
1.24722,367.057,7.30815,181.348,73.1052,187.898,-7.1085e-7
1.36415,369.22,5.14578,189.416,65.0373,187.898,-2.28182e-7
1.48274,370.76,3.6054,196.688,57.7648,187.898,-2.88135e-7
1.56783,371.573,2.79311,201.4,53.0527,187.898,-4.58756e-7
1.63683,372.095,2.27087,204.937,49.5156,187.898,-3.05466e-7
1.69751,372.473,1.89291,207.853,46.6003,187.898,1.32169e-6
1.73821,372.69,1.67533,209.711,44.7416,187.898,1.62412e-6
1.75785,372.786,1.57947,210.581,43.8715,187.898,1.47226e-7
1.78039,372.889,1.4762,211.559,42.8937,187.898,-4.30711e-7
1.8182,373.048,1.3179,213.151,41.3021,187.898,1.89718e-8
1.89564,373.321,1.04469,216.229,38.2245,187.898,1.06445e-6
1.97281,373.537,0.828798,219.067,35.3858,187.898,-8.91337e-8
2.0687,373.744,0.621603,222.303,32.1502,187.898,-2.91178e-8
2.17184,373.909,0.456166,225.454,28.9994,187.898,-8.96404e-9
2.28284,374.039,0.326968,228.5,25.9528,187.898,-7.96213e-9
2.39541,374.132,0.233253,231.263,23.1896,187.898,-4.23868e-9
2.51793,374.204,0.161507,233.937,20.5156,187.898,-1.16471e-9
2.64423,374.255,0.110569,236.371,18.0815,187.898,1.17559e-8
2.78145,374.292,0.0732538,238.69,15.763,187.898,2.34801e-8
2.92799,374.318,0.0471937,240.839,13.6144,187.898,-5.65197e-9
3.08406,374.336,0.0295467,242.806,11.6471,187.898,-1.37871e-9
3.26046,374.348,0.0174027,244.689,9.76353,187.898,-2.30889e-9
3.44968,374.356,0.00986279,246.373,8.08033,187.898,-3.31917e-9
3.66258,374.36,0.00520528,247.922,6.53081,187.898,1.20506e-8
3.90722,374.363,0.00249676,249.339,5.11352,187.898,-7.27974e-8
4.1698,374.364,0.00113429,250.52,3.93261,187.898,5.36525e-7
4.439,374.365,0.000505173,251.449,3.00447,187.898,4.9216e-8
4.7115,374.365,0.000222716,252.165,2.28781,187.898,6.42422e-9
4.98401,374.366,9.81951e-5,252.711,1.74209,187.898,7.33996e-10
5.26639,374.366,4.20142e-5,253.14,1.3135,187.898,2.21542e-10
5.60136,374.366,1.54097e-5,253.513,0.939629,187.898,-8.61653e-11
6.01105,374.366,4.56026e-6,253.829,0.623782,187.898,-1.34171e-11
6.532,374.366,9.63759e-7,254.082,0.370507,187.898,-2.01066e-10
7.06595,374.366,1.74965e-7,254.236,0.217219,187.898,2.23619e-10
7.60511,374.366,3.57169e-8,254.326,0.126694,187.898,-2.299e-10
8.23539,374.366,1.13413e-9,254.386,0.0674616,187.898,2.88263e-11
8.84035,374.366,1.74884e-9,254.416,0.0368399,187.898,-5.14671e-10
9.53318,374.366,4.04173e-10,254.435,0.0184288,187.898,-2.28732e-11
10.3744,374.366,-2.98837e-10,254.445,0.00794933,187.898,1.88957e-9
11.179,374.366,-2.77034e-10,254.449,0.00355504,187.898,1.34832e-8
12.179,374.366,-7.60653e-11,254.452,0.00131039,187.898,1.64144e-10
13.179,374.366,-2.20475e-11,254.453,0.000480539,187.898,-6.16467e-10
14.179,374.366,7.9187e-11,254.453,0.000179035,187.898,4.74237e-14
15.179,374.366,-2.87307e-11,254.453,6.46488e-5,187.898,1.99764e-11
16.179,374.366,6.89043e-11,254.453,2.44632e-5,187.898,3.3734e-11
17.179,374.366,3.22379e-11,254.453,9.96717e-6,187.898,-4.12213e-12
18.179,374.366,-1.43332e-11,254.453,3.69347e-6,187.898,2.42787e-12
19.179,374.366,2.76265e-11,254.453,1.54384e-6,187.898,7.82361e-11
20.179,374.366,2.76035e-11,254.453,8.86436e-7,187.898,1.14679e-11
21.179,374.366,7.57096e-12,254.453,5.55775e-7,187.898,-1.89277e-13
22.179,374.366,-1.96211e-12,254.453,3.00807e-7,187.898,-2.91434e-13
23.179,374.366,-1.66378e-12,254.453,1.28554e-7,187.898,4.77407e-14
24.179,374.366,9.83744e-14,254.453,4.22508e-8,187.898,1.41527e-14
25.179,374.366,2.28586e-13,254.453,8.08977e-9,187.898,8.65306e-18
26.179,374.366,9.06634e-14,254.453,-1.97833e-9,187.898,-1.38568e-17
27.179,374.366,1.48964e-14,254.453,-3.20062e-9,187.898,-7.71348e-20
28.179,374.366,-3.4531e-15,254.453,-2.16483e-9,187.898,7.05226e-21
29.179,374.366,-8.63276e-16,254.453,-1.08241e-9,187.898,-1.00916e-21
30.179,374.366,-2.15819e-16,254.453,-5.41207e-10,187.898,-5.13466e-22
31.179,374.366,-5.39547e-17,254.453,-2.70604e-10,187.898,-2.5675e-22
32.179,374.366,-1.34887e-17,254.453,-1.35302e-10,187.898,-1.28375e-22
33.179,374.366,-3.37217e-18,254.453,-6.76509e-11,187.898,-6.41876e-23
34.179,374.366,-8.43043e-19,254.453,-3.38255e-11,187.898,-3.20938e-23
35.179,374.366,-2.10761e-19,254.453,-1.69127e-11,187.898,-1.60469e-23
36.179,374.366,-5.26902e-20,254.453,-8.45637e-12,187.898,-8.02345e-24
37.179,374.366,-1.31725e-20,254.453,-4.22818e-12,187.898,-4.01173e-24
38.179,374.366,-3.29313e-21,254.453,-2.11409e-12,187.898,-2.00586e-24
39.179,374.366,-8.23284e-22,254.453,-1.05705e-12,187.898,-1.00293e-24
40.179,374.366,-2.05821e-22,254.453,-5.28523e-13,187.898,-5.01466e-25
41.179,374.366,-5.14552e-23,254.453,-2.64261e-13,187.898,-2.50733e-25
42.179,374.366,-1.28638e-23,254.453,-1.32131e-13,187.898,-1.25366e-25
43.179,374.366,-3.21595e-24,254.453,-6.60654e-14,187.898,-6.26832e-26
44.179,374.366,-8.03988e-25,254.453,-3.30327e-14,187.898,-3.13416e-26
45.179,374.366,-2.00997e-25,254.453,-1.65163e-14,187.898,-1.56708e-26
46.179,374.366,-5.02492e-26,254.453,-8.25817e-15,187.898,-7.8354e-27
47.179,374.366,-1.25623e-26,254.453,-4.12909e-15,187.898,-3.9177e-27
48.179,374.366,-3.14058e-27,254.453,-2.06454e-15,187.898,-1.95885e-27
49.179,374.366,-7.85145e-28,254.453,-1.03227e-15,187.898,-9.79425e-28
50.179,374.366,-1.96286e-28,254.453,-5.16136e-16,187.898,-4.89713e-28
51.179,374.366,-4.90715e-29,254.453,-2.58068e-16,187.898,-2.44856e-28
52.179,374.366,-1.22679e-29,254.453,-1.29034e-16,187.898,-1.22428e-28
53.179,374.366,-3.06697e-30,254.453,-6.4517e-17,187.898,-6.12141e-29
54.179,374.366,-7.66743e-31,254.453,-3.22585e-17,187.898,-3.0607e-29
55.179,374.366,-1.91686e-31,254.453,-1.61292e-17,187.898,-1.53035e-29
56.179,374.366,-4.79214e-32,254.453,-8.06462e-18,187.898,-7.65176e-30
57.179,374.366,-1.19804e-32,254.453,-4.03231e-18,187.898,-3.82588e-30
58.179,374.366,-2.99509e-33,254.453,-2.01615e-18,187.898,-1.91294e-30
59.179,374.366,-7.48772e-34,254.453,-1.00808e-18,187.898,-9.5647e-31
60.179,374.366,-1.87193e-34,254.453,-5.04039e-19,187.898,-4.78235e-31
61.179,374.366,-4.67983e-35,254.453,-2.52019e-19,187.898,-2.39117e-31
62.179,374.366,-1.16996e-35,254.453,-1.2601e-19,187.898,-1.19559e-31
63.179,374.366,-2.92489e-36,254.453,-6.30048e-20,187.898,-5.97794e-32
64.179,374.366,-7.31223e-37,254.453,-3.15024e-20,187.898,-2.98897e-32
65.179,374.366,-1.82806e-37,254.453,-1.57512e-20,187.898,-1.49448e-32
66.179,374.366,-4.57014e-38,254.453,-7.87561e-21,187.898,-7.47242e-33
67.179,374.366,-1.14254e-38,254.453,-3.9378e-21,187.898,-3.73621e-33
68.179,374.366,-2.85634e-39,254.453,-1.9689e-21,187.898,-1.86811e-33
69.179,374.366,-7.14085e-40,254.453,-9.84451e-22,187.898,-9.34053e-34
70.179,374.366,-1.78521e-40,254.453,-4.92225e-22,187.898,-4.67026e-34
71.179,374.366,-4.46303e-41,254.453,-2.46113e-22,187.898,-2.33513e-34
72.179,374.366,-1.11576e-41,254.453,-1.23056e-22,187.898,-1.16757e-34
73.179,374.366,-2.78939e-42,254.453,-6.15282e-23,187.898,-5.83783e-35
74.179,374.366,-6.97348e-43,254.453,-3.07641e-23,187.898,-2.91891e-35
75.179,374.366,-1.74337e-43,254.453,-1.5382e-23,187.898,-1.45946e-35
76.179,374.366,-4.35843e-44,254.453,-7.69102e-24,187.898,-7.29729e-36
77.179,374.366,-1.08961e-44,254.453,-3.84551e-24,187.898,-3.64864e-36
78.179,374.366,-2.72402e-45,254.453,-1.92276e-24,187.898,-1.82432e-36
79.179,374.366,-6.81004e-46,254.453,-9.61378e-25,187.898,-9.12161e-37
80.179,374.366,-1.70251e-46,254.453,-4.80689e-25,187.898,-4.5608e-37
81.179,374.366,-4.25628e-47,254.453,-2.40344e-25,187.898,-2.2804e-37
82.179,374.366,-1.06407e-47,254.453,-1.20172e-25,187.898,-1.1402e-37
83.179,374.366,-2.66017e-48,254.453,-6.00861e-26,187.898,-5.70101e-38
84.179,374.366,-6.65043e-49,254.453,-3.00431e-26,187.898,-2.8505e-38
85.179,374.366,-1.66261e-49,254.453,-1.50215e-26,187.898,-1.42525e-38
86.179,374.366,-4.15652e-50,254.453,-7.51076e-27,187.898,-7.12626e-39
87.179,374.366,-1.03913e-50,254.453,-3.75538e-27,187.898,-3.56313e-39
88.179,374.366,-2.59783e-51,254.453,-1.87769e-27,187.898,-1.78156e-39
89.179,374.366,-6.49456e-52,254.453,-9.38845e-28,187.898,-8.90782e-40
90.179,374.366,-1.62364e-52,254.453,-4.69423e-28,187.898,-4.45391e-40
91.179,374.366,-4.0591e-53,254.453,-2.34711e-28,187.898,-2.22696e-40
92.179,374.366,-1.01478e-53,254.453,-1.17356e-28,187.898,-4.36738e-43
93.179,374.366,-2.53694e-54,254.453,-5.86778e-29,187.898,-8.56508e-46
94.179,374.366,-6.34235e-55,254.453,-2.93389e-29,187.898,-1.67974e-48
95.179,374.366,-1.58559e-55,254.453,-1.46695e-29,187.898,-3.29421e-51
96.179,374.366,-3.96397e-56,254.453,-7.33473e-30,187.898,-6.46042e-54
97.179,374.366,-9.90992e-57,254.453,-3.66736e-30,187.898,-1.26698e-56
98.179,374.366,-2.47748e-57,254.453,-1.83368e-30,187.898,-2.48474e-59
99.179,374.366,-6.1937e-58,254.453,-9.16841e-31,187.898,-4.87293e-62
100,374.366,-3.31728e-59,254.453,-4.73117e-31,187.898,3.6292e-60
