#Time,F,E,D,C,B,A
0,42.4937,0,138.432,32.3255,123.094,13.7043
1.0528e-5,42.4937,0,138.433,32.3252,123.134,13.6644
2.482e-5,42.4937,0,138.433,32.3247,123.188,13.6105
4.68653e-5,42.4937,0,138.434,32.324,123.271,13.5277
0.00017589,42.4937,0,138.438,32.3198,123.746,13.0529
0.00032681,42.4937,0,138.443,32.3149,124.28,12.5187
0.000477731,42.4937,0,138.448,32.3101,124.792,12.0063
0.000679458,42.4937,0,138.454,32.3035,125.445,11.354
0.00117828,42.4937,0,138.47,32.2874,126.91,9.88919
0.00165525,42.4937,0,138.486,32.272,128.133,8.66545
0.00215872,42.4937,0,138.502,32.2558,129.261,7.53753
0.00266218,42.4937,0,138.518,32.2396,130.242,6.55632
0.00326525,42.4937,0,138.538,32.2201,131.251,5.54748
0.00423979,42.4937,0,138.569,32.1887,132.564,4.2346
0.00521433,42.4937,0,138.6,32.1574,133.566,3.23223
0.00618886,42.4937,0,138.632,32.1261,134.332,2.46698
0.0073441,42.4937,0,138.669,32.089,135.008,1.79078
0.00875666,42.4937,0,138.714,32.0437,135.588,1.21026
0.0105374,42.4937,0,138.771,31.9867,136.06,0.738392
0.0116779,42.4937,0,138.807,31.9502,136.261,0.538014
0.0128792,42.4937,0,138.846,31.9118,136.413,0.385422
0.0141937,42.4937,0,138.888,31.8699,136.531,0.267528
0.0155083,42.4937,0,138.93,31.8281,136.613,0.185675
0.0168444,42.4937,0,138.972,31.7856,136.671,0.12808
0.0182864,42.4937,0,139.018,31.7398,136.713,0.0857797
0.019827,42.4937,0,139.067,31.6909,136.743,0.0558863
0.0214666,42.4937,0,139.119,31.639,136.763,0.035415
0.0233068,42.4937,0,139.177,31.5808,136.777,0.0212189
0.0252769,42.4937,0,139.239,31.5187,136.786,0.0122585
0.0274827,42.4937,0,139.308,31.4492,136.792,0.00662926
0.0300036,42.4937,0,139.388,31.37,136.795,0.00328157
0.0327601,42.4937,0,139.474,31.2837,136.797,0.00151987
0.036124,42.4937,0,139.579,31.1786,136.798,0.000592584
0.0399125,42.4937,0,139.697,31.0607,136.798,0.000204546
0.0447573,42.4937,0,139.847,30.9106,136.799,5.12912e-5
0.0507401,42.4937,0,140.031,30.7262,136.799,8.21766e-6
0.0590895,42.4937,0,140.287,30.4707,136.799,5.81748e-7
0.0748473,42.4937,0,140.763,29.9944,136.799,-9.70183e-7
0.0949743,42.4937,0,141.361,29.3967,136.799,1.08985e-7
0.130971,42.4937,0,142.4,28.3573,136.799,-1.07316e-7
0.21999,42.4937,0,144.816,25.9421,136.799,-3.14681e-8
0.369392,42.4937,0,148.416,22.342,136.799,8.71063e-10
0.518794,42.4937,0,151.516,19.2416,136.799,2.64762e-11
0.684948,42.4937,0,154.462,16.296,136.799,-2.78896e-10
0.930917,42.4937,0,158.015,12.7425,136.799,1.03203e-11
1.19257,42.4937,0,160.949,9.80886,136.799,7.67502e-11
1.47068,42.4937,0,163.33,7.42739,136.799,1.41076e-10
1.74879,42.4937,0,165.134,5.62412,136.799,1.44944e-10
2.02689,42.4937,0,166.499,4.25865,136.799,1.08781e-10
2.34025,42.4937,0,167.645,3.11302,136.799,2.61645e-11
2.74036,42.4937,0,168.671,2.08652,136.799,-8.39293e-12
3.16157,42.4937,0,169.388,1.36928,136.799,-3.04048e-11
3.60715,42.4937,0,169.881,0.876971,136.799,-1.52424e-11
4.06029,42.4937,0,170.2,0.557429,136.799,-7.84188e-12
4.52226,42.4937,0,170.406,0.351208,136.799,1.81554e-12
5.02509,42.4937,0,170.545,0.212421,136.799,2.30428e-10
5.54755,42.4937,0,170.632,0.12598,136.799,1.68852e-11
6.11997,42.4937,0,170.687,0.0710755,136.799,1.49794e-11
6.73838,42.4937,0,170.719,0.038298,136.799,4.00523e-11
7.41575,42.4937,0,170.738,0.0194559,136.799,4.22306e-11
8.18854,42.4937,0,170.749,0.00898562,136.799,-2.38392e-11
9.02158,42.4937,0,170.754,0.00390817,136.799,-1.88639e-9
10.0216,42.4937,0,170.756,0.00144036,136.799,7.94978e-8
11.0216,42.4937,0,170.757,0.000530796,136.799,2.07609e-9
12.0216,42.4937,0,170.758,0.000195673,136.799,9.69034e-10
12.875,42.4937,0,170.758,8.28168e-5,136.799,-2.21234e-9
13.875,42.4937,0,170.758,3.05012e-5,136.799,-1.31226e-8
14.875,42.4937,0,170.758,1.08469e-5,136.799,4.74285e-10
15.875,42.4937,0,170.758,3.744e-6,136.799,-9.632e-10
16.875,42.4937,0,170.758,1.82905e-6,136.799,4.79046e-9
17.875,42.4937,0,170.758,6.371e-7,136.799,-2.24327e-9
18.875,42.4937,0,170.758,2.14805e-7,136.799,8.02341e-11
19.875,42.4937,0,170.758,5.60723e-8,136.799,9.59949e-10
20.875,42.4937,0,170.758,1.89691e-9,136.799,5.88337e-12
21.875,42.4937,0,170.758,-9.69693e-9,136.799,-1.36642e-12
22.875,42.4937,0,170.758,-4.84847e-9,136.799,-4.52861e-15
23.875,42.4937,0,170.758,-2.42423e-9,136.799,-1.38515e-16
24.875,42.4937,0,170.758,-1.21212e-9,136.799,-6.26297e-17
25.875,42.4937,0,170.758,-6.06058e-10,136.799,-3.12942e-17
26.875,42.4937,0,170.758,-3.03029e-10,136.799,-1.5647e-17
27.875,42.4937,0,170.758,-1.51515e-10,136.799,-7.82352e-18
28.875,42.4937,0,170.758,-7.57573e-11,136.799,-3.91176e-18
29.875,42.4937,0,170.758,-3.78786e-11,136.799,-1.95588e-18
30.875,42.4937,0,170.758,-1.89393e-11,136.799,-9.7794e-19
31.875,42.4937,0,170.758,-9.46966e-12,136.799,-4.8897e-19
32.875,42.4937,0,170.758,-4.73483e-12,136.799,-2.44485e-19
33.875,42.4937,0,170.758,-2.36741e-12,136.799,-1.22242e-19
34.875,42.4937,0,170.758,-1.18371e-12,136.799,-6.11212e-20
35.875,42.4937,0,170.758,-5.91854e-13,136.799,-3.05606e-20
36.875,42.4937,0,170.758,-2.95927e-13,136.799,-1.52803e-20
37.875,42.4937,0,170.758,-1.47963e-13,136.799,-7.64015e-21
38.875,42.4937,0,170.758,-7.39817e-14,136.799,-3.82008e-21
39.875,42.4937,0,170.758,-3.69909e-14,136.799,-1.91004e-21
40.875,42.4937,0,170.758,-1.84954e-14,136.799,-9.55019e-22
41.875,42.4937,0,170.758,-9.24771e-15,136.799,-4.7751e-22
42.875,42.4937,0,170.758,-4.62386e-15,136.799,-2.38755e-22
43.875,42.4937,0,170.758,-2.31193e-15,136.799,-1.19377e-22
44.875,42.4937,0,170.758,-1.15596e-15,136.799,-5.96887e-23
45.875,42.4937,0,170.758,-5.77982e-16,136.799,-2.98444e-23
46.875,42.4937,0,170.758,-2.88991e-16,136.799,-1.49222e-23
47.875,42.4937,0,170.758,-1.44496e-16,136.799,-7.46109e-24
48.875,42.4937,0,170.758,-7.22478e-17,136.799,-3.73054e-24
49.875,42.4937,0,170.758,-3.61239e-17,136.799,-1.86527e-24
50.875,42.4937,0,170.758,-1.80619e-17,136.799,-9.32636e-25
51.875,42.4937,0,170.758,-9.03097e-18,136.799,-4.66318e-25
52.875,42.4937,0,170.758,-4.51549e-18,136.799,-2.33159e-25
53.875,42.4937,0,170.758,-2.25774e-18,136.799,-1.1658e-25
54.875,42.4937,0,170.758,-1.12887e-18,136.799,-5.82898e-26
55.875,42.4937,0,170.758,-5.64436e-19,136.799,-2.91449e-26
56.875,42.4937,0,170.758,-2.82218e-19,136.799,-1.45724e-26
57.875,42.4937,0,170.758,-1.41109e-19,136.799,-7.28622e-27
58.875,42.4937,0,170.758,-7.05545e-20,136.799,-3.64311e-27
59.875,42.4937,0,170.758,-3.52772e-20,136.799,-1.82155e-27
60.875,42.4937,0,170.758,-1.76386e-20,136.799,-9.10777e-28
61.875,42.4937,0,170.758,-8.81931e-21,136.799,-4.55389e-28
62.875,42.4937,0,170.758,-4.40965e-21,136.799,-2.27694e-28
63.875,42.4937,0,170.758,-2.20483e-21,136.799,-1.13847e-28
64.875,42.4937,0,170.758,-1.10241e-21,136.799,-3.32386e-31
65.875,42.4937,0,170.758,-5.51207e-22,136.799,-9.70425e-34
66.875,42.4937,0,170.758,-2.75603e-22,136.799,-2.83323e-36
67.875,42.4937,0,170.758,-1.37802e-22,136.799,-8.27183e-39
68.875,42.4937,0,170.758,-6.89008e-23,136.799,-2.41503e-41
69.875,42.4937,0,170.758,-3.44504e-23,136.799,-7.05085e-44
70.875,42.4937,0,170.758,-1.72252e-23,136.799,-2.05855e-46
71.875,42.4937,0,170.758,-8.61261e-24,136.799,-6.0101e-49
72.875,42.4937,0,170.758,-4.3063e-24,136.799,-1.75469e-51
73.875,42.4937,0,170.758,-2.15315e-24,136.799,-5.12296e-54
74.875,42.4937,0,170.758,-1.07658e-24,136.799,-1.49569e-56
75.875,42.4937,0,170.758,-5.38288e-25,136.799,-4.36678e-59
76.875,42.4937,0,170.758,-2.69144e-25,136.799,-1.27491e-61
77.875,42.4937,0,170.758,-1.34572e-25,136.799,-3.71931e-64
78.875,42.4937,0,170.758,-6.7286e-26,136.799,-9.41554e-67
79.875,42.4937,0,170.758,-3.3643e-26,136.799,6.94141e-68
80.875,42.4937,0,170.758,-1.68215e-26,136.799,3.62842e-68
81.875,42.4937,0,170.758,-8.41075e-27,136.799,1.81467e-68
82.875,42.4937,0,170.758,-4.20537e-27,136.799,9.07337e-69
83.875,42.4937,0,170.758,-2.10269e-27,136.799,4.53668e-69
84.875,42.4937,0,170.758,-1.05134e-27,136.799,2.26834e-69
85.875,42.4937,0,170.758,-5.25672e-28,136.799,1.13417e-69
86.875,42.4937,0,170.758,-2.62836e-28,136.799,5.67085e-70
87.875,42.4937,0,170.758,-1.31418e-28,136.799,2.83543e-70
88.875,42.4937,0,170.758,-6.5709e-29,136.799,1.41771e-70
89.875,42.4937,0,170.758,-3.28545e-29,136.799,7.08857e-71
90.875,42.4937,0,170.758,-1.64272e-29,136.799,3.54428e-71
91.875,42.4937,0,170.758,-8.21362e-30,136.799,1.77214e-71
92.875,42.4937,0,170.758,-4.10681e-30,136.799,8.86071e-72
93.875,42.4937,0,170.758,-2.05341e-30,136.799,4.43035e-72
94.875,42.4937,0,170.758,-1.0267e-30,136.799,2.21518e-72
95.875,42.4937,0,170.758,-5.13351e-31,136.799,1.10759e-72
96.875,42.4937,0,170.758,-2.56676e-31,136.799,5.53794e-73
97.875,42.4937,0,170.758,-1.28338e-31,136.799,2.76897e-73
98.875,42.4937,0,170.758,-6.41689e-32,136.799,1.38449e-73
99.875,42.4937,0,170.758,-3.20845e-32,136.799,6.92243e-74
100,42.4937,0,170.758,-2.85187e-32,136.799,2.52122e-75
