#Time,F,E,D,C,B,A
0,21.5096,102.155,119.858,55.9508,182.223,162.947
1.1e-5,21.513,102.151,119.858,55.9502,182.652,162.518
2.6e-5,21.5176,102.147,119.859,55.9494,183.235,161.935
5.00859e-5,21.525,102.139,119.861,55.948,184.167,161.003
0.000191916,21.5684,102.096,119.868,55.9401,189.55,155.62
0.000365834,21.6217,102.043,119.878,55.9303,195.906,149.264
0.000539751,21.6749,101.989,119.888,55.9206,202.002,143.168
0.000768683,21.7449,101.919,119.901,55.9078,209.65,135.52
0.00132761,21.9157,101.749,119.932,55.8766,226.651,118.519
0.0018659,22.0799,101.584,119.962,55.8465,241.008,104.162
0.00243448,22.253,101.411,119.994,55.8148,254.292,90.8777
0.00300307,22.4258,101.238,120.025,55.783,265.885,79.2848
0.00367847,22.6307,101.033,120.063,55.7454,277.753,67.4166
0.00476076,22.9583,100.706,120.123,55.6851,293.186,51.9839
0.00584305,23.2847,100.38,120.184,55.6248,305.091,40.0788
0.00692535,23.6101,100.054,120.244,55.5647,314.274,30.8961
0.00817862,23.9856,99.6786,120.313,55.4951,322.315,22.8545
0.00968475,24.435,99.2293,120.397,55.4116,329.265,15.9047
0.0114437,24.9572,98.707,120.494,55.3142,334.758,10.4114
0.0131563,25.463,98.2012,120.589,55.2195,338.28,6.8896
0.0147759,25.939,97.7252,120.678,55.1302,340.509,4.66118
0.0165756,26.4652,97.199,120.777,55.031,342.152,3.01838
0.0183295,26.9753,96.6889,120.874,54.9346,343.194,1.97562
0.0200421,27.4708,96.1934,120.968,54.8406,343.864,1.30566
0.0219817,28.0289,95.6353,121.074,54.7343,344.353,0.816484
0.0238582,28.5658,95.0985,121.177,54.6317,344.652,0.518236
0.025791,29.1156,94.5486,121.282,54.5262,344.846,0.324349
0.0280441,29.7525,93.9117,121.405,54.4035,344.982,0.187739
0.030216,30.3624,93.3018,121.523,54.2855,345.059,0.110766
0.0326041,31.0285,92.6357,121.653,54.156,345.108,0.0619761
0.0355118,31.833,91.8312,121.81,53.9988,345.139,0.0305375
0.0384544,32.6402,91.0241,121.968,53.8401,345.155,0.0149047
0.0418469,33.5618,90.1024,122.151,53.6578,345.163,0.00651425
0.0457853,34.6202,89.0441,122.362,53.4468,345.167,0.00248909
0.0496563,35.6482,88.016,122.568,53.2404,345.169,0.00096459
0.0547561,36.9846,86.6796,122.839,52.9695,345.17,0.000278611
0.0601553,38.3773,85.2869,123.124,52.6843,345.17,7.3396e-5
0.0673873,40.2077,83.4565,123.504,52.3047,345.17,1.42004e-5
0.0768758,42.5499,81.1144,123.998,51.8107,345.17,2.14545e-6
0.0885124,45.3327,78.3315,124.597,51.2113,345.17,4.15208e-7
0.103678,48.8166,74.8476,125.368,50.4405,345.17,8.02689e-8
0.129363,54.3675,69.2967,126.647,49.1614,345.17,3.37972e-7
0.159486,60.355,63.3092,128.106,47.7027,345.17,3.54192e-7
0.205248,68.4763,55.1879,130.24,45.5689,345.17,1.0851e-7
0.269515,78.1538,45.5105,133.076,42.7324,345.17,-2.6771e-8
0.365997,89.5915,34.0728,137.006,38.8022,345.17,8.63747e-8
0.495295,100.546,23.1179,141.713,34.0959,345.17,-7.71049e-8
0.629031,108.186,15.4778,145.981,29.8278,345.17,-5.69667e-8
0.770053,113.526,10.1385,149.904,25.9046,345.17,-7.70006e-8
0.911076,117.023,6.64111,153.311,22.4973,345.17,-7.49271e-8
1.0521,119.314,4.35017,156.27,19.5382,345.17,1.52148e-8
1.19312,120.815,2.84952,158.84,16.9684,345.17,3.39079e-7
1.33415,121.798,1.86654,161.072,14.7365,345.17,5.80128e-7
1.47517,122.442,1.22265,163.01,12.7982,345.17,7.69693e-7
1.61845,122.869,0.795468,164.719,11.0897,345.17,7.44416e-7
1.73489,123.103,0.56094,165.938,9.87079,345.17,2.97853e-7
1.82513,123.236,0.427912,166.789,9.01913,345.17,-2.49558e-7
1.90925,123.332,0.332469,167.517,8.29144,345.17,-1.33886e-7
2.02063,123.426,0.238032,168.391,7.41751,345.17,-3.74621e-8
2.16638,123.511,0.153724,169.397,6.41149,345.17,-7.4673e-7
2.28437,123.556,0.107898,170.111,5.69793,345.17,-2.08599e-7
2.45071,123.599,0.0655084,170.984,4.82475,345.17,1.8917e-7
2.6278,123.626,0.0385115,171.767,4.04174,345.17,-9.25019e-8
2.85478,123.645,0.0194945,172.588,3.22101,345.17,-3.50217e-8
3.09538,123.655,0.00947354,173.276,2.53222,345.17,-3.13174e-8
3.39214,123.66,0.00389245,173.927,1.882,345.17,5.59077e-8
3.70642,123.663,0.00151731,174.434,1.37445,345.17,1.10437e-6
3.98043,123.664,0.000667636,174.763,1.04503,345.17,2.99108e-7
4.21366,123.664,0.000331856,174.981,0.827637,345.17,6.56596e-7
4.39009,123.664,0.000195511,175.115,0.693773,345.17,1.95189e-7
4.52898,123.664,0.000128889,175.205,0.603805,345.17,3.99133e-8
4.71843,123.664,7.3011e-5,175.309,0.499595,345.17,3.06765e-8
4.98844,123.664,3.24985e-5,175.427,0.381378,345.17,3.67611e-8
5.38024,123.664,1.0097e-5,175.551,0.257752,345.17,-1.52466e-8
5.83661,123.664,2.61327e-6,175.645,0.163308,345.17,3.19002e-9
6.41748,123.664,5.02686e-7,175.717,0.0913605,345.17,-1.20231e-9
7.0176,123.664,8.25392e-8,175.758,0.0501361,345.17,-2.12284e-9
7.69631,123.664,1.72344e-8,175.783,0.0254359,345.17,7.3093e-7
8.28168,123.664,1.77329e-9,175.794,0.0141663,345.17,-1.66039e-7
8.52403,123.664,8.90777e-10,175.797,0.0111175,345.17,2.05981e-7
8.72357,123.664,4.95658e-10,175.799,0.00910643,345.17,-3.70703e-8
9.02931,123.664,2.02291e-10,175.802,0.00670752,345.17,2.05262e-8
9.51249,123.664,4.53921e-11,175.804,0.00413687,345.17,-1.25403e-8
10.2449,123.664,2.57536e-12,175.807,0.00198698,345.17,8.6227e-9
11.0979,123.664,-3.13419e-13,175.808,0.000845189,345.17,3.19521e-9
12.0979,123.664,-1.3185e-13,175.808,0.000309438,345.17,-8.35103e-9
13.0979,123.664,1.49422e-15,175.808,0.00011317,345.17,1.86703e-9
14.0979,123.664,-1.00856e-13,175.808,4.16808e-5,345.17,1.06184e-7
15.0979,123.664,-2.55806e-14,175.808,1.47856e-5,345.17,-6.80854e-9
16.0979,123.664,3.23161e-14,175.809,5.47944e-6,345.17,-3.21491e-10
17.0979,123.664,-2.38239e-14,175.809,1.90613e-6,345.17,-3.34762e-10
18.0979,123.664,1.37471e-13,175.809,6.66209e-7,345.17,-2.29227e-9
19.0979,123.664,2.03767e-13,175.809,1.52965e-7,345.17,-1.96885e-9
20.0979,123.664,9.00081e-14,175.809,-7.46647e-8,345.17,-3.72506e-10
21.0979,123.664,-1.22004e-14,175.809,-1.12154e-7,345.17,4.01233e-12
22.0979,123.664,-1.60336e-14,175.809,-6.07199e-8,345.17,-2.61538e-12
23.0979,123.664,-6.93589e-15,175.809,-1.31612e-8,345.17,-3.99174e-10
24.0979,123.664,5.47746e-15,175.809,7.99189e-9,345.17,1.57822e-10
25.0979,123.664,3.87158e-15,175.809,9.52794e-9,345.17,-4.04846e-10
26.0979,123.664,2.58385e-15,175.809,4.57764e-9,345.17,5.58896e-10
27.0979,123.664,-4.40969e-16,175.809,4.98414e-10,345.17,-7.64527e-10
28.0979,123.664,-4.8308e-16,175.809,-5.16796e-10,345.17,-5.12135e-12
29.0979,123.664,-1.65706e-16,175.809,-5.1312e-10,345.17,1.05329e-12
30.0979,123.664,-1.99714e-17,175.809,-3.07137e-10,345.17,1.32096e-14
31.0979,123.664,9.53556e-18,175.809,-1.43085e-10,345.17,-1.42928e-15
32.0979,123.664,2.38389e-18,175.809,-7.15427e-11,345.17,-7.91364e-18
33.0979,123.664,5.95973e-19,175.809,-3.57713e-11,345.17,-1.94064e-18
34.0979,123.664,1.48993e-19,175.809,-1.78857e-11,345.17,-9.6457e-19
35.0979,123.664,3.72483e-20,175.809,-8.94283e-12,345.17,-4.82268e-19
36.0979,123.664,9.31207e-21,175.809,-4.47142e-12,345.17,-2.41134e-19
37.0979,123.664,2.32802e-21,175.809,-2.23571e-12,345.17,-1.20567e-19
38.0979,123.664,5.82005e-22,175.809,-1.11785e-12,345.17,-6.02835e-20
39.0979,123.664,1.45501e-22,175.809,-5.58927e-13,345.17,-3.01418e-20
40.0979,123.664,3.63753e-23,175.809,-2.79464e-13,345.17,-1.50709e-20
41.0979,123.664,9.09382e-24,175.809,-1.39732e-13,345.17,-7.53544e-21
42.0979,123.664,2.27346e-24,175.809,-6.98659e-14,345.17,-3.76772e-21
43.0979,123.664,5.68364e-25,175.809,-3.49329e-14,345.17,-1.88386e-21
44.0979,123.664,1.42091e-25,175.809,-1.74665e-14,345.17,-9.4193e-22
45.0979,123.664,3.55227e-26,175.809,-8.73324e-15,345.17,-4.70965e-22
46.0979,123.664,8.88069e-27,175.809,-4.36662e-15,345.17,-2.35483e-22
47.0979,123.664,2.22017e-27,175.809,-2.18331e-15,345.17,-1.17741e-22
48.0979,123.664,5.55043e-28,175.809,-1.09165e-15,345.17,-5.88707e-23
49.0979,123.664,1.38761e-28,175.809,-5.45827e-16,345.17,-2.94353e-23
50.0979,123.664,3.46902e-29,175.809,-2.72914e-16,345.17,-1.47177e-23
51.0979,123.664,8.67255e-30,175.809,-1.36457e-16,345.17,-7.35883e-24
52.0979,123.664,2.16814e-30,175.809,-6.82284e-17,345.17,-3.67942e-24
53.0979,123.664,5.42034e-31,175.809,-3.41142e-17,345.17,-1.83971e-24
54.0979,123.664,1.35509e-31,175.809,-1.70571e-17,345.17,-9.19854e-25
55.0979,123.664,3.38771e-32,175.809,-8.52855e-18,345.17,-4.59927e-25
56.0979,123.664,8.46928e-33,175.809,-4.26428e-18,345.17,-2.29963e-25
57.0979,123.664,2.11732e-33,175.809,-2.13214e-18,345.17,-1.14982e-25
58.0979,123.664,5.2933e-34,175.809,-1.06607e-18,345.17,-5.74909e-26
59.0979,123.664,1.32333e-34,175.809,-5.33034e-19,345.17,-2.87454e-26
60.0979,123.664,3.30831e-35,175.809,-2.66517e-19,345.17,-1.43727e-26
61.0979,123.664,8.27078e-36,175.809,-1.33259e-19,345.17,-7.18636e-27
62.0979,123.664,2.0677e-36,175.809,-6.66293e-20,345.17,-3.59318e-27
63.0979,123.664,5.16924e-37,175.809,-3.33147e-20,345.17,-1.79659e-27
64.0979,123.664,1.29231e-37,175.809,-1.66573e-20,345.17,-8.98295e-28
65.0979,123.664,3.23077e-38,175.809,-8.32866e-21,345.17,-4.49147e-28
66.0979,123.664,8.07694e-39,175.809,-4.16433e-21,345.17,-2.24574e-28
67.0979,123.664,2.01923e-39,175.809,-2.08217e-21,345.17,-1.12287e-28
68.0979,123.664,5.04809e-40,175.809,-1.04108e-21,345.17,-5.61434e-29
69.0979,123.664,1.26202e-40,175.809,-5.20541e-22,345.17,-2.80717e-29
70.0979,123.664,3.15505e-41,175.809,-2.60271e-22,345.17,-1.40359e-29
71.0979,123.664,7.88763e-42,175.809,-1.30135e-22,345.17,-7.01793e-30
72.0979,123.664,1.97191e-42,175.809,-6.50677e-23,345.17,-3.50896e-30
73.0979,123.664,4.92977e-43,175.809,-3.25338e-23,345.17,-1.75448e-30
74.0979,123.664,1.23244e-43,175.809,-1.62669e-23,345.17,-4.9756e-33
75.0979,123.664,3.08111e-44,175.809,-8.13346e-24,345.17,-1.41105e-35
76.0979,123.664,7.70277e-45,175.809,-4.06673e-24,345.17,-4.00165e-38
77.0979,123.664,1.92569e-45,175.809,-2.03337e-24,345.17,-1.13484e-40
78.0979,123.664,4.81423e-46,175.809,-1.01668e-24,345.17,-3.21835e-43
79.0979,123.664,1.20356e-46,175.809,-5.08341e-25,345.17,-9.12703e-46
80.0979,123.664,3.00889e-47,175.809,-2.54171e-25,345.17,-2.58837e-48
81.0979,123.664,7.52223e-48,175.809,-1.27085e-25,345.17,-7.34045e-51
82.0979,123.664,1.88056e-48,175.809,-6.35427e-26,345.17,-2.08171e-53
83.0979,123.664,4.7014e-49,175.809,-3.17713e-26,345.17,-5.90359e-56
84.0979,123.664,1.17535e-49,175.809,-1.58857e-26,345.17,-1.67422e-58
85.0979,123.664,2.93837e-50,175.809,-7.94283e-27,345.17,-4.74799e-61
86.0979,123.664,7.34593e-51,175.809,-3.97142e-27,345.17,-1.3465e-63
87.0979,123.664,1.83648e-51,175.809,-1.98571e-27,345.17,-3.81859e-66
88.0979,123.664,4.59121e-52,175.809,-9.92854e-28,345.17,-1.08293e-68
89.0979,123.664,1.1478e-52,175.809,-4.96427e-28,345.17,-3.07112e-71
90.0979,123.664,2.8695e-53,175.809,-2.48214e-28,345.17,-8.7095e-74
91.0979,123.664,7.17376e-54,175.809,-1.24107e-28,345.17,-2.46996e-76
92.0979,123.664,1.79344e-54,175.809,-6.20534e-29,345.17,-7.00466e-79
93.0979,123.664,4.4836e-55,175.809,-3.10267e-29,345.17,-1.98648e-81
94.0979,123.664,1.1209e-55,175.809,-1.55133e-29,345.17,-5.63353e-84
95.0979,123.664,2.80225e-56,175.809,-7.75667e-30,345.17,-1.59763e-86
96.0979,123.664,7.00563e-57,175.809,-3.87834e-30,345.17,-4.53079e-89
97.0979,123.664,1.75141e-57,175.809,-1.93917e-30,345.17,-1.2849e-91
98.0979,123.664,4.37852e-58,175.809,-9.69584e-31,345.17,-3.64391e-94
99.0979,123.664,1.09463e-58,175.809,-4.84792e-31,345.17,-1.03339e-96
100,123.664,1.36541e-59,175.809,-2.44718e-31,345.17,3.18892e-95
