#Time,F,E,D,C,B,A
0,0,28.2262,321.762,74.6705,221.618,387.287
4.00226e-6,0.000338903,28.2258,321.762,74.6702,222.614,386.291
8.50564e-6,0.000720235,28.2255,321.762,74.6699,223.731,385.174
1.54888e-5,0.00131154,28.2249,321.763,74.6694,225.458,383.447
5.31862e-5,0.00450337,28.2217,321.765,74.6665,234.648,374.256
0.00011458,0.00970082,28.2165,321.77,74.662,249.147,359.757
0.000175974,0.0148973,28.2113,321.775,74.6574,263.085,345.82
0.000255426,0.0216208,28.2046,321.781,74.6514,280.323,328.582
0.000461634,0.0390635,28.1871,321.796,74.6361,321.159,287.746
0.00066086,0.0559052,28.1703,321.811,74.6212,355.786,253.119
0.00087192,0.0737365,28.1524,321.827,74.6054,387.937,220.967
0.00108298,0.0915564,28.1346,321.842,74.5897,416.006,192.899
0.00133376,0.112715,28.1135,321.861,74.571,444.762,164.143
0.00173559,0.146585,28.0796,321.891,74.541,482.175,126.729
0.00213742,0.180414,28.0458,321.921,74.5111,511.063,97.8415
0.00253925,0.214203,28.012,321.951,74.4812,533.368,75.5367
0.00300408,0.253238,27.9729,321.985,74.4465,552.908,55.9969
0.00356182,0.300004,27.9262,322.027,74.405,569.805,39.0994
0.00421285,0.354493,27.8717,322.075,74.3566,583.197,25.7075
0.00485759,0.408351,27.8178,322.123,74.3087,591.935,16.9699
0.00545339,0.458028,27.7682,322.168,74.2644,597.344,11.5603
0.00611093,0.51275,27.7134,322.216,74.2156,601.337,7.56757
0.00677311,0.567749,27.6584,322.266,74.1665,603.966,4.93875
0.00738735,0.618669,27.6075,322.311,74.1209,605.581,3.32406
0.00807559,0.675612,27.5506,322.362,74.0699,606.772,2.13295
0.00876729,0.732723,27.4935,322.413,74.0187,607.539,1.36549
0.00944706,0.788733,27.4374,322.464,73.9684,608.024,0.880868
0.0102152,0.851888,27.3743,322.52,73.9116,608.368,0.536723
0.0110254,0.918347,27.3078,322.58,73.8518,608.586,0.318239
0.0117334,0.97628,27.2499,322.633,73.7995,608.703,0.201554
0.0126448,1.05068,27.1755,322.7,73.7323,608.793,0.111938
0.0137001,1.13659,27.0896,322.778,73.6545,608.848,0.0566446
0.014629,1.21197,27.0142,322.846,73.5861,608.874,0.0310948
0.0158784,1.31304,26.9131,322.938,73.4942,608.891,0.0138787
0.0171547,1.41589,26.8103,323.032,73.4005,608.899,0.00608732
0.0186357,1.53474,26.6914,323.14,73.2919,608.902,0.00234108
0.0202231,1.66155,26.5646,323.256,73.1756,608.904,0.000840015
0.0220994,1.81066,26.4155,323.394,73.0384,608.904,0.000251531
0.024728,2.01815,26.208,323.585,72.8467,608.905,4.79053e-5
0.0273622,2.22445,26.0017,323.777,72.6551,608.905,8.31292e-6
0.0307369,2.48636,25.7398,324.022,72.4103,608.905,2.08225e-6
0.0352921,2.83572,25.3905,324.351,72.0812,608.905,3.22599e-8
0.0430869,3.42257,24.8036,324.91,71.5215,608.905,7.88807e-7
0.0520079,4.07759,24.1486,325.546,70.8863,608.905,-4.45526e-7
0.0652994,5.02155,23.2046,326.482,69.9504,608.905,-9.66359e-7
0.0801191,6.03061,22.1956,327.511,68.9214,608.905,3.57186e-7
0.0997711,7.30135,20.9248,328.852,67.5801,608.905,1.7895e-7
0.126289,8.9015,19.3247,330.62,65.8116,608.905,-1.45708e-7
0.165556,11.049,17.1772,333.155,63.2775,608.905,1.21997e-7
0.218103,13.5542,14.672,336.394,60.0383,608.905,4.18625e-8
0.297128,16.651,11.5752,340.956,55.4764,608.905,-3.37857e-8
0.399795,19.7194,8.50681,346.369,50.0634,608.905,-1.06963e-7
0.533594,22.5318,5.69435,352.638,43.7937,608.905,-4.15076e-8
0.67244,24.4717,3.75445,358.316,38.1164,608.905,1.88559e-8
0.803234,25.6902,2.53593,362.989,33.4433,608.905,1.00303e-7
0.943094,26.5592,1.66694,367.354,29.0783,608.905,3.80178e-10
1.08537,27.1384,1.08779,371.21,25.2219,608.905,5.88941e-8
1.21327,27.485,0.741169,374.238,22.1939,608.905,1.94321e-9
1.36021,27.7492,0.476948,377.271,19.1609,608.905,1.19809e-8
1.52204,27.9327,0.293512,380.134,16.298,608.905,-8.27733e-9
1.68692,28.0472,0.178987,382.611,13.8207,608.905,-1.98747e-8
1.89346,28.1299,0.0963254,385.19,11.2416,608.905,-3.98635e-9
2.09485,28.1735,0.0526428,387.241,9.1911,608.905,2.49149e-11
2.31662,28.1991,0.0270675,389.069,7.36302,608.905,4.99798e-10
2.57802,28.2138,0.012359,390.763,5.66929,608.905,-3.02284e-9
2.82669,28.2203,0.00586205,392.011,4.42116,608.905,-2.88889e-8
3.15502,28.224,0.00219271,393.248,3.18378,608.905,-1.70394e-9
3.48876,28.2254,0.000805142,394.152,2.28034,608.905,6.18546e-9
3.91929,28.226,0.000224047,394.949,1.48261,608.905,2.45385e-7
4.28063,28.2261,7.58452e-5,395.399,1.033,608.905,-7.29017e-8
4.47825,28.2261,4.19189e-5,395.584,0.847768,608.905,4.24994e-8
4.6932,28.2262,2.19902e-5,395.748,0.683792,608.905,1.12421e-9
5.01235,28.2262,8.40817e-6,395.935,0.496951,608.905,-5.5313e-9
5.3469,28.2262,3.06757e-6,396.076,0.355643,608.905,-1.04984e-9
5.68538,28.2262,1.10585e-6,396.179,0.253518,608.905,-9.73075e-10
6.03669,28.2262,3.83166e-7,396.254,0.178414,608.905,-1.25775e-9
6.4136,28.2262,1.22546e-7,396.31,0.122386,608.905,-1.84441e-9
6.81995,28.2262,3.57518e-8,396.351,0.0815158,608.905,-7.28504e-10
7.24728,28.2262,9.73812e-9,396.379,0.053166,608.905,1.57059e-8
7.72252,28.2262,2.25437e-9,396.399,0.0330527,608.905,4.08313e-10
8.22929,28.2262,4.696e-10,396.412,0.0199099,608.905,3.05325e-10
8.79105,28.2262,7.65195e-11,396.421,0.0113505,608.905,1.39981e-10
9.42476,28.2262,9.33298e-12,396.426,0.0060207,608.905,7.50952e-11
10.1121,28.2262,6.56387e-13,396.429,0.00302607,608.905,-1.61777e-9
10.9328,28.2262,-6.67579e-14,396.431,0.00132988,608.905,2.03294e-8
11.8471,28.2262,1.48805e-14,396.431,0.000531713,608.905,-3.59105e-7
12.8471,28.2262,-6.20111e-15,396.432,0.000194318,608.905,-2.76248e-9
13.8471,28.2262,4.13438e-15,396.432,7.14325e-5,608.905,8.05399e-10
14.8471,28.2262,-1.36151e-14,396.432,2.56355e-5,608.905,-7.98263e-8
15.8471,28.2262,-2.55549e-15,396.432,8.76459e-6,608.905,-2.86933e-9
16.8471,28.2262,2.12763e-15,396.432,3.31585e-6,608.905,-9.30356e-10
17.8471,28.2262,-1.92552e-15,396.432,1.10205e-6,608.905,6.24935e-10
18.8471,28.2262,2.8761e-15,396.432,4.52639e-7,608.905,-1.69081e-9
19.8471,28.2262,-3.33148e-15,396.432,1.39924e-7,608.905,1.68795e-9
20.8471,28.2262,3.54359e-16,396.432,5.20393e-8,608.905,-6.2705e-10
21.8471,28.2262,-3.53517e-17,396.432,2.17962e-8,608.905,2.33808e-10
22.8471,28.2262,-5.32902e-17,396.432,7.94304e-9,608.905,-8.35696e-11
23.8471,28.2262,5.86538e-18,396.432,2.16025e-9,608.905,-2.35072e-10
24.8471,28.2262,8.52797e-18,396.432,1.39595e-10,608.905,-2.7029e-12
25.8471,28.2262,2.13199e-18,396.432,6.97974e-11,608.905,-5.88518e-15
26.8471,28.2262,5.32998e-19,396.432,3.48987e-11,608.905,-2.32461e-17
27.8471,28.2262,1.3325e-19,396.432,1.74494e-11,608.905,-6.36124e-20
28.8471,28.2262,3.33124e-20,396.432,8.72468e-12,608.905,-2.05698e-22
29.8471,28.2262,8.32809e-21,396.432,4.36234e-12,608.905,4.59323e-24
30.8471,28.2262,2.08202e-21,396.432,2.18117e-12,608.905,2.61661e-24
31.8471,28.2262,5.20506e-22,396.432,1.09059e-12,608.905,1.30934e-24
32.8471,28.2262,1.30126e-22,396.432,5.45293e-13,608.905,6.54671e-25
33.8471,28.2262,3.25316e-23,396.432,2.72646e-13,608.905,3.27335e-25
34.8471,28.2262,8.1329e-24,396.432,1.36323e-13,608.905,1.63668e-25
35.8471,28.2262,2.03323e-24,396.432,6.81616e-14,608.905,8.18339e-26
36.8471,28.2262,5.08307e-25,396.432,3.40808e-14,608.905,4.09169e-26
37.8471,28.2262,1.27077e-25,396.432,1.70404e-14,608.905,2.04585e-26
38.8471,28.2262,3.17692e-26,396.432,8.5202e-15,608.905,1.02292e-26
39.8471,28.2262,7.94229e-27,396.432,4.2601e-15,608.905,5.11462e-27
40.8471,28.2262,1.98557e-27,396.432,2.13005e-15,608.905,2.55731e-27
41.8471,28.2262,4.96393e-28,396.432,1.06502e-15,608.905,1.27865e-27
42.8471,28.2262,1.24098e-28,396.432,5.32512e-16,608.905,6.39327e-28
43.8471,28.2262,3.10246e-29,396.432,2.66256e-16,608.905,3.19663e-28
44.8471,28.2262,7.75614e-30,396.432,1.33128e-16,608.905,1.59832e-28
45.8471,28.2262,1.93904e-30,396.432,6.6564e-17,608.905,7.99159e-29
46.8471,28.2262,4.84759e-31,396.432,3.3282e-17,608.905,1.00667e-31
47.8471,28.2262,1.2119e-31,396.432,1.6641e-17,608.905,1.26806e-34
48.8471,28.2262,3.02974e-32,396.432,8.3205e-18,608.905,1.59733e-37
49.8471,28.2262,7.57436e-33,396.432,4.16025e-18,608.905,2.0121e-40
50.8471,28.2262,1.89359e-33,396.432,2.08013e-18,608.905,2.53456e-43
51.8471,28.2262,4.73397e-34,396.432,1.04006e-18,608.905,3.19269e-46
52.8471,28.2262,1.18349e-34,396.432,5.20032e-19,608.905,4.0217e-49
53.8471,28.2262,2.95873e-35,396.432,2.60016e-19,608.905,5.06599e-52
54.8471,28.2262,7.39683e-36,396.432,1.30008e-19,608.905,6.38143e-55
55.8471,28.2262,1.84921e-36,396.432,6.50039e-20,608.905,8.03844e-58
56.8471,28.2262,4.62302e-37,396.432,3.2502e-20,608.905,1.01254e-60
57.8471,28.2262,1.15576e-37,396.432,1.6251e-20,608.905,1.26077e-63
58.8471,28.2262,2.88939e-38,396.432,8.12549e-21,608.905,-5.75537e-66
59.8471,28.2262,7.22347e-39,396.432,4.06275e-21,608.905,-3.67901e-66
60.8471,28.2262,1.80587e-39,396.432,2.03137e-21,608.905,-1.84051e-66
61.8471,28.2262,4.51467e-40,396.432,1.01569e-21,608.905,-9.20258e-67
62.8471,28.2262,1.12867e-40,396.432,5.07843e-22,608.905,-4.60129e-67
63.8471,28.2262,2.82167e-41,396.432,2.53922e-22,608.905,-2.30065e-67
64.8471,28.2262,7.05417e-42,396.432,1.26961e-22,608.905,-1.15032e-67
65.8471,28.2262,1.76354e-42,396.432,6.34804e-23,608.905,-5.75161e-68
66.8471,28.2262,4.40886e-43,396.432,3.17402e-23,608.905,-2.87581e-68
67.8471,28.2262,1.10221e-43,396.432,1.58701e-23,608.905,-1.4379e-68
68.8471,28.2262,2.75554e-44,396.432,7.93505e-24,608.905,-7.18952e-69
69.8471,28.2262,6.88884e-45,396.432,3.96753e-24,608.905,-3.59476e-69
70.8471,28.2262,1.72221e-45,396.432,1.98376e-24,608.905,-1.79738e-69
71.8471,28.2262,4.30552e-46,396.432,9.91881e-25,608.905,-8.9869e-70
72.8471,28.2262,1.07638e-46,396.432,4.95941e-25,608.905,-4.49345e-70
73.8471,28.2262,2.69095e-47,396.432,2.4797e-25,608.905,-2.24672e-70
74.8471,28.2262,6.72738e-48,396.432,1.23985e-25,608.905,-1.12336e-70
75.8471,28.2262,1.68185e-48,396.432,6.19926e-26,608.905,-5.61681e-71
76.8471,28.2262,4.20461e-49,396.432,3.09963e-26,608.905,-2.80841e-71
77.8471,28.2262,1.05115e-49,396.432,1.54981e-26,608.905,-1.4042e-71
78.8471,28.2262,2.62788e-50,396.432,7.74907e-27,608.905,-7.02101e-72
79.8471,28.2262,6.56971e-51,396.432,3.87454e-27,608.905,-3.51051e-72
80.8471,28.2262,1.64243e-51,396.432,1.93727e-27,608.905,-1.75525e-72
81.8471,28.2262,4.10607e-52,396.432,9.68634e-28,608.905,-8.77627e-73
82.8471,28.2262,1.02652e-52,396.432,4.84317e-28,608.905,-4.38813e-73
83.8471,28.2262,2.56629e-53,396.432,2.42159e-28,608.905,-2.19407e-73
84.8471,28.2262,6.41573e-54,396.432,1.21079e-28,608.905,-1.09703e-73
85.8471,28.2262,1.60393e-54,396.432,6.05396e-29,608.905,-5.48517e-74
86.8471,28.2262,4.00983e-55,396.432,3.02698e-29,608.905,-2.74258e-74
87.8471,28.2262,1.00246e-55,396.432,1.51349e-29,608.905,-1.37129e-74
88.8471,28.2262,2.50614e-56,396.432,7.56745e-30,608.905,-6.85646e-75
89.8471,28.2262,6.26536e-57,396.432,3.78373e-30,608.905,-3.42823e-75
90.8471,28.2262,1.56634e-57,396.432,1.89186e-30,608.905,-1.71411e-75
91.8471,28.2262,3.91585e-58,396.432,9.45932e-31,608.905,-8.57057e-76
92.8471,28.2262,9.78963e-59,396.432,4.72966e-31,608.905,-4.28529e-76
93.8471,28.2262,2.44741e-59,396.432,2.36483e-31,608.905,-2.14264e-76
94.8471,28.2262,6.11852e-60,396.432,1.18241e-31,608.905,-1.07132e-76
95.8471,28.2262,1.52963e-60,396.432,5.91207e-32,608.905,-5.35661e-77
96.8471,28.2262,3.82407e-61,396.432,2.95604e-32,608.905,-2.6783e-77
97.8471,28.2262,9.56018e-62,396.432,1.47802e-32,608.905,-1.33915e-77
98.8471,28.2262,2.39005e-62,396.432,7.39009e-33,608.905,-6.69576e-78
99.8471,28.2262,5.97511e-63,396.432,3.69505e-33,608.905,-3.34788e-78
100,28.2262,4.0966e-63,396.432,3.20513e-33,608.905,-2.73988e-80
