#Time,F,E,D,C,B,A
0,157.047,324.322,157.623,43.4811,0,0
3.1e-5,157.077,324.292,157.624,43.4797,0,0
0.000748763,157.774,323.595,157.656,43.4485,0,0
0.00163791,158.636,322.733,157.694,43.4099,0,0
0.00301683,159.968,321.401,157.754,43.3501,0,0
0.0103441,166.956,314.413,158.07,43.0336,0,0
0.0229905,178.662,302.707,158.611,42.4928,0,0
0.0356368,189.932,291.438,159.145,41.9588,0,0
0.0518903,203.802,277.568,159.822,41.2824,0,0
0.0950606,237.518,243.851,161.566,39.5381,0,0
0.137924,266.942,214.427,163.225,37.8792,0,0
0.18354,294.367,187.003,164.914,36.1901,0,0
0.263908,334.431,146.939,167.709,33.3954,0,0
0.350667,368.104,113.265,170.484,30.6202,0,0
0.437427,394.061,87.3088,173.029,28.0755,0,0
0.525391,414.311,67.0579,175.393,25.7114,0,0
0.647562,434.888,46.4813,178.35,22.7545,0,0
0.787707,450.842,30.5272,181.325,19.779,0,0
0.906318,459.982,21.387,183.537,17.5668,0,0
1.04134,467.106,14.2636,185.756,15.348,0,0
1.18558,472.116,9.25344,187.818,13.2864,0,0
1.30646,474.93,6.43894,189.33,11.7737,0,0
1.44563,477.128,4.24125,190.86,10.244,0,0
1.60153,478.712,2.65688,192.339,8.76522,0,0
1.72945,479.559,1.81017,193.391,7.71279,0,0
1.88677,480.24,1.12913,194.514,6.59,0,0
2.04688,480.671,0.698471,195.489,5.61505,0,0
2.19087,480.916,0.453462,196.242,4.86202,0,0
2.36314,481.099,0.270457,197.011,4.09261,0,0
2.55281,481.216,0.153106,197.719,3.38554,0,0
2.73168,481.28,0.089528,198.273,2.83106,0,0
2.93819,481.321,0.0481868,198.801,2.30282,0,0
3.18742,481.346,0.0228141,199.309,1.79483,0,0
3.43581,481.358,0.0108308,199.704,1.40006,0,0
3.72567,481.365,0.00454259,200.056,1.04776,0,0
4.08266,481.368,0.00155849,200.371,0.733207,0,0
4.42508,481.369,0.000558572,200.583,0.520612,0,0
4.92166,481.369,0.000128462,200.787,0.316852,0,0
5.41033,481.369,2.96965e-5,200.91,0.194373,0,0
5.94676,481.369,6.32462e-6,200.99,0.113679,0,0
6.56161,481.369,1.04592e-6,201.043,0.0614716,0,0
7.15758,481.369,1.55443e-7,201.07,0.0338731,0,0
7.88607,481.369,7.34821e-9,201.088,0.0163511,0,0
8.7569,481.369,5.85795e-8,201.097,0.00684761,0,0
9.58062,481.369,-1.75154e-8,201.101,0.00300494,0,0
10.5806,481.369,8.53907e-9,201.103,0.00110768,0,0
11.5806,481.369,-2.75928e-8,201.104,0.000405744,0,0
12.5594,481.369,2.71377e-8,201.104,0.000154704,0,0
13.5594,481.369,-6.91886e-9,201.104,5.57739e-5,0,0
14.5594,481.369,2.67407e-8,201.104,2.1643e-5,0,0
15.5594,481.369,-6.26892e-8,201.104,6.00831e-6,0,0
16.5594,481.369,-1.02897e-8,201.104,1.74968e-6,0,0
17.5594,481.369,2.60989e-9,201.104,8.13461e-7,0,0
18.5594,481.369,-3.10621e-9,201.104,4.78093e-7,0,0
19.5594,481.369,1.18193e-9,201.104,1.55714e-7,0,0
20.5594,481.369,8.70437e-10,201.104,2.89524e-8,0,0
21.5594,481.369,2.55535e-10,201.104,-7.98085e-9,0,0
22.5594,481.369,1.6856e-11,201.104,-1.21752e-8,0,0
23.5594,481.369,-2.09013e-11,201.104,-8.14396e-9,0,0
24.5594,481.369,-1.11623e-11,201.104,-4.08013e-9,0,0
25.5594,481.369,-2.79058e-12,201.104,-2.04007e-9,0,0
26.5594,481.369,-6.97646e-13,201.104,-1.02003e-9,0,0
27.5594,481.369,-1.74412e-13,201.104,-5.10017e-10,0,0
28.5594,481.369,-4.36029e-14,201.104,-2.55008e-10,0,0
29.5594,481.369,-1.09007e-14,201.104,-1.27504e-10,0,0
30.5594,481.369,-2.72518e-15,201.104,-6.37521e-11,0,0
31.5594,481.369,-6.81295e-16,201.104,-3.1876e-11,0,0
32.5594,481.369,-1.70324e-16,201.104,-1.5938e-11,0,0
33.5594,481.369,-4.25809e-17,201.104,-7.96901e-12,0,0
34.5594,481.369,-1.06452e-17,201.104,-3.98451e-12,0,0
35.5594,481.369,-2.66131e-18,201.104,-1.99225e-12,0,0
36.5594,481.369,-6.65327e-19,201.104,-9.96126e-13,0,0
37.5594,481.369,-1.66332e-19,201.104,-4.98063e-13,0,0
38.5594,481.369,-4.15829e-20,201.104,-2.49032e-13,0,0
39.5594,481.369,-1.03957e-20,201.104,-1.24516e-13,0,0
40.5594,481.369,-2.59893e-21,201.104,-6.22579e-14,0,0
41.5594,481.369,-6.49734e-22,201.104,-3.1129e-14,0,0
42.5594,481.369,-1.62433e-22,201.104,-1.55645e-14,0,0
43.5594,481.369,-4.06083e-23,201.104,-7.78224e-15,0,0
44.5594,481.369,-1.01521e-23,201.104,-3.89112e-15,0,0
45.5594,481.369,-2.53802e-24,201.104,-1.94556e-15,0,0
46.5594,481.369,-6.34505e-25,201.104,-9.7278e-16,0,0
47.5594,481.369,-1.58626e-25,201.104,-4.8639e-16,0,0
48.5594,481.369,-3.96566e-26,201.104,-2.43195e-16,0,0
49.5594,481.369,-9.91415e-27,201.104,-1.21597e-16,0,0
50.5594,481.369,-2.47854e-27,201.104,-6.07987e-17,0,0
51.5594,481.369,-6.19634e-28,201.104,-3.03994e-17,0,0
52.5594,481.369,-1.54909e-28,201.104,-1.51997e-17,0,0
53.5594,481.369,-3.87271e-29,201.104,-7.59984e-18,0,0
54.5594,481.369,-9.68178e-30,201.104,-3.79992e-18,0,0
55.5594,481.369,-2.42045e-30,201.104,-1.89996e-18,0,0
56.5594,481.369,-6.05112e-31,201.104,-9.4998e-19,0,0
57.5594,481.369,-1.51278e-31,201.104,-4.7499e-19,0,0
58.5594,481.369,-3.78195e-32,201.104,-2.37495e-19,0,0
59.5594,481.369,-9.45487e-33,201.104,-1.18748e-19,0,0
60.5594,481.369,-2.36372e-33,201.104,-5.93738e-20,0,0
61.5594,481.369,-5.90929e-34,201.104,-2.96869e-20,0,0
62.5594,481.369,-1.47732e-34,201.104,-1.48434e-20,0,0
63.5594,481.369,-3.69331e-35,201.104,-7.42172e-21,0,0
64.5594,481.369,-9.23327e-36,201.104,-3.71086e-21,0,0
65.5594,481.369,-2.30832e-36,201.104,-1.85543e-21,0,0
66.5594,481.369,-5.77079e-37,201.104,-9.27715e-22,0,0
67.5594,481.369,-1.4427e-37,201.104,-4.63858e-22,0,0
68.5594,481.369,-3.60675e-38,201.104,-2.31929e-22,0,0
69.5594,481.369,-9.01686e-39,201.104,-1.15964e-22,0,0
70.5594,481.369,-2.25422e-39,201.104,-5.79822e-23,0,0
71.5594,481.369,-5.63554e-40,201.104,-2.89911e-23,0,0
72.5594,481.369,-1.40889e-40,201.104,-1.44955e-23,0,0
73.5594,481.369,-3.52221e-41,201.104,-7.24777e-24,0,0
74.5594,481.369,-8.80553e-42,201.104,-3.62389e-24,0,0
75.5594,481.369,-2.20138e-42,201.104,-1.81194e-24,0,0
76.5594,481.369,-5.50346e-43,201.104,-9.05972e-25,0,0
77.5594,481.369,-1.37586e-43,201.104,-4.52986e-25,0,0
78.5594,481.369,-3.43966e-44,201.104,-2.26493e-25,0,0
79.5594,481.369,-8.59915e-45,201.104,-1.13246e-25,0,0
80.5594,481.369,-2.14979e-45,201.104,-5.66232e-26,0,0
81.5594,481.369,-5.37447e-46,201.104,-2.83116e-26,0,0
82.5594,481.369,-1.34362e-46,201.104,-1.41558e-26,0,0
83.5594,481.369,-3.35904e-47,201.104,-7.0779e-27,0,0
84.5594,481.369,-8.39761e-48,201.104,-3.53895e-27,0,0
85.5594,481.369,-2.0994e-48,201.104,-1.76948e-27,0,0
86.5594,481.369,-5.24851e-49,201.104,-8.84738e-28,0,0
87.5594,481.369,-1.31213e-49,201.104,-4.42369e-28,0,0
88.5594,481.369,-3.28032e-50,201.104,-2.21185e-28,0,0
89.5594,481.369,-8.20079e-51,201.104,-1.10592e-28,0,0
90.5594,481.369,-2.0502e-51,201.104,-5.52961e-29,0,0
91.5594,481.369,-5.12549e-52,201.104,-2.76481e-29,0,0
92.5594,481.369,-1.28137e-52,201.104,-1.3824e-29,0,0
93.5594,481.369,-3.20343e-53,201.104,-6.91202e-30,0,0
94.5594,481.369,-8.00858e-54,201.104,-3.45601e-30,0,0
95.5594,481.369,-2.00215e-54,201.104,-1.728e-30,0,0
96.5594,481.369,-5.00537e-55,201.104,-8.64002e-31,0,0
97.5594,481.369,-1.25134e-55,201.104,-4.32001e-31,0,0
98.5594,481.369,-3.12835e-56,201.104,-2.16e-31,0,0
99.5594,481.369,-7.82088e-57,201.104,-1.08e-31,0,0
100,481.369,-3.36854e-57,201.104,-7.497e-32,0,0
