#Time,F,E,D,C,B,A
0,158.948,37.6386,155.323,1.46108,0,72.0343
0,158.948,37.6386,155.323,1.46108,0.00592554,72.0283
0,158.948,37.6385,155.323,1.46108,0.0167582,72.0175
0,158.948,37.6384,155.323,1.46108,0.0275891,72.0067
0,158.948,37.6384,155.323,1.46108,0.0384185,71.9959
0,158.948,37.6383,155.323,1.46108,0.0492462,71.985
0,158.948,37.6383,155.323,1.46108,0.0600723,71.9742
0,158.948,37.6382,155.323,1.46108,0.0708968,71.9634
0,158.948,37.6382,155.323,1.46108,0.0817197,71.9526
0,158.948,37.6381,155.323,1.46108,0.0925409,71.9417
0,158.948,37.6381,155.323,1.46108,0.10336,71.9309
0,158.948,37.638,155.323,1.46107,0.114178,71.9201
0,158.948,37.6379,155.323,1.46107,0.124995,71.9093
0,158.948,37.6379,155.323,1.46107,0.135809,71.8985
0,158.948,37.6378,155.323,1.46107,0.146623,71.8876
0,158.948,37.6378,155.323,1.46107,0.157434,71.8768
0,158.949,37.6377,155.323,1.46107,0.168244,71.866
0,158.949,37.6377,155.323,1.46107,0.179052,71.8552
0,158.949,37.6376,155.323,1.46107,0.189859,71.8444
0,158.949,37.6376,155.323,1.46107,0.200664,71.8336
0,158.949,37.6375,155.323,1.46107,0.211467,71.8228
0,158.949,37.6375,155.323,1.46107,0.222269,71.812
0,158.949,37.6374,155.323,1.46107,0.233069,71.8012
0,158.949,37.6373,155.323,1.46107,0.243867,71.7904
0,158.949,37.6373,155.323,1.46107,0.254664,71.7796
0,158.949,37.6372,155.323,1.46106,0.265459,71.7688
0,158.949,37.6372,155.323,1.46106,0.276253,71.758
0,158.949,37.6371,155.323,1.46106,0.287045,71.7472
0,158.949,37.6371,155.323,1.46106,0.297835,71.7364
0,158.949,37.637,155.323,1.46106,0.308624,71.7256
0,158.949,37.637,155.323,1.46106,0.319411,71.7149
0,158.949,37.6369,155.323,1.46106,0.330196,71.7041
0,158.949,37.6369,155.323,1.46106,0.34098,71.6933
0,158.949,37.6368,155.323,1.46106,0.351762,71.6825
0,158.95,37.6367,155.323,1.46106,0.362543,71.6717
0,158.95,37.6367,155.323,1.46106,0.373322,71.6609
0,158.95,37.6366,155.323,1.46106,0.384099,71.6502
0,158.95,37.6366,155.323,1.46106,0.394875,71.6394
0,158.95,37.6365,155.323,1.46106,0.405649,71.6286
0,158.95,37.6365,155.323,1.46105,0.416422,71.6178
0,158.95,37.6364,155.323,1.46105,0.427193,71.6071
0,158.95,37.6364,155.323,1.46105,0.437962,71.5963
0,158.95,37.6363,155.323,1.46105,0.44873,71.5855
0,158.95,37.6363,155.323,1.46105,0.459496,71.5748
0,158.95,37.6362,155.323,1.46105,0.47026,71.564
0,158.95,37.6361,155.323,1.46105,0.481023,71.5532
0,158.95,37.6361,155.323,1.46105,0.491784,71.5425
0,158.95,37.636,155.323,1.46105,0.502544,71.5317
0,158.95,37.636,155.323,1.46105,0.513301,71.521
0,158.95,37.6359,155.323,1.46105,0.524058,71.5102
0,158.95,37.6359,155.323,1.46105,0.534812,71.4995
0,158.95,37.6358,155.323,1.46105,0.545566,71.4887
0,158.951,37.6358,155.323,1.46105,0.556317,71.478
0,158.951,37.6357,155.323,1.46104,0.567067,71.4672
0,158.951,37.6357,155.323,1.46104,0.577815,71.4565
0,158.951,37.6356,155.323,1.46104,0.588562,71.4457
0,158.951,37.6355,155.323,1.46104,0.599307,71.435
0,158.951,37.6355,155.323,1.46104,0.61005,71.4242
0,158.951,37.6354,155.323,1.46104,0.620792,71.4135
0,158.951,37.6354,155.323,1.46104,0.634483,71.3998
0,158.951,37.6353,155.323,1.46104,0.648171,71.3861
0,158.951,37.6352,155.323,1.46104,0.661857,71.3724
0,158.951,37.6352,155.323,1.46104,0.67554,71.3587
0,158.951,37.6351,155.323,1.46104,0.68922,71.345
0,158.951,37.635,155.323,1.46104,0.702898,71.3314
0,158.951,37.6349,155.323,1.46103,0.716574,71.3177
0,158.951,37.6349,155.323,1.46103,0.730246,71.304
0,158.951,37.6348,155.323,1.46103,0.743916,71.2904
0,158.952,37.6347,155.323,1.46103,0.757584,71.2767
0,158.952,37.6347,155.323,1.46103,0.771248,71.263
0,158.952,37.6346,155.323,1.46103,0.78491,71.2494
0,158.952,37.6345,155.323,1.46103,0.79857,71.2357
0,158.952,37.6345,155.323,1.46103,0.812227,71.222
0,158.952,37.6344,155.323,1.46103,0.825881,71.2084
0,158.952,37.6343,155.323,1.46103,0.839533,71.1947
0,158.952,37.6342,155.323,1.46103,0.853182,71.1811
0,158.952,37.6342,155.323,1.46103,0.866828,71.1674
0,158.952,37.6341,155.323,1.46102,0.880472,71.1538
0,158.952,37.634,155.323,1.46102,0.894113,71.1402
0,158.952,37.634,155.323,1.46102,0.907752,71.1265
0,158.952,37.6339,155.323,1.46102,0.921388,71.1129
0,158.952,37.6338,155.323,1.46102,0.935021,71.0992
0,158.953,37.6338,155.323,1.46102,0.948652,71.0856
0,158.953,37.6337,155.323,1.46102,0.96228,71.072
0,158.953,37.6336,155.323,1.46102,0.975906,71.0584
0,158.953,37.6336,155.323,1.46102,0.989528,71.0447
0,158.953,37.6335,155.323,1.46102,1.00315,71.0311
0,158.953,37.6334,155.323,1.46102,1.01677,71.0175
0,158.953,37.6333,155.323,1.46101,1.03038,71.0039
0,158.953,37.6333,155.323,1.46101,1.04399,70.9903
0,158.953,37.6332,155.323,1.46101,1.0576,70.9767
0,158.953,37.6331,155.323,1.46101,1.07121,70.9631
0,158.953,37.6331,155.323,1.46101,1.08482,70.9495
0,158.953,37.633,155.323,1.46101,1.09842,70.9359
0,158.953,37.6329,155.323,1.46101,1.11202,70.9223
0,158.953,37.6329,155.323,1.46101,1.12561,70.9087
0,158.953,37.6328,155.323,1.46101,1.13921,70.8951
0,158.954,37.6327,155.323,1.46101,1.1528,70.8815
0,158.954,37.6326,155.323,1.46101,1.16639,70.8679
0,158.954,37.6326,155.323,1.461,1.17998,70.8543
0,158.954,37.6325,155.323,1.461,1.19356,70.8407
0,158.954,37.6324,155.323,1.461,1.20714,70.8271
0,158.954,37.6324,155.323,1.461,1.22072,70.8136
0,158.954,37.6323,155.323,1.461,1.23429,70.8
0,158.954,37.6322,155.323,1.461,1.24787,70.7864
0,158.954,37.6322,155.323,1.461,1.26144,70.7728
0,158.954,37.6321,155.323,1.461,1.27501,70.7593
0,158.954,37.632,155.323,1.461,1.28857,70.7457
0,158.954,37.6319,155.323,1.461,1.30214,70.7321
0,158.954,37.6319,155.323,1.461,1.3157,70.7186
0,158.954,37.6318,155.323,1.46099,1.32925,70.705
0,158.955,37.6317,155.323,1.46099,1.34281,70.6915
0,158.955,37.6317,155.323,1.46099,1.35636,70.6779
0,158.955,37.6316,155.323,1.46099,1.36991,70.6644
0,158.955,37.6315,155.323,1.46099,1.38346,70.6508
0,158.955,37.6315,155.323,1.46099,1.397,70.6373
0,158.955,37.6314,155.323,1.46099,1.41055,70.6237
0,158.955,37.6313,155.323,1.46099,1.42409,70.6102
0,158.955,37.6313,155.323,1.46099,1.43762,70.5966
0,158.955,37.6312,155.323,1.46099,1.45116,70.5831
0,158.955,37.6311,155.323,1.46099,1.46469,70.5696
0,158.955,37.631,155.323,1.46098,1.47822,70.5561
0,158.955,37.631,155.323,1.46098,1.49174,70.5425
0,158.955,37.6309,155.323,1.46098,1.50527,70.529
0,158.955,37.6308,155.323,1.46098,1.51879,70.5155
0,158.956,37.6308,155.323,1.46098,1.53231,70.502
0,158.956,37.6307,155.323,1.46098,1.54582,70.4884
0,158.956,37.6306,155.323,1.46098,1.55934,70.4749
0,158.956,37.6306,155.323,1.46098,1.57285,70.4614
0,158.956,37.6305,155.323,1.46098,1.58636,70.4479
0,158.956,37.6304,155.323,1.46098,1.59986,70.4344
0,158.956,37.6303,155.323,1.46098,1.61708,70.4172
0,158.956,37.6302,155.323,1.46097,1.6343,70.4
0,158.956,37.6301,155.323,1.46097,1.65151,70.3828
0,158.956,37.6301,155.323,1.46097,1.66872,70.3656
0,158.956,37.63,155.323,1.46097,1.68592,70.3483
0,158.956,37.6299,155.323,1.46097,1.70312,70.3312
0,158.956,37.6298,155.323,1.46097,1.72031,70.314
0,158.957,37.6297,155.323,1.46097,1.7375,70.2968
0,158.957,37.6296,155.323,1.46097,1.75469,70.2796
0,158.957,37.6295,155.323,1.46096,1.77187,70.2624
0,158.957,37.6294,155.323,1.46096,1.78905,70.2452
0,158.957,37.6293,155.323,1.46096,1.80622,70.228
0,158.957,37.6293,155.323,1.46096,1.82339,70.2109
0,158.957,37.6292,155.323,1.46096,1.84056,70.1937
0,158.957,37.6291,155.323,1.46096,1.85772,70.1766
0,158.957,37.629,155.323,1.46096,1.87487,70.1594
0,158.957,37.6289,155.323,1.46096,1.89203,70.1422
0,158.957,37.6288,155.323,1.46096,1.90917,70.1251
0,158.958,37.6287,155.323,1.46095,1.92632,70.108
0,158.958,37.6286,155.323,1.46095,1.94346,70.0908
0,158.958,37.6286,155.323,1.46095,1.96059,70.0737
0,158.958,37.6285,155.323,1.46095,1.97773,70.0565
0,158.958,37.6284,155.323,1.46095,1.99485,70.0394
0,158.958,37.6283,155.323,1.46095,2.01198,70.0223
0,158.958,37.6282,155.323,1.46095,2.0291,70.0052
0,158.958,37.6281,155.323,1.46095,2.04621,69.9881
0,158.958,37.628,155.323,1.46095,2.06332,69.9709
0,158.958,37.6279,155.323,1.46094,2.08043,69.9538
0,158.958,37.6278,155.323,1.46094,2.09753,69.9367
0,158.959,37.6278,155.323,1.46094,2.11463,69.9196
0,158.959,37.6277,155.323,1.46094,2.13172,69.9025
0,158.959,37.6276,155.323,1.46094,2.14881,69.8855
0,158.959,37.6275,155.323,1.46094,2.1659,69.8684
0,158.959,37.6274,155.323,1.46094,2.18298,69.8513
0,158.959,37.6273,155.323,1.46094,2.20006,69.8342
0,158.959,37.6272,155.323,1.46093,2.21713,69.8171
0,158.959,37.6271,155.323,1.46093,2.2342,69.8001
0,158.959,37.627,155.323,1.46093,2.25126,69.783
0,158.959,37.627,155.323,1.46093,2.26832,69.7659
0,158.959,37.6269,155.323,1.46093,2.28538,69.7489
0,158.96,37.6268,155.323,1.46093,2.30243,69.7318
0,158.96,37.6267,155.323,1.46093,2.31948,69.7148
0,158.96,37.6266,155.323,1.46093,2.33652,69.6977
0,158.96,37.6265,155.323,1.46093,2.35356,69.6807
0,158.96,37.6264,155.323,1.46092,2.3706,69.6637
0,158.96,37.6263,155.323,1.46092,2.38763,69.6466
0,158.96,37.6262,155.323,1.46092,2.40466,69.6296
0,158.96,37.6262,155.323,1.46092,2.42168,69.6126
0,158.96,37.6261,155.323,1.46092,2.4387,69.5956
0,158.96,37.626,155.323,1.46092,2.45571,69.5786
0,158.96,37.6259,155.323,1.46092,2.47272,69.5615
0,158.96,37.6258,155.323,1.46092,2.48973,69.5445
0,158.961,37.6257,155.323,1.46092,2.50673,69.5275
0,158.961,37.6256,155.323,1.46091,2.52373,69.5105
0,158.961,37.6255,155.323,1.46091,2.54072,69.4935
0,158.961,37.6254,155.323,1.46091,2.55771,69.4766
0,158.961,37.6254,155.323,1.46091,2.5747,69.4596
0,158.961,37.6253,155.323,1.46091,2.59168,69.4426
0,158.961,37.6252,155.323,1.46091,2.60866,69.4256
0,158.961,37.6251,155.323,1.46091,2.62563,69.4086
0,158.961,37.625,155.323,1.46091,2.6426,69.3917
0,158.961,37.6249,155.323,1.46091,2.65956,69.3747
0,158.961,37.6248,155.323,1.4609,2.67652,69.3577
0,158.962,37.6247,155.323,1.4609,2.69348,69.3408
0,158.962,37.6246,155.323,1.4609,2.71043,69.3238
0,158.962,37.6246,155.323,1.4609,2.72738,69.3069
0,158.962,37.6245,155.323,1.4609,2.74432,69.2899
0,158.962,37.6244,155.323,1.4609,2.76126,69.273
0,158.962,37.6243,155.323,1.4609,2.7782,69.2561
0,158.962,37.6242,155.323,1.4609,2.79513,69.2391
0,158.962,37.6241,155.323,1.46089,2.81206,69.2222
0,158.962,37.624,155.323,1.46089,2.82898,69.2053
0,158.962,37.6239,155.323,1.46089,2.8459,69.1884
0,158.962,37.6238,155.323,1.46089,2.86282,69.1715
0,158.963,37.6238,155.323,1.46089,2.87973,69.1545
0,158.963,37.6237,155.323,1.46089,2.89664,69.1376
0,158.963,37.6236,155.323,1.46089,2.91354,69.1207
0,158.963,37.6235,155.323,1.46089,2.93044,69.1038
0,158.963,37.6234,155.323,1.46089,2.94733,69.0869
0,158.963,37.6233,155.323,1.46088,2.96422,69.07
0,158.963,37.6232,155.323,1.46088,2.98111,69.0532
0,158.963,37.6231,155.323,1.46088,2.99799,69.0363
0,158.963,37.623,155.323,1.46088,3.01487,69.0194
0,158.963,37.623,155.323,1.46088,3.03174,69.0025
0,158.963,37.6229,155.323,1.46088,3.04861,68.9857
0,158.964,37.6228,155.323,1.46088,3.06548,68.9688
0,158.964,37.6227,155.323,1.46088,3.08234,68.9519
0,158.964,37.6226,155.323,1.46088,3.09919,68.9351
0,158.964,37.6225,155.323,1.46087,3.11605,68.9182
2.79417e-6,158.964,37.6222,155.323,1.46087,3.17583,68.8584
5.80463e-6,158.964,37.6219,155.323,1.46087,3.24019,68.7941
1.04997e-5,158.965,37.6213,155.323,1.46086,3.34045,68.6938
3.3577e-5,158.968,37.6187,155.323,1.46082,3.83115,68.2031
9.94491e-5,158.975,37.6113,155.323,1.46073,5.21262,66.8217
0.000165321,158.982,37.6039,155.323,1.46063,6.56611,65.4682
0.000253394,158.992,37.5939,155.323,1.4605,8.33301,63.7013
0.000546832,159.025,37.5608,155.324,1.46008,13.8829,58.1514
0.000852696,159.06,37.5264,155.324,1.45963,19.1538,52.8805
0.00121198,159.1,37.486,155.325,1.4591,24.7383,47.296
0.00158268,159.142,37.4443,155.325,1.45856,29.8829,42.1514
0.00197625,159.186,37.4001,155.326,1.45799,34.7337,37.3006
0.00240624,159.234,37.3519,155.326,1.45736,39.3977,32.6366
0.00283623,159.283,37.3037,155.327,1.45674,43.4786,28.5557
0.0032807,159.332,37.254,155.328,1.45609,47.1613,24.873
0.00406784,159.42,37.1662,155.329,1.45494,52.557,19.4773
0.00491961,159.515,37.0713,155.33,1.4537,57.0854,14.9488
0.00577139,159.61,36.9767,155.331,1.45247,60.561,11.4732
0.00663492,159.705,36.881,155.333,1.45121,63.2607,8.77359
0.00783781,159.838,36.7482,155.334,1.44947,65.9964,6.03788
0.00922338,159.991,36.5958,155.336,1.44746,68.1083,3.92592
0.010403,160.12,36.4665,155.338,1.44576,69.313,2.72132
0.0117887,160.271,36.3152,155.34,1.44375,70.2649,1.76936
0.0133229,160.438,36.1484,155.342,1.44154,70.9357,1.09855
0.0146218,160.578,36.0079,155.344,1.43967,71.3005,0.733765
0.0162208,160.751,35.8355,155.346,1.43737,71.5878,0.446487
0.017813,160.922,35.6648,155.349,1.43508,71.762,0.27225
0.0195074,161.102,35.4839,155.351,1.43265,71.8734,0.160821
0.0214042,161.304,35.2826,155.354,1.42994,71.9451,0.0892115
0.0232397,161.497,35.0889,155.356,1.42732,71.9838,0.0504364
0.0254042,161.725,34.8617,155.36,1.42423,72.0085,0.0257463
0.0278893,161.983,34.6028,155.363,1.42069,72.0224,0.0118957
0.0305835,162.262,34.3243,155.367,1.41687,72.0291,0.00515284
0.0336737,162.579,34.0075,155.371,1.4125,72.0323,0.00197515
0.0372942,162.946,33.6401,155.376,1.4074,72.0336,0.000642047
0.0414489,163.363,33.2234,155.382,1.40156,72.0341,0.000178338
0.0463881,163.851,32.7348,155.389,1.39465,72.0342,3.88645e-5
0.0521628,164.414,32.1726,155.397,1.38662,72.0343,7.17981e-6
0.0608196,165.238,31.3478,155.409,1.37467,72.0343,2.08571e-6
0.0704699,166.133,30.4533,155.422,1.36147,72.0343,-2.95451e-7
0.0866722,167.578,29.0084,155.444,1.33959,72.0343,-7.25716e-7
0.106394,169.244,27.3419,155.47,1.31343,72.0343,1.62128e-7
0.133707,171.395,25.1909,155.506,1.27804,72.0343,8.09768e-8
0.174082,174.269,22.3172,155.556,1.22747,72.0343,-5.19512e-7
0.222811,177.304,19.282,155.615,1.16909,72.0343,-1.36877e-8
0.293249,180.977,15.6091,155.694,1.08957,72.0343,1.88823e-8
0.384952,184.731,11.855,155.79,0.994101,72.0343,-4.93647e-8
0.502714,188.26,8.32668,155.9,0.883664,72.0343,2.62656e-8
0.636498,191.012,5.57401,156.011,0.77301,72.0343,5.43347e-8
0.779257,192.954,3.63223,156.114,0.670172,72.0343,3.33309e-8
0.922015,194.219,2.36689,156.203,0.581014,72.0343,1.87727e-8
1.06477,195.044,1.54235,156.28,0.503718,72.0343,2.30029e-10
1.20753,195.581,1.00505,156.347,0.436705,72.0343,-1.94427e-8
1.35441,195.939,0.646875,156.407,0.377049,72.0343,-2.27234e-8
1.50557,196.175,0.411044,156.46,0.324155,72.0343,-4.82209e-9
1.6692,196.335,0.251593,156.509,0.275225,72.0343,-2.35583e-9
1.8384,196.435,0.151446,156.551,0.232383,72.0343,-1.25825e-9
2.02644,196.5,0.0861549,156.591,0.192549,72.0343,-2.43034e-9
2.22179,196.538,0.0479492,156.625,0.158381,72.0343,-5.95722e-9
2.44505,196.562,0.0245442,156.657,0.126689,72.0343,1.21081e-8
2.68671,196.574,0.0118895,156.684,0.0994926,72.0343,5.29245e-9
2.96319,196.581,0.00519006,156.708,0.0754599,72.0343,1.39627e-9
3.27795,196.584,0.00202073,156.729,0.0550828,72.0343,-2.83869e-9
3.63454,196.586,0.000695378,156.745,0.0385616,72.0343,-2.49339e-8
4.07208,196.586,0.000189362,156.759,0.0248962,72.0343,2.08277e-8
4.55125,196.586,4.53421e-5,156.768,0.0154184,72.0343,2.628e-8
5.21922,196.586,7.09722e-6,156.776,0.00790659,72.0343,1.00413e-9
5.92713,196.586,7.54692e-7,156.78,0.00389561,72.0343,6.31351e-9
6.86721,196.586,4.53449e-7,156.782,0.0015237,72.0343,2.53066e-10
7.86721,196.586,2.287e-7,156.783,0.000561295,72.0343,-4.97109e-10
8.86721,196.586,-9.22368e-9,156.784,0.000208203,72.0343,6.95789e-11
9.85522,196.586,8.05823e-8,156.784,7.51088e-5,72.0343,-1.02667e-11
10.8552,196.586,-4.47778e-8,156.784,2.84412e-5,72.0343,2.54762e-12
11.8552,196.586,8.62551e-8,156.784,9.80823e-6,72.0343,-1.54997e-12
12.8552,196.586,2.1219e-8,156.784,3.5556e-6,72.0343,-1.22143e-13
13.8552,196.586,-1.74498e-8,156.784,1.59427e-6,72.0343,2.79847e-13
14.8552,196.586,7.71832e-9,156.784,5.22482e-7,72.0343,1.52637e-12
15.8552,196.586,5.36922e-9,156.784,9.91314e-8,72.0343,4.05473e-13
16.8552,196.586,1.52873e-9,156.784,-2.51914e-8,72.0343,5.6102e-16
17.8552,196.586,8.28556e-11,156.784,-3.99794e-8,72.0343,-1.67183e-15
18.8552,196.586,-1.33034e-10,156.784,-2.69452e-8,72.0343,-6.23405e-16
19.8552,196.586,-6.83325e-11,156.784,-1.35603e-8,72.0343,-1.24639e-16
20.8552,196.586,-1.70831e-11,156.784,-6.78015e-9,72.0343,-3.96235e-19
21.8552,196.586,-4.27078e-12,156.784,-3.39008e-9,72.0343,-1.26645e-21
22.8552,196.586,-1.0677e-12,156.784,-1.69504e-9,72.0343,-7.3848e-24
23.8552,196.586,-2.66924e-13,156.784,-8.47519e-10,72.0343,-1.70268e-24
24.8552,196.586,-6.6731e-14,156.784,-4.2376e-10,72.0343,-8.45016e-25
25.8552,196.586,-1.66827e-14,156.784,-2.1188e-10,72.0343,-4.22488e-25
26.8552,196.586,-4.17069e-15,156.784,-1.0594e-10,72.0343,-2.11244e-25
27.8552,196.586,-1.04267e-15,156.784,-5.297e-11,72.0343,-1.05622e-25
28.8552,196.586,-2.60668e-16,156.784,-2.6485e-11,72.0343,-5.2811e-26
29.8552,196.586,-6.5167e-17,156.784,-1.32425e-11,72.0343,-2.64055e-26
30.8552,196.586,-1.62917e-17,156.784,-6.62124e-12,72.0343,-1.32027e-26
31.8552,196.586,-4.07294e-18,156.784,-3.31062e-12,72.0343,-6.60137e-27
32.8552,196.586,-1.01823e-18,156.784,-1.65531e-12,72.0343,-3.30069e-27
33.8552,196.586,-2.54559e-19,156.784,-8.27656e-13,72.0343,-1.65034e-27
34.8552,196.586,-6.36396e-20,156.784,-4.13828e-13,72.0343,-8.25172e-28
35.8552,196.586,-1.59099e-20,156.784,-2.06914e-13,72.0343,-4.12586e-28
36.8552,196.586,-3.97748e-21,156.784,-1.03457e-13,72.0343,-2.06293e-28
37.8552,196.586,-9.94369e-22,156.784,-5.17285e-14,72.0343,-1.03146e-28
38.8552,196.586,-2.48592e-22,156.784,-2.58642e-14,72.0343,-5.15732e-29
39.8552,196.586,-6.21481e-23,156.784,-1.29321e-14,72.0343,-2.57866e-29
40.8552,196.586,-1.5537e-23,156.784,-6.46606e-15,72.0343,-1.28933e-29
41.8552,196.586,-3.88425e-24,156.784,-3.23303e-15,72.0343,-6.44665e-30
42.8552,196.586,-9.71064e-25,156.784,-1.61651e-15,72.0343,-3.22333e-30
43.8552,196.586,-2.42766e-25,156.784,-8.08257e-16,72.0343,-1.61166e-30
44.8552,196.586,-6.06915e-26,156.784,-4.04129e-16,72.0343,-8.05832e-31
45.8552,196.586,-1.51729e-26,156.784,-2.02064e-16,72.0343,-4.02916e-31
46.8552,196.586,-3.79322e-27,156.784,-1.01032e-16,72.0343,-2.01458e-31
47.8552,196.586,-9.48304e-28,156.784,-5.05161e-17,72.0343,-1.00729e-31
48.8552,196.586,-2.37076e-28,156.784,-2.5258e-17,72.0343,-5.03645e-32
49.8552,196.586,-5.9269e-29,156.784,-1.2629e-17,72.0343,-2.51822e-32
50.8552,196.586,-1.48173e-29,156.784,-6.31451e-18,72.0343,-1.25911e-32
51.8552,196.586,-3.70431e-30,156.784,-3.15726e-18,72.0343,-6.29556e-33
52.8552,196.586,-9.26079e-31,156.784,-1.57863e-18,72.0343,-3.14778e-33
53.8552,196.586,-2.3152e-31,156.784,-7.89314e-19,72.0343,-1.57389e-33
54.8552,196.586,-5.78799e-32,156.784,-3.94657e-19,72.0343,-7.86945e-34
55.8552,196.586,-1.447e-32,156.784,-1.97328e-19,72.0343,-3.93472e-34
56.8552,196.586,-3.61749e-33,156.784,-9.86642e-20,72.0343,-1.96736e-34
57.8552,196.586,-9.04374e-34,156.784,-4.93321e-20,72.0343,-9.83681e-35
58.8552,196.586,-2.26093e-34,156.784,-2.46661e-20,72.0343,-4.91841e-35
59.8552,196.586,-5.65233e-35,156.784,-1.2333e-20,72.0343,-2.4592e-35
60.8552,196.586,-1.41308e-35,156.784,-6.16651e-21,72.0343,-1.2296e-35
61.8552,196.586,-3.53271e-36,156.784,-3.08326e-21,72.0343,-6.14801e-36
62.8552,196.586,-8.83177e-37,156.784,-1.54163e-21,72.0343,-3.074e-36
63.8552,196.586,-2.20794e-37,156.784,-7.70814e-22,72.0343,-1.537e-36
64.8552,196.586,-5.51986e-38,156.784,-3.85407e-22,72.0343,-7.68501e-37
65.8552,196.586,-1.37996e-38,156.784,-1.92704e-22,72.0343,-3.8425e-37
66.8552,196.586,-3.44991e-39,156.784,-9.63518e-23,72.0343,-1.92125e-37
67.8552,196.586,-8.62478e-40,156.784,-4.81759e-23,72.0343,-9.60626e-38
68.8552,196.586,-2.15619e-40,156.784,-2.40879e-23,72.0343,-4.80313e-38
69.8552,196.586,-5.39049e-41,156.784,-1.2044e-23,72.0343,-2.40157e-38
70.8552,196.586,-1.34762e-41,156.784,-6.02199e-24,72.0343,-1.20078e-38
71.8552,196.586,-3.36905e-42,156.784,-3.01099e-24,72.0343,-6.00391e-39
72.8552,196.586,-8.42264e-43,156.784,-1.5055e-24,72.0343,-3.00196e-39
73.8552,196.586,-2.10566e-43,156.784,-7.52748e-25,72.0343,-1.50098e-39
74.8552,196.586,-5.26415e-44,156.784,-3.76374e-25,72.0343,-7.50489e-40
75.8552,196.586,-1.31604e-44,156.784,-1.88187e-25,72.0343,-3.75245e-40
76.8552,196.586,-3.29009e-45,156.784,-9.40935e-26,72.0343,-1.87622e-40
77.8552,196.586,-8.22523e-46,156.784,-4.70468e-26,72.0343,-9.38111e-41
78.8552,196.586,-2.05631e-46,156.784,-2.35234e-26,72.0343,-4.69056e-41
79.8552,196.586,-5.14077e-47,156.784,-1.17617e-26,72.0343,-2.34528e-41
80.8552,196.586,-1.28519e-47,156.784,-5.88085e-27,72.0343,-1.17264e-41
81.8552,196.586,-3.21298e-48,156.784,-2.94042e-27,72.0343,-5.8632e-42
82.8552,196.586,-8.03245e-49,156.784,-1.47021e-27,72.0343,-2.9316e-42
83.8552,196.586,-2.00811e-49,156.784,-7.35106e-28,72.0343,-9.31946e-45
84.8552,196.586,-5.02028e-50,156.784,-3.67553e-28,72.0343,-2.96262e-47
85.8552,196.586,-1.25507e-50,156.784,-1.83776e-28,72.0343,-9.41809e-50
86.8552,196.586,-3.13768e-51,156.784,-9.18882e-29,72.0343,-2.99398e-52
87.8552,196.586,-7.84419e-52,156.784,-4.59441e-29,72.0343,-9.51776e-55
88.8552,196.586,-1.96105e-52,156.784,-2.29721e-29,72.0343,-3.02566e-57
89.8552,196.586,-4.90262e-53,156.784,-1.1486e-29,72.0343,-9.61849e-60
90.8552,196.586,-1.22565e-53,156.784,-5.74301e-30,72.0343,-3.05769e-62
91.8552,196.586,-3.06414e-54,156.784,-2.87151e-30,72.0343,-9.72029e-65
92.8552,196.586,-7.66034e-55,156.784,-1.43575e-30,72.0343,-3.09005e-67
93.8552,196.586,-1.91509e-55,156.784,-7.17877e-31,72.0343,-9.82316e-70
94.8552,196.586,-4.78771e-56,156.784,-3.58938e-31,72.0343,-3.12275e-72
95.8552,196.586,-1.19693e-56,156.784,-1.79469e-31,72.0343,-9.92712e-75
96.8552,196.586,-2.99232e-57,156.784,-8.97346e-32,72.0343,-3.1558e-77
97.8552,196.586,-7.4808e-58,156.784,-4.48673e-32,72.0343,-1.00322e-79
98.8552,196.586,-1.8702e-58,156.784,-2.24336e-32,72.0343,-3.1892e-82
99.8552,196.586,-4.6755e-59,156.784,-1.12168e-32,72.0343,-1.01384e-84
100,196.586,-3.25971e-59,156.784,-9.79826e-33,72.0343,-2.18512e-86
