#Time,F,E,D,C,B,A
0,13.179,6.88721,9.66719,132.489,245.498,18.6658
3.1e-5,13.1797,6.88657,9.67129,132.485,245.51,18.6547
0.000406,13.1874,6.87883,9.72096,132.435,245.645,18.5195
0.000973544,13.1991,6.86713,9.7961,132.36,245.849,18.3155
0.00277084,13.2361,6.8302,10.0338,132.122,246.49,17.6743
0.00498264,13.2812,6.78503,10.3257,131.83,247.268,16.8961
0.00928629,13.3683,6.69799,10.8918,131.264,248.743,15.4216
0.0147381,13.4769,6.58933,11.6055,130.55,250.523,13.6414
0.0201899,13.5838,6.48244,12.3153,129.841,252.191,11.9734
0.0266902,13.709,6.35725,13.1566,128.999,254.018,10.1463
0.0372449,13.9071,6.15911,14.511,127.645,256.588,7.57662
0.0473172,14.0905,5.97578,15.7902,126.366,258.581,5.58368
0.0568756,14.2594,5.80686,16.9923,125.164,260.083,4.08159
0.066271,14.4208,5.64547,18.1627,123.993,261.231,2.93345
0.0758366,14.5805,5.48577,19.3431,122.813,262.115,2.0491
0.0834572,14.7045,5.36177,20.2755,121.88,262.649,1.5151
0.0898588,14.8065,5.25978,21.0532,121.103,263.001,1.1629
0.0954059,14.8933,5.17298,21.7231,120.433,263.247,0.917259
0.100953,14.9786,5.08761,22.3893,119.767,263.446,0.718167
0.1065,15.0626,5.00364,23.0518,119.104,263.606,0.558161
0.112553,15.1527,4.9136,23.7706,118.385,263.744,0.420404
0.122148,15.2921,4.77418,24.9011,117.255,263.901,0.263538
0.132589,15.4393,4.62696,26.119,116.037,264.01,0.154693
0.143618,15.5899,4.47636,27.3918,114.764,264.079,0.0857281
0.154648,15.7356,4.33068,28.6506,113.505,264.118,0.0461993
0.165677,15.8765,4.18973,29.8956,112.26,264.14,0.0242179
0.176706,16.0129,4.05337,31.1269,111.029,264.152,0.0123524
0.188471,16.1535,3.9128,32.4255,109.73,264.158,0.00584613
0.201071,16.2986,3.76766,33.7994,108.357,264.162,0.00253616
0.215006,16.4529,3.61339,35.2989,106.857,264.163,0.000966536
0.231186,16.6241,3.44219,37.0139,105.142,264.164,0.000298519
0.249049,16.8037,3.26259,38.8754,103.281,264.164,7.61613e-5
0.272319,17.0237,3.04259,41.251,100.905,264.164,1.12915e-5
0.299856,17.2649,2.80134,43.9917,98.1643,264.164,2.56993e-7
0.342793,17.6035,2.46277,48.1174,94.0386,264.164,-5.88851e-7
0.402348,18.0064,2.05982,53.5544,88.6016,264.164,2.11448e-7
0.500359,18.5312,1.53508,61.8263,80.3297,264.164,1.66649e-8
0.596399,18.9155,1.1508,69.1823,72.9737,264.164,4.96249e-8
0.703047,19.2306,0.83569,76.5641,65.5919,264.164,-3.25291e-7
0.809694,19.4594,0.606864,83.1993,58.9567,264.164,1.03034e-6
0.904296,19.6093,0.456915,88.521,53.635,264.164,-1.1644e-6
0.977118,19.699,0.367246,92.288,49.868,264.164,-1.27326e-6
1.01613,19.7396,0.32669,94.1957,47.9603,264.164,2.20329e-7
1.0553,19.7758,0.290466,96.0382,46.1178,264.164,1.81634e-7
1.09786,19.8106,0.255647,97.96,44.196,264.164,-4.1714e-7
1.1313,19.835,0.231248,99.4132,42.7427,264.164,-5.10331e-7
1.1506,19.848,0.21824,100.23,41.9258,264.164,3.90514e-7
1.17522,19.8635,0.202701,101.25,40.9061,264.164,-8.45087e-7
1.20262,19.8795,0.186707,102.355,39.8006,264.164,1.59185e-7
1.23054,19.8945,0.171704,103.451,38.7046,264.164,-2.25323e-7
1.28919,19.9222,0.144,105.656,36.4997,264.164,4.99551e-8
1.37338,19.9544,0.111865,108.603,33.5526,264.164,-7.36265e-10
1.45757,19.9793,0.0869002,111.313,30.8434,264.164,-1.19528e-10
1.54177,19.9987,0.067507,113.803,28.353,264.164,6.74707e-12
1.62844,20.0142,0.0520517,116.157,25.9989,264.164,1.24513e-12
1.7201,20.0267,0.0395402,118.434,23.7218,264.164,-4.02862e-14
1.81937,20.0369,0.0293593,120.676,21.4802,264.164,-2.00416e-13
1.94719,20.0462,0.0200083,123.253,18.9029,264.164,3.86875e-13
2.1401,20.055,0.0112139,126.569,15.5865,264.164,2.01251e-14
2.35574,20.0604,0.00587013,129.593,12.5631,264.164,1.57279e-13
2.60486,20.0635,0.00277723,132.363,9.79265,264.164,-4.02865e-14
2.86787,20.065,0.0012603,134.628,7.52793,264.164,4.15574e-13
3.14244,20.0657,0.000552126,136.436,5.72043,264.164,2.53482e-12
3.41702,20.066,0.000241924,137.809,4.34693,264.164,-1.01744e-11
3.69159,20.0661,0.000105995,138.853,3.30321,264.164,6.5554e-12
4.00711,20.0662,4.1179e-5,139.747,2.40939,264.164,-1.02981e-10
4.4197,20.0662,1.20843e-5,140.561,1.59486,264.164,-3.28632e-10
4.84711,20.0662,3.37431e-6,141.116,1.04017,264.164,-1.35309e-9
5.2977,20.0662,8.84601e-7,141.493,0.662858,264.164,8.86167e-9
5.76455,20.0662,2.23506e-7,141.74,0.415599,264.164,8.9369e-9
6.2448,20.0662,5.25158e-8,141.899,0.257105,264.164,-4.46584e-7
6.67906,20.0662,1.54091e-8,141.989,0.16654,264.164,2.46846e-7
6.87965,20.0662,8.38757e-9,142.02,0.13627,264.164,-2.24684e-7
7.06106,20.0662,4.87235e-9,142.042,0.113663,264.164,2.3185e-7
7.35402,20.0662,2.01048e-9,142.071,0.0847978,264.164,5.4236e-8
7.76147,20.0662,5.79032e-10,142.1,0.0564169,264.164,-1.28305e-9
8.22874,20.0662,1.38945e-10,142.121,0.0353548,264.164,7.12455e-9
8.73067,20.0662,2.90128e-11,142.135,0.0214,264.164,-7.85622e-9
9.29874,20.0662,4.79226e-12,142.144,0.0121233,264.164,-8.29532e-8
9.90557,20.0662,6.64062e-13,142.149,0.00660617,264.164,2.18874e-7
10.4138,20.0662,1.37087e-13,142.152,0.00397319,264.164,2.27811e-8
10.977,20.0663,2.11926e-14,142.154,0.00226189,264.164,-4.31694e-7
11.8655,20.0663,-5.05945e-15,142.155,0.000927538,264.164,-3.54703e-8
12.8238,20.0663,-2.11755e-16,142.156,0.000354658,264.164,-5.47979e-8
13.8238,20.0663,-2.52639e-16,142.156,0.00012895,264.164,3.48489e-9
14.8238,20.0663,8.00065e-16,142.156,4.94003e-5,264.164,-1.96215e-9
15.8238,20.0663,-7.61519e-16,142.156,1.76461e-5,264.164,2.93666e-9
16.7133,20.0663,-7.91596e-18,142.156,7.0824e-6,264.164,-8.18772e-11
17.7133,20.0663,2.56042e-17,142.156,2.294e-6,264.164,1.22597e-11
18.7133,20.0663,4.03249e-18,142.156,5.97423e-7,264.164,-3.72632e-12
19.7133,20.0663,1.00812e-18,142.156,2.98712e-7,264.164,-3.33626e-14
20.7133,20.0663,2.5203e-19,142.156,1.49356e-7,264.164,-3.96986e-15
21.7133,20.0663,6.30076e-20,142.156,7.46779e-8,264.164,-1.91873e-15
22.7133,20.0663,1.57519e-20,142.156,3.7339e-8,264.164,-9.58984e-16
23.7133,20.0663,3.93798e-21,142.156,1.86695e-8,264.164,-4.7949e-16
24.7133,20.0663,9.84494e-22,142.156,9.33474e-9,264.164,-2.39745e-16
25.7133,20.0663,2.46124e-22,142.156,4.66737e-9,264.164,-1.19873e-16
26.7133,20.0663,6.15309e-23,142.156,2.33368e-9,264.164,-5.99363e-17
27.7133,20.0663,1.53827e-23,142.156,1.16684e-9,264.164,-2.99681e-17
28.7133,20.0663,3.84568e-24,142.156,5.83421e-10,264.164,-1.49841e-17
29.7133,20.0663,9.6142e-25,142.156,2.91711e-10,264.164,-7.49203e-18
30.7133,20.0663,2.40355e-25,142.156,1.45855e-10,264.164,-3.74602e-18
31.7133,20.0663,6.00888e-26,142.156,7.29276e-11,264.164,-1.87301e-18
32.7133,20.0663,1.50222e-26,142.156,3.64638e-11,264.164,-9.36504e-19
33.7133,20.0663,3.75555e-27,142.156,1.82319e-11,264.164,-4.68252e-19
34.7133,20.0663,9.38887e-28,142.156,9.11596e-12,264.164,-2.34126e-19
35.7133,20.0663,2.34722e-28,142.156,4.55798e-12,264.164,-1.17063e-19
36.7133,20.0663,5.86804e-29,142.156,2.27899e-12,264.164,-5.85315e-20
37.7133,20.0663,1.46701e-29,142.156,1.13949e-12,264.164,-2.92658e-20
38.7133,20.0663,3.66753e-30,142.156,5.69747e-13,264.164,-1.46329e-20
39.7133,20.0663,9.16882e-31,142.156,2.84874e-13,264.164,-7.31644e-21
40.7133,20.0663,2.2922e-31,142.156,1.42437e-13,264.164,-3.65822e-21
41.7133,20.0663,5.73051e-32,142.156,7.12184e-14,264.164,-1.82911e-21
42.7133,20.0663,1.43263e-32,142.156,3.56092e-14,264.164,-9.14555e-22
43.7133,20.0663,3.58157e-33,142.156,1.78046e-14,264.164,-4.57277e-22
44.7133,20.0663,8.95392e-34,142.156,8.9023e-15,264.164,-2.28639e-22
45.7133,20.0663,2.23848e-34,142.156,4.45115e-15,264.164,-1.14319e-22
46.7133,20.0663,5.5962e-35,142.156,2.22558e-15,264.164,-5.71597e-23
47.7133,20.0663,1.39905e-35,142.156,1.11279e-15,264.164,-2.85798e-23
48.7133,20.0663,3.49763e-36,142.156,5.56394e-16,264.164,-1.42899e-23
49.7133,20.0663,8.74406e-37,142.156,2.78197e-16,264.164,-7.14496e-24
50.7133,20.0663,2.18602e-37,142.156,1.39098e-16,264.164,-3.57248e-24
51.7133,20.0663,5.46504e-38,142.156,6.95492e-17,264.164,-1.78624e-24
52.7133,20.0663,1.36626e-38,142.156,3.47746e-17,264.164,-8.9312e-25
53.7133,20.0663,3.41565e-39,142.156,1.73873e-17,264.164,-4.4656e-25
54.7133,20.0663,8.53913e-40,142.156,8.69365e-18,264.164,-2.2328e-25
55.7133,20.0663,2.13478e-40,142.156,4.34683e-18,264.164,-1.1164e-25
56.7133,20.0663,5.33695e-41,142.156,2.17341e-18,264.164,-5.582e-26
57.7133,20.0663,1.33424e-41,142.156,1.08671e-18,264.164,-2.791e-26
58.7133,20.0663,3.3356e-42,142.156,5.43353e-19,264.164,-1.3955e-26
59.7133,20.0663,8.33899e-43,142.156,2.71677e-19,264.164,-6.9775e-27
60.7133,20.0663,2.08475e-43,142.156,1.35838e-19,264.164,-3.48875e-27
61.7133,20.0663,5.21187e-44,142.156,6.79192e-20,264.164,-1.22278e-29
62.7133,20.0663,1.30297e-44,142.156,3.39596e-20,264.164,-4.28578e-32
63.7133,20.0663,3.25742e-45,142.156,1.69798e-20,264.164,-1.50214e-34
64.7133,20.0663,8.14354e-46,142.156,8.48989e-21,264.164,-5.2649e-37
65.7133,20.0663,2.03589e-46,142.156,4.24495e-21,264.164,-1.84531e-39
66.7133,20.0663,5.08972e-47,142.156,2.12247e-21,264.164,-6.4677e-42
67.7133,20.0663,1.27243e-47,142.156,1.06124e-21,264.164,-2.26689e-44
68.7133,20.0663,3.18107e-48,142.156,5.30618e-22,264.164,-7.94529e-47
69.7133,20.0663,7.95268e-49,142.156,2.65309e-22,264.164,-2.78477e-49
70.7133,20.0663,1.98817e-49,142.156,1.32655e-22,264.164,-9.76045e-52
71.7133,20.0663,4.97043e-50,142.156,6.63273e-23,264.164,-3.42097e-54
72.7133,20.0663,1.24261e-50,142.156,3.31637e-23,264.164,-1.19903e-56
73.7133,20.0663,3.10652e-51,142.156,1.65818e-23,264.164,-4.20252e-59
74.7133,20.0663,7.76629e-52,142.156,8.29091e-24,264.164,-1.47296e-61
75.7133,20.0663,1.94157e-52,142.156,4.14546e-24,264.164,-5.16262e-64
76.7133,20.0663,4.85393e-53,142.156,2.07273e-24,264.164,-1.80946e-66
77.7133,20.0663,1.21348e-53,142.156,1.03636e-24,264.164,-6.34205e-69
78.7133,20.0663,3.03371e-54,142.156,5.18182e-25,264.164,-2.22285e-71
79.7133,20.0663,7.58427e-55,142.156,2.59091e-25,264.164,-7.79094e-74
80.7133,20.0663,1.89607e-55,142.156,1.29546e-25,264.164,-2.73067e-76
81.7133,20.0663,4.74017e-56,142.156,6.47728e-26,264.164,-9.57084e-79
82.7133,20.0663,1.18504e-56,142.156,3.23864e-26,264.164,-3.35452e-81
83.7133,20.0663,2.9626e-57,142.156,1.61932e-26,264.164,-1.17574e-83
84.7133,20.0663,7.40651e-58,142.156,8.09659e-27,264.164,-4.12088e-86
85.7133,20.0663,1.85163e-58,142.156,4.0483e-27,264.164,-1.44434e-88
86.7133,20.0663,4.62907e-59,142.156,2.02415e-27,264.164,-5.06232e-91
87.7133,20.0663,1.15727e-59,142.156,1.01207e-27,264.164,-1.77431e-93
88.7133,20.0663,2.89317e-60,142.156,5.06037e-28,264.164,-6.21885e-96
89.7133,20.0663,7.23292e-61,142.156,2.53019e-28,264.164,-2.17967e-98
90.7133,20.0663,1.80823e-61,142.156,1.26509e-28,264.164,-7.63959e-101
91.7133,20.0663,4.52058e-62,142.156,6.32546e-29,264.164,-2.67763e-103
92.7133,20.0663,1.13014e-62,142.156,3.16273e-29,264.164,-9.38491e-106
93.7133,20.0663,2.82536e-63,142.156,1.58137e-29,264.164,-3.28935e-108
94.7133,20.0663,7.0634e-64,142.156,7.90683e-30,264.164,-1.1529e-110
95.7133,20.0663,1.76585e-64,142.156,3.95342e-30,264.164,-4.04082e-113
96.7133,20.0663,4.41462e-65,142.156,1.97671e-30,264.164,-1.41628e-115
97.7133,20.0663,1.10366e-65,142.156,9.88354e-31,264.164,-4.96398e-118
98.7133,20.0663,2.75914e-66,142.156,4.94177e-31,264.164,-1.73984e-120
99.7133,20.0663,6.89785e-67,142.156,2.47088e-31,264.164,-6.09804e-123
100,20.0663,3.70804e-67,142.156,1.92026e-31,264.164,-7.38928e-125
