#Time,F,E,D,C,B,A
0,0,102,24.7704,0,48.9685,51.4748
3.1e-5,0.00948524,101.99,24.7704,0,49.0474,51.3958
0.000106,0.0324296,101.967,24.7704,0,49.2379,51.2053
0.000223118,0.0682497,101.932,24.7704,0,49.5341,50.9091
0.000908521,0.277627,101.722,24.7704,0,51.2338,49.2094
0.00175315,0.535053,101.465,24.7704,0,53.2506,47.1927
0.00259778,0.791827,101.208,24.7704,0,55.1846,45.2586
0.00370938,1.12877,100.871,24.7704,0,57.6096,42.8336
0.00641751,1.94497,100.055,24.7704,0,62.9874,37.4559
0.00902924,2.72585,99.2739,24.7704,0,67.5331,32.9101
0.0117868,3.54372,98.4561,24.7704,0,71.7353,28.7079
0.0145443,4.35485,97.645,24.7704,0,75.401,25.0423
0.0178282,5.31208,96.6877,24.7704,0,79.1608,21.2824
0.0231019,6.82976,95.17,24.7704,0,84.0542,16.389
0.0283756,8.32362,93.6762,24.7704,0,87.8225,12.6208
0.0336494,9.79403,92.2058,24.7704,0,90.7243,9.71894
0.0397925,11.4777,90.5221,24.7704,0,93.2744,7.16884
0.0472056,13.4687,88.5311,24.7704,0,95.4779,4.9654
0.0560576,15.7888,86.211,24.7704,0,97.2406,3.20262
0.0652158,18.1251,83.8747,24.7704,0,98.4087,2.03452
0.0739835,20.3026,81.6972,24.7704,0,99.1255,1.31773
0.0833898,22.5757,79.4241,24.7704,0,99.6164,0.826897
0.0929311,24.8169,77.1829,24.7704,0,99.9278,0.51543
0.102261,26.9472,75.0526,24.7704,0,100.119,0.324676
0.113228,29.3764,72.6234,24.7704,0,100.255,0.18858
0.123945,31.6743,70.3255,24.7704,0,100.332,0.110892
0.135858,34.1432,67.8566,24.7704,0,100.382,0.0614642
0.149791,36.9211,65.0787,24.7704,0,100.412,0.0308242
0.164157,39.6662,62.3336,24.7704,0,100.428,0.015131
0.180822,42.7061,59.2937,24.7704,0,100.437,0.00663007
0.199821,45.9911,56.0087,24.7704,0,100.441,0.00258795
0.221471,49.5131,52.4867,24.7704,0,100.442,0.00088804
0.248183,53.5552,48.4446,24.7704,0,100.443,0.000238993
0.277847,57.68,44.3198,24.7704,0,100.443,5.4833e-5
0.318553,62.7749,39.2249,24.7704,0,100.443,9.17467e-6
0.36712,68.0932,33.9066,24.7704,0,100.443,-6.68322e-7
0.429931,73.9164,28.0834,24.7704,0,100.443,4.57503e-7
0.534428,81.4739,20.5259,24.7704,0,100.443,-1.41573e-7
0.661907,87.997,14.0028,24.7704,0,100.443,-1.21458e-7
0.795106,92.6097,9.39015,24.7704,0,100.443,-2.25512e-9
0.935144,95.8307,6.16911,24.7704,0,100.443,3.95033e-8
1.07518,97.9468,4.05296,24.7704,0,100.443,1.00578e-8
1.21522,99.3371,2.6627,24.7704,0,100.443,-1.37792e-8
1.35526,100.25,1.74933,24.7704,0,100.443,-6.95102e-9
1.49609,100.853,1.14654,24.7704,0,100.443,4.99767e-9
1.64071,101.257,0.742952,24.7704,0,100.443,1.31901e-9
1.79243,101.529,0.471294,24.7704,0,100.443,-1.20486e-9
1.949,101.705,0.294654,24.7704,0,100.443,-3.43705e-10
2.11927,101.823,0.176797,24.7704,0,100.443,2.61614e-10
2.29539,101.896,0.104235,24.7704,0,100.443,2.30378e-10
2.49462,101.942,0.0573406,24.7704,0,100.443,1.77994e-11
2.70511,101.969,0.0304968,24.7704,0,100.443,-1.66429e-10
2.94342,101.985,0.0149225,24.7704,0,100.443,-2.82725e-11
3.20704,101.993,0.0067685,24.7704,0,100.443,4.4458e-12
3.50345,101.997,0.00278406,24.7704,0,100.443,1.60036e-10
3.86147,101.999,0.000953677,24.7704,0,100.443,4.96494e-11
4.22588,101.999,0.000319838,24.7704,0,100.443,-2.01252e-9
4.75451,102,6.86133e-5,24.7704,0,100.443,-4.35753e-10
5.28083,102,1.31788e-5,24.7704,0,100.443,1.24351e-11
5.93078,102,2.88358e-6,24.7704,0,100.443,3.7095e-9
6.90553,102,1.97321e-7,24.7704,0,100.443,-2.14925e-8
7.90553,102,7.06718e-7,24.7704,0,100.443,1.27818e-8
8.90553,102,-4.21402e-7,24.7704,0,100.443,-2.01399e-8
9.90553,102,7.36678e-7,24.7704,0,100.443,5.84825e-8
10.9055,102,-5.83626e-7,24.7704,0,100.443,-1.69311e-8
11.9055,102,6.57271e-7,24.7704,0,100.443,-3.85108e-9
12.9055,102,-5.91473e-7,24.7704,0,100.443,3.73388e-10
13.9055,102,7.12667e-7,24.7704,0,100.443,1.61017e-9
14.9055,102,1.6819e-7,24.7704,0,100.443,-1.05186e-10
15.9055,102,-5.23858e-8,24.7704,0,100.443,1.6169e-11
16.9055,102,4.85323e-8,24.7704,0,100.443,2.00531e-11
17.9055,102,-1.82422e-8,24.7704,0,100.443,-3.89876e-10
18.9055,102,-1.35001e-8,24.7704,0,100.443,-1.54735e-11
19.9055,102,-3.97314e-9,24.7704,0,100.443,3.21295e-12
20.9055,102,-2.65829e-10,24.7704,0,100.443,2.77478e-13
21.9055,102,3.23314e-10,24.7704,0,100.443,-2.06016e-14
22.9055,102,1.73232e-10,24.7704,0,100.443,-3.52546e-15
23.9055,102,4.33079e-11,24.7704,0,100.443,-6.97549e-17
24.9055,102,1.0827e-11,24.7704,0,100.443,-1.38017e-18
25.9055,102,2.70674e-12,24.7704,0,100.443,-2.73081e-20
26.9055,102,6.76686e-13,24.7704,0,100.443,-5.4032e-22
27.9055,102,1.69172e-13,24.7704,0,100.443,-1.06908e-23
28.9055,102,4.22929e-14,24.7704,0,100.443,-2.11528e-25
29.9055,102,1.05732e-14,24.7704,0,100.443,-4.1853e-27
30.9055,102,2.6433e-15,24.7704,0,100.443,-8.28106e-29
31.9055,102,6.60826e-16,24.7704,0,100.443,-1.63849e-30
32.9055,102,1.65207e-16,24.7704,0,100.443,-3.24193e-32
33.9055,102,4.13016e-17,24.7704,0,100.443,-6.41449e-34
34.9055,102,1.03254e-17,24.7704,0,100.443,-1.26917e-35
35.9055,102,2.58135e-18,24.7704,0,100.443,-2.51119e-37
36.9055,102,6.45338e-19,24.7704,0,100.443,-4.96865e-39
37.9055,102,1.61335e-19,24.7704,0,100.443,-9.83098e-41
38.9055,102,4.03336e-20,24.7704,0,100.443,-1.94516e-42
39.9055,102,1.00834e-20,24.7704,0,100.443,-3.8487e-44
40.9055,102,2.52085e-21,24.7704,0,100.443,-7.61506e-46
41.9055,102,6.30213e-22,24.7704,0,100.443,-1.50672e-47
42.9055,102,1.57553e-22,24.7704,0,100.443,-2.9812e-49
43.9055,102,3.93883e-23,24.7704,0,100.443,-5.89861e-51
44.9055,102,9.84708e-24,24.7704,0,100.443,-1.1671e-52
45.9055,102,2.46177e-24,24.7704,0,100.443,-2.30923e-54
46.9055,102,6.15442e-25,24.7704,0,100.443,-4.56905e-56
47.9055,102,1.53861e-25,24.7704,0,100.443,-9.04033e-58
48.9055,102,3.84651e-26,24.7704,0,100.443,-1.78872e-59
49.9055,102,9.61629e-27,24.7704,0,100.443,-3.53917e-61
50.9055,102,2.40407e-27,24.7704,0,100.443,-7.00262e-63
51.9055,102,6.01018e-28,24.7704,0,100.443,-1.38554e-64
52.9055,102,1.50254e-28,24.7704,0,100.443,-2.74144e-66
53.9055,102,3.75636e-29,24.7704,0,100.443,-5.42422e-68
54.9055,102,9.3909e-30,24.7704,0,100.443,-1.07324e-69
55.9055,102,2.34773e-30,24.7704,0,100.443,-2.12351e-71
56.9055,102,5.86932e-31,24.7704,0,100.443,-4.20159e-73
57.9055,102,1.46733e-31,24.7704,0,100.443,-8.31327e-75
58.9055,102,3.66832e-32,24.7704,0,100.443,-1.64487e-76
59.9055,102,9.17081e-33,24.7704,0,100.443,-3.25454e-78
60.9055,102,2.2927e-33,24.7704,0,100.443,-6.43944e-80
61.9055,102,5.73175e-34,24.7704,0,100.443,-1.27411e-81
62.9055,102,1.43294e-34,24.7704,0,100.443,-2.52096e-83
63.9055,102,3.58235e-35,24.7704,0,100.443,-4.98798e-85
64.9055,102,8.95586e-36,24.7704,0,100.443,-9.86923e-87
65.9055,102,2.23897e-36,24.7704,0,100.443,-1.95273e-88
66.9055,102,5.59742e-37,24.7704,0,100.443,-3.86368e-90
67.9055,102,1.39935e-37,24.7704,0,100.443,-7.64468e-92
68.9055,102,3.49838e-38,24.7704,0,100.443,-1.51258e-93
69.9055,102,8.74596e-39,24.7704,0,100.443,-2.99279e-95
70.9055,102,2.18649e-39,24.7704,0,100.443,-5.92155e-97
71.9055,102,5.46623e-40,24.7704,0,100.443,-1.17164e-98
72.9055,102,1.36656e-40,24.7704,0,100.443,-2.31821e-100
73.9055,102,3.41639e-41,24.7704,0,100.443,-4.58682e-102
74.9055,102,8.54098e-42,24.7704,0,100.443,-9.0755e-104
75.9055,102,2.13524e-42,24.7704,0,100.443,-1.79568e-105
76.9055,102,5.33811e-43,24.7704,0,100.443,-3.55294e-107
77.9055,102,1.33453e-43,24.7704,0,100.443,-7.02986e-109
78.9055,102,3.33632e-44,24.7704,0,100.443,-1.39093e-110
79.9055,102,8.3408e-45,24.7704,0,100.443,-2.7521e-112
80.9055,102,2.0852e-45,24.7704,0,100.443,-5.44532e-114
81.9055,102,5.213e-46,24.7704,0,100.443,-1.07741e-115
82.9055,102,1.30325e-46,24.7704,0,100.443,-2.13177e-117
83.9055,102,3.25812e-47,24.7704,0,100.443,-4.21793e-119
84.9055,102,8.14531e-48,24.7704,0,100.443,-8.34561e-121
85.9055,102,2.03633e-48,24.7704,0,100.443,-1.65127e-122
86.9055,102,5.09082e-49,24.7704,0,100.443,-3.2672e-124
87.9055,102,1.2727e-49,24.7704,0,100.443,-6.46449e-126
88.9055,102,3.18176e-50,24.7704,0,100.443,-1.27907e-127
89.9055,102,7.95441e-51,24.7704,0,100.443,-2.53077e-129
90.9055,102,1.9886e-51,24.7704,0,100.443,-5.00738e-131
91.9055,102,4.9715e-52,24.7704,0,100.443,-9.90762e-133
92.9055,102,1.24288e-52,24.7704,0,100.443,-1.96032e-134
93.9055,102,3.10719e-53,24.7704,0,100.443,-3.87871e-136
94.9055,102,7.76797e-54,24.7704,0,100.443,-7.67442e-138
95.9055,102,1.94199e-54,24.7704,0,100.443,-1.51846e-139
96.9055,102,4.85498e-55,24.7704,0,100.443,-3.00444e-141
97.9055,102,1.21375e-55,24.7704,0,100.443,-5.94459e-143
98.9055,102,3.03437e-56,24.7704,0,100.443,-1.1762e-144
99.9055,102,7.58591e-57,24.7704,0,100.443,-2.32723e-146
100,102,5.91076e-57,24.7704,0,100.443,-4.09718e-147
