#Time,F,E,D,C,B,A
0,294.741,0,100.798,0,120.013,88.6739
1.1e-5,294.741,0,100.798,0,120.209,88.4775
2.6e-5,294.741,0,100.798,0,120.476,88.2105
5.29512e-5,294.741,0,100.798,0,120.954,87.7326
0.000221346,294.741,0,100.798,0,123.882,84.8041
0.000428181,294.741,0,100.798,0,127.346,81.3405
0.000635017,294.741,0,100.798,0,130.668,78.0184
0.000907307,294.741,0,100.798,0,134.835,73.8511
0.00157132,294.741,0,100.798,0,144.088,64.5986
0.00221123,294.741,0,100.798,0,151.906,56.7805
0.00288697,294.741,0,100.798,0,159.137,49.5493
0.00356271,294.741,0,100.798,0,165.447,43.2391
0.00436651,294.741,0,100.798,0,171.916,36.7708
0.00565593,294.741,0,100.798,0,180.333,28.3536
0.00694535,294.741,0,100.798,0,186.823,21.8633
0.00823478,294.741,0,100.798,0,191.828,16.8587
0.00973198,294.741,0,100.798,0,196.22,12.4664
0.011534,294.741,0,100.798,0,200.017,8.6691
0.0136783,294.741,0,100.798,0,203.06,5.62651
0.0157796,294.741,0,100.798,0,205.003,3.68349
0.0178165,294.741,0,100.798,0,206.244,2.44303
0.0200546,294.741,0,100.798,0,207.131,1.55589
0.0224572,294.741,0,100.798,0,207.728,0.958596
0.0244444,294.741,0,100.798,0,208.044,0.642173
0.0268689,294.741,0,100.798,0,208.293,0.393897
0.0295887,294.741,0,100.798,0,208.459,0.22765
0.031933,294.741,0,100.798,0,208.545,0.141912
0.0348432,294.741,0,100.798,0,208.608,0.0789304
0.038177,294.741,0,100.798,0,208.646,0.0403081
0.0411822,294.741,0,100.798,0,208.665,0.0219931
0.0452152,294.741,0,100.798,0,208.677,0.00975813
0.0492675,294.741,0,100.798,0,208.682,0.00431098
0.0539105,294.741,0,100.798,0,208.685,0.00169285
0.0598239,294.741,0,100.798,0,208.686,0.000516359
0.065719,294.741,0,100.798,0,208.686,0.000157246
0.0734572,294.741,0,100.798,0,208.687,3.48622e-5
0.0824633,294.741,0,100.798,0,208.687,6.06769e-6
0.0958235,294.741,0,100.798,0,208.687,2.33641e-6
0.111958,294.741,0,100.798,0,208.687,-1.41029e-7
0.147217,294.741,0,100.798,0,208.687,7.64555e-7
0.188563,294.741,0,100.798,0,208.687,1.12849e-9
0.263761,294.741,0,100.798,0,208.687,-1.64317e-7
0.357016,294.741,0,100.798,0,208.687,4.52197e-8
0.449121,294.741,0,100.798,0,208.687,3.06544e-8
0.636948,294.741,0,100.798,0,208.687,5.46828e-8
0.869927,294.741,0,100.798,0,208.687,9.43645e-8
1.22111,294.741,0,100.798,0,208.687,-2.38568e-7
1.58872,294.741,0,100.798,0,208.687,-1.12087e-7
2.04976,294.741,0,100.798,0,208.687,2.40674e-8
2.52042,294.741,0,100.798,0,208.687,-2.44489e-7
2.7717,294.741,0,100.798,0,208.687,-9.29628e-8
3.03023,294.741,0,100.798,0,208.687,3.16154e-8
3.45632,294.741,0,100.798,0,208.687,-1.94766e-8
4.07912,294.741,0,100.798,0,208.687,-2.16826e-8
5.07912,294.741,0,100.798,0,208.687,1.69764e-8
6.03285,294.741,0,100.798,0,208.687,-2.46177e-10
7.03285,294.741,0,100.798,0,208.687,5.79755e-9
8.03285,294.741,0,100.798,0,208.687,6.64375e-11
9.03285,294.741,0,100.798,0,208.687,-1.36187e-11
10.0328,294.741,0,100.798,0,208.687,-6.72209e-14
11.0328,294.741,0,100.798,0,208.687,-3.31798e-16
12.0328,294.741,0,100.798,0,208.687,-1.63773e-18
13.0328,294.741,0,100.798,0,208.687,-8.08373e-21
14.0328,294.741,0,100.798,0,208.687,-3.99007e-23
15.0328,294.741,0,100.798,0,208.687,-1.96947e-25
16.0328,294.741,0,100.798,0,208.687,-9.72118e-28
17.0328,294.741,0,100.798,0,208.687,-4.79831e-30
18.0328,294.741,0,100.798,0,208.687,-2.36841e-32
19.0328,294.741,0,100.798,0,208.687,-1.16903e-34
20.0328,294.741,0,100.798,0,208.687,-5.77026e-37
21.0328,294.741,0,100.798,0,208.687,-2.84816e-39
22.0328,294.741,0,100.798,0,208.687,-1.40583e-41
23.0328,294.741,0,100.798,0,208.687,-6.9391e-44
24.0328,294.741,0,100.798,0,208.687,-3.42509e-46
25.0328,294.741,0,100.798,0,208.687,-1.6906e-48
26.0328,294.741,0,100.798,0,208.687,-8.34469e-51
27.0328,294.741,0,100.798,0,208.687,-4.11888e-53
28.0328,294.741,0,100.798,0,208.687,-2.03305e-55
29.0328,294.741,0,100.798,0,208.687,-1.0035e-57
30.0328,294.741,0,100.798,0,208.687,-4.95321e-60
31.0328,294.741,0,100.798,0,208.687,-2.44487e-62
32.0328,294.741,0,100.798,0,208.687,-1.20677e-64
33.0328,294.741,0,100.798,0,208.687,-5.95654e-67
34.0328,294.741,0,100.798,0,208.687,-2.94011e-69
35.0328,294.741,0,100.798,0,208.687,-1.45122e-71
36.0328,294.741,0,100.798,0,208.687,-7.16311e-74
37.0328,294.741,0,100.798,0,208.687,-3.53566e-76
38.0328,294.741,0,100.798,0,208.687,-1.74518e-78
39.0328,294.741,0,100.798,0,208.687,-8.61408e-81
40.0328,294.741,0,100.798,0,208.687,-4.25185e-83
41.0328,294.741,0,100.798,0,208.687,-2.09869e-85
42.0328,294.741,0,100.798,0,208.687,-1.0359e-87
43.0328,294.741,0,100.798,0,208.687,-5.11312e-90
44.0328,294.741,0,100.798,0,208.687,-2.5238e-92
45.0328,294.741,0,100.798,0,208.687,-1.24573e-94
46.0328,294.741,0,100.798,0,208.687,-6.14884e-97
47.0328,294.741,0,100.798,0,208.687,-3.03502e-99
48.0328,294.741,0,100.798,0,208.687,-1.49807e-101
49.0328,294.741,0,100.798,0,208.687,-7.39436e-104
50.0328,294.741,0,100.798,0,208.687,-3.6498e-106
51.0328,294.741,0,100.798,0,208.687,-1.80152e-108
52.0328,294.741,0,100.798,0,208.687,-8.89217e-111
53.0328,294.741,0,100.798,0,208.687,-4.38911e-113
54.0328,294.741,0,100.798,0,208.687,-2.16644e-115
55.0328,294.741,0,100.798,0,208.687,-1.06934e-117
56.0328,294.741,0,100.798,0,208.687,-5.27818e-120
57.0328,294.741,0,100.798,0,208.687,-2.60527e-122
58.0328,294.741,0,100.798,0,208.687,-1.28595e-124
59.0328,294.741,0,100.798,0,208.687,-6.34734e-127
60.0328,294.741,0,100.798,0,208.687,-3.133e-129
61.0328,294.741,0,100.798,0,208.687,-1.54643e-131
62.0328,294.741,0,100.798,0,208.687,-7.63307e-134
63.0328,294.741,0,100.798,0,208.687,-3.76763e-136
64.0328,294.741,0,100.798,0,208.687,-1.85968e-138
65.0328,294.741,0,100.798,0,208.687,-9.17924e-141
66.0328,294.741,0,100.798,0,208.687,-4.53081e-143
67.0328,294.741,0,100.798,0,208.687,-2.23638e-145
68.0328,294.741,0,100.798,0,208.687,-1.10386e-147
69.0328,294.741,0,100.798,0,208.687,-5.44858e-150
70.0328,294.741,0,100.798,0,208.687,-2.68938e-152
71.0328,294.741,0,100.798,0,208.687,-1.32746e-154
72.0328,294.741,0,100.798,0,208.687,-6.55225e-157
73.0328,294.741,0,100.798,0,208.687,-3.23415e-159
74.0328,294.741,0,100.798,0,208.687,-1.59635e-161
75.0328,294.741,0,100.798,0,208.687,-7.87949e-164
76.0328,294.741,0,100.798,0,208.687,-3.88926e-166
77.0328,294.741,0,100.798,0,208.687,-1.91971e-168
78.0328,294.741,0,100.798,0,208.687,-9.47557e-171
79.0328,294.741,0,100.798,0,208.687,-4.67708e-173
80.0328,294.741,0,100.798,0,208.687,-2.30857e-175
81.0328,294.741,0,100.798,0,208.687,-1.1395e-177
82.0328,294.741,0,100.798,0,208.687,-5.62447e-180
83.0328,294.741,0,100.798,0,208.687,-2.7762e-182
84.0328,294.741,0,100.798,0,208.687,-1.37031e-184
85.0328,294.741,0,100.798,0,208.687,-6.76378e-187
86.0328,294.741,0,100.798,0,208.687,-3.33855e-189
87.0328,294.741,0,100.798,0,208.687,-1.64789e-191
88.0328,294.741,0,100.798,0,208.687,-8.13386e-194
89.0328,294.741,0,100.798,0,208.687,-4.01482e-196
90.0328,294.741,0,100.798,0,208.687,-1.98169e-198
91.0328,294.741,0,100.798,0,208.687,-9.78147e-201
92.0328,294.741,0,100.798,0,208.687,-4.82807e-203
93.0328,294.741,0,100.798,0,208.687,-2.3831e-205
94.0328,294.741,0,100.798,0,208.687,-1.17628e-207
95.0328,294.741,0,100.798,0,208.687,-5.80605e-210
96.0328,294.741,0,100.798,0,208.687,-2.86583e-212
97.0328,294.741,0,100.798,0,208.687,-1.41455e-214
98.0328,294.741,0,100.798,0,208.687,-6.98213e-217
99.0328,294.741,0,100.798,0,208.687,-3.44633e-219
100,294.741,0,100.798,0,208.687,2.18323e-218
