#Time,F,E,D,C,B,A
0,54.0013,0,0.579696,82.6412,41.2152,0
3.1e-5,54.0013,0,0.582258,82.6386,41.2152,0
0.000509407,54.0013,0,0.62178,82.5991,41.2152,0
0.00103952,54.0013,0,0.665551,82.5553,41.2152,0
0.00187267,54.0013,0,0.734302,82.4866,41.2152,0
0.00597171,54.0013,0,1.07173,82.1491,41.2152,0
0.0219064,54.0013,0,2.37038,80.8505,41.2152,0
0.0369838,54.0013,0,3.58026,79.6406,41.2152,0
0.0584293,54.0013,0,5.27002,77.9508,41.2152,0
0.13652,54.0013,0,11.1256,72.0952,41.2152,0
0.223823,54.0013,0,17.1528,66.0681,41.2152,0
0.325866,54.0013,0,23.5619,59.6589,41.2152,0
0.4342,54.0013,0,29.6872,53.5337,41.2152,0
0.551774,54.0013,0,35.6253,47.5955,41.2152,0
0.678205,54.0013,0,41.2779,41.943,41.2152,0
0.80754,54.0013,0,46.3663,36.8545,41.2152,0
0.942413,54.0013,0,51.0163,32.2045,41.2152,0
1.1904,54.0013,0,58.0894,25.1314,41.2152,0
1.45976,54.0013,0,64.024,19.1969,41.2152,0
1.72913,54.0013,0,68.5571,14.6638,41.2152,0
2.00044,54.0013,0,72.0415,11.1794,41.2152,0
2.38315,54.0013,0,75.5964,7.62443,41.2152,0
2.77596,54.0013,0,78.0732,5.1477,41.2152,0
3.19617,54.0013,0,79.8393,3.38159,41.2152,0
3.61638,54.0013,0,80.9994,2.22141,41.2152,0
4.03659,54.0013,0,81.7616,1.45927,41.2152,0
4.4662,54.0013,0,82.2712,0.949649,41.2152,0
4.90558,54.0013,0,82.6089,0.611992,41.2152,0
5.37248,54.0013,0,82.8372,0.383687,41.2152,0
5.85434,54.0013,0,82.9839,0.23698,41.2152,0
6.37676,54.0013,0,83.0803,0.140552,41.2152,0
6.93399,54.0013,0,83.1403,0.0805104,41.2152,0
7.54156,54.0013,0,83.177,0.0438543,41.2152,0
8.2171,54.0013,0,83.1985,0.0223191,41.2152,0
8.94118,54.0013,0,83.21,0.0108217,41.2152,0
9.8016,54.0013,0,83.2163,0.00458014,41.2152,0
10.715,54.0013,0,83.219,0.00183885,41.2152,0
11.715,54.0013,0,83.2202,0.000678387,41.2152,0
12.715,54.0013,0,83.2206,0.000247655,41.2152,0
13.715,54.0013,0,83.2208,9.2254e-5,41.2152,0
14.715,54.0013,0,83.2208,3.35398e-5,41.2152,0
15.715,54.0013,0,83.2208,1.34207e-5,41.2152,0
16.715,54.0013,0,83.2209,5.42484e-6,41.2152,0
17.715,54.0013,0,83.2209,1.66352e-6,41.2152,0
18.715,54.0013,0,83.2209,8.99181e-7,41.2152,0
19.715,54.0013,0,83.2209,-4.62954e-7,41.2152,0
20.715,54.0013,0,83.2209,-1.11633e-6,41.2152,0
21.715,54.0013,0,83.2209,-8.31121e-7,41.2152,0
22.715,54.0013,0,83.2209,-3.43475e-7,41.2152,0
23.715,54.0013,0,83.2209,-5.5008e-8,41.2152,0
24.715,54.0013,0,83.2209,2.58172e-8,41.2152,0
25.715,54.0013,0,83.2209,1.60489e-8,41.2152,0
26.715,54.0013,0,83.2209,7.67566e-9,41.2152,0
27.715,54.0013,0,83.2209,2.93075e-9,41.2152,0
28.715,54.0013,0,83.2209,8.09471e-10,41.2152,0
29.715,54.0013,0,83.2209,6.14258e-11,41.2152,0
30.715,54.0013,0,83.2209,3.07129e-11,41.2152,0
31.715,54.0013,0,83.2209,1.53565e-11,41.2152,0
32.715,54.0013,0,83.2209,7.67823e-12,41.2152,0
33.715,54.0013,0,83.2209,3.83911e-12,41.2152,0
34.715,54.0013,0,83.2209,1.91956e-12,41.2152,0
35.715,54.0013,0,83.2209,9.59779e-13,41.2152,0
36.715,54.0013,0,83.2209,4.79889e-13,41.2152,0
37.715,54.0013,0,83.2209,2.39945e-13,41.2152,0
38.715,54.0013,0,83.2209,1.19972e-13,41.2152,0
39.715,54.0013,0,83.2209,5.99862e-14,41.2152,0
40.715,54.0013,0,83.2209,2.99931e-14,41.2152,0
41.715,54.0013,0,83.2209,1.49965e-14,41.2152,0
42.715,54.0013,0,83.2209,7.49827e-15,41.2152,0
43.715,54.0013,0,83.2209,3.74913e-15,41.2152,0
44.715,54.0013,0,83.2209,1.87457e-15,41.2152,0
45.715,54.0013,0,83.2209,9.37284e-16,41.2152,0
46.715,54.0013,0,83.2209,4.68642e-16,41.2152,0
47.715,54.0013,0,83.2209,2.34321e-16,41.2152,0
48.715,54.0013,0,83.2209,1.1716e-16,41.2152,0
49.715,54.0013,0,83.2209,5.85802e-17,41.2152,0
50.715,54.0013,0,83.2209,2.92901e-17,41.2152,0
51.715,54.0013,0,83.2209,1.46451e-17,41.2152,0
52.715,54.0013,0,83.2209,7.32253e-18,41.2152,0
53.715,54.0013,0,83.2209,3.66126e-18,41.2152,0
54.715,54.0013,0,83.2209,1.83063e-18,41.2152,0
55.715,54.0013,0,83.2209,9.15316e-19,41.2152,0
56.715,54.0013,0,83.2209,4.57658e-19,41.2152,0
57.715,54.0013,0,83.2209,2.28829e-19,41.2152,0
58.715,54.0013,0,83.2209,1.14415e-19,41.2152,0
59.715,54.0013,0,83.2209,5.72073e-20,41.2152,0
60.715,54.0013,0,83.2209,2.86036e-20,41.2152,0
61.715,54.0013,0,83.2209,1.43018e-20,41.2152,0
62.715,54.0013,0,83.2209,7.15091e-21,41.2152,0
63.715,54.0013,0,83.2209,3.57545e-21,41.2152,0
64.715,54.0013,0,83.2209,1.78773e-21,41.2152,0
65.715,54.0013,0,83.2209,8.93863e-22,41.2152,0
66.715,54.0013,0,83.2209,4.46932e-22,41.2152,0
67.715,54.0013,0,83.2209,2.23466e-22,41.2152,0
68.715,54.0013,0,83.2209,1.11733e-22,41.2152,0
69.715,54.0013,0,83.2209,5.58665e-23,41.2152,0
70.715,54.0013,0,83.2209,2.79332e-23,41.2152,0
71.715,54.0013,0,83.2209,1.39666e-23,41.2152,0
72.715,54.0013,0,83.2209,6.98331e-24,41.2152,0
73.715,54.0013,0,83.2209,3.49165e-24,41.2152,0
74.715,54.0013,0,83.2209,1.74583e-24,41.2152,0
75.715,54.0013,0,83.2209,8.72913e-25,41.2152,0
76.715,54.0013,0,83.2209,4.36457e-25,41.2152,0
77.715,54.0013,0,83.2209,2.18228e-25,41.2152,0
78.715,54.0013,0,83.2209,1.09114e-25,41.2152,0
79.715,54.0013,0,83.2209,5.45571e-26,41.2152,0
80.715,54.0013,0,83.2209,2.72785e-26,41.2152,0
81.715,54.0013,0,83.2209,1.36393e-26,41.2152,0
82.715,54.0013,0,83.2209,6.81964e-27,41.2152,0
83.715,54.0013,0,83.2209,3.40982e-27,41.2152,0
84.715,54.0013,0,83.2209,1.70491e-27,41.2152,0
85.715,54.0013,0,83.2209,8.52455e-28,41.2152,0
86.715,54.0013,0,83.2209,4.26227e-28,41.2152,0
87.715,54.0013,0,83.2209,2.13114e-28,41.2152,0
88.715,54.0013,0,83.2209,1.06557e-28,41.2152,0
89.715,54.0013,0,83.2209,5.32784e-29,41.2152,0
90.715,54.0013,0,83.2209,2.66392e-29,41.2152,0
91.715,54.0013,0,83.2209,1.33196e-29,41.2152,0
92.715,54.0013,0,83.2209,6.6598e-30,41.2152,0
93.715,54.0013,0,83.2209,3.3299e-30,41.2152,0
94.715,54.0013,0,83.2209,1.66495e-30,41.2152,0
95.715,54.0013,0,83.2209,8.32475e-31,41.2152,0
96.715,54.0013,0,83.2209,4.16238e-31,41.2152,0
97.715,54.0013,0,83.2209,2.08119e-31,41.2152,0
98.715,54.0013,0,83.2209,1.04059e-31,41.2152,0
99.715,54.0013,0,83.2209,5.20297e-32,41.2152,0
100,54.0013,0,83.2209,4.04902e-32,41.2152,0
