#Time,A,B,C,D,F
0,100,0,100,0,0
0.10049770413555159,95,5,35,37,28
0.20312690876387443,90,10,17,47,36
0.3164602328224276,83,17,7,54,39
0.4235798782047574,75,25,4,56,40
0.5430263745521823,70,30,1,58,41
0.6792101680989894,67,33,0,59,41
0.7991087715319135,62,38,0,59,41
0.9197960835657517,59,41,0,59,41
1.0528239771140437,50,50,0,59,41
1.282274320917716,47,53,0,59,41
1.412583383537474,44,56,0,59,41
1.5574429918161998,39,61,0,59,41
1.7480993265845048,37,63,0,59,41
1.877976260071291,34,66,0,59,41
2.0685090000668995,32,68,0,59,41
2.413545923043716,29,71,0,59,41
2.774149621797424,27,73,0,59,41
2.9132436490124984,25,75,0,59,41
3.0336657071078257,22,78,0,59,41
3.234425359741476,21,79,0,59,41
3.5089898876624877,17,83,0,59,41
3.738452639002145,16,84,0,59,41
3.8997222594967744,13,87,0,59,41
4.145651580186895,12,88,0,59,41
4.282676383382182,11,89,0,59,41
4.490867633460337,10,90,0,59,41
4.777247086616057,9,91,0,59,41
5.339342237453732,8,92,0,59,41
5.44967643364064,7,93,0,59,41
5.655992538299032,5,95,0,59,41
5.892392557726266,3,97,0,59,41
7.323150929763208,2,98,0,59,41
7.4443609836123885,1,99,0,59,41
11.653658539960553,0,100,0,59,41
100,0,100,0,59,41
