#Time,A,B,C,D,F
0,242,16,28,46,178
0.10044241637670862,226,32,9,56,187
0.20244540135139083,210,48,5,57,190
0.31580147602895237,200,58,1,61,190
0.43224513961631084,177,81,0,62,190
0.5383478994037791,167,91,0,62,190
0.6409554888444824,154,104,0,62,190
0.7924364375668674,141,117,0,62,190
0.9034870747641223,131,127,0,62,190
1.0175529171050655,118,140,0,62,190
1.1228454045242373,108,150,0,62,190
1.233316471955364,101,157,0,62,190
1.343676122098886,94,164,0,62,190
1.451923180407624,86,172,0,62,190
1.5978329060170071,74,184,0,62,190
1.7618981574987589,66,192,0,62,190
1.8843086343726256,64,194,0,62,190
1.9965452220805104,59,199,0,62,190
2.1327876349709367,54,204,0,62,190
2.2520732237688197,48,210,0,62,190
2.3959581790702664,45,213,0,62,190
2.5256684475756703,40,218,0,62,190
2.638062232344796,37,221,0,62,190
2.779922005147723,34,224,0,62,190
2.969675772508277,32,226,0,62,190
3.070472377820175,28,230,0,62,190
3.2261503886327256,24,234,0,62,190
3.4321325810758774,23,235,0,62,190
3.5681731920031,19,239,0,62,190
3.8076940427288632,17,241,0,62,190
3.9171481969123376,16,242,0,62,190
4.076822142139559,15,243,0,62,190
4.214363762254358,13,245,0,62,190
4.475774550798633,12,246,0,62,190
4.649519439418173,11,247,0,62,190
4.852556003084142,9,249,0,62,190
5.047994013632166,6,252,0,62,190
5.594744612867539,5,253,0,62,190
5.812713360211931,4,254,0,62,190
6.1731830737652515,3,255,0,62,190
6.362886016641369,2,256,0,62,190
7.191065787141694,1,257,0,62,190
100,0,258,0,62,190
