#Time,A,B,C,D,F
0,74,346,7,0,33
0.17710248556323493,74,346,0,4,36
0.6717396508213977,73,347,0,4,36
0.8286921835571205,72,348,0,4,36
2.8402260972981628,71,349,0,4,36
3.1480719774335686,70,350,0,4,36
3.2729060225863944,68,352,0,4,36
3.478219084664148,67,353,0,4,36
3.6096113775273753,66,354,0,4,36
4.338602199927543,64,356,0,4,36
4.500508296655518,63,357,0,4,36
4.897270646152691,62,358,0,4,36
5.03420368126103,59,361,0,4,36
5.3645017149442875,58,362,0,4,36
6.015636213801918,57,363,0,4,36
7.663237384458473,56,364,0,4,36
8.138812407608443,55,365,0,4,36
8.480050970317933,54,366,0,4,36
8.99947978636539,53,367,0,4,36
9.815937550833997,52,368,0,4,36
10.333661157051838,51,369,0,4,36
10.658102856946572,50,370,0,4,36
12.163291886963801,49,371,0,4,36
12.486352313387677,48,372,0,4,36
12.956833439929095,47,373,0,4,36
13.921107021141417,46,374,0,4,36
14.313690992602378,45,375,0,4,36
14.569133315481201,44,376,0,4,36
14.870898593892157,43,377,0,4,36
15.051867814491015,42,378,0,4,36
15.2426580584752,41,379,0,4,36
15.46309117701406,40,380,0,4,36
15.619098162000924,39,381,0,4,36
17.03092443493171,38,382,0,4,36
17.37181070937249,36,384,0,4,36
18.854426175444896,35,385,0,4,36
19.908901978748194,34,386,0,4,36
20.461721650086503,32,388,0,4,36
21.419595997961103,31,389,0,4,36
22.21450538438278,30,390,0,4,36
22.33979759649145,29,391,0,4,36
23.32458666299608,27,393,0,4,36
25.40197641590755,26,394,0,4,36
25.62163788248691,25,395,0,4,36
26.148323901125554,24,396,0,4,36
29.770735102008523,23,397,0,4,36
30.2664933319284,22,398,0,4,36
31.550182421753778,21,399,0,4,36
32.379893792897036,20,400,0,4,36
35.12709723932848,19,401,0,4,36
36.29992981045929,18,402,0,4,36
38.62893865530243,17,403,0,4,36
41.1945168452111,16,404,0,4,36
42.23998227131935,15,405,0,4,36
47.89579987678373,14,406,0,4,36
48.11156804399841,13,407,0,4,36
54.85367062737723,12,408,0,4,36
58.16862181331446,11,409,0,4,36
58.73001108522709,10,410,0,4,36
60.038745476785806,9,411,0,4,36
60.69566272970119,8,412,0,4,36
60.812736757546034,7,413,0,4,36
62.17918989235577,6,414,0,4,36
62.31874627520918,5,415,0,4,36
62.42574505579462,4,416,0,4,36
68.61579818564677,3,417,0,4,36
73.22357983417643,2,418,0,4,36
76.36690781604607,1,419,0,4,36
84.1892087639488,0,420,0,4,36
100,0,420,0,4,36
