#Time,A,B,C,D,F
0,7,0,16,92,0
0.10497457797894866,6,1,7,96,5
0.22079474179155295,6,1,2,101,5
0.42899920802348107,4,3,0,101,7
0.8998496394254774,2,5,0,101,7
2.3653932078056057,0,7,0,101,7
100,0,7,0,101,7
