#Time,A,B,C,D,F
0,114,0,15,217,17
0.1017287385694661,94,20,2,224,23
0.205923213167229,77,37,0,225,24
0.31741772142791563,59,55,0,225,24
0.4361940975929786,50,64,0,225,24
0.5438139959793652,36,78,0,225,24
0.6481989239629209,28,86,0,225,24
0.7618251189211152,20,94,0,225,24
0.862808693530292,15,99,0,225,24
0.9725778786616823,12,102,0,225,24
1.1745372524401132,9,105,0,225,24
1.2754087970554067,7,107,0,225,24
1.4046908474182074,6,108,0,225,24
1.5189556765872327,4,110,0,225,24
1.7535970274003914,2,112,0,225,24
2.7984681715500743,0,114,0,225,24
100,0,114,0,225,24
