#Time,A,B,C,D,F
0,78,93,4,1,0
0.11041492604417644,78,93,0,3,2
0.9169822767183528,77,94,0,3,2
1.798157906181927,76,95,0,3,2
1.906119721663944,74,97,0,3,2
2.268697885267428,73,98,0,3,2
2.9573277554419177,72,99,0,3,2
3.639308670268168,71,100,0,3,2
3.8143624988256395,70,101,0,3,2
4.499172231084092,68,103,0,3,2
4.734602241754686,67,104,0,3,2
5.019261444385516,66,105,0,3,2
6.18558599941782,65,106,0,3,2
6.38388855871983,64,107,0,3,2
6.658807709174777,63,108,0,3,2
7.997411731204828,62,109,0,3,2
8.103368907948257,61,110,0,3,2
9.800423626917562,60,111,0,3,2
10.21430123664216,59,112,0,3,2
10.401022586412727,57,114,0,3,2
10.618837465531284,56,115,0,3,2
11.07236706829029,55,116,0,3,2
11.519885321461087,54,117,0,3,2
11.803225199083265,53,118,0,3,2
13.334916594668575,51,120,0,3,2
13.752559599762417,50,121,0,3,2
13.931883268821188,49,122,0,3,2
14.58127956518057,48,123,0,3,2
14.904008429072885,47,124,0,3,2
16.140285027095413,46,125,0,3,2
16.580065303355614,45,126,0,3,2
17.113076654147413,44,127,0,3,2
17.9687896136428,43,128,0,3,2
19.160300130271978,42,129,0,3,2
19.483843941730612,41,130,0,3,2
20.70755724558112,39,132,0,3,2
22.3255419799297,38,133,0,3,2
22.54810334026344,37,134,0,3,2
23.350752971493815,36,135,0,3,2
26.466888466310124,34,137,0,3,2
26.939316859990303,33,138,0,3,2
27.22232615451495,32,139,0,3,2
28.06331837741629,31,140,0,3,2
28.434457192699075,30,141,0,3,2
29.037833374263013,29,142,0,3,2
29.221692678180773,28,143,0,3,2
29.79410326893916,27,144,0,3,2
30.422956331452887,26,145,0,3,2
31.68594039266182,24,147,0,3,2
32.83951280104972,23,148,0,3,2
34.780254466856505,22,149,0,3,2
36.10650426299923,21,150,0,3,2
40.9041590498954,20,151,0,3,2
44.49386294016648,19,152,0,3,2
45.398812670118474,18,153,0,3,2
47.07280066868962,17,154,0,3,2
48.59414579060134,16,155,0,3,2
50.90839282130414,15,156,0,3,2
51.34532070093182,13,158,0,3,2
52.451504842497854,12,159,0,3,2
54.56697133286972,11,160,0,3,2
57.494583328057416,10,161,0,3,2
60.84281023131994,9,162,0,3,2
63.80556559890614,8,163,0,3,2
76.94134159442166,7,164,0,3,2
83.5784495709157,6,165,0,3,2
86.70224709239415,5,166,0,3,2
92.0528008777282,4,167,0,3,2
92.93059844732437,3,168,0,3,2
111.7535762875321,2,169,0,3,2
