#Time,A,B,C,D,F
0,32,27,0,81,175
0.1157414679791445,27,32,0,81,175
0.2703110084401702,24,35,0,81,175
0.4459241118931875,22,37,0,81,175
0.5543110118833172,20,39,0,81,175
0.6685482016826795,18,41,0,81,175
0.7882898158628785,15,44,0,81,175
1.074017870315641,13,46,0,81,175
1.2438340624110398,12,47,0,81,175
1.3903786513179386,9,50,0,81,175
1.5661458783083968,7,52,0,81,175
1.8371759066518245,4,55,0,81,175
1.9551079263533242,3,56,0,81,175
2.274043189383615,2,57,0,81,175
2.4851809958024287,1,58,0,81,175
3.89386250857494,0,59,0,81,175
100,0,59,0,81,175
