#Time,A,B,C,D,F
0,44,43,28,28,31
0.12386281607348945,42,45,8,36,43
0.2332412107199349,40,47,1,42,44
0.3567912992102496,39,48,0,43,44
0.5638778991833575,38,49,0,43,44
0.717340680354258,36,51,0,43,44
0.8653332729098177,33,54,0,43,44
1.014257580825642,31,56,0,43,44
1.1210378133682763,28,59,0,43,44
1.248686496767132,24,63,0,43,44
1.5179212852435828,23,64,0,43,44
1.7305851652856665,21,66,0,43,44
2.071393596506412,18,69,0,43,44
2.461396347867859,17,70,0,43,44
2.8779889032332804,15,72,0,43,44
3.0350433086563084,14,73,0,43,44
3.364058548408222,12,75,0,43,44
4.055567726802677,11,76,0,43,44
4.227205525713256,9,78,0,43,44
4.721859237804044,8,79,0,43,44
4.9583376423523235,6,81,0,43,44
5.409938953258523,5,82,0,43,44
5.700485800928315,4,83,0,43,44
8.80664988075291,3,84,0,43,44
9.30278601434465,1,86,0,43,44
15.544197003768424,0,87,0,43,44
100,0,87,0,43,44
