#Time,A,B,C,D,F
0,80,90,169,215,120
0.10153622991125254,67,103,56,286,162
0.2054204371342106,51,119,16,316,172
0.3157049630332038,36,134,8,323,173
0.41699800010004806,29,141,5,325,174
0.5171354563780741,20,150,2,327,175
0.6253326056768153,11,159,1,328,175
0.7607637185296815,6,164,0,328,176
1.0381409818219074,3,167,0,328,176
1.1970301864526913,2,168,0,328,176
1.4627213765340599,0,170,0,328,176
100,0,170,0,328,176
