#Time,A,B,C,D,F
0,0,0,204,38,48
0.10076356548297145,0,0,69,136,85
0.207123066281295,0,0,20,165,105
0.3106921885646615,0,0,10,171,109
0.4172782517603491,0,0,3,176,111
0.7109889792722052,0,0,0,179,111
100,0,0,0,179,111
