#Time,A,B,C,D,F
0,12,247,44,145,5
0.10995227481624885,11,248,12,161,21
0.2175134099658178,11,248,5,168,21
0.3960850481847426,10,249,0,169,25
0.5328634409556087,8,251,0,169,25
0.636211072317953,7,252,0,169,25
0.7594059139541532,6,253,0,169,25
0.8627746176225952,5,254,0,169,25
1.2120169402177239,4,255,0,169,25
1.3666206310848386,3,256,0,169,25
1.5282774804540182,1,258,0,169,25
1.685080306988394,0,259,0,169,25
100,0,259,0,169,25
