#Time,A,B,C,D,F
0,12,0,289,222,128
0.10364464239790808,11,1,91,350,198
0.20993207165834726,8,4,23,396,220
0.31114600898346056,5,7,5,410,224
0.45287285046535775,2,10,1,410,228
0.76817729128996,1,11,0,411,228
1.3600860952338143,0,12,0,411,228
100,0,12,0,411,228
