#Time,A,B,C,D,F
0,114,0,15,217,17
0.10044324011323402,91,23,8,223,18
0.20183968907534885,75,39,3,225,21
0.3048238802756488,62,52,1,227,21
0.41229740234936396,52,62,0,228,21
0.514627168433598,42,72,0,228,21
0.6194362950534948,35,79,0,228,21
0.7213389689347315,26,88,0,228,21
0.8665452000642911,21,93,0,228,21
0.9977856776227091,15,99,0,228,21
1.1024551092905106,11,103,0,228,21
1.2211955840417852,8,106,0,228,21
1.3331976886935186,6,108,0,228,21
1.7496013851386327,5,109,0,228,21
1.8533355479666236,4,110,0,228,21
2.173852921771382,1,113,0,228,21
2.4072292917214826,0,114,0,228,21
100,0,114,0,228,21
