#Time,A,B,C,D,F
0,34,30,0,20,249
0.10089592981454684,32,32,0,20,249
0.5637642041133553,31,33,0,20,249
1.0168564155054627,28,36,0,20,249
1.1614639137047844,27,37,0,20,249
1.548261506363786,25,39,0,20,249
1.9112684671877596,22,42,0,20,249
2.030268965863712,21,43,0,20,249
2.7280030352642983,20,44,0,20,249
3.7891182936742425,19,45,0,20,249
3.891670738431164,18,46,0,20,249
4.790096949246809,17,47,0,20,249
5.6449226315052945,16,48,0,20,249
6.186714782052925,14,50,0,20,249
6.28841415099504,13,51,0,20,249
6.8183651274660955,11,53,0,20,249
7.029407895762539,10,54,0,20,249
7.192761275325088,8,56,0,20,249
7.441723663799634,7,57,0,20,249
7.908828930604364,6,58,0,20,249
14.559071854486442,5,59,0,20,249
14.921243377410612,4,60,0,20,249
15.356092679709096,3,61,0,20,249
16.668536969103737,2,62,0,20,249
17.415919689862687,1,63,0,20,249
18.787877172769363,0,64,0,20,249
100,0,64,0,20,249
