#Time,A,B,C,D,F
0,65,79,45,83,155
0.10046792371195795,61,83,15,101,167
0.20306154249220307,52,92,3,108,172
0.31535215309816017,45,99,0,110,173
0.42800190423299217,40,104,0,110,173
0.5445337953590698,34,110,0,110,173
0.6739370534254611,28,116,0,110,173
0.774275401943046,24,120,0,110,173
0.9467011098316144,22,122,0,110,173
1.0493810427217325,19,125,0,110,173
1.1532597048646154,16,128,0,110,173
1.2888491656074004,13,131,0,110,173
1.4477441936953708,10,134,0,110,173
1.592857351946457,9,135,0,110,173
1.6935009158955305,8,136,0,110,173
1.9207787935032292,6,138,0,110,173
2.1935897330377583,5,139,0,110,173
2.3517613576779652,4,140,0,110,173
2.9118558115529503,3,141,0,110,173
3.533957631239062,2,142,0,110,173
3.866917089517362,0,144,0,110,173
100,0,144,0,110,173
