#Time,A,B,C,D,F
0,12,0,289,222,128
0.1022921403330331,9,3,101,344,194
0.2047162820563437,6,6,29,384,226
0.32135480261608235,4,8,8,403,228
0.45630420300373586,1,11,2,406,231
0.6010556296211761,0,12,1,407,231
100,0,12,0,408,231
