#Time,A,B,C,D,F
0,15,0,434,2,0
0.10038877068368447,12,3,127,202,107
0.20048091388920206,12,3,37,261,138
0.31803065049952084,9,6,11,280,145
0.4328017881555084,7,8,5,284,147
0.5850528170787557,6,9,0,286,150
0.9041546803650917,2,13,0,286,150
1.0173363723821054,1,14,0,286,150
1.1885057133062855,0,15,0,286,150
100,0,15,0,286,150
