#Time,A,B,C,D,F
0,80,90,169,215,120
0.10066059932403665,65,105,62,282,160
0.20248130061432645,43,127,21,306,177
0.3145063672396486,27,143,8,313,183
0.4203025838530873,21,149,1,320,183
0.5256210371748067,9,161,0,320,184
0.6677676534280084,6,164,0,320,184
0.7923784184768078,4,166,0,320,184
1.1460624610092713,2,168,0,320,184
1.435865257350403,0,170,0,320,184
100,0,170,0,320,184
