#Time,A,B,C,D,F
0,94,3,126,256,28
0.10251622491611526,72,25,37,307,66
0.20674899681262882,56,41,11,320,79
0.31046201763275943,43,54,3,325,82
0.41703598825640786,31,66,0,328,82
0.5200454350812584,21,76,0,328,82
0.6515247599619691,16,81,0,328,82
0.7595856732603249,12,85,0,328,82
0.860342935896313,6,91,0,328,82
1.108170431448751,1,96,0,328,82
100,0,97,0,328,82
