#Time,A,B,C,D,F
0,181,13,84,124,204
0.10128974738557858,154,40,35,162,215
0.2125325757231897,142,52,15,176,221
0.3125978066460539,119,75,5,183,224
0.4134059556833201,95,99,1,186,225
0.5174067021368162,72,122,1,186,225
0.6275103453996715,59,135,0,186,226
0.7331222433731562,49,145,0,186,226
0.8360013832811506,44,150,0,186,226
0.9493998820557802,40,154,0,186,226
1.0557074902305184,34,160,0,186,226
1.198397431825366,27,167,0,186,226
1.3410973037227918,21,173,0,186,226
1.4592878683093187,15,179,0,186,226
1.5661911179854997,13,181,0,186,226
1.689521479303846,12,182,0,186,226
1.8010045738326905,8,186,0,186,226
1.9053770632665372,7,187,0,186,226
2.1606572103021584,5,189,0,186,226
2.5704187344157385,2,192,0,186,226
3.4024209857046763,1,193,0,186,226
4.56903538659086,0,194,0,186,226
100,0,194,0,186,226
