#Time,A,B,C,D,F
0,73,10,25,0,143
0.10859916567076598,72,11,6,12,150
0.23938440875412265,70,13,1,13,154
0.4780032896886294,67,16,0,13,155
0.6736568678463444,65,18,0,13,155
0.849531101078188,64,19,0,13,155
1.143489621933774,62,21,0,13,155
1.296314469283602,61,22,0,13,155
1.4941280716791343,57,26,0,13,155
1.6554227786047253,54,29,0,13,155
1.9876152166057042,53,30,0,13,155
2.3017852261475134,51,32,0,13,155
2.5151660688680764,49,34,0,13,155
2.7438883873870727,47,36,0,13,155
2.957892797013635,45,38,0,13,155
3.136607748835131,43,40,0,13,155
3.3067328685354322,42,41,0,13,155
3.427741002548555,41,42,0,13,155
3.6059434293515045,40,43,0,13,155
3.904566200158343,37,46,0,13,155
4.0235728965706965,36,47,0,13,155
4.144586804050139,34,49,0,13,155
4.353210478600179,32,51,0,13,155
4.914102656851073,31,52,0,13,155
5.865248262946779,29,54,0,13,155
6.2087668985556075,28,55,0,13,155
6.398217781310842,27,56,0,13,155
6.858783753484755,26,57,0,13,155
7.0891676076875125,24,59,0,13,155
7.340544290331738,23,60,0,13,155
7.716190722670641,20,63,0,13,155
8.612122033110605,19,64,0,13,155
8.771133562050816,16,67,0,13,155
9.100417143304568,15,68,0,13,155
10.337523135595156,14,69,0,13,155
10.534732311060534,12,71,0,13,155
11.132145881555632,11,72,0,13,155
11.65433436476106,10,73,0,13,155
11.868059078282062,9,74,0,13,155
12.359318036670231,6,77,0,13,155
14.406517712423668,5,78,0,13,155
16.5964517763816,4,79,0,13,155
24.107522928724187,3,80,0,13,155
27.103703862411557,2,81,0,13,155
27.236674295597957,1,82,0,13,155
33.183912508326735,0,83,0,13,155
100,0,83,0,13,155
