#Time,A,B,C,D,F
0,34,30,0,20,249
0.12944639323994003,33,31,0,20,249
0.3488745187518268,32,32,0,20,249
0.6003906175873656,30,34,0,20,249
0.8412974841301724,28,36,0,20,249
0.9648631500116345,27,37,0,20,249
1.1219929931899364,26,38,0,20,249
1.42593660715966,24,40,0,20,249
2.6920347629841705,23,41,0,20,249
3.054272960374549,22,42,0,20,249
3.1677607628069286,21,43,0,20,249
3.3948494459104173,20,44,0,20,249
4.090099122936882,19,45,0,20,249
4.349444172898832,17,47,0,20,249
4.619457971814942,16,48,0,20,249
5.024917897569016,15,49,0,20,249
5.370548885828819,14,50,0,20,249
5.962190770545119,12,52,0,20,249
6.2583329425045955,11,53,0,20,249
7.425516233046418,10,54,0,20,249
8.617414417900816,9,55,0,20,249
9.396077604393122,8,56,0,20,249
9.876179735992661,7,57,0,20,249
10.344253300588651,6,58,0,20,249
10.555102975635569,5,59,0,20,249
13.200199334478736,4,60,0,20,249
13.436028772687402,3,61,0,20,249
14.311895949200107,2,62,0,20,249
14.510597244438818,1,63,0,20,249
14.983460071682295,0,64,0,20,249
100,0,64,0,20,249
