#Time,A,B,C,D,F
0,4,0,46,0,105
0.12356717795599814,4,0,11,21,119
0.22732340031567164,4,0,2,26,123
1.9601511218492016,3,1,0,27,124
2.113574161384461,2,2,0,27,124
4.159781527465398,1,3,0,27,124
4.359372266993654,0,4,0,27,124
100,0,4,0,27,124
