#Time,A,B,C,D,F
0,172,54,14,235,48
0.10623553007642011,138,88,0,245,52
0.21007192340064795,113,113,0,245,52
0.31116382662105185,88,138,0,245,52
0.41730488814477334,71,155,0,245,52
0.5263127880244602,59,167,0,245,52
0.6420101543529307,51,175,0,245,52
0.7692106313557181,37,189,0,245,52
0.8943312561802188,27,199,0,245,52
1.0260088818257982,16,210,0,245,52
1.1784701324518234,10,216,0,245,52
1.2824548916613265,6,220,0,245,52
1.428047815509121,5,221,0,245,52
1.5524496931981766,3,223,0,245,52
1.7334264841307154,1,225,0,245,52
100,0,226,0,245,52
