#Time,A,B,C,D,F
0,5,62,88,55,42
0.10462760404737736,5,62,31,97,57
0.20599891219325922,4,63,13,108,64
0.3156640373705928,4,63,5,114,66
0.41707997909399086,3,64,3,115,67
0.8278712640026822,1,66,0,117,68
1.454326730576702,0,67,0,117,68
100,0,67,0,117,68
