#Time,A,B,C,D,F
0,138,171,0,58,0
0.10113148118359776,128,181,0,58,0
0.22338200286186452,117,192,0,58,0
0.3377135279191334,108,201,0,58,0
0.4435668131010242,100,209,0,58,0
0.5444522709248366,94,215,0,58,0
0.6812655471590096,89,220,0,58,0
0.7819039533139843,84,225,0,58,0
0.885905983353108,77,232,0,58,0
1.0086715505893753,71,238,0,58,0
1.1994237516873523,67,242,0,58,0
1.3069577096255476,60,249,0,58,0
1.4093130706456658,58,251,0,58,0
1.5261239142166525,53,256,0,58,0
1.6697173807233505,51,258,0,58,0
1.8095799337443088,48,261,0,58,0
1.9349524939047416,44,265,0,58,0
2.0781819585386425,38,271,0,58,0
2.1794832880359696,35,274,0,58,0
2.4075944754568233,32,277,0,58,0
2.5262962330113967,29,280,0,58,0
2.8911971661391376,28,281,0,58,0
3.0435472065378963,26,283,0,58,0
3.176569180625697,22,287,0,58,0
3.3339616850521394,19,290,0,58,0
3.490714584751528,18,291,0,58,0
3.900785790079561,15,294,0,58,0
4.105851406007447,14,295,0,58,0
4.488124818710778,11,298,0,58,0
4.655391745672915,10,299,0,58,0
4.894892704645337,9,300,0,58,0
5.043741092009103,8,301,0,58,0
5.257916698616182,7,302,0,58,0
5.388217854789581,6,303,0,58,0
5.5579729457152665,5,304,0,58,0
5.901954852222743,4,305,0,58,0
6.102806919684678,3,306,0,58,0
7.070546471608976,2,307,0,58,0
7.489905200369987,1,308,0,58,0
8.148027440696051,0,309,0,58,0
100,0,309,0,58,0
