#Time,A,B,C,D,F
0,41,0,71,41,252
0.1002338506219693,36,5,24,71,269
0.2005388376603849,33,8,6,84,274
0.324770532905433,30,11,1,87,276
0.43910616528203855,24,17,0,87,277
0.6129602659399799,20,21,0,87,277
0.8625775736361289,18,23,0,87,277
1.030039542714323,15,26,0,87,277
1.2748513864809625,14,27,0,87,277
1.3968041479961755,11,30,0,87,277
1.5061282839012424,8,33,0,87,277
1.6583471063695263,6,35,0,87,277
1.9399191155265427,5,36,0,87,277
3.2121480646996945,4,37,0,87,277
3.6545628869208087,3,38,0,87,277
4.242377557026652,2,39,0,87,277
5.286665099817107,0,41,0,87,277
100,0,41,0,87,277
