#Time,A,B,C,D,F
0,344,24,0,69,11
0.10395306593925567,311,57,0,69,11
0.22119782526532103,285,83,0,69,11
0.33368594374796795,262,106,0,69,11
0.43484781453365173,237,131,0,69,11
0.5414317538022455,219,149,0,69,11
0.6535558705870218,197,171,0,69,11
0.7779764419207156,188,180,0,69,11
0.8820393158784269,175,193,0,69,11
0.9961705610404298,166,202,0,69,11
1.1109775753670112,156,212,0,69,11
1.214439797419479,141,227,0,69,11
1.333495411908166,133,235,0,69,11
1.4542656355094192,122,246,0,69,11
1.561286112288604,105,263,0,69,11
1.6772062301970894,100,268,0,69,11
1.8145765965480933,95,273,0,69,11
1.9351467721883053,84,284,0,69,11
2.045702225245808,80,288,0,69,11
2.150783284414669,74,294,0,69,11
2.254264872759335,71,297,0,69,11
2.3602707421088827,65,303,0,69,11
2.4807288762603914,63,305,0,69,11
2.6094738051985775,58,310,0,69,11
2.723466924929904,51,317,0,69,11
2.8978935595316777,46,322,0,69,11
3.0393412725274978,36,332,0,69,11
3.207051522829238,34,334,0,69,11
3.3463116723426323,31,337,0,69,11
3.5414281010232576,29,339,0,69,11
3.665492155477437,28,340,0,69,11
3.789326845702073,25,343,0,69,11
3.895610426121783,23,345,0,69,11
4.027775532206506,20,348,0,69,11
4.137703768407859,18,350,0,69,11
4.396389202299264,16,352,0,69,11
4.601338497418872,15,353,0,69,11
4.861778312318751,14,354,0,69,11
5.028842959857595,13,355,0,69,11
5.151712619201303,10,358,0,69,11
5.464157747794371,9,359,0,69,11
5.842199223201256,7,361,0,69,11
6.462589950790634,6,362,0,69,11
6.986146047704984,5,363,0,69,11
7.303535806430431,4,364,0,69,11
7.526359171496439,3,365,0,69,11
8.016647852004404,2,366,0,69,11
8.800222947038383,1,367,0,69,11
9.276167775287677,0,368,0,69,11
100,0,368,0,69,11
