#Time,A,B,C,D,F
0,634,21,253,24,140
0.10002352815135282,582,73,71,146,200
0.200208587430729,493,162,22,177,218
0.30026004187214356,401,254,6,188,223
0.400949990861449,335,320,3,189,225
0.501795772633046,275,380,1,191,225
0.6061141920582278,206,449,0,192,225
0.7097253629524477,165,490,0,192,225
0.811354879137559,133,522,0,192,225
0.9122710118748024,107,548,0,192,225
1.028628144485433,87,568,0,192,225
1.1336465823581992,72,583,0,192,225
1.2365665564900978,56,599,0,192,225
1.3449867110293767,42,613,0,192,225
1.4567921783635314,32,623,0,192,225
1.5637935630333824,24,631,0,192,225
1.6982032843238482,20,635,0,192,225
1.8351807492185905,14,641,0,192,225
1.9373081600376911,11,644,0,192,225
2.1353177968304418,10,645,0,192,225
2.3363229692915315,8,647,0,192,225
2.509869035814916,6,649,0,192,225
2.666598543401114,4,651,0,192,225
2.777308061225217,1,654,0,192,225
4.34130121638221,0,655,0,192,225
100,0,655,0,192,225
