#Time,A,B,C,D,F
0,54,66,4,54,0
0.10950768593343066,48,72,2,55,1
0.24935671230855225,46,74,2,55,1
0.3650780450121876,41,79,1,56,1
0.4760265640312992,40,80,0,56,2
0.6322564029262225,37,83,0,56,2
0.7679370280678044,35,85,0,56,2
0.9109389179510321,29,91,0,56,2
1.1360806417542932,26,94,0,56,2
1.2736088613057601,25,95,0,56,2
1.4014339934001356,24,96,0,56,2
1.55998284938946,23,97,0,56,2
1.6996995046014527,22,98,0,56,2
1.8408046989133813,21,99,0,56,2
2.0320270185489955,20,100,0,56,2
2.1788684873142694,18,102,0,56,2
2.382588599426928,15,105,0,56,2
2.6577991051449725,14,106,0,56,2
2.9508188221411,13,107,0,56,2
3.2045884743577475,12,108,0,56,2
3.480449360512872,11,109,0,56,2
3.6602380404583243,10,110,0,56,2
4.186099214796246,8,112,0,56,2
4.4921845344931715,6,114,0,56,2
5.235914558980628,4,116,0,56,2
5.447276291915599,3,117,0,56,2
6.8618470536965095,2,118,0,56,2
8.181596168083844,0,120,0,56,2
100,0,120,0,56,2
