#Time,A,B,C,D,F
0,126,8,18,153,314
0.11143977836003995,108,26,1,168,316
0.21800657976552082,92,42,0,169,316
0.3214367834924938,79,55,0,169,316
0.42535694564726506,70,64,0,169,316
0.5269666256203687,57,77,0,169,316
0.6495060585298671,48,86,0,169,316
0.7623763082933629,42,92,0,169,316
0.8761049151403303,33,101,0,169,316
0.9761107259989829,28,106,0,169,316
1.1579054746714341,23,111,0,169,316
1.3549741479601694,15,119,0,169,316
1.4667214476976556,11,123,0,169,316
1.6097384506669374,10,124,0,169,316
1.7239486123811225,7,127,0,169,316
1.9671938944112104,5,129,0,169,316
2.100748444397085,3,131,0,169,316
2.204944006031751,2,132,0,169,316
2.437062282097582,1,133,0,169,316
2.8644771387718473,0,134,0,169,316
100,0,134,0,169,316
