#Time,A,B,C,D,F
0,96,189,89,68,31
0.10141234207179717,91,194,32,108,48
0.20351794831682696,80,205,6,119,63
0.31463157166231165,73,212,0,122,66
0.4192855458831797,68,217,0,122,66
0.5470970369997377,57,228,0,122,66
0.6804099101519461,52,233,0,122,66
0.7969581651368138,44,241,0,122,66
0.9087981216145198,33,252,0,122,66
1.0270754581738861,31,254,0,122,66
1.1467774139971734,27,258,0,122,66
1.2479429579424401,23,262,0,122,66
1.3507136657151946,19,266,0,122,66
1.4739385961707923,17,268,0,122,66
1.595910822222146,14,271,0,122,66
1.7780863582673552,13,272,0,122,66
1.9182738233967485,11,274,0,122,66
2.048343216180072,8,277,0,122,66
2.181753232472143,7,278,0,122,66
2.2923162607614542,5,280,0,122,66
2.48748224409837,4,281,0,122,66
2.8564184501665766,2,283,0,122,66
3.138718416434494,0,285,0,122,66
100,0,285,0,122,66
