#Time,A,B,C,D,F
0,123,85,3,163,238
0.10250288311914518,103,105,2,163,239
0.20286015423294385,80,128,2,163,239
0.33042654131529686,70,138,1,164,239
0.43376206571333376,60,148,0,164,240
0.5513940637616536,50,158,0,164,240
0.6922036689581117,44,164,0,164,240
0.7952894590594468,35,173,0,164,240
0.9194866214040539,30,178,0,164,240
1.0215700394606757,27,181,0,164,240
1.1382264174629717,22,186,0,164,240
1.2398205942581002,14,194,0,164,240
1.421177955638355,11,197,0,164,240
1.5537994442854082,8,200,0,164,240
1.6717152547208076,5,203,0,164,240
1.7866578619432356,2,206,0,164,240
3.0385142762275965,0,208,0,164,240
100,0,208,0,164,240
