#Time,A,B,C,D,F
0,344,24,0,69,11
0.10192420339185734,321,47,0,69,11
0.21060544047267352,297,71,0,69,11
0.3125048511034142,274,94,0,69,11
0.4148924341055079,252,116,0,69,11
0.5150658755026293,231,137,0,69,11
0.6213918184255282,211,157,0,69,11
0.7304144801440652,189,179,0,69,11
0.8411423644020612,174,194,0,69,11
0.9810381308004578,159,209,0,69,11
1.0879069507434653,147,221,0,69,11
1.1994902071712135,136,232,0,69,11
1.3145649937863848,129,239,0,69,11
1.4276720855942289,122,246,0,69,11
1.5355680405856509,116,252,0,69,11
1.6364804027589794,108,260,0,69,11
1.7717742988162046,98,270,0,69,11
1.8805635717968279,86,282,0,69,11
1.9837036611022612,79,289,0,69,11
2.08481065118181,73,295,0,69,11
2.185597726913642,67,301,0,69,11
2.288776315747185,60,308,0,69,11
2.391144757501812,57,311,0,69,11
2.498649113440033,50,318,0,69,11
2.610064441477437,46,322,0,69,11
2.7122582906168566,43,325,0,69,11
2.8252429528774274,38,330,0,69,11
3.000581064250233,34,334,0,69,11
3.1806970346086114,29,339,0,69,11
3.294429759056468,25,343,0,69,11
3.4763033526975593,20,348,0,69,11
3.6604075942561574,19,349,0,69,11
3.8719515016444235,16,352,0,69,11
4.006077391810941,14,354,0,69,11
4.1120758945934295,12,356,0,69,11
4.4248523291140565,11,357,0,69,11
5.286914836904142,9,359,0,69,11
5.401455124556711,5,363,0,69,11
5.585393905703311,4,364,0,69,11
6.178452086384685,2,366,0,69,11
6.320956780324312,1,367,0,69,11
7.025418518661007,0,368,0,69,11
100,0,368,0,69,11
