#Time,A,B,C,D,F
0,162,30,88,1,48
0.10041678881445618,159,33,24,42,71
0.20168039911817137,152,40,6,53,78
0.30375208602692017,144,48,1,57,79
0.41861072049716636,128,64,1,57,79
0.5345721380734871,122,70,1,57,79
0.6369439138622465,113,79,0,57,80
0.7493119362964095,103,89,0,57,80
0.8733737506102663,95,97,0,57,80
1.0192893611254472,85,107,0,57,80
1.123937820575902,80,112,0,57,80
1.326286818626677,76,116,0,57,80
1.4338236629632777,73,119,0,57,80
1.5572691159673981,67,125,0,57,80
1.6868332543660507,63,129,0,57,80
1.802087116980119,58,134,0,57,80
1.976264005944027,53,139,0,57,80
2.1024403465164405,51,141,0,57,80
2.21569636990306,47,145,0,57,80
2.3225428508426504,42,150,0,57,80
2.647509337244961,38,154,0,57,80
2.7702350017904758,37,155,0,57,80
2.888326880502193,33,159,0,57,80
3.008035102266991,30,162,0,57,80
3.3809625883970056,24,168,0,57,80
3.5838765844405405,22,170,0,57,80
3.799831658758844,19,173,0,57,80
3.952030744961725,18,174,0,57,80
4.055163732751864,15,177,0,57,80
4.244394124830112,14,178,0,57,80
4.529913846713365,13,179,0,57,80
4.6348776613166836,11,181,0,57,80
4.756583761042399,10,182,0,57,80
5.115871703520228,9,183,0,57,80
5.354777271645543,5,187,0,57,80
5.524842176858469,3,189,0,57,80
5.870705831548728,2,190,0,57,80
6.746297158235786,1,191,0,57,80
11.295874415194733,0,192,0,57,80
100,0,192,0,57,80
