#Time,A,B,C,D,F
0,26,40,4,51,1
0.16856502512478372,24,42,1,53,2
0.6276400193483818,23,43,0,54,2
0.7432204826099145,22,44,0,54,2
0.8825157987738399,20,46,0,54,2
1.0648749292500919,17,49,0,54,2
1.3400285115855066,15,51,0,54,2
1.455099129409425,14,52,0,54,2
1.5820816201089443,12,54,0,54,2
1.8349999840740474,10,56,0,54,2
2.1936898965087206,9,57,0,54,2
2.9593436259626946,8,58,0,54,2
3.2272031804634325,7,59,0,54,2
4.110405804157842,6,60,0,54,2
5.105085208026331,5,61,0,54,2
5.511711822847303,4,62,0,54,2
6.8988489708804135,3,63,0,54,2
7.268771432431636,1,65,0,54,2
13.301930693244135,0,66,0,54,2
100,0,66,0,54,2
