#Time,A,B,C,D,F
0,231,224,204,0,62
0.10027463357852355,219,236,67,89,110
0.20512781791224416,199,256,26,112,128
0.3061710577488271,177,278,8,123,135
0.40926905115658263,146,309,3,125,138
0.5095228377078976,134,321,1,125,140
0.6167351418012135,122,333,0,126,140
0.7350237524465292,106,349,0,126,140
0.8379886541638707,88,367,0,126,140
0.9742218859107284,77,378,0,126,140
1.0800433401824117,66,389,0,126,140
1.1804568211077628,56,399,0,126,140
1.2914403127758356,46,409,0,126,140
1.392630759009877,39,416,0,126,140
1.4970980130713953,34,421,0,126,140
1.6244322161654532,29,426,0,126,140
1.7325427407435408,22,433,0,126,140
1.8509680714979084,18,437,0,126,140
2.022192313105233,14,441,0,126,140
2.1394748842891684,13,442,0,126,140
2.2479271254873896,12,443,0,126,140
2.4575626015195273,9,446,0,126,140
2.6600700348407385,7,448,0,126,140
2.8878894363995142,6,449,0,126,140
3.071406796414482,3,452,0,126,140
3.211468808467235,2,453,0,126,140
4.483498152636043,1,454,0,126,140
4.832208974811245,0,455,0,126,140
100,0,455,0,126,140
