#Time,A,B,C,D,F
0,39,189,62,1,8
0.10192243554880327,39,189,16,31,24
0.20586575615843541,37,191,6,38,27
0.335497050458753,36,192,0,43,28
0.6400965378549011,32,196,0,43,28
0.9277942649114798,30,198,0,43,28
1.069991739218395,25,203,0,43,28
1.2442720811833334,23,205,0,43,28
1.3542441200154327,21,207,0,43,28
1.5276230267270927,19,209,0,43,28
1.8527510100873779,17,211,0,43,28
1.9619100660247504,15,213,0,43,28
2.3228469886573078,13,215,0,43,28
2.4625298608952755,12,216,0,43,28
2.8960448495934674,11,217,0,43,28
3.0786424251187965,10,218,0,43,28
3.2893752139339907,9,219,0,43,28
3.609105346371017,7,221,0,43,28
3.939564674889312,6,222,0,43,28
5.0618536060434876,5,223,0,43,28
5.324611845489739,4,224,0,43,28
5.8962332149538295,3,225,0,43,28
7.1914987383318705,2,226,0,43,28
8.675998533051771,1,227,0,43,28
8.78227523432836,0,228,0,43,28
100,0,228,0,43,28
