#Time,A,B,C,D,F
0,114,0,15,217,17
0.10160822270782834,91,23,10,220,19
0.20288763921070416,70,44,3,225,21
0.308049056772421,52,62,0,227,22
0.40889498135641733,42,72,0,227,22
0.5225315531782926,35,79,0,227,22
0.634438767325171,23,91,0,227,22
0.7484050796967114,16,98,0,227,22
0.8514801625522311,11,103,0,227,22
0.9791661189091502,10,104,0,227,22
1.1304050133174988,8,106,0,227,22
1.4322754544234573,4,110,0,227,22
1.6479580587276041,2,112,0,227,22
2.0065455468613966,1,113,0,227,22
3.008097193325857,0,114,0,227,22
100,0,114,0,227,22
