#Time,A,B,C,D,F
0,54,66,4,54,0
0.11912988275895034,51,69,0,55,3
0.2482699737070964,47,73,0,55,3
0.4001824846471359,43,77,0,55,3
0.531667363737588,41,79,0,55,3
0.662319658084675,37,83,0,55,3
0.7649788941471255,35,85,0,55,3
0.8731617218997252,33,87,0,55,3
1.0789737147685454,29,91,0,55,3
1.2242972856765015,26,94,0,55,3
1.410168109718424,21,99,0,55,3
1.7109004779230168,20,100,0,55,3
1.8732230714764322,18,102,0,55,3
1.984823625329172,16,104,0,55,3
2.091143570761262,15,105,0,55,3
2.21245427101412,13,107,0,55,3
2.315036640696989,11,109,0,55,3
2.5960420263487114,10,110,0,55,3
2.98301649132473,9,111,0,55,3
3.1507487288955978,8,112,0,55,3
3.8423707969359313,7,113,0,55,3
4.254089140468793,6,114,0,55,3
4.39109609340298,4,116,0,55,3
4.6574298714266,3,117,0,55,3
5.740743020028109,2,118,0,55,3
9.0944046402923,1,119,0,55,3
10.09930958688033,0,120,0,55,3
100,0,120,0,55,3
