#Time,A,B,C,D,F
0,5,0,98,0,21
0.10037494571493706,5,0,41,34,44
0.20879692760412827,5,0,7,56,56
0.3241551009765365,5,0,0,59,60
0.5449944418291929,4,1,0,59,60
1.8050585543808677,3,2,0,59,60
2.062531842094774,2,3,0,59,60
2.6490868324029413,1,4,0,59,60
4.457933513333929,0,5,0,59,60
100,0,5,0,59,60
