#Time,A,B,C,D,F
0,17,78,121,0,265
0.10186291692315128,17,78,36,50,300
0.20440306597142682,16,79,13,66,307
0.3250003983535357,16,79,2,72,312
0.46118776554902297,15,80,1,73,312
0.6808638799737119,14,81,0,74,312
0.8046630447694513,11,84,0,74,312
0.967768382737239,10,85,0,74,312
1.0881667861220092,8,87,0,74,312
1.384945453808867,6,89,0,74,312
1.6476930082345396,5,90,0,74,312
2.1448485849840226,4,91,0,74,312
2.956604929948903,3,92,0,74,312
3.1811814361401183,2,93,0,74,312
3.723636234713947,1,94,0,74,312
4.374768225900652,0,95,0,74,312
100,0,95,0,74,312
