#Time,A,B,C,D,F
0,23,196,179,170,51
0.1089557707483039,18,201,53,245,102
0.2125059623303324,14,205,20,268,112
0.31371608849985555,14,205,5,277,118
0.4209741700481014,11,208,1,278,121
0.5464712408399383,6,213,1,278,121
0.6554695636699536,2,217,1,278,121
0.76882540302882,0,219,0,278,122
100,0,219,0,278,122
