#Time,A,B,C,D,F
0,123,85,3,163,238
0.10487565627217736,104,104,1,164,239
0.216490636045406,92,116,1,164,239
0.32322889885898876,80,128,0,165,239
0.43454691482090235,68,140,0,165,239
0.562351190502336,55,153,0,165,239
0.6926805862714275,45,163,0,165,239
0.7934368851767698,36,172,0,165,239
0.9121559486929591,30,178,0,165,239
1.0211517806303092,21,187,0,165,239
1.1273865372316905,19,189,0,165,239
1.2974742409627593,16,192,0,165,239
1.4211959284133913,14,194,0,165,239
1.546758462854509,11,197,0,165,239
1.6899184605795576,9,199,0,165,239
1.814201008104565,8,200,0,165,239
1.9243667297166007,7,201,0,165,239
2.0758462484609788,6,202,0,165,239
2.3096391594079764,5,203,0,165,239
3.0004639239724566,3,205,0,165,239
3.148466400433412,1,207,0,165,239
3.8334851919298982,0,208,0,165,239
100,0,208,0,165,239
