#Time,A,B,C,D,F
0,0,4,195,0,32
0.10371442457279309,0,4,66,82,79
0.21171001642482093,0,4,19,118,90
0.31734818373282747,0,4,6,127,94
0.41996474510052784,0,4,2,131,94
0.6751327490994695,0,4,0,131,96
100,0,4,0,131,96
