#Time,A,B,C,D,F
0,181,13,84,124,204
0.10014576536448859,151,43,27,163,222
0.20279779978801474,124,70,10,171,231
0.30572034170467766,108,86,0,178,234
0.4059196477377372,94,100,0,178,234
0.5142839692631807,82,112,0,178,234
0.6237945191776618,69,125,0,178,234
0.7310886800602421,55,139,0,178,234
0.8421631959898542,46,148,0,178,234
0.9477007984499399,37,157,0,178,234
1.0597125055159,29,165,0,178,234
1.1692959444104012,23,171,0,178,234
1.2748086408323605,20,174,0,178,234
1.388819407415451,17,177,0,178,234
1.4936220007137793,12,182,0,178,234
1.6282993324526283,10,184,0,178,234
1.9369191270780919,8,186,0,178,234
2.127533965194269,5,189,0,178,234
2.2789865325363485,4,190,0,178,234
2.5689683745878664,3,191,0,178,234
3.1727192725060473,2,192,0,178,234
3.5399711438091908,1,193,0,178,234
100,0,194,0,178,234
