#Time,A,B,C,D,F
0,11,37,106,33,16
0.10249146171955653,8,40,35,79,41
0.20265537197605166,7,41,12,94,49
0.3337244891793543,6,42,2,101,52
0.9537227587327453,3,45,0,101,54
1.079251717971657,2,46,0,101,54
1.3852731991409712,1,47,0,101,54
1.7470668533798102,0,48,0,101,54
100,0,48,0,101,54
