#Time,A,B,C,D,F
0,200,107,2,2,36
0.6555510237107128,199,108,0,2,38
0.8168150742280471,197,110,0,2,38
1.063281298414682,195,112,0,2,38
1.2276332911762635,193,114,0,2,38
1.3475157314703892,191,116,0,2,38
1.465924228743211,189,118,0,2,38
2.0382408505827914,188,119,0,2,38
2.4102908076225353,187,120,0,2,38
3.4222527966021055,186,121,0,2,38
3.534547992332256,185,122,0,2,38
4.096222717241606,184,123,0,2,38
4.81754636778243,183,124,0,2,38
5.258534057812436,182,125,0,2,38
5.381474555781909,181,126,0,2,38
5.4917266593257645,180,127,0,2,38
5.667231374834805,179,128,0,2,38
5.9369393829243835,176,131,0,2,38
6.070334955964507,175,132,0,2,38
6.478691249839143,172,135,0,2,38
6.719322005562982,171,136,0,2,38
7.267410447398017,170,137,0,2,38
7.475805339805002,169,138,0,2,38
7.935758052426364,167,140,0,2,38
8.072091213520055,166,141,0,2,38
9.380189933226593,165,142,0,2,38
9.513183355723378,164,143,0,2,38
10.20128312006011,163,144,0,2,38
11.139145373076046,161,146,0,2,38
11.89543970123434,160,147,0,2,38
12.4595719459463,159,148,0,2,38
12.65029756237906,156,151,0,2,38
13.087257894003752,154,153,0,2,38
13.209586456823821,153,154,0,2,38
13.750282984690763,152,155,0,2,38
14.389982978455095,150,157,0,2,38
15.304436204066299,148,159,0,2,38
16.33030450324854,146,161,0,2,38
16.896244411314736,145,162,0,2,38
17.310923971036665,144,163,0,2,38
18.957387920026672,143,164,0,2,38
19.213057987260267,142,165,0,2,38
19.909396327947867,141,166,0,2,38
20.09100882958912,140,167,0,2,38
20.538970230119553,139,168,0,2,38
21.061824947507155,137,170,0,2,38
21.82091790776476,136,171,0,2,38
22.065452696323703,135,172,0,2,38
22.67294818647692,134,173,0,2,38
22.998978944622973,133,174,0,2,38
23.366355850873433,131,176,0,2,38
23.481149495005496,128,179,0,2,38
23.612046552044923,126,181,0,2,38
23.935679619056838,125,182,0,2,38
25.056620869148464,124,183,0,2,38
25.31576918718565,123,184,0,2,38
26.949527502496924,122,185,0,2,38
27.470749760596302,121,186,0,2,38
27.87350743200259,120,187,0,2,38
28.315866736977956,119,188,0,2,38
28.818279805921765,118,189,0,2,38
29.15611066711556,117,190,0,2,38
29.293512559945906,116,191,0,2,38
29.410523868483452,115,192,0,2,38
29.589366593027023,114,193,0,2,38
30.179877025812043,113,194,0,2,38
30.374569424679876,111,196,0,2,38
30.646697431780062,110,197,0,2,38
30.781060810761584,109,198,0,2,38
31.985732135008202,108,199,0,2,38
32.38586065856362,106,201,0,2,38
32.51602631934067,105,202,0,2,38
33.71541160327196,104,203,0,2,38
34.251068419833246,103,204,0,2,38
34.57604415104661,102,205,0,2,38
34.79717432761395,101,206,0,2,38
35.586988711667075,99,208,0,2,38
36.260545310789475,98,209,0,2,38
37.40763221306117,97,210,0,2,38
38.79858062941625,96,211,0,2,38
39.03997475097257,92,215,0,2,38
41.55695700906319,91,216,0,2,38
42.06282341310662,90,217,0,2,38
42.27691601753395,89,218,0,2,38
42.7876643586621,88,219,0,2,38
43.51898668232089,87,220,0,2,38
44.06603093323847,86,221,0,2,38
44.835039033354995,85,222,0,2,38
45.49710600080398,84,223,0,2,38
45.83497142631044,83,224,0,2,38
46.01400796658385,82,225,0,2,38
49.46272927412727,80,227,0,2,38
50.35568721927708,78,229,0,2,38
50.59030125816038,77,230,0,2,38
51.049609684300776,76,231,0,2,38
51.31987020213268,75,232,0,2,38
52.144676754291105,74,233,0,2,38
52.48107793776628,73,234,0,2,38
52.642663776577635,72,235,0,2,38
53.50615420844024,71,236,0,2,38
53.91851584546561,69,238,0,2,38
54.10357590630843,68,239,0,2,38
54.86105428032969,67,240,0,2,38
55.06616129595215,66,241,0,2,38
55.218240669789054,64,243,0,2,38
57.440075183449395,63,244,0,2,38
57.6702975593438,62,245,0,2,38
57.976584531298876,61,246,0,2,38
58.74786277013017,60,247,0,2,38
59.237335061911395,59,248,0,2,38
61.43240492193095,58,249,0,2,38
61.59161113170309,57,250,0,2,38
61.813274520263434,56,251,0,2,38
62.566051652196485,55,252,0,2,38
66.2091002963258,54,253,0,2,38
69.91245122159907,53,254,0,2,38
71.60258902274927,52,255,0,2,38
73.45197954420621,51,256,0,2,38
73.62183803299091,50,257,0,2,38
76.26960818709752,49,258,0,2,38
78.30672482869944,48,259,0,2,38
78.78752837100664,47,260,0,2,38
79.20297832957341,46,261,0,2,38
79.5285114366393,45,262,0,2,38
79.93285172613396,44,263,0,2,38
81.7767955672825,43,264,0,2,38
82.23961498921742,42,265,0,2,38
83.47508416250074,41,266,0,2,38
83.68884652681054,40,267,0,2,38
85.33829279382654,39,268,0,2,38
86.62988859334038,38,269,0,2,38
86.9732758529584,37,270,0,2,38
87.32976568431305,36,271,0,2,38
91.50312846523488,35,272,0,2,38
91.95276611663506,34,273,0,2,38
94.01072475573643,33,274,0,2,38
94.17792269415921,32,275,0,2,38
94.28638343446805,31,276,0,2,38
96.65206639087687,30,277,0,2,38
100.3919258780641,28,279,0,2,38
