#Time,A,B,C,D,F
0,67,0,268,455,6
0.10056625617781091,39,28,95,568,66
0.20633418203711104,25,42,32,603,94
0.31409021682792554,17,50,11,618,100
0.42429411696250185,7,60,4,624,101
0.5435359936614419,2,65,3,625,101
0.8142279259108813,0,67,3,625,101
1.2010470316696362,0,67,0,626,103
100,0,67,0,626,103
