#Time,A,B,C,D,F
0,12,0,289,222,128
0.10201669678641181,8,4,100,344,195
0.20370442260301658,5,7,39,380,220
0.30662800089901276,5,7,14,399,226
0.41133551128183743,3,9,6,404,229
0.5626276075332625,2,10,0,407,232
0.6912879554896288,1,11,0,407,232
1.0946958202014576,0,12,0,407,232
100,0,12,0,407,232
