#Time,A,B,C,D,F
0,231,224,204,0,62
0.10362916696834452,223,232,69,85,112
0.20452869375763708,199,256,21,112,133
0.30476960156266936,172,283,6,120,140
0.40961693319015646,152,303,1,122,143
0.5155677235234567,131,324,0,123,143
0.6187669226033626,114,341,0,123,143
0.7193933215059558,100,355,0,123,143
0.822529363640655,92,363,0,123,143
0.9258000764305723,76,379,0,123,143
1.0318731600802877,65,390,0,123,143
1.135620613364458,55,400,0,123,143
1.25901862839331,51,404,0,123,143
1.3627156152379207,47,408,0,123,143
1.491573785741277,41,414,0,123,143
1.6106754981551334,37,418,0,123,143
1.775643244741478,35,420,0,123,143
1.9180733250229858,27,428,0,123,143
2.088338675072426,22,433,0,123,143
2.233598505915497,19,436,0,123,143
2.386599282665496,16,439,0,123,143
2.4929842152126147,15,440,0,123,143
2.6202574444386113,11,444,0,123,143
2.7537203055626893,7,448,0,123,143
2.917315158773433,6,449,0,123,143
3.1829731085005015,5,450,0,123,143
3.304918741099897,3,452,0,123,143
3.700900719631106,1,454,0,123,143
100,0,455,0,123,143
