#Time,A,B,C,D,F
0,17,78,121,0,265
0.10175671257161024,16,79,39,56,291
0.21198623093491312,16,79,13,70,303
0.3177801349806063,15,80,6,75,305
0.4192773056486843,13,82,1,77,308
0.7226545651668606,11,84,0,77,309
1.224924614016058,10,85,0,77,309
1.6767710442946633,9,86,0,77,309
1.8162895399596093,8,87,0,77,309
2.0729892185135865,5,90,0,77,309
2.2444386159386873,3,92,0,77,309
4.086734461221788,2,93,0,77,309
4.34211543701538,1,94,0,77,309
5.511310221730764,0,95,0,77,309
100,0,95,0,77,309
