#Time,A,B,C,D,F
0,11,40,51,9,0
0.10338467892030816,11,40,14,33,13
0.22635162959119232,11,40,3,41,16
0.5122383672237774,10,41,0,41,19
0.9634624479355065,8,43,0,41,19
1.2543148275365485,6,45,0,41,19
1.5331624561552295,5,46,0,41,19
2.00098350228307,3,48,0,41,19
3.0502027431952143,1,50,0,41,19
5.1775020861316285,0,51,0,41,19
100,0,51,0,41,19
