#Time,A,B,C,D,F
0,159,83,0,31,38
0.14026064577634137,151,91,0,31,38
0.24162851897582438,146,96,0,31,38
0.34611794958310566,138,104,0,31,38
0.45941434829410677,133,109,0,31,38
0.5722484295653507,126,116,0,31,38
0.6800635319636888,122,120,0,31,38
0.7982219875058632,118,124,0,31,38
0.9419128989125936,109,133,0,31,38
1.0524111353152197,105,137,0,31,38
1.160399957233895,99,143,0,31,38
1.2623320491336143,97,145,0,31,38
1.400380719311493,93,149,0,31,38
1.514707689711749,90,152,0,31,38
1.6803677198945721,85,157,0,31,38
1.8628002700447683,77,165,0,31,38
1.9658272154034848,70,172,0,31,38
2.1986984492359367,68,174,0,31,38
2.3471220658019263,66,176,0,31,38
2.4969684783999804,62,180,0,31,38
2.7327101662983697,61,181,0,31,38
2.922767238989861,57,185,0,31,38
3.0630031912996714,55,187,0,31,38
3.1740460331408387,54,188,0,31,38
3.5149244650470832,51,191,0,31,38
3.752232971591323,48,194,0,31,38
3.8772294760384476,47,195,0,31,38
4.1063337817523236,43,199,0,31,38
4.266016571666174,41,201,0,31,38
4.772409913384919,40,202,0,31,38
5.042616789892928,36,206,0,31,38
5.17185233401102,35,207,0,31,38
5.375567656293472,32,210,0,31,38
5.554475155996765,30,212,0,31,38
5.809686461049312,29,213,0,31,38
6.006336978355139,27,215,0,31,38
6.5694788900323875,26,216,0,31,38
6.760457859608882,24,218,0,31,38
6.886174199084979,23,219,0,31,38
7.192715730007125,22,220,0,31,38
7.296062874467413,21,221,0,31,38
7.840893925992109,19,223,0,31,38
8.15612179943875,16,226,0,31,38
8.277447096819623,13,229,0,31,38
8.486148896087219,12,230,0,31,38
9.355326342693454,11,231,0,31,38
9.649104503160093,10,232,0,31,38
9.814568642849865,9,233,0,31,38
10.136203210920907,8,234,0,31,38
10.466506663203399,7,235,0,31,38
10.969452016681158,6,236,0,31,38
11.385401348778469,5,237,0,31,38
11.620615619151703,4,238,0,31,38
13.416338316106607,3,239,0,31,38
14.69710232130471,2,240,0,31,38
14.889080478365774,1,241,0,31,38
21.231923825542303,0,242,0,31,38
100,0,242,0,31,38
