#Time,A,B,C,D,F
0,169,145,23,193,5
0.1011920342860765,131,183,9,204,8
0.20291602966252076,105,209,2,207,12
0.30836933212809525,88,226,0,207,14
0.42036563356018614,68,246,0,207,14
0.5480735080869729,55,259,0,207,14
0.6634965631378168,44,270,0,207,14
0.7654476616903066,35,279,0,207,14
0.8829650105770765,21,293,0,207,14
1.0565313741757856,18,296,0,207,14
1.2888637013532602,12,302,0,207,14
1.3952011097321562,10,304,0,207,14
1.5612024563758884,6,308,0,207,14
1.825732117205736,4,310,0,207,14
2.0834763980317335,2,312,0,207,14
2.3302664539731954,1,313,0,207,14
3.830766506067739,0,314,0,207,14
100,0,314,0,207,14
