#Time,A,B,C,D,F
0,173,250,152,63,57
0.10071353641052228,157,266,50,129,93
0.20446364390311336,135,288,17,150,105
0.3102063138584776,117,306,5,155,112
0.4195879228124309,103,320,1,156,115
0.5316992861152049,91,332,0,157,115
0.6362047512482475,80,343,0,157,115
0.7460270988134118,66,357,0,157,115
0.8532769200812946,58,365,0,157,115
0.9681755082247336,49,374,0,157,115
1.069565254788095,37,386,0,157,115
1.1842452067221383,32,391,0,157,115
1.2917171824794345,25,398,0,157,115
1.4718816035302866,19,404,0,157,115
1.5803844914275023,17,406,0,157,115
1.7032990321610562,13,410,0,157,115
1.8853488388429565,10,413,0,157,115
2.064674761300601,7,416,0,157,115
2.4780627891589613,6,417,0,157,115
2.712911520353156,4,419,0,157,115
2.9825289174470337,3,420,0,157,115
4.208357739043921,2,421,0,157,115
4.641873222464457,0,423,0,157,115
100,0,423,0,157,115
