#Time,A,B,C,D,F
0,22,0,169,27,57
0.10185608616123683,19,3,52,93,108
0.21416327332344953,19,3,22,111,120
0.31733641493226594,17,5,9,117,127
0.44719087420602927,17,5,0,123,130
0.5967576276499189,13,9,0,123,130
0.8673911344827774,11,11,0,123,130
1.008040801509494,8,14,0,123,130
1.1152830256826136,7,15,0,123,130
1.2624601453287716,5,17,0,123,130
1.4834430242990366,4,18,0,123,130
1.7134179583041196,2,20,0,123,130
100,0,22,0,123,130
