#Time,A,B,C,D,F
0,205,2,130,24,296
0.10226609077877308,194,13,45,80,325
0.20478571226908845,181,26,17,97,336
0.3092967425865829,166,41,8,103,339
0.4119450722122612,135,72,3,108,339
0.5378708942751272,121,86,2,109,339
0.6462094699962185,113,94,1,110,339
0.7484445727193695,101,106,1,110,339
0.8489462747499364,87,120,1,110,339
0.970984648075793,77,130,1,110,339
1.0861699179244566,69,138,1,110,339
1.2056645055783581,58,149,0,111,339
1.3224330316332256,48,159,0,111,339
1.4676338152168176,40,167,0,111,339
1.5871904124055007,36,171,0,111,339
1.7073551553225934,30,177,0,111,339
1.852785935689242,27,180,0,111,339
1.9579179400997564,24,183,0,111,339
2.1353281783148845,20,187,0,111,339
2.245222397923441,18,189,0,111,339
2.473785000472798,13,194,0,111,339
2.674651635320583,11,196,0,111,339
3.1449677346891254,10,197,0,111,339
3.414927093969758,6,201,0,111,339
3.8425064143088523,5,202,0,111,339
4.4403909531819235,2,205,0,111,339
5.6303411195894615,1,206,0,111,339
7.157144516036269,0,207,0,111,339
100,0,207,0,111,339
