#Time,A,B,C,D,F
0,28,11,492,48,14
0.10056659942131697,25,14,177,253,124
0.20213293867157642,22,17,65,327,162
0.31008631977287154,14,25,22,351,181
0.4279162947638844,9,30,4,363,187
0.5363060723106392,6,33,0,365,189
0.641639766132757,5,34,0,365,189
0.8170226843537094,3,36,0,365,189
1.1885551875751035,1,38,0,365,189
100,0,39,0,365,189
