#Time,A,B,C,D,F
0,22,27,2,65,162
0.18984355820486135,20,29,0,67,162
0.319141539832209,17,32,0,67,162
0.5979530287387677,13,36,0,67,162
0.7793969813275339,12,37,0,67,162
0.890826076104941,11,38,0,67,162
1.089934997555431,10,39,0,67,162
1.2555767657330863,8,41,0,67,162
2.074019891490909,7,42,0,67,162
3.141013258085888,5,44,0,67,162
3.281889839599712,3,46,0,67,162
3.5151097313624646,2,47,0,67,162
4.466339540733479,1,48,0,67,162
5.2186811721612,0,49,0,67,162
100,0,49,0,67,162
