#Time,A,B,C,D,F
0,200,469,29,63,79
0.10203141722513888,190,479,11,74,86
0.20562314888381927,177,492,2,81,88
0.3103422522507239,161,508,2,81,88
0.4131752709654095,151,518,1,81,89
0.515320276447843,142,527,1,81,89
0.6271176252950063,132,537,0,82,89
0.7565718876867567,123,546,0,82,89
0.8574418109940196,116,553,0,82,89
0.9905657876459087,107,562,0,82,89
1.1028886448827058,98,571,0,82,89
1.2053847157698498,94,575,0,82,89
1.311867590622762,87,582,0,82,89
1.4238990529054827,79,590,0,82,89
1.558880683978321,74,595,0,82,89
1.689813198892045,66,603,0,82,89
1.7899618778945616,61,608,0,82,89
1.8991311791828211,53,616,0,82,89
2.008563203545527,51,618,0,82,89
2.120097206393252,42,627,0,82,89
2.2240392885820066,38,631,0,82,89
2.3270787401746253,35,634,0,82,89
2.4498193755070754,29,640,0,82,89
2.60151306719975,26,643,0,82,89
2.702927726383939,24,645,0,82,89
2.848886211429022,22,647,0,82,89
2.9900884615742704,19,650,0,82,89
3.2196085273685338,15,654,0,82,89
3.3793548762509524,14,655,0,82,89
3.4850208979403794,13,656,0,82,89
3.700798618577424,11,658,0,82,89
3.8290864964828346,8,661,0,82,89
3.966746147271232,6,663,0,82,89
4.613853047873693,3,666,0,82,89
4.805487457540999,2,667,0,82,89
4.964533529184229,1,668,0,82,89
6.090571662641523,0,669,0,82,89
100,0,669,0,82,89
