#Time,A,B,C,D,F
0,12,247,44,145,5
0.10789281521375864,12,247,14,159,21
0.21469815490236904,11,248,3,165,26
0.3276136579121651,10,249,0,167,27
0.5965504220901643,5,254,0,167,27
0.8369748476198919,3,256,0,167,27
0.9624013977104379,2,257,0,167,27
1.0686620063441874,0,259,0,167,27
100,0,259,0,167,27
