#Time,A,B,C,D,F
0,172,54,14,235,48
0.11443636788777002,134,92,5,239,53
0.21817823224624175,110,116,1,240,56
0.3195110034058918,81,145,0,241,56
0.4221510168383761,67,159,0,241,56
0.527633725426991,52,174,0,241,56
0.6411888419643668,39,187,0,241,56
0.7489928924611354,29,197,0,241,56
0.8837630957434737,24,202,0,241,56
1.0032436642549885,17,209,0,241,56
1.1221413168172323,12,214,0,241,56
1.2790139983165423,7,219,0,241,56
1.4428081998975602,3,223,0,241,56
1.5734628103277397,2,224,0,241,56
2.234443837634967,1,225,0,241,56
2.4316201051268376,0,226,0,241,56
100,0,226,0,241,56
