#Time,A,B,C,D,F
0,66,0,268,289,25
0.10209424811236432,40,26,84,411,87
0.20249467133592206,21,45,35,443,104
0.3117615232771355,11,55,11,461,110
0.41282415540196205,8,58,4,465,113
0.5356456565218413,4,62,2,466,114
0.7324005019205886,0,66,0,468,114
100,0,66,0,468,114
