#Time,A,B,C,D,F
0,66,0,268,289,25
0.10206053937135476,45,21,95,393,94
0.2028228058060562,26,40,24,441,117
0.30869275057871526,16,50,7,450,125
0.42315677071374125,13,53,4,452,126
0.5269857815746136,5,61,1,454,127
0.8527165424587835,1,65,0,455,127
100,0,66,0,455,127
