#Time,A,B,C,D,F
0,124,33,50,0,36
0.10093170464787313,124,33,20,18,48
0.21225769668670333,123,34,5,27,54
0.39362647647815296,119,38,0,30,56
0.527545585022849,116,41,0,30,56
0.6368233650102759,113,44,0,30,56
0.7988168117481159,109,48,0,30,56
0.957428607215782,103,54,0,30,56
1.0651674966759066,100,57,0,30,56
1.228035682870067,98,59,0,30,56
1.4226873803559064,97,60,0,30,56
1.5730168193673204,95,62,0,30,56
1.757087733891427,89,68,0,30,56
1.8818045198487008,84,73,0,30,56
2.068381296522619,82,75,0,30,56
2.1708229420494995,77,80,0,30,56
2.2728217578081993,75,82,0,30,56
2.584334127997392,73,84,0,30,56
2.764534101001677,68,89,0,30,56
2.9282535666548184,65,92,0,30,56
3.043230264905559,64,93,0,30,56
3.1777657922345095,61,96,0,30,56
3.302300939313528,58,99,0,30,56
3.518367177383654,55,102,0,30,56
3.6469077998853097,50,107,0,30,56
3.750542377439872,47,110,0,30,56
4.058809205654369,45,112,0,30,56
4.303128614875508,43,114,0,30,56
4.4838971234985445,40,117,0,30,56
4.614870826701566,39,118,0,30,56
4.723697467874305,36,121,0,30,56
4.839274027059021,35,122,0,30,56
5.090664971078816,33,124,0,30,56
5.505775070724126,30,127,0,30,56
5.674657310121502,28,129,0,30,56
5.918001031303244,25,132,0,30,56
6.186940406888788,23,134,0,30,56
6.418402381615331,22,135,0,30,56
7.01272469977581,19,138,0,30,56
7.134564087570456,18,139,0,30,56
7.90415894619071,17,140,0,30,56
8.015551016227413,16,141,0,30,56
8.410778542206506,15,142,0,30,56
8.54287480598089,14,143,0,30,56
9.023761389960434,11,146,0,30,56
9.556429334851348,10,147,0,30,56
9.72125802143191,9,148,0,30,56
9.882966907463146,7,150,0,30,56
10.086859469822066,5,152,0,30,56
10.558893152819088,4,153,0,30,56
10.955556102485676,3,154,0,30,56
11.178975453991413,2,155,0,30,56
18.808826974806415,1,156,0,30,56
29.512202203808556,0,157,0,30,56
100,0,157,0,30,56
