#Time,A,B,C,D,F
0,90,0,59,47,34
0.10672658438159865,81,9,15,76,49
0.21341441716746287,77,13,5,84,51
0.3163852194126207,69,21,1,86,53
0.4184565085461812,62,28,0,87,53
0.5198493997682404,56,34,0,87,53
0.6690640703435162,49,41,0,87,53
0.7835410746647822,46,44,0,87,53
0.8879935750184903,42,48,0,87,53
1.0221964554407517,36,54,0,87,53
1.1517118753570978,32,58,0,87,53
1.260837207858621,30,60,0,87,53
1.440060091818053,25,65,0,87,53
1.568400038103945,22,68,0,87,53
1.6722248195229155,19,71,0,87,53
1.7760887811715504,15,75,0,87,53
1.908032388286168,14,76,0,87,53
2.077851358880804,11,79,0,87,53
2.3445230991736805,10,80,0,87,53
2.49503782996932,7,83,0,87,53
2.6047741753826927,4,86,0,87,53
2.960110882782838,3,87,0,87,53
3.1980878572725935,2,88,0,87,53
3.6771519355960045,1,89,0,87,53
4.555111675405911,0,90,0,87,53
100,0,90,0,87,53
