#Time,A,B,C,D,F
0,17,237,47,0,178
0.10484409450868444,17,237,11,23,191
0.2257891863829486,17,237,2,28,195
0.5248188780441703,16,238,0,28,197
0.6456752973089568,15,239,0,28,197
1.0146068947341091,14,240,0,28,197
1.8737740018666416,13,241,0,28,197
2.287043413274729,11,243,0,28,197
2.7155838197521205,10,244,0,28,197
3.830751636267501,9,245,0,28,197
4.615586019274217,8,246,0,28,197
4.9125628400541945,7,247,0,28,197
5.405608508660916,6,248,0,28,197
5.7997566438289985,4,250,0,28,197
6.593406565301159,3,251,0,28,197
8.64364473784466,2,252,0,28,197
11.002721032346695,1,253,0,28,197
16.469401767972883,0,254,0,28,197
100,0,254,0,28,197
