#Time,A,B,C,D,F
0,219,41,63,149,103
0.10140946570064983,184,76,18,179,118
0.20393265517660708,154,106,7,189,119
0.3039632751717996,128,132,3,189,123
0.4044710088152451,109,151,0,191,124
0.5063047563832002,89,171,0,191,124
0.6073789363872194,78,182,0,191,124
0.7112179440795277,65,195,0,191,124
0.8272141817647718,56,204,0,191,124
0.9470557952876545,38,222,0,191,124
1.0715628143426943,27,233,0,191,124
1.2216551032105218,21,239,0,191,124
1.3519738662186325,17,243,0,191,124
1.47883699649369,11,249,0,191,124
1.6889553163601074,8,252,0,191,124
1.794324218702738,7,253,0,191,124
2.0116402524006434,6,254,0,191,124
2.1386716249102564,3,257,0,191,124
2.294560373769114,1,259,0,191,124
4.418058734695759,0,260,0,191,124
100,0,260,0,191,124
