#Time,A,B,C,D,F
0,110,79,100,851,166
0.10227859334906322,45,144,31,889,197
0.2027584450567391,16,173,9,899,209
0.31495689974104857,7,182,4,901,212
0.5149608809493055,0,189,0,903,214
100,0,189,0,903,214
