#Time,A,B,C,D,F
0,67,0,268,455,6
0.10094322968287407,44,23,85,574,70
0.20144632800593906,27,40,24,607,98
0.3166229216742823,16,51,6,617,106
0.434330883454099,9,58,2,617,110
0.5360747717271015,3,64,0,618,111
0.7107572113067219,1,66,0,618,111
0.9568557201894062,0,67,0,618,111
100,0,67,0,618,111
