#Time,A,B,C,D,F
0,49,48,0,1,59
1.0306061101512791,48,49,0,1,59
1.7594248894355629,47,50,0,1,59
2.360070952229627,46,51,0,1,59
3.981365164941243,45,52,0,1,59
4.171236996448497,44,53,0,1,59
10.449872794257093,43,54,0,1,59
14.338192395101885,42,55,0,1,59
16.9952506223311,41,56,0,1,59
17.563467763427557,40,57,0,1,59
19.547839467485307,39,58,0,1,59
24.844304486560063,38,59,0,1,59
28.70350500049105,37,60,0,1,59
29.095749739005615,36,61,0,1,59
34.62260173901542,35,62,0,1,59
35.40739886126833,34,63,0,1,59
36.815088566570815,33,64,0,1,59
41.245216487597794,32,65,0,1,59
42.87456747059546,31,66,0,1,59
44.92004611906146,30,67,0,1,59
52.41792921620071,29,68,0,1,59
53.91028619391064,28,69,0,1,59
55.793546352434305,27,70,0,1,59
57.144269192225835,26,71,0,1,59
62.7991480359717,25,72,0,1,59
66.5441613834497,24,73,0,1,59
69.94672681969205,23,74,0,1,59
73.01920763127326,22,75,0,1,59
79.22247289729614,20,77,0,1,59
82.78930987206546,19,78,0,1,59
84.4266941577168,18,79,0,1,59
85.1507534483057,17,80,0,1,59
94.18247738442629,16,81,0,1,59
95.0384466814935,15,82,0,1,59
99.6308253345228,14,83,0,1,59
114.91473654521629,13,84,0,1,59
