#Time,A,B,C,D,F
0,12,104,115,61,26
0.1040436050952276,11,105,37,101,64
0.20599071260469404,9,107,11,120,71
0.33675254403414867,9,107,3,125,74
0.5216264627504767,6,110,1,126,75
0.7254953850771813,4,112,1,126,75
0.8619188526098278,4,112,0,127,75
1.1358211012364898,2,114,0,127,75
1.7199043744476743,1,115,0,127,75
2.4353166497380148,0,116,0,127,75
100,0,116,0,127,75
