#Time,A,B,C,D,F
0,96,189,89,68,31
0.10283543518493451,92,193,32,101,55
0.20476775012609388,80,205,6,117,65
0.30912024461734783,70,215,1,121,66
0.41119772063310495,64,221,1,121,66
0.5224783069613759,54,231,1,121,66
0.6314696327831965,51,234,1,121,66
0.7364688078356144,45,240,0,122,66
0.838371594329429,39,246,0,122,66
0.950072680479668,35,250,0,122,66
1.0521277275312424,31,254,0,122,66
1.171862548197556,29,256,0,122,66
1.2730134764808907,27,258,0,122,66
1.3786396204280098,26,259,0,122,66
1.5045131704986563,23,262,0,122,66
1.6563026458019314,18,267,0,122,66
1.7955493596880034,16,269,0,122,66
1.9025860818182965,13,272,0,122,66
2.0344263510095013,12,273,0,122,66
2.210443865976795,11,274,0,122,66
2.386439165415893,9,276,0,122,66
2.7605941568036,5,280,0,122,66
2.9551493587862763,4,281,0,122,66
3.123920521916837,2,283,0,122,66
5.901113434276773,0,285,0,122,66
100,0,285,0,122,66
