#Time,A,B,C,D,F
0,16,10,0,276,76
0.12275109248908166,13,13,0,276,76
0.24369604162118375,10,16,0,276,76
0.34500790744103144,7,19,0,276,76
0.48891701307153224,3,23,0,276,76
0.6836686257352671,1,25,0,276,76
100,0,26,0,276,76
