#Time,A,B,C,D,F
0,278,24,610,21,87
0.10011181780454319,229,73,204,277,237
0.20146430929935155,160,142,74,362,282
0.3032234869593963,93,209,26,396,296
0.4046593292843759,64,238,2,414,302
0.5125537427490927,43,259,1,414,303
0.6256541917113646,27,275,1,414,303
0.7272363479570266,16,286,0,415,303
0.8764999315323749,10,292,0,415,303
0.9965267989301843,4,298,0,415,303
1.103714282158175,1,301,0,415,303
1.6743323868116995,0,302,0,415,303
100,0,302,0,415,303
