#Time,A,B,C,D,F
0,40,11,232,95,0
0.10042923694808631,35,16,72,194,61
0.20245082116423796,32,19,25,219,83
0.3101519583708605,22,29,8,228,91
0.4195732213408606,13,38,4,229,94
0.5603387245504367,10,41,0,230,97
0.691369484805208,9,42,0,230,97
0.8297277595458284,5,46,0,230,97
0.9302219630570678,3,48,0,230,97
1.5106106074427796,2,49,0,230,97
1.7813360407064067,1,50,0,230,97
2.1049722682575958,0,51,0,230,97
100,0,51,0,230,97
