#Time,A,B,C,D,F
0,18,0,0,100,0
0.136954436799509,15,3,0,100,0
0.24555140710865062,12,6,0,100,0
0.5341629509139161,8,10,0,100,0
0.8871147129854595,7,11,0,100,0
0.9918208284867712,5,13,0,100,0
1.6679105292996965,3,15,0,100,0
1.8007342828146058,2,16,0,100,0
3.6126775642018325,0,18,0,100,0
100,0,18,0,100,0
