#Time,A,B,C,D,F
0,12,104,115,61,26
0.10053321211268458,11,105,50,98,54
0.21510445002969303,9,107,14,122,66
0.3331850124171455,8,108,4,129,69
0.44290354292519885,6,110,1,131,70
0.5743482203824543,6,110,0,131,71
0.7222861214481513,5,111,0,131,71
1.0044987330797752,4,112,0,131,71
2.113980528802043,2,114,0,131,71
2.2460775878565227,1,115,0,131,71
4.76308885616236,0,116,0,131,71
100,0,116,0,131,71
