#Time,A,B,C,D,F
0,15,0,434,2,0
0.10060395381091025,14,1,152,172,112
0.20188010994294633,12,3,43,232,161
0.3054407667658758,12,3,12,257,167
0.41109104813288677,8,7,0,266,170
0.6255116523179061,5,10,0,266,170
0.7701751723031498,2,13,0,266,170
1.0264525646746718,1,14,0,266,170
100,0,15,0,266,170
