#Time,A,B,C,D,F
0,12,104,115,61,26
0.10019943837510237,10,106,41,113,48
0.20284391819402908,10,106,10,131,61
0.31405573126954894,6,110,5,134,63
0.42541082779337386,6,110,1,138,63
0.7482465308633608,4,112,0,139,63
1.0491191362217493,3,113,0,139,63
1.2743769588768321,2,114,0,139,63
1.8479235684580426,0,116,0,139,63
100,0,116,0,139,63
