#Time,A,B,C,D,F
0,16,10,0,276,76
0.10156121955344238,14,12,0,276,76
0.2735524429877276,9,17,0,276,76
0.4788351356494398,6,20,0,276,76
0.58327796819651,5,21,0,276,76
0.7053317033879829,4,22,0,276,76
0.8874440849196086,1,25,0,276,76
100,0,26,0,276,76
