#Time,A,B,C,D,F
0,94,3,126,256,28
0.1006105134855022,66,31,38,314,58
0.2025699555785042,48,49,9,332,69
0.3238499485560751,31,66,1,339,70
0.43911424197531124,19,78,0,340,70
0.5430200500948636,11,86,0,340,70
0.6733802730198384,7,90,0,340,70
0.9019450436190972,1,96,0,340,70
100,0,97,0,340,70
