#Time,A,B,C,D,F
0,18,89,238,0,66
0.10164173240549888,17,90,79,106,119
0.20194609049329504,14,93,25,149,130
0.30492966511719016,13,94,4,163,137
0.43046672360690336,11,96,1,166,137
0.5645652374149575,10,97,0,167,137
0.8042146452586131,9,98,0,167,137
0.9251175192531694,8,99,0,167,137
1.8716612462317461,3,104,0,167,137
2.051910356200416,1,106,0,167,137
3.298747173999507,0,107,0,167,137
100,0,107,0,167,137
