#Time,A,B,C,D,F
0,4,0,46,0,105
0.10284616621117997,4,0,10,21,120
0.2177532293775274,4,0,6,23,122
0.3345356740936797,4,0,0,28,123
0.5132225741549019,3,1,0,28,123
2.8061559649653463,2,2,0,28,123
3.981390503936378,1,3,0,28,123
10.717318524129121,0,4,0,28,123
100,0,4,0,28,123
