#Time,A,B,C,D,F
0,129,0,102,107,0
0.1006755527628507,110,19,34,148,27
0.20241320508861485,89,40,9,165,35
0.3080183924686963,74,55,6,167,36
0.4128282131662079,62,67,0,169,40
0.5160698299996096,52,77,0,169,40
0.633672672681849,44,85,0,169,40
0.7533683435529183,37,92,0,169,40
0.8585139233287405,31,98,0,169,40
1.0265941236606428,27,102,0,169,40
1.1294400956690693,20,109,0,169,40
1.2500573653055251,17,112,0,169,40
1.392119823029842,11,118,0,169,40
1.5010945966868834,10,119,0,169,40
1.6315952348674077,9,120,0,169,40
1.9201332361313248,8,121,0,169,40
2.025843949307456,6,123,0,169,40
2.2305362112699387,5,124,0,169,40
2.5504242899349587,4,125,0,169,40
3.1312572292346417,1,128,0,169,40
100,0,129,0,169,40
