#Time,A,B,C,D,F
0,40,11,232,95,0
0.10315325993625905,36,15,74,199,54
0.20436513577269735,26,25,31,226,70
0.304563428261277,23,28,12,237,78
0.4122397453514795,16,35,1,243,83
0.5262980359447822,12,39,0,244,83
0.6807772034581469,8,43,0,244,83
0.8000294963799407,4,47,0,244,83
1.6786199557800172,1,50,0,244,83
3.299057610806599,0,51,0,244,83
100,0,51,0,244,83
