#Time,A,B,C,D,F
0,23,196,179,170,51
0.10213933213469521,20,199,56,247,97
0.20306030345756454,12,207,21,269,110
0.3044139036567443,9,210,10,275,115
0.40966197871140686,7,212,5,278,117
0.6215062600030002,5,214,0,282,118
0.7363936723061651,3,216,0,282,118
1.7866263527428785,0,219,0,282,118
100,0,219,0,282,118
