#Time,A,B,C,D,F
0,73,10,25,0,143
0.12792780751233535,73,10,5,9,154
0.6060923375989764,72,11,0,11,157
0.7069616384063381,70,13,0,11,157
0.9099582215835837,68,15,0,11,157
1.1551411031893182,66,17,0,11,157
1.8421994388205802,65,18,0,11,157
1.9930247006530677,64,19,0,11,157
2.097837403991033,62,21,0,11,157
2.562160707283459,60,23,0,11,157
2.877952801119839,57,26,0,11,157
2.993024235630603,56,27,0,11,157
3.0980781313947783,55,28,0,11,157
3.8760762462206544,54,29,0,11,157
4.1201107551554,53,30,0,11,157
4.3770115622008365,52,31,0,11,157
4.786832106982827,51,32,0,11,157
5.060470051895922,49,34,0,11,157
5.476995773805408,48,35,0,11,157
5.578399463049087,47,36,0,11,157
5.700670629959115,46,37,0,11,157
6.071823964751387,45,38,0,11,157
6.298815189202303,43,40,0,11,157
6.667261607738609,41,42,0,11,157
6.807029770744619,40,43,0,11,157
7.1038567790459775,38,45,0,11,157
7.311532661033154,36,47,0,11,157
7.739056185952233,34,49,0,11,157
7.993462013192443,33,50,0,11,157
8.668473230295962,32,51,0,11,157
8.950532210508296,31,52,0,11,157
9.255784361562418,30,53,0,11,157
9.364640089476568,29,54,0,11,157
9.4858208777262,28,55,0,11,157
9.644614156711556,26,57,0,11,157
9.86684036061548,25,58,0,11,157
10.069362731527603,24,59,0,11,157
10.23037019350179,23,60,0,11,157
10.346851192007884,22,61,0,11,157
10.843601390986553,21,62,0,11,157
12.066784234246214,20,63,0,11,157
12.582912302170076,19,64,0,11,157
13.25186598500071,18,65,0,11,157
14.136125671842521,17,66,0,11,157
15.079118263830651,16,67,0,11,157
15.68397628367458,15,68,0,11,157
15.80786998215665,14,69,0,11,157
17.011769370062115,13,70,0,11,157
17.982922894753244,12,71,0,11,157
19.64969658249018,11,72,0,11,157
20.13414655253501,10,73,0,11,157
23.809166788478002,9,74,0,11,157
24.470315701439105,8,75,0,11,157
25.323117222379317,7,76,0,11,157
29.392997987275784,6,77,0,11,157
31.4697203204947,5,78,0,11,157
31.768934357061415,4,79,0,11,157
32.391438795658736,3,80,0,11,157
32.527858001599704,2,81,0,11,157
32.84353841891952,1,82,0,11,157
42.43150110183879,0,83,0,11,157
100,0,83,0,11,157
