#Time,A,B,C,D,F
0,61,195,19,338,7
0.10017455842840503,45,211,9,346,9
0.20674234305425115,24,232,2,350,12
0.3155505751712763,16,240,1,350,13
0.42934891418674137,10,246,1,350,13
0.5437597941091166,5,251,0,350,14
0.6487847649733567,2,254,0,350,14
0.9126941100737477,1,255,0,350,14
100,0,256,0,350,14
