#Time,A,B,C,D,F
0,51,0,71,0,65
0.10098094764103686,50,1,19,37,80
0.20284248651302406,50,1,4,45,87
0.41432970269487,47,4,0,46,90
0.5683351105801119,43,8,0,46,90
0.7071224634437445,40,11,0,46,90
0.8877414698277658,37,14,0,46,90
1.1781832109403618,34,17,0,46,90
1.3590794096699352,30,21,0,46,90
1.5009701047812039,29,22,0,46,90
1.668997358303084,25,26,0,46,90
1.8500335084410489,22,29,0,46,90
1.9724491736159537,17,34,0,46,90
2.1372327891004854,16,35,0,46,90
2.3792510932137354,15,36,0,46,90
2.5642465384952615,14,37,0,46,90
2.705104471702029,12,39,0,46,90
2.947813316795397,11,40,0,46,90
3.5574963522849727,10,41,0,46,90
3.730587793242471,9,42,0,46,90
4.558965371511132,8,43,0,46,90
4.750399056608965,7,44,0,46,90
5.01199436504601,6,45,0,46,90
5.179575021180859,5,46,0,46,90
5.482554704200324,4,47,0,46,90
6.260463375566846,3,48,0,46,90
7.16161976653879,2,49,0,46,90
8.100758095092026,1,50,0,46,90
8.800813655821104,0,51,0,46,90
100,0,51,0,46,90
