#Time,A,B,C,D,F
0,71,0,34,239,0
0.10393492822176412,60,11,9,258,6
0.2143987230747635,45,26,1,265,7
0.3145715205537763,38,33,0,265,8
0.4248483228006331,26,45,0,265,8
0.5359188208769187,22,49,0,265,8
0.6491383662957445,19,52,0,265,8
0.7807492517969074,17,54,0,265,8
0.90889140480185,13,58,0,265,8
1.034090859731913,10,61,0,265,8
1.4060420014363484,6,65,0,265,8
1.5738267353478725,4,67,0,265,8
1.8580863339527514,1,70,0,265,8
2.3626008837463153,0,71,0,265,8
100,0,71,0,265,8
