#Time,A,B,C,D,F
0,122,15,146,0,256
0.10081640450293157,117,20,50,62,290
0.2031844621259833,106,31,18,77,307
0.3078075234956759,95,42,6,85,311
0.41297388635748955,85,52,3,86,313
0.521911758776136,75,62,1,87,314
0.6234498944092906,69,68,0,88,314
0.7460222067136344,61,76,0,88,314
0.8760040438595047,56,81,0,88,314
1.106534558522859,51,86,0,88,314
1.2124197440216418,44,93,0,88,314
1.3456354239680173,38,99,0,88,314
1.4549635704411608,35,102,0,88,314
1.5964803379718608,31,106,0,88,314
1.7051718627674322,29,108,0,88,314
1.9248747744182224,25,112,0,88,314
2.044591644027421,22,115,0,88,314
2.263651935521221,15,122,0,88,314
2.529879447526934,13,124,0,88,314
2.822110141950337,12,125,0,88,314
2.9999687491053004,9,128,0,88,314
3.191718166863453,8,129,0,88,314
3.3401114688859757,6,131,0,88,314
3.8102454391558838,5,132,0,88,314
4.069057344385925,4,133,0,88,314
4.660686067036912,3,134,0,88,314
5.270650117937319,2,135,0,88,314
6.029950621413912,1,136,0,88,314
6.356459809501806,0,137,0,88,314
100,0,137,0,88,314
