#Time,A,B,C,D,F
0,22,0,169,27,57
0.10060915580374312,19,3,47,103,103
0.20406404373502865,16,6,16,125,112
0.30551718010707946,13,9,3,132,118
0.4619877984590578,9,13,1,133,119
0.8757911591403151,4,18,0,133,120
1.1416207889500518,2,20,0,133,120
1.246827464271953,1,21,0,133,120
2.048682751905627,0,22,0,133,120
100,0,22,0,133,120
