#Time,A,B,C,D,F
0,74,42,91,0,17
0.10422185275269377,71,45,24,40,44
0.21288599224335425,68,48,9,48,51
0.3217528603863878,64,52,2,54,52
0.4829502276950852,61,55,0,56,52
0.6208734632380732,56,60,0,56,52
0.7659632590311549,53,63,0,56,52
0.876762894512661,49,67,0,56,52
1.0595567677683235,47,69,0,56,52
1.175595773856798,45,71,0,56,52
1.3559552656600504,39,77,0,56,52
1.4635650405318548,36,80,0,56,52
1.5982445609946478,34,82,0,56,52
1.7293578071266775,31,85,0,56,52
1.8562523127866315,28,88,0,56,52
2.012046234007519,26,90,0,56,52
2.6055170163259316,24,92,0,56,52
3.0266474608109086,21,95,0,56,52
3.192666709705783,19,97,0,56,52
3.2990551576342146,16,100,0,56,52
3.5807564868188546,15,101,0,56,52
3.82695032760922,13,103,0,56,52
3.976692554494571,12,104,0,56,52
4.24115972374235,11,105,0,56,52
4.963878075129554,9,107,0,56,52
5.218309749306261,8,108,0,56,52
5.392348335968461,7,109,0,56,52
5.519651619912912,6,110,0,56,52
5.633569479905546,4,112,0,56,52
5.795181095037992,3,113,0,56,52
6.354816725502454,2,114,0,56,52
6.714530654478791,1,115,0,56,52
8.875259075189337,0,116,0,56,52
100,0,116,0,56,52
