#Time,A,B,C,D,F
0,65,79,45,83,155
0.10012555308669781,57,87,15,98,170
0.20145612287937517,50,94,7,102,174
0.3068467104873716,46,98,3,104,176
0.466866864203107,40,104,0,107,176
0.5795765779200468,37,107,0,107,176
0.6797990176186762,34,110,0,107,176
0.7842832353969877,28,116,0,107,176
0.887785012618823,25,119,0,107,176
1.000375930225465,21,123,0,107,176
1.1298453527907262,19,125,0,107,176
1.2898866878067445,16,128,0,107,176
1.433165981953099,11,133,0,107,176
1.54517938130536,9,135,0,107,176
1.8190525982199635,6,138,0,107,176
1.9478692757047036,4,140,0,107,176
2.335641679960251,2,142,0,107,176
2.4912165343245505,1,143,0,107,176
100,0,144,0,107,176
