#Time,A,B,C,D,F
0,3,160,143,108,0
0.10063458436578217,2,161,40,176,35
0.2076181072722466,1,162,16,196,39
0.31180395061533317,1,162,8,203,40
0.5120568892954287,1,162,1,207,43
3.9160221899912613,0,163,0,207,44
100,0,163,0,207,44
