#Time,A,B,C,D,F
0,16,10,0,276,76
0.17545790589897786,9,17,0,276,76
0.31737275760791106,7,19,0,276,76
0.5302757784771935,6,20,0,276,76
0.6591835297415327,4,22,0,276,76
0.9567893625914361,2,24,0,276,76
1.1192874319101662,1,25,0,276,76
3.5374834268414768,0,26,0,276,76
100,0,26,0,276,76
