#Time,A,B,C,D,F
0,13,0,101,340,0
0.10278132602725734,8,5,30,379,32
0.20601817420059276,6,7,11,393,37
0.3343526542828213,3,10,5,398,38
0.45650929825978664,1,12,1,400,40
0.7309444503190308,0,13,0,401,40
100,0,13,0,401,40
