#Time,A,B,C,D,F
0,51,0,71,0,65
0.1003818166167372,49,2,20,32,84
0.20136340321083498,47,4,9,40,87
0.37619766514256014,46,5,0,46,90
0.5630362135223633,43,8,0,46,90
0.780603530621877,39,12,0,46,90
0.9239935665360007,37,14,0,46,90
1.029636358488338,34,17,0,46,90
1.308827898695307,29,22,0,46,90
1.417607859454606,26,25,0,46,90
1.6337145627732168,23,28,0,46,90
1.7832742602969538,21,30,0,46,90
1.9310706910100564,20,31,0,46,90
2.060753720997556,18,33,0,46,90
2.2606844063341276,16,35,0,46,90
2.4072362442056017,13,38,0,46,90
2.5874801373217284,10,41,0,46,90
3.1690511271945088,8,43,0,46,90
3.6069143968657653,7,44,0,46,90
3.820274874840113,6,45,0,46,90
5.474898602342925,5,46,0,46,90
5.704279873295656,3,48,0,46,90
7.09105421630029,2,49,0,46,90
9.228469810498721,1,50,0,46,90
10.391441463730054,0,51,0,46,90
100,0,51,0,46,90
