#Time,A,B,C,D,F
0,80,90,169,215,120
0.10042896405081597,57,113,62,286,156
0.20072226360233061,40,130,25,306,173
0.30489665099274804,24,146,7,317,180
0.4469634506994543,17,153,1,319,184
0.548979186079556,13,157,0,319,185
0.6564842582630934,9,161,0,319,185
0.811340175182682,6,164,0,319,185
0.9136484344752487,1,169,0,319,185
1.2120460408039992,0,170,0,319,185
100,0,170,0,319,185
