#Time,D,C,F,B,A
0,339.766,0,0,246.779,100.673
8.5293e-6,339.766,0,0,247.07,100.382
1.98233e-5,339.766,0,0,247.455,99.9974
3.72413e-5,339.766,0,0,248.045,99.4075
0.000137815,339.766,0,0,251.384,96.0678
0.000260005,339.766,0,0,255.291,92.1609
0.000382194,339.766,0,0,259.039,88.4128
0.000543491,339.766,0,0,263.754,83.6979
0.000938206,339.766,0,0,274.259,73.1935
0.00131772,339.766,0,0,283.113,64.3388
0.00171857,339.766,0,0,291.305,56.1469
0.00211942,339.766,0,0,298.454,48.998
0.00259607,339.766,0,0,305.78,41.6721
0.00336048,339.766,0,0,315.312,32.1401
0.0041249,339.766,0,0,322.664,24.7885
0.00488931,339.766,0,0,328.334,19.1184
0.00577645,339.766,0,0,333.309,14.1432
0.00684371,339.766,0,0,337.61,9.84162
0.00810938,339.766,0,0,341.05,6.40189
0.00933341,339.766,0,0,343.228,4.2237
0.0105338,339.766,0,0,344.643,2.80914
0.0118484,339.766,0,0,345.655,1.79716
0.0131647,339.766,0,0,346.303,1.14911
0.014504,339.766,0,0,346.723,0.72902
0.0159251,339.766,0,0,347.002,0.449837
0.017387,339.766,0,0,347.178,0.273742
0.0189192,339.766,0,0,347.289,0.162654
0.0205113,339.766,0,0,347.357,0.094699
0.0222766,339.766,0,0,347.4,0.0519858
0.0241828,339.766,0,0,347.425,0.027204
0.0262979,339.766,0,0,347.439,0.0132625
0.0287053,339.766,0,0,347.446,0.00585547
0.0313399,339.766,0,0,347.45,0.0023942
0.0346145,339.766,0,0,347.451,0.000789904
0.0381803,339.766,0,0,347.452,0.000236592
0.0427588,339.766,0,0,347.452,5.25641e-5
0.0476293,339.766,0,0,347.452,9.64275e-6
0.0544285,339.766,0,0,347.452,2.32857e-6
0.0630799,339.766,0,0,347.452,1.67016e-7
0.0750206,339.766,0,0,347.452,-2.14853e-8
0.0884179,339.766,0,0,347.452,1.51889e-7
0.109112,339.766,0,0,347.452,2.12668e-8
0.138442,339.766,0,0,347.452,-5.97372e-8
0.174434,339.766,0,0,347.452,-2.69355e-7
0.231679,339.766,0,0,347.452,-1.1426e-7
0.313108,339.766,0,0,347.452,1.31851e-7
0.413153,339.766,0,0,347.452,-8.59026e-9
0.611377,339.766,0,0,347.452,2.01246e-8
0.908085,339.766,0,0,347.452,-2.27153e-7
1.31179,339.766,0,0,347.452,8.68048e-8
1.8563,339.766,0,0,347.452,-2.26321e-8
2.73588,339.766,0,0,347.452,2.64181e-7
3.6127,339.766,0,0,347.452,1.90956e-8
4.6127,339.766,0,0,347.452,-1.02269e-7
5.6127,339.766,0,0,347.452,-3.03398e-8
6.38557,339.766,0,0,347.452,-5.58233e-9
7.38557,339.766,0,0,347.452,-1.43064e-8
8.38557,339.766,0,0,347.452,7.46552e-9
9.1176,339.766,0,0,347.452,-3.92183e-10
10.1176,339.766,0,0,347.452,-1.31399e-10
11.1176,339.766,0,0,347.452,1.89211e-11
12.1176,339.766,0,0,347.452,7.25303e-11
13.1176,339.766,0,0,347.452,3.97344e-13
14.1176,339.766,0,0,347.452,1.16603e-15
15.1176,339.766,0,0,347.452,3.4218e-18
16.1176,339.766,0,0,347.452,1.00415e-20
17.1176,339.766,0,0,347.452,2.94675e-23
18.1176,339.766,0,0,347.452,8.64743e-26
19.1176,339.766,0,0,347.452,2.53765e-28
20.1176,339.766,0,0,347.452,7.44689e-31
21.1176,339.766,0,0,347.452,2.18534e-33
22.1176,339.766,0,0,347.452,6.41303e-36
23.1176,339.766,0,0,347.452,1.88195e-38
24.1176,339.766,0,0,347.452,5.52269e-41
25.1176,339.766,0,0,347.452,1.62067e-43
26.1176,339.766,0,0,347.452,4.75597e-46
27.1176,339.766,0,0,347.452,1.39567e-48
28.1176,339.766,0,0,347.452,4.09569e-51
29.1176,339.766,0,0,347.452,1.20191e-53
30.1176,339.766,0,0,347.452,3.52708e-56
31.1176,339.766,0,0,347.452,1.03504e-58
32.1176,339.766,0,0,347.452,3.03741e-61
33.1176,339.766,0,0,347.452,8.91347e-64
34.1176,339.766,0,0,347.452,2.61572e-66
35.1176,339.766,0,0,347.452,7.676e-69
36.1176,339.766,0,0,347.452,2.25257e-71
37.1176,339.766,0,0,347.452,6.61033e-74
38.1176,339.766,0,0,347.452,1.93984e-76
39.1176,339.766,0,0,347.452,5.6926e-79
40.1176,339.766,0,0,347.452,1.67053e-81
41.1176,339.766,0,0,347.452,4.90229e-84
42.1176,339.766,0,0,347.452,1.43861e-86
43.1176,339.766,0,0,347.452,4.2217e-89
44.1176,339.766,0,0,347.452,1.23889e-91
45.1176,339.766,0,0,347.452,3.63559e-94
46.1176,339.766,0,0,347.452,1.06689e-96
47.1176,339.766,0,0,347.452,3.13086e-99
48.1176,339.766,0,0,347.452,9.1877e-102
49.1176,339.766,0,0,347.452,2.69619e-104
50.1176,339.766,0,0,347.452,7.91216e-107
51.1176,339.766,0,0,347.452,2.32188e-109
52.1176,339.766,0,0,347.452,6.8137e-112
53.1176,339.766,0,0,347.452,1.99953e-114
54.1176,339.766,0,0,347.452,5.86774e-117
55.1176,339.766,0,0,347.452,1.72193e-119
56.1176,339.766,0,0,347.452,5.05311e-122
57.1176,339.766,0,0,347.452,1.48287e-124
58.1176,339.766,0,0,347.452,4.35158e-127
59.1176,339.766,0,0,347.452,1.277e-129
60.1176,339.766,0,0,347.452,3.74744e-132
61.1176,339.766,0,0,347.452,1.09971e-134
62.1176,339.766,0,0,347.452,3.22718e-137
63.1176,339.766,0,0,347.452,9.47037e-140
64.1176,339.766,0,0,347.452,2.77914e-142
65.1176,339.766,0,0,347.452,8.15558e-145
66.1176,339.766,0,0,347.452,2.39331e-147
67.1176,339.766,0,0,347.452,7.02333e-150
68.1176,339.766,0,0,347.452,2.06104e-152
69.1176,339.766,0,0,347.452,6.04827e-155
70.1176,339.766,0,0,347.452,1.7749e-157
71.1176,339.766,0,0,347.452,5.20858e-160
72.1176,339.766,0,0,347.452,1.52849e-162
73.1176,339.766,0,0,347.452,4.48546e-165
74.1176,339.766,0,0,347.452,1.31629e-167
75.1176,339.766,0,0,347.452,3.86274e-170
76.1176,339.766,0,0,347.452,1.13355e-172
77.1176,339.766,0,0,347.452,3.32646e-175
78.1176,339.766,0,0,347.452,9.76173e-178
79.1176,339.766,0,0,347.452,2.86465e-180
80.1176,339.766,0,0,347.452,8.40649e-183
81.1176,339.766,0,0,347.452,2.46694e-185
82.1176,339.766,0,0,347.452,7.23941e-188
83.1176,339.766,0,0,347.452,2.12445e-190
84.1176,339.766,0,0,347.452,6.23435e-193
85.1176,339.766,0,0,347.452,1.82951e-195
86.1176,339.766,0,0,347.452,5.36882e-198
87.1176,339.766,0,0,347.452,1.57552e-200
88.1176,339.766,0,0,347.452,4.62346e-203
89.1176,339.766,0,0,347.452,1.35678e-205
90.1176,339.766,0,0,347.452,3.98158e-208
91.1176,339.766,0,0,347.452,1.16842e-210
92.1176,339.766,0,0,347.452,3.42881e-213
93.1176,339.766,0,0,347.452,1.00621e-215
94.1176,339.766,0,0,347.452,2.95278e-218
95.1176,339.766,0,0,347.452,8.66513e-221
96.1176,339.766,0,0,347.452,2.54284e-223
97.1176,339.766,0,0,347.452,7.46213e-226
98.1176,339.766,0,0,347.452,2.18981e-228
99.1176,339.766,0,0,347.452,6.42615e-231
100,339.766,0,0,347.452,-2.25134e-229
