#Time,D,C,F,B,A
0,69.0777,0,79.4898,2.65882,3.9738
2.36879e-5,69.0777,0,79.4898,2.66532,3.96731
7.67514e-5,69.0777,0,79.4898,2.67982,3.9528
0.000158958,69.0777,0,79.4898,2.7022,3.93042
0.000632997,69.0777,0,79.4898,2.82883,3.8038
0.00126012,69.0777,0,79.4898,2.9901,3.64252
0.00188724,69.0777,0,79.4898,3.14454,3.48809
0.00272977,69.0777,0,79.4898,3.34175,3.29087
0.00483393,69.0777,0,79.4898,3.78693,2.84569
0.00684912,69.0777,0,79.4898,4.15672,2.47591
0.00897589,69.0777,0,79.4898,4.49499,2.13763
0.0111027,69.0777,0,79.4898,4.78705,1.84557
0.0136959,69.0777,0,79.4898,5.08974,1.54289
0.017952,69.0777,0,79.4898,5.48276,1.14987
0.022208,69.0777,0,79.4898,5.77566,0.856966
0.0266399,69.0777,0,79.4898,6.00166,0.630961
0.031133,69.0777,0,79.4898,6.17002,0.462601
0.0357484,69.0777,0,79.4898,6.29631,0.336311
0.0407492,69.0777,0,79.4898,6.39455,0.238073
0.0458969,69.0777,0,79.4898,6.46579,0.166829
0.0514481,69.0777,0,79.4898,6.51893,0.11369
0.0573358,69.0777,0,79.4898,6.55693,0.0756968
0.0635668,69.0777,0,79.4898,6.5834,0.0492183
0.0705274,69.0777,0,79.4898,6.6022,0.0304278
0.0778314,69.0777,0,79.4898,6.61425,0.0183698
0.0863464,69.0777,0,79.4898,6.62242,0.0101987
0.0954866,69.0777,0,79.4898,6.6272,0.00542244
0.105907,69.0777,0,79.4898,6.62999,0.00263785
0.117984,69.0777,0,79.4898,6.63148,0.00114358
0.131419,69.0777,0,79.4898,6.63217,0.000450669
0.148668,69.0777,0,79.4898,6.63249,0.000135243
0.168339,69.0777,0,79.4898,6.63259,3.40042e-5
0.195969,69.0777,0,79.4898,6.63262,4.27866e-6
0.231487,69.0777,0,79.4898,6.63262,-1.07314e-7
0.292819,69.0777,0,79.4898,6.63262,-7.03515e-7
0.37774,69.0777,0,79.4898,6.63262,1.90982e-7
0.527617,69.0777,0,79.4898,6.63262,1.65798e-7
0.753846,69.0777,0,79.4898,6.63262,3.79049e-7
1.15638,69.0777,0,79.4898,6.63262,-9.68679e-8
2.15638,69.0777,0,79.4898,6.63262,-5.57372e-9
3.15638,69.0777,0,79.4898,6.63262,-1.18558e-8
4.15638,69.0777,0,79.4898,6.63262,-1.52612e-9
5.15638,69.0777,0,79.4898,6.63262,1.60024e-10
6.15638,69.0777,0,79.4898,6.63262,-1.66784e-11
7.15638,69.0777,0,79.4898,6.63262,-1.12645e-11
8.15638,69.0777,0,79.4898,6.63262,-2.01053e-13
9.15638,69.0777,0,79.4898,6.63262,7.41049e-14
10.1564,69.0777,0,79.4898,6.63262,3.52429e-15
11.1564,69.0777,0,79.4898,6.63262,-4.25119e-16
12.1564,69.0777,0,79.4898,6.63262,-6.0664e-18
13.1564,69.0777,0,79.4898,6.63262,-8.65668e-20
14.1564,69.0777,0,79.4898,6.63262,-1.2353e-21
15.1564,69.0777,0,79.4898,6.63262,-1.76275e-23
16.1564,69.0777,0,79.4898,6.63262,-2.51543e-25
17.1564,69.0777,0,79.4898,6.63262,-3.58949e-27
18.1564,69.0777,0,79.4898,6.63262,-5.12216e-29
19.1564,69.0777,0,79.4898,6.63262,-7.30926e-31
20.1564,69.0777,0,79.4898,6.63262,-1.04302e-32
21.1564,69.0777,0,79.4898,6.63262,-1.48838e-34
22.1564,69.0777,0,79.4898,6.63262,-2.1239e-36
23.1564,69.0777,0,79.4898,6.63262,-3.03079e-38
24.1564,69.0777,0,79.4898,6.63262,-4.3249e-40
25.1564,69.0777,0,79.4898,6.63262,-6.17158e-42
26.1564,69.0777,0,79.4898,6.63262,-8.80677e-44
27.1564,69.0777,0,79.4898,6.63262,-1.25672e-45
28.1564,69.0777,0,79.4898,6.63262,-1.79332e-47
29.1564,69.0777,0,79.4898,6.63262,-2.55904e-49
30.1564,69.0777,0,79.4898,6.63262,-3.65172e-51
31.1564,69.0777,0,79.4898,6.63262,-5.21097e-53
32.1564,69.0777,0,79.4898,6.63262,-7.43599e-55
33.1564,69.0777,0,79.4898,6.63262,-1.06111e-56
34.1564,69.0777,0,79.4898,6.63262,-1.51419e-58
35.1564,69.0777,0,79.4898,6.63262,-2.16073e-60
36.1564,69.0777,0,79.4898,6.63262,-3.08333e-62
37.1564,69.0777,0,79.4898,6.63262,-4.39988e-64
38.1564,69.0777,0,79.4898,6.63262,-6.27858e-66
39.1564,69.0777,0,79.4898,6.63262,-8.95946e-68
40.1564,69.0777,0,79.4898,6.63262,-1.2785e-69
41.1564,69.0777,0,79.4898,6.63262,-1.82441e-71
42.1564,69.0777,0,79.4898,6.63262,-2.60341e-73
43.1564,69.0777,0,79.4898,6.63262,-3.71504e-75
44.1564,69.0777,0,79.4898,6.63262,-5.30132e-77
45.1564,69.0777,0,79.4898,6.63262,-7.56492e-79
46.1564,69.0777,0,79.4898,6.63262,-1.0795e-80
47.1564,69.0777,0,79.4898,6.63262,-1.54044e-82
48.1564,69.0777,0,79.4898,6.63262,-2.19819e-84
49.1564,69.0777,0,79.4898,6.63262,-3.13679e-86
50.1564,69.0777,0,79.4898,6.63262,-4.47617e-88
51.1564,69.0777,0,79.4898,6.63262,-6.38744e-90
52.1564,69.0777,0,79.4898,6.63262,-9.1148e-92
53.1564,69.0777,0,79.4898,6.63262,-1.30067e-93
54.1564,69.0777,0,79.4898,6.63262,-1.85604e-95
55.1564,69.0777,0,79.4898,6.63262,-2.64855e-97
56.1564,69.0777,0,79.4898,6.63262,-3.77945e-99
57.1564,69.0777,0,79.4898,6.63262,-5.39323e-101
58.1564,69.0777,0,79.4898,6.63262,-7.69608e-103
59.1564,69.0777,0,79.4898,6.63262,-1.09822e-104
60.1564,69.0777,0,79.4898,6.63262,-1.56715e-106
61.1564,69.0777,0,79.4898,6.63262,-2.2363e-108
62.1564,69.0777,0,79.4898,6.63262,-3.19118e-110
63.1564,69.0777,0,79.4898,6.63262,-4.55377e-112
64.1564,69.0777,0,79.4898,6.63262,-6.49818e-114
65.1564,69.0777,0,79.4898,6.63262,-9.27283e-116
66.1564,69.0777,0,79.4898,6.63262,-1.32322e-117
67.1564,69.0777,0,79.4898,6.63262,-1.88822e-119
68.1564,69.0777,0,79.4898,6.63262,-2.69447e-121
69.1564,69.0777,0,79.4898,6.63262,-3.84498e-123
70.1564,69.0777,0,79.4898,6.63262,-5.48674e-125
71.1564,69.0777,0,79.4898,6.63262,-7.82951e-127
72.1564,69.0777,0,79.4898,6.63262,-1.11726e-128
73.1564,69.0777,0,79.4898,6.63262,-1.59432e-130
74.1564,69.0777,0,79.4898,6.63262,-2.27508e-132
75.1564,69.0777,0,79.4898,6.63262,-3.24651e-134
76.1564,69.0777,0,79.4898,6.63262,-4.63273e-136
77.1564,69.0777,0,79.4898,6.63262,-6.61085e-138
78.1564,69.0777,0,79.4898,6.63262,-9.4336e-140
79.1564,69.0777,0,79.4898,6.63262,-1.34616e-141
80.1564,69.0777,0,79.4898,6.63262,-1.92096e-143
81.1564,69.0777,0,79.4898,6.63262,-2.74119e-145
82.1564,69.0777,0,79.4898,6.63262,-3.91164e-147
83.1564,69.0777,0,79.4898,6.63262,-5.58187e-149
84.1564,69.0777,0,79.4898,6.63262,-7.96526e-151
85.1564,69.0777,0,79.4898,6.63262,-1.13663e-152
86.1564,69.0777,0,79.4898,6.63262,-1.62196e-154
87.1564,69.0777,0,79.4898,6.63262,-2.31452e-156
88.1564,69.0777,0,79.4898,6.63262,-3.3028e-158
89.1564,69.0777,0,79.4898,6.63262,-4.71305e-160
90.1564,69.0777,0,79.4898,6.63262,-6.72547e-162
91.1564,69.0777,0,79.4898,6.63262,-9.59717e-164
92.1564,69.0777,0,79.4898,6.63262,-1.3695e-165
93.1564,69.0777,0,79.4898,6.63262,-1.95427e-167
94.1564,69.0777,0,79.4898,6.63262,-2.78872e-169
95.1564,69.0777,0,79.4898,6.63262,-3.97946e-171
96.1564,69.0777,0,79.4898,6.63262,-5.67865e-173
97.1564,69.0777,0,79.4898,6.63262,-8.10337e-175
98.1564,69.0777,0,79.4898,6.63262,-1.15634e-176
99.1564,69.0777,0,79.4898,6.63262,-1.65008e-178
100,69.0777,0,79.4898,6.63262,1.45447e-177
