#Time,D,C,F,B,A
0,0,0,75.5824,0,0.116634
3.1e-5,0,0,75.5824,0,0.116634
0.003906,0,0,75.5824,0,0.116634
0.488281,0,0,75.5824,0,0.116634
1.48828,0,0,75.5824,0,0.116634
2.48828,0,0,75.5824,0,0.116634
3.48828,0,0,75.5824,0,0.116634
4.48828,0,0,75.5824,0,0.116634
5.48828,0,0,75.5824,0,0.116634
6.48828,0,0,75.5824,0,0.116634
7.48828,0,0,75.5824,0,0.116634
8.48828,0,0,75.5824,0,0.116634
9.48828,0,0,75.5824,0,0.116634
10.4883,0,0,75.5824,0,0.116634
11.4883,0,0,75.5824,0,0.116634
12.4883,0,0,75.5824,0,0.116634
13.4883,0,0,75.5824,0,0.116634
14.4883,0,0,75.5824,0,0.116634
15.4883,0,0,75.5824,0,0.116634
16.4883,0,0,75.5824,0,0.116634
17.4883,0,0,75.5824,0,0.116634
18.4883,0,0,75.5824,0,0.116634
19.4883,0,0,75.5824,0,0.116634
20.4883,0,0,75.5824,0,0.116634
21.4883,0,0,75.5824,0,0.116634
22.4883,0,0,75.5824,0,0.116634
23.4883,0,0,75.5824,0,0.116634
24.4883,0,0,75.5824,0,0.116634
25.4883,0,0,75.5824,0,0.116634
26.4883,0,0,75.5824,0,0.116634
27.4883,0,0,75.5824,0,0.116634
28.4883,0,0,75.5824,0,0.116634
29.4883,0,0,75.5824,0,0.116634
30.4883,0,0,75.5824,0,0.116634
31.4883,0,0,75.5824,0,0.116634
32.4883,0,0,75.5824,0,0.116634
33.4883,0,0,75.5824,0,0.116634
34.4883,0,0,75.5824,0,0.116634
35.4883,0,0,75.5824,0,0.116634
36.4883,0,0,75.5824,0,0.116634
37.4883,0,0,75.5824,0,0.116634
38.4883,0,0,75.5824,0,0.116634
39.4883,0,0,75.5824,0,0.116634
40.4883,0,0,75.5824,0,0.116634
41.4883,0,0,75.5824,0,0.116634
42.4883,0,0,75.5824,0,0.116634
43.4883,0,0,75.5824,0,0.116634
44.4883,0,0,75.5824,0,0.116634
45.4883,0,0,75.5824,0,0.116634
46.4883,0,0,75.5824,0,0.116634
47.4883,0,0,75.5824,0,0.116634
48.4883,0,0,75.5824,0,0.116634
49.4883,0,0,75.5824,0,0.116634
50.4883,0,0,75.5824,0,0.116634
51.4883,0,0,75.5824,0,0.116634
52.4883,0,0,75.5824,0,0.116634
53.4883,0,0,75.5824,0,0.116634
54.4883,0,0,75.5824,0,0.116634
55.4883,0,0,75.5824,0,0.116634
56.4883,0,0,75.5824,0,0.116634
57.4883,0,0,75.5824,0,0.116634
58.4883,0,0,75.5824,0,0.116634
59.4883,0,0,75.5824,0,0.116634
60.4883,0,0,75.5824,0,0.116634
61.4883,0,0,75.5824,0,0.116634
62.4883,0,0,75.5824,0,0.116634
63.4883,0,0,75.5824,0,0.116634
64.4883,0,0,75.5824,0,0.116634
65.4883,0,0,75.5824,0,0.116634
66.4883,0,0,75.5824,0,0.116634
67.4883,0,0,75.5824,0,0.116634
68.4883,0,0,75.5824,0,0.116634
69.4883,0,0,75.5824,0,0.116634
70.4883,0,0,75.5824,0,0.116634
71.4883,0,0,75.5824,0,0.116634
72.4883,0,0,75.5824,0,0.116634
73.4883,0,0,75.5824,0,0.116634
74.4883,0,0,75.5824,0,0.116634
75.4883,0,0,75.5824,0,0.116634
76.4883,0,0,75.5824,0,0.116634
77.4883,0,0,75.5824,0,0.116634
78.4883,0,0,75.5824,0,0.116634
79.4883,0,0,75.5824,0,0.116634
80.4883,0,0,75.5824,0,0.116634
81.4883,0,0,75.5824,0,0.116634
82.4883,0,0,75.5824,0,0.116634
83.4883,0,0,75.5824,0,0.116634
84.4883,0,0,75.5824,0,0.116634
85.4883,0,0,75.5824,0,0.116634
86.4883,0,0,75.5824,0,0.116634
87.4883,0,0,75.5824,0,0.116634
88.4883,0,0,75.5824,0,0.116634
89.4883,0,0,75.5824,0,0.116634
90.4883,0,0,75.5824,0,0.116634
91.4883,0,0,75.5824,0,0.116634
92.4883,0,0,75.5824,0,0.116634
93.4883,0,0,75.5824,0,0.116634
94.4883,0,0,75.5824,0,0.116634
95.4883,0,0,75.5824,0,0.116634
96.4883,0,0,75.5824,0,0.116634
97.4883,0,0,75.5824,0,0.116634
98.4883,0,0,75.5824,0,0.116634
99.4883,0,0,75.5824,0,0.116634
100,0,0,75.5824,0,0.116634
