#Time,D,C,F,B,A
0,0,75.4953,7.45121,0,45.87
1.41752e-5,0.00749028,75.4835,7.45549,3.56025e-6,45.87
3.87008e-5,0.0204469,75.4632,7.46289,2.17044e-5,45.87
7.65215e-5,0.0404211,75.4318,7.47431,7.50969e-5,45.8699
0.000252952,0.13349,75.2855,7.52749,0.000779294,45.8692
0.000899789,0.473163,74.7518,7.72159,0.00978182,45.8602
0.00160878,0.842709,74.171,7.93276,0.0311731,45.8388
0.00245096,1.27795,73.4871,8.18146,0.0721002,45.7979
0.00458051,2.36068,71.7857,8.80017,0.249394,45.6206
0.00660185,3.36519,70.2071,9.37418,0.512803,45.3572
0.00872661,4.39729,68.5853,9.96395,0.885499,44.9845
0.0110363,5.4922,66.8647,10.5896,1.39657,44.4734
0.0136631,6.70408,64.9603,11.2821,2.10362,43.7664
0.0166649,8.04677,62.8504,12.0494,3.0624,42.8076
0.0202039,9.57388,60.4506,12.922,4.37728,41.4927
0.0249077,11.5137,57.4024,14.0305,6.38647,39.4835
0.0308988,13.8434,53.7414,15.3617,9.27734,36.5927
0.0360223,15.7175,50.7964,16.4326,11.9477,33.9223
0.0411458,17.4889,48.0128,17.4449,14.7154,31.1546
0.0462694,19.1632,45.3817,18.4016,17.5088,28.3612
0.0513929,20.7458,42.8947,19.306,20.2661,25.6039
0.0565164,22.2417,40.5441,20.1607,22.9369,22.9331
0.0616399,23.6555,38.3223,20.9687,25.4816,20.3884
0.0667635,24.9919,36.2222,21.7323,27.8712,17.9988
0.071887,26.2551,34.2373,22.4541,30.0862,15.7838
0.0770685,27.4622,32.3404,23.1439,32.1372,13.7328
0.0852101,29.2252,29.57,24.1513,34.9683,10.9017
0.0938043,30.9226,26.9026,25.1213,37.4522,8.41781
0.102398,32.4669,24.4759,26.0037,39.46,6.41001
0.110992,33.8719,22.2681,26.8066,41.0503,4.81968
0.119693,35.1652,20.2357,27.5456,42.301,3.56904
0.128916,36.4075,18.2834,28.2555,43.3045,2.56547
0.139406,37.6756,16.2908,28.9801,44.1308,1.73923
0.152756,39.0914,14.0659,29.7892,44.8284,1.04163
0.16372,40.1084,12.4678,30.3703,45.1953,0.674694
0.174239,40.9753,11.1055,30.8657,45.4296,0.440405
0.183987,41.6939,9.9763,31.2763,45.5757,0.294325
0.193972,42.3543,8.93861,31.6536,45.6766,0.193447
0.203957,42.9459,8.00885,31.9917,45.7436,0.126352
0.214202,43.4891,7.1553,32.3021,45.7889,0.0811444
0.225028,44.0003,6.35192,32.5943,45.8195,0.0505269
0.236451,44.4776,5.60194,32.867,45.8395,0.0304798
0.249035,44.9384,4.87778,33.1303,45.8526,0.0173615
0.262467,45.3648,4.20775,33.374,45.8605,0.00946367
0.277336,45.7688,3.57288,33.6048,45.8652,0.0048039
0.29427,46.1552,2.96565,33.8256,45.8678,0.00220369
0.312742,46.5023,2.42033,34.0239,45.8691,0.00093489
0.335354,46.8414,1.88734,34.2177,45.8697,0.000323691
0.360335,47.13,1.43387,34.3826,45.8699,9.91305e-5
0.386926,47.3614,1.07023,34.5149,45.87,2.77782e-5
0.413516,47.5341,0.79881,34.6136,45.87,7.75798e-6
0.441046,47.6669,0.5901,34.6895,45.87,2.05519e-6
0.46971,47.7685,0.430514,34.7475,45.87,5.17258e-7
0.499466,47.845,0.310333,34.7912,45.87,1.27475e-7
0.531143,47.9031,0.219026,34.8244,45.87,3.18196e-8
0.563782,47.9451,0.152955,34.8484,45.87,6.01853e-9
0.599234,47.9766,0.103559,34.8664,45.87,1.13469e-9
0.636829,47.9989,0.068481,34.8791,45.87,1.29478e-10
0.676631,48.0143,0.0441982,34.888,45.87,1.89082e-11
0.721238,48.0252,0.0270561,34.8942,45.87,-3.81223e-13
0.768096,48.0322,0.0161572,34.8982,45.87,1.60742e-13
0.822916,48.0368,0.00883798,34.9008,45.87,2.98404e-13
0.881875,48.0395,0.00461868,34.9024,45.87,2.68843e-14
0.949249,48.0411,0.00219919,34.9032,45.87,2.52154e-13
1.02781,48.0419,0.000924982,34.9037,45.87,3.83606e-13
1.11546,48.0422,0.000351414,34.9039,45.87,4.13521e-13
1.2291,48.0424,9.91315e-5,34.904,45.87,1.26825e-12
1.35926,48.0424,2.30805e-5,34.904,45.87,3.56962e-13
1.54549,48.0425,1.69825e-6,34.904,45.87,-1.07341e-14
1.78606,48.0425,-7.86832e-8,34.904,45.87,2.80538e-15
2.23132,48.0425,-2.6177e-7,34.904,45.87,9.39547e-15
2.75947,48.0425,1.87538e-7,34.904,45.87,-5.44417e-14
3.75552,48.0425,-1.47954e-7,34.904,45.87,1.13732e-14
4.75552,48.0425,-2.2457e-9,34.904,45.87,-1.00162e-14
5.75552,48.0425,4.1016e-8,34.904,45.87,-1.90708e-14
6.75552,48.0425,2.10708e-9,34.904,45.87,4.51892e-15
7.75552,48.0425,2.14423e-7,34.904,45.87,6.05021e-14
8.75552,48.0425,-8.37697e-8,34.904,45.87,-5.0459e-14
9.75552,48.0425,-2.59071e-8,34.904,45.87,3.57017e-14
10.7555,48.0425,4.05134e-8,34.904,45.87,-1.90549e-14
11.7555,48.0425,-1.59781e-8,34.904,45.87,1.10334e-14
12.7555,48.0425,3.60772e-8,34.904,45.87,4.38284e-14
13.7555,48.0425,6.41148e-9,34.904,45.87,1.66669e-15
14.7555,48.0425,5.3429e-10,34.904,45.87,3.4148e-17
15.7555,48.0425,4.45242e-11,34.904,45.87,6.99711e-19
16.7555,48.0425,3.71035e-12,34.904,45.87,1.4343e-20
17.7555,48.0425,3.09196e-13,34.904,45.87,2.94469e-22
18.7555,48.0425,2.57663e-14,34.904,45.87,6.08399e-24
19.7555,48.0425,2.14719e-15,34.904,45.87,1.28891e-25
20.7555,48.0425,1.78933e-16,34.904,45.87,2.99426e-27
21.7555,48.0425,1.49111e-17,34.904,45.87,9.08083e-29
22.7555,48.0425,1.24259e-18,34.904,45.87,4.31565e-30
23.7555,48.0425,1.03549e-19,34.904,45.87,2.93017e-31
24.7555,48.0425,8.62908e-21,34.904,45.87,2.30531e-32
25.7555,48.0425,7.1909e-22,34.904,45.87,1.89313e-33
26.7555,48.0425,5.99242e-23,34.904,45.87,1.57188e-34
27.7555,48.0425,4.99368e-24,34.904,45.87,1.30873e-35
28.7555,48.0425,4.1614e-25,34.904,45.87,1.09036e-36
29.7555,48.0425,3.46783e-26,34.904,45.87,9.08587e-38
30.7555,48.0425,2.88986e-27,34.904,45.87,7.57146e-39
31.7555,48.0425,2.40822e-28,34.904,45.87,6.30953e-40
32.7555,48.0425,2.00685e-29,34.904,45.87,5.25794e-41
33.7555,48.0425,1.67237e-30,34.904,45.87,4.38161e-42
34.7555,48.0425,1.39364e-31,34.904,45.87,3.65134e-43
35.7555,48.0425,1.16137e-32,34.904,45.87,7.44527e-45
36.7555,48.0425,9.67809e-34,34.904,45.87,1.51813e-46
37.7555,48.0425,8.06507e-35,34.904,45.87,3.09554e-48
38.7555,48.0425,6.72089e-36,34.904,45.87,6.31195e-50
39.7555,48.0425,5.60075e-37,34.904,45.87,1.28704e-51
40.7555,48.0425,4.66729e-38,34.904,45.87,2.62433e-53
41.7555,48.0425,3.88941e-39,34.904,45.87,5.35115e-55
42.7555,48.0425,3.24117e-40,34.904,45.87,1.09113e-56
43.7555,48.0425,2.70098e-41,34.904,45.87,2.22486e-58
44.7555,48.0425,2.25081e-42,34.904,45.87,4.53659e-60
45.7555,48.0425,1.87568e-43,34.904,45.87,9.25034e-62
46.7555,48.0425,1.56307e-44,34.904,45.87,1.88619e-63
47.7555,48.0425,1.30255e-45,34.904,45.87,3.84603e-65
48.7555,48.0425,1.08546e-46,34.904,45.87,7.84225e-67
49.7555,48.0425,9.04552e-48,34.904,45.87,1.59907e-68
50.7555,48.0425,7.53793e-49,34.904,45.87,3.26059e-70
51.7555,48.0425,6.28161e-50,34.904,45.87,6.64851e-72
52.7555,48.0425,5.23467e-51,34.904,45.87,1.35566e-73
53.7555,48.0425,4.36223e-52,34.904,45.87,2.76426e-75
54.7555,48.0425,3.63519e-53,34.904,45.87,5.63647e-77
55.7555,48.0425,3.02933e-54,34.904,45.87,1.1493e-78
56.7555,48.0425,2.52444e-55,34.904,45.87,2.34347e-80
57.7555,48.0425,2.1037e-56,34.904,45.87,4.77838e-82
58.7555,48.0425,1.75308e-57,34.904,45.87,9.74267e-84
59.7555,48.0425,1.4609e-58,34.904,45.87,1.98601e-85
60.7555,48.0425,1.21742e-59,34.904,45.87,4.04486e-87
61.7555,48.0425,1.01451e-60,34.904,45.87,8.20833e-89
62.7555,48.0425,8.45429e-62,34.904,45.87,1.64095e-90
63.7555,48.0425,7.04524e-63,34.904,45.87,3.07285e-92
64.7555,48.0425,5.87104e-64,34.904,45.87,3.98969e-94
65.7555,48.0425,4.89253e-65,34.904,45.87,-1.08315e-95
66.7555,48.0425,4.07711e-66,34.904,45.87,-1.80142e-96
67.7555,48.0425,3.39759e-67,34.904,45.87,-1.68445e-97
68.7555,48.0425,2.83133e-68,34.904,45.87,-1.44108e-98
69.7555,48.0425,2.35944e-69,34.904,45.87,-1.20852e-99
70.7555,48.0425,1.9662e-70,34.904,45.87,-1.00865e-100
71.7555,48.0425,1.6385e-71,34.904,45.87,-8.40859e-102
72.7555,48.0425,1.36542e-72,34.904,45.87,-7.00781e-103
73.7555,48.0425,1.13785e-73,34.904,45.87,-5.83997e-104
74.7555,48.0425,9.48205e-75,34.904,45.87,-4.86667e-105
75.7555,48.0425,7.90171e-76,34.904,45.87,-4.05556e-106
76.7555,48.0425,6.58476e-77,34.904,45.87,-3.37964e-107
77.7555,48.0425,5.4873e-78,34.904,45.87,-6.89125e-109
78.7555,48.0425,4.57275e-79,34.904,45.87,-1.40516e-110
79.7555,48.0425,3.81062e-80,34.904,45.87,-2.86519e-112
80.7555,48.0425,3.17552e-81,34.904,45.87,-5.84226e-114
81.7555,48.0425,2.64627e-82,34.904,45.87,-1.19127e-115
82.7555,48.0425,2.20522e-83,34.904,45.87,-2.42905e-117
83.7555,48.0425,1.83768e-84,34.904,45.87,-4.95295e-119
84.7555,48.0425,1.5314e-85,34.904,45.87,-1.00993e-120
85.7555,48.0425,1.27617e-86,34.904,45.87,-2.0593e-122
86.7555,48.0425,1.06348e-87,34.904,45.87,-4.19901e-124
87.7555,48.0425,8.86229e-89,34.904,45.87,-8.562e-126
88.7555,48.0425,7.38524e-90,34.904,45.87,-1.74583e-127
89.7555,48.0425,6.15437e-91,34.904,45.87,-3.55984e-129
90.7555,48.0425,5.12864e-92,34.904,45.87,-7.25869e-131
91.7555,48.0425,4.27387e-93,34.904,45.87,-1.48008e-132
92.7555,48.0425,3.56156e-94,34.904,45.87,-3.01796e-134
93.7555,48.0425,2.96796e-95,34.904,45.87,-6.15377e-136
94.7555,48.0425,2.4733e-96,34.904,45.87,-1.25478e-137
95.7555,48.0425,2.06109e-97,34.904,45.87,-2.55857e-139
96.7555,48.0425,1.71757e-98,34.904,45.87,-5.21704e-141
97.7555,48.0425,1.43131e-99,34.904,45.87,-1.06378e-142
98.7555,48.0425,1.19276e-100,34.904,45.87,-2.1691e-144
99.7555,48.0425,9.93965e-102,34.904,45.87,-4.42291e-146
100,48.0425,2.69419e-102,34.904,45.87,-3.47017e-147
