#Time,D,C,F,B,A
0,0,164.816,68.9104,86.8934,191.154
1.73377e-5,0.0199999,164.785,68.9218,86.8935,191.154
5.13507e-5,0.0592239,164.723,68.9442,86.8938,191.154
0.000105,0.121067,164.626,68.9796,86.8947,191.153
0.000371137,0.42731,164.145,69.1545,86.9087,191.139
0.00155485,1.7786,162.022,69.9267,87.1582,190.89
0.00275571,3.13161,159.895,70.6999,87.7203,190.328
0.00395657,4.46687,157.797,71.4629,88.5867,189.461
0.00519945,5.83039,155.654,72.242,89.7954,188.252
0.00797949,8.81362,150.967,73.9467,93.5923,184.456
0.0109009,11.8518,146.192,75.6828,99.081,178.967
0.0141315,15.0998,141.088,77.5388,106.71,171.338
0.0179529,18.7956,135.28,79.6507,117.463,160.585
0.0232583,23.6758,127.612,82.4394,134.591,143.456
0.0275667,27.4346,121.705,84.5873,149.556,128.491
0.0311405,30.4203,117.013,86.2934,162.181,115.867
0.0347144,33.2908,112.502,87.9337,174.653,103.395
0.0381308,35.9314,108.353,89.4426,186.187,91.8609
0.0412322,38.244,104.719,90.7641,196.17,81.8778
0.0443336,40.4791,101.206,92.0413,205.581,72.4668
0.0479413,42.9849,97.2688,93.4732,215.712,62.3362
0.0536511,46.753,91.3475,95.6264,229.805,48.2427
0.0593608,50.2917,85.7867,97.6485,241.483,36.5651
0.0650706,53.615,80.5644,99.5475,250.871,27.1767
0.0707803,56.736,75.66,101.331,258.217,19.8307
0.07649,59.6669,71.0542,103.006,263.825,14.2227
0.0821998,62.4195,66.7287,104.579,268.011,10.0364
0.0879095,65.0045,62.6666,106.056,271.073,6.97522
0.0943813,67.7448,58.3605,107.622,273.509,4.53897
0.101531,70.5536,53.9466,109.227,275.28,2.76817
0.107357,72.6846,50.5978,110.444,276.224,1.82369
0.112417,74.428,47.8582,111.441,276.791,1.25682
0.117985,76.2372,45.0152,112.474,277.222,0.826223
0.125614,78.5431,41.3917,113.792,277.59,0.457758
0.13336,80.6946,38.0107,115.022,277.801,0.247018
0.141353,82.7303,34.8117,116.185,277.919,0.128547
0.149403,84.6077,31.8616,117.258,277.982,0.0655408
0.15776,86.3885,29.0632,118.275,278.016,0.0320762
0.166822,88.1432,26.3058,119.278,278.033,0.014546
0.176389,89.8153,23.6782,120.233,278.042,0.00621011
0.187388,91.5323,20.98,121.215,278.046,0.00229257
0.199357,93.1794,18.3918,122.156,278.047,0.000759984
0.213812,94.8999,15.6881,123.139,278.048,0.000197082
0.2313,96.647,12.9427,124.137,278.048,3.85908e-5
0.250168,98.1906,10.517,125.019,278.048,6.3358e-6
0.280901,100.11,7.50014,126.116,278.048,2.43138e-6
0.311984,101.493,5.32818,126.906,278.048,-4.49065e-7
0.34853,102.615,3.56447,127.547,278.048,8.00154e-8
0.386816,103.395,2.33935,127.993,278.048,1.11098e-7
0.424616,103.901,1.54353,128.282,278.048,-8.20435e-8
0.465675,104.258,0.98259,128.486,278.048,2.92099e-8
0.512525,104.51,0.586898,128.63,278.048,1.37357e-7
0.553344,104.645,0.37459,128.707,278.048,-4.22499e-8
0.605048,104.748,0.21211,128.767,278.048,-1.26578e-8
0.659094,104.809,0.117054,128.801,278.048,6.21158e-9
0.705776,104.839,0.0700448,128.818,278.048,1.85953e-9
0.765046,104.86,0.0364978,128.83,278.048,-2.30351e-10
0.831193,104.872,0.017632,128.837,278.048,2.68642e-9
0.902938,104.878,0.00801156,128.841,278.048,-1.27508e-10
0.98712,104.881,0.00317662,128.842,278.048,5.32747e-11
1.08653,104.883,0.0010651,128.843,278.048,3.3205e-10
1.19266,104.883,0.000331928,128.844,278.048,1.20457e-9
1.34023,104.883,6.77562e-5,128.844,278.048,-3.30004e-10
1.49418,104.883,1.11116e-5,128.844,278.048,-4.85291e-10
1.69677,104.883,1.89362e-6,128.844,278.048,5.40674e-10
1.95425,104.883,-3.22336e-8,128.844,278.048,1.31571e-10
2.37201,104.883,9.06586e-7,128.844,278.048,-9.87436e-10
2.77614,104.883,-1.10864e-7,128.844,278.048,-4.16269e-11
3.31936,104.883,-7.5589e-7,128.844,278.048,3.55818e-9
4.10458,104.883,7.92283e-7,128.844,278.048,7.32281e-8
4.9679,104.883,4.92573e-7,128.844,278.048,2.5407e-7
5.83946,104.883,1.92032e-7,128.844,278.048,5.59649e-8
6.8017,104.883,-1.83542e-7,128.844,278.048,-4.33594e-9
7.8017,104.883,-2.26772e-8,128.844,278.048,-2.67226e-10
8.8017,104.883,-1.68734e-9,128.844,278.048,-9.00778e-11
9.8017,104.883,-2.79047e-8,128.844,278.048,3.33085e-10
10.8017,104.883,-1.16037e-8,128.844,278.048,-4.13679e-10
11.8017,104.883,1.25873e-8,128.844,278.048,4.0709e-11
12.8017,104.883,-1.9606e-8,128.844,278.048,-1.18937e-11
13.8017,104.883,1.2167e-8,128.844,278.048,2.50333e-12
14.8017,104.883,-6.03025e-10,128.844,278.048,-5.6888e-13
15.8017,104.883,9.96566e-10,128.844,278.048,-2.38847e-12
16.8017,104.883,1.83572e-10,128.844,278.048,-4.22163e-14
17.8017,104.883,1.52976e-11,128.844,278.048,-3.98267e-16
18.8017,104.883,1.2748e-12,128.844,278.048,-3.73058e-18
19.8017,104.883,1.06234e-13,128.844,278.048,-3.27203e-20
20.8017,104.883,8.8528e-15,128.844,278.048,-1.00148e-22
21.8017,104.883,7.37733e-16,128.844,278.048,1.64555e-23
22.8017,104.883,6.14778e-17,128.844,278.048,1.60548e-24
23.8017,104.883,5.12315e-18,128.844,278.048,1.36001e-25
24.8017,104.883,4.26929e-19,128.844,278.048,1.13543e-26
25.8017,104.883,3.55774e-20,128.844,278.048,9.46391e-28
26.8017,104.883,2.96478e-21,128.844,278.048,7.88678e-29
27.8017,104.883,2.47065e-22,128.844,278.048,6.57233e-30
28.8017,104.883,2.05888e-23,128.844,278.048,5.47695e-31
29.8017,104.883,1.71573e-24,128.844,278.048,4.56412e-32
30.8017,104.883,1.42978e-25,128.844,278.048,3.80344e-33
31.8017,104.883,1.19148e-26,128.844,278.048,3.16953e-34
32.8017,104.883,9.929e-28,128.844,278.048,2.64127e-35
33.8017,104.883,8.27417e-29,128.844,278.048,2.20106e-36
34.8017,104.883,6.89514e-30,128.844,278.048,1.83422e-37
35.8017,104.883,5.74595e-31,128.844,278.048,1.52852e-38
36.8017,104.883,4.78829e-32,128.844,278.048,1.27376e-39
37.8017,104.883,3.99024e-33,128.844,278.048,1.06147e-40
38.8017,104.883,3.3252e-34,128.844,278.048,8.84558e-42
39.8017,104.883,2.771e-35,128.844,278.048,7.37131e-43
40.8017,104.883,2.30917e-36,128.844,278.048,6.14276e-44
41.8017,104.883,1.92431e-37,128.844,278.048,5.11897e-45
42.8017,104.883,1.60359e-38,128.844,278.048,4.26581e-46
43.8017,104.883,1.33632e-39,128.844,278.048,3.55484e-47
44.8017,104.883,1.1136e-40,128.844,278.048,2.96237e-48
45.8017,104.883,9.28003e-42,128.844,278.048,2.46864e-49
46.8017,104.883,7.73336e-43,128.844,278.048,2.0572e-50
47.8017,104.883,6.44447e-44,128.844,278.048,1.71433e-51
48.8017,104.883,5.37039e-45,128.844,278.048,1.42861e-52
49.8017,104.883,4.47532e-46,128.844,278.048,1.19051e-53
50.8017,104.883,3.72944e-47,128.844,278.048,9.9209e-55
51.8017,104.883,3.10786e-48,128.844,278.048,8.26742e-56
52.8017,104.883,2.58989e-49,128.844,278.048,6.88952e-57
53.8017,104.883,2.15824e-50,128.844,278.048,5.74126e-58
54.8017,104.883,1.79853e-51,128.844,278.048,4.78439e-59
55.8017,104.883,1.49878e-52,128.844,278.048,3.98699e-60
56.8017,104.883,1.24898e-53,128.844,278.048,3.32249e-61
57.8017,104.883,1.04082e-54,128.844,278.048,2.76874e-62
58.8017,104.883,8.67348e-56,128.844,278.048,2.30728e-63
59.8017,104.883,7.2279e-57,128.844,278.048,2.17908e-65
60.8017,104.883,6.02325e-58,128.844,278.048,2.05801e-67
61.8017,104.883,5.01937e-59,128.844,278.048,1.94366e-69
62.8017,104.883,4.18281e-60,128.844,278.048,1.83566e-71
63.8017,104.883,3.48568e-61,128.844,278.048,1.73367e-73
64.8017,104.883,2.90473e-62,128.844,278.048,1.63734e-75
65.8017,104.883,2.42061e-63,128.844,278.048,1.54636e-77
66.8017,104.883,2.01717e-64,128.844,278.048,1.46044e-79
67.8017,104.883,1.68098e-65,128.844,278.048,1.37929e-81
68.8017,104.883,1.40082e-66,128.844,278.048,1.30266e-83
69.8017,104.883,1.16735e-67,128.844,278.048,1.23028e-85
70.8017,104.883,9.72788e-69,128.844,278.048,1.16192e-87
71.8017,104.883,8.10657e-70,128.844,278.048,1.09736e-89
72.8017,104.883,6.75547e-71,128.844,278.048,1.03638e-91
73.8017,104.883,5.62956e-72,128.844,278.048,9.78799e-94
74.8017,104.883,4.6913e-73,128.844,278.048,9.24414e-96
75.8017,104.883,3.90942e-74,128.844,278.048,8.7305e-98
76.8017,104.883,3.25785e-75,128.844,278.048,8.24541e-100
77.8017,104.883,2.71487e-76,128.844,278.048,7.78727e-102
78.8017,104.883,2.26239e-77,128.844,278.048,7.35458e-104
79.8017,104.883,1.88533e-78,128.844,278.048,6.94593e-106
80.8017,104.883,1.57111e-79,128.844,278.048,6.55999e-108
81.8017,104.883,1.30926e-80,128.844,278.048,6.1955e-110
82.8017,104.883,1.09105e-81,128.844,278.048,5.85126e-112
83.8017,104.883,9.09206e-83,128.844,278.048,5.52614e-114
84.8017,104.883,7.57671e-84,128.844,278.048,5.21909e-116
85.8017,104.883,6.31393e-85,128.844,278.048,4.9291e-118
86.8017,104.883,5.26161e-86,128.844,278.048,4.65522e-120
87.8017,104.883,4.38467e-87,128.844,278.048,4.39656e-122
88.8017,104.883,3.65389e-88,128.844,278.048,4.15228e-124
89.8017,104.883,3.04491e-89,128.844,278.048,3.92156e-126
90.8017,104.883,2.53743e-90,128.844,278.048,3.70367e-128
91.8017,104.883,2.11452e-91,128.844,278.048,3.49788e-130
92.8017,104.883,1.7621e-92,128.844,278.048,3.30352e-132
93.8017,104.883,1.46842e-93,128.844,278.048,3.11997e-134
94.8017,104.883,1.22368e-94,128.844,278.048,2.94661e-136
95.8017,104.883,1.01973e-95,128.844,278.048,2.78289e-138
96.8017,104.883,8.49779e-97,128.844,278.048,2.62826e-140
97.8017,104.883,7.08149e-98,128.844,278.048,2.48223e-142
98.8017,104.883,5.90124e-99,128.844,278.048,2.3443e-144
99.8017,104.883,4.9177e-100,128.844,278.048,2.21399e-146
100,104.883,1.5458e-100,128.844,278.048,1.01566e-147
