#Time,D,C,F,B,A
0,0,0,109.198,205.98,62.2435
3.1e-5,0,0,109.198,205.98,62.2435
0.003906,0,0,109.198,205.98,62.2435
0.488281,0,0,109.198,205.98,62.2435
1.48828,0,0,109.198,205.98,62.2435
2.48828,0,0,109.198,205.98,62.2435
3.48828,0,0,109.198,205.98,62.2435
4.48828,0,0,109.198,205.98,62.2435
5.48828,0,0,109.198,205.98,62.2435
6.48828,0,0,109.198,205.98,62.2435
7.48828,0,0,109.198,205.98,62.2435
8.48828,0,0,109.198,205.98,62.2435
9.48828,0,0,109.198,205.98,62.2435
10.4883,0,0,109.198,205.98,62.2435
11.4883,0,0,109.198,205.98,62.2435
12.4883,0,0,109.198,205.98,62.2435
13.4883,0,0,109.198,205.98,62.2435
14.4883,0,0,109.198,205.98,62.2435
15.4883,0,0,109.198,205.98,62.2435
16.4883,0,0,109.198,205.98,62.2435
17.4883,0,0,109.198,205.98,62.2435
18.4883,0,0,109.198,205.98,62.2435
19.4883,0,0,109.198,205.98,62.2435
20.4883,0,0,109.198,205.98,62.2435
21.4883,0,0,109.198,205.98,62.2435
22.4883,0,0,109.198,205.98,62.2435
23.4883,0,0,109.198,205.98,62.2435
24.4883,0,0,109.198,205.98,62.2435
25.4883,0,0,109.198,205.98,62.2435
26.4883,0,0,109.198,205.98,62.2435
27.4883,0,0,109.198,205.98,62.2435
28.4883,0,0,109.198,205.98,62.2435
29.4883,0,0,109.198,205.98,62.2435
30.4883,0,0,109.198,205.98,62.2435
31.4883,0,0,109.198,205.98,62.2435
32.4883,0,0,109.198,205.98,62.2435
33.4883,0,0,109.198,205.98,62.2435
34.4883,0,0,109.198,205.98,62.2435
35.4883,0,0,109.198,205.98,62.2435
36.4883,0,0,109.198,205.98,62.2435
37.4883,0,0,109.198,205.98,62.2435
38.4883,0,0,109.198,205.98,62.2435
39.4883,0,0,109.198,205.98,62.2435
40.4883,0,0,109.198,205.98,62.2435
41.4883,0,0,109.198,205.98,62.2435
42.4883,0,0,109.198,205.98,62.2435
43.4883,0,0,109.198,205.98,62.2435
44.4883,0,0,109.198,205.98,62.2435
45.4883,0,0,109.198,205.98,62.2435
46.4883,0,0,109.198,205.98,62.2435
47.4883,0,0,109.198,205.98,62.2435
48.4883,0,0,109.198,205.98,62.2435
49.4883,0,0,109.198,205.98,62.2435
50.4883,0,0,109.198,205.98,62.2435
51.4883,0,0,109.198,205.98,62.2435
52.4883,0,0,109.198,205.98,62.2435
53.4883,0,0,109.198,205.98,62.2435
54.4883,0,0,109.198,205.98,62.2435
55.4883,0,0,109.198,205.98,62.2435
56.4883,0,0,109.198,205.98,62.2435
57.4883,0,0,109.198,205.98,62.2435
58.4883,0,0,109.198,205.98,62.2435
59.4883,0,0,109.198,205.98,62.2435
60.4883,0,0,109.198,205.98,62.2435
61.4883,0,0,109.198,205.98,62.2435
62.4883,0,0,109.198,205.98,62.2435
63.4883,0,0,109.198,205.98,62.2435
64.4883,0,0,109.198,205.98,62.2435
65.4883,0,0,109.198,205.98,62.2435
66.4883,0,0,109.198,205.98,62.2435
67.4883,0,0,109.198,205.98,62.2435
68.4883,0,0,109.198,205.98,62.2435
69.4883,0,0,109.198,205.98,62.2435
70.4883,0,0,109.198,205.98,62.2435
71.4883,0,0,109.198,205.98,62.2435
72.4883,0,0,109.198,205.98,62.2435
73.4883,0,0,109.198,205.98,62.2435
74.4883,0,0,109.198,205.98,62.2435
75.4883,0,0,109.198,205.98,62.2435
76.4883,0,0,109.198,205.98,62.2435
77.4883,0,0,109.198,205.98,62.2435
78.4883,0,0,109.198,205.98,62.2435
79.4883,0,0,109.198,205.98,62.2435
80.4883,0,0,109.198,205.98,62.2435
81.4883,0,0,109.198,205.98,62.2435
82.4883,0,0,109.198,205.98,62.2435
83.4883,0,0,109.198,205.98,62.2435
84.4883,0,0,109.198,205.98,62.2435
85.4883,0,0,109.198,205.98,62.2435
86.4883,0,0,109.198,205.98,62.2435
87.4883,0,0,109.198,205.98,62.2435
88.4883,0,0,109.198,205.98,62.2435
89.4883,0,0,109.198,205.98,62.2435
90.4883,0,0,109.198,205.98,62.2435
91.4883,0,0,109.198,205.98,62.2435
92.4883,0,0,109.198,205.98,62.2435
93.4883,0,0,109.198,205.98,62.2435
94.4883,0,0,109.198,205.98,62.2435
95.4883,0,0,109.198,205.98,62.2435
96.4883,0,0,109.198,205.98,62.2435
97.4883,0,0,109.198,205.98,62.2435
98.4883,0,0,109.198,205.98,62.2435
99.4883,0,0,109.198,205.98,62.2435
100,0,0,109.198,205.98,62.2435
