#Time,D,C,F,B,A
0,0,0,0,0,71.4669
3.1e-5,0,0,0,0,71.4669
0.003906,0,0,0,0,71.4669
0.488281,0,0,0,0,71.4669
1.48828,0,0,0,0,71.4669
2.48828,0,0,0,0,71.4669
3.48828,0,0,0,0,71.4669
4.48828,0,0,0,0,71.4669
5.48828,0,0,0,0,71.4669
6.48828,0,0,0,0,71.4669
7.48828,0,0,0,0,71.4669
8.48828,0,0,0,0,71.4669
9.48828,0,0,0,0,71.4669
10.4883,0,0,0,0,71.4669
11.4883,0,0,0,0,71.4669
12.4883,0,0,0,0,71.4669
13.4883,0,0,0,0,71.4669
14.4883,0,0,0,0,71.4669
15.4883,0,0,0,0,71.4669
16.4883,0,0,0,0,71.4669
17.4883,0,0,0,0,71.4669
18.4883,0,0,0,0,71.4669
19.4883,0,0,0,0,71.4669
20.4883,0,0,0,0,71.4669
21.4883,0,0,0,0,71.4669
22.4883,0,0,0,0,71.4669
23.4883,0,0,0,0,71.4669
24.4883,0,0,0,0,71.4669
25.4883,0,0,0,0,71.4669
26.4883,0,0,0,0,71.4669
27.4883,0,0,0,0,71.4669
28.4883,0,0,0,0,71.4669
29.4883,0,0,0,0,71.4669
30.4883,0,0,0,0,71.4669
31.4883,0,0,0,0,71.4669
32.4883,0,0,0,0,71.4669
33.4883,0,0,0,0,71.4669
34.4883,0,0,0,0,71.4669
35.4883,0,0,0,0,71.4669
36.4883,0,0,0,0,71.4669
37.4883,0,0,0,0,71.4669
38.4883,0,0,0,0,71.4669
39.4883,0,0,0,0,71.4669
40.4883,0,0,0,0,71.4669
41.4883,0,0,0,0,71.4669
42.4883,0,0,0,0,71.4669
43.4883,0,0,0,0,71.4669
44.4883,0,0,0,0,71.4669
45.4883,0,0,0,0,71.4669
46.4883,0,0,0,0,71.4669
47.4883,0,0,0,0,71.4669
48.4883,0,0,0,0,71.4669
49.4883,0,0,0,0,71.4669
50.4883,0,0,0,0,71.4669
51.4883,0,0,0,0,71.4669
52.4883,0,0,0,0,71.4669
53.4883,0,0,0,0,71.4669
54.4883,0,0,0,0,71.4669
55.4883,0,0,0,0,71.4669
56.4883,0,0,0,0,71.4669
57.4883,0,0,0,0,71.4669
58.4883,0,0,0,0,71.4669
59.4883,0,0,0,0,71.4669
60.4883,0,0,0,0,71.4669
61.4883,0,0,0,0,71.4669
62.4883,0,0,0,0,71.4669
63.4883,0,0,0,0,71.4669
64.4883,0,0,0,0,71.4669
65.4883,0,0,0,0,71.4669
66.4883,0,0,0,0,71.4669
67.4883,0,0,0,0,71.4669
68.4883,0,0,0,0,71.4669
69.4883,0,0,0,0,71.4669
70.4883,0,0,0,0,71.4669
71.4883,0,0,0,0,71.4669
72.4883,0,0,0,0,71.4669
73.4883,0,0,0,0,71.4669
74.4883,0,0,0,0,71.4669
75.4883,0,0,0,0,71.4669
76.4883,0,0,0,0,71.4669
77.4883,0,0,0,0,71.4669
78.4883,0,0,0,0,71.4669
79.4883,0,0,0,0,71.4669
80.4883,0,0,0,0,71.4669
81.4883,0,0,0,0,71.4669
82.4883,0,0,0,0,71.4669
83.4883,0,0,0,0,71.4669
84.4883,0,0,0,0,71.4669
85.4883,0,0,0,0,71.4669
86.4883,0,0,0,0,71.4669
87.4883,0,0,0,0,71.4669
88.4883,0,0,0,0,71.4669
89.4883,0,0,0,0,71.4669
90.4883,0,0,0,0,71.4669
91.4883,0,0,0,0,71.4669
92.4883,0,0,0,0,71.4669
93.4883,0,0,0,0,71.4669
94.4883,0,0,0,0,71.4669
95.4883,0,0,0,0,71.4669
96.4883,0,0,0,0,71.4669
97.4883,0,0,0,0,71.4669
98.4883,0,0,0,0,71.4669
99.4883,0,0,0,0,71.4669
100,0,0,0,0,71.4669
