#Time,D,C,F,B,A
0,0,137.753,392.39,42.3113,113.354
1.83945e-5,0.0177345,137.725,392.4,42.3113,113.354
5.5578e-5,0.0535724,137.669,392.421,42.3115,113.354
0.00011412,0.10997,137.58,392.453,42.312,113.353
0.000403605,0.388317,137.143,392.612,42.3202,113.345
0.00164201,1.56913,135.287,393.287,42.4576,113.207
0.0028822,2.73564,133.454,393.953,42.7594,112.906
0.00412239,3.88634,131.646,394.611,43.2221,112.443
0.00540328,5.05843,129.804,395.281,43.8645,111.801
0.00833101,7.67626,125.69,396.776,45.9315,109.734
0.0113903,10.3231,121.531,398.289,48.9138,106.751
0.0147738,13.1487,117.091,399.904,53.0727,102.592
0.0186336,16.246,112.223,401.673,58.7345,96.9305
0.0242873,20.5521,105.457,404.134,68.3219,87.3431
0.0290515,23.9784,100.072,406.092,77.1185,78.5466
0.0330791,26.7382,95.7357,407.669,84.7478,70.9172
0.0371067,29.3784,91.5868,409.178,92.3286,63.3365
0.0407678,31.6789,87.9717,410.492,99.0282,56.6369
0.0443331,33.8319,84.5884,411.723,105.272,50.3929
0.0506217,37.4297,78.9349,413.778,115.393,40.272
0.0575858,41.1339,73.1139,415.895,125.036,30.6286
0.0638775,44.2451,68.2248,417.673,132.253,23.4117
0.0699167,47.0356,63.8399,419.267,137.895,17.7701
0.0783626,50.6398,58.176,421.327,143.904,11.7611
0.0871574,54.0536,52.8115,423.278,148.245,7.41991
0.0959523,57.1525,47.9418,425.049,151.116,4.54906
0.104747,59.9658,43.521,426.656,152.948,2.71746
0.113542,62.5196,39.5079,428.115,154.08,1.58549
0.122863,64.9695,35.6579,429.515,154.79,0.875065
0.134407,67.6757,31.4054,431.062,155.258,0.406794
0.144161,69.7088,28.2105,432.224,155.457,0.208133
0.154351,71.6124,25.2192,433.311,155.564,0.101292
0.164541,73.3141,22.545,434.284,155.617,0.0484005
0.174731,74.8354,20.1544,435.153,155.642,0.0227518
0.185766,76.3015,17.8505,435.991,155.655,0.00988237
0.197375,77.6633,15.7106,436.769,155.661,0.00404425
0.211059,79.0604,13.5151,437.567,155.664,0.00138602
0.225746,80.3435,11.4989,438.301,155.665,0.000430793
0.244364,81.6985,9.36953,439.075,155.665,9.74587e-5
0.26751,83.0388,7.26339,439.841,155.665,1.5986e-5
0.292802,84.1613,5.49942,440.482,155.665,2.18241e-6
0.329334,85.3194,3.67957,441.144,155.665,3.55035e-7
0.368214,86.1342,2.39916,441.61,155.665,-6.97649e-8
0.407094,86.6655,1.5643,441.913,155.665,-3.7629e-8
0.445975,87.0119,1.01996,442.111,155.665,3.51914e-8
0.486304,87.2444,0.65452,442.244,155.665,-2.86404e-9
0.527848,87.3972,0.414438,442.331,155.665,-1.26423e-8
0.571847,87.4984,0.25543,442.389,155.665,2.44191e-9
0.61879,87.5639,0.152414,442.427,155.665,1.98611e-9
0.668046,87.6045,0.0886598,442.45,155.665,-2.79435e-9
0.723692,87.6303,0.0480752,442.464,155.665,-2.55643e-9
0.781985,87.6448,0.0253206,442.473,155.665,6.27056e-10
0.850243,87.6533,0.0119535,442.478,155.665,7.06575e-10
0.922063,87.6575,0.00542633,442.48,155.665,-2.81035e-9
1.00994,87.6596,0.00206693,442.481,155.665,-1.84239e-8
1.10628,87.6605,0.00071742,442.482,155.665,1.4264e-8
1.2174,87.6608,0.0002131,442.482,155.665,-8.01872e-10
1.36654,87.6609,4.31403e-5,442.482,155.665,3.85435e-9
1.5202,87.6609,7.65728e-6,442.482,155.665,-5.53843e-10
1.71994,87.6609,2.0198e-6,442.482,155.665,2.78788e-10
1.96793,87.6609,2.44221e-7,442.482,155.665,-2.11131e-10
2.36988,87.6609,9.2782e-7,442.482,155.665,-9.0907e-11
2.81414,87.6609,-1.31215e-7,442.482,155.665,-1.48916e-11
3.47088,87.6609,1.06222e-7,442.482,155.665,1.21548e-10
4.47088,87.6609,-7.71271e-7,442.482,155.665,-2.376e-9
5.47088,87.6609,-2.11599e-8,442.482,155.665,-2.71629e-10
6.47088,87.6609,-1.34668e-7,442.482,155.665,-3.43697e-9
7.47088,87.6609,3.57123e-8,442.482,155.665,9.18401e-9
8.47088,87.6609,-3.0259e-8,442.482,155.665,-1.24552e-8
9.47088,87.6609,5.54919e-8,442.482,155.665,1.30513e-8
10.4709,87.6609,-6.14683e-8,442.482,155.665,-1.19802e-8
11.4709,87.6609,6.46131e-8,442.482,155.665,1.09413e-8
12.4709,87.6609,-6.76159e-8,442.482,155.665,-9.99098e-9
13.4709,87.6609,7.07009e-8,442.482,155.665,9.12309e-9
14.4709,87.6609,-5.82115e-8,442.482,155.665,-2.1284e-8
15.4709,87.6609,5.01969e-8,442.482,155.665,6.46871e-9
16.4709,87.6609,1.21836e-8,442.482,155.665,3.39339e-9
17.4709,87.6609,-1.29669e-7,442.482,155.665,-2.85362e-8
18.4222,87.6609,1.32012e-7,442.482,155.665,-5.80952e-10
19.4222,87.6609,3.34196e-8,442.482,155.665,-9.9569e-9
20.4222,87.6609,1.1688e-7,442.482,155.665,2.69583e-9
21.4222,87.6609,-3.81799e-9,442.482,155.665,-1.54516e-9
22.4222,87.6609,5.01809e-9,442.482,155.665,1.75965e-9
23.4222,87.6609,-3.90442e-8,442.482,155.665,6.61845e-9
24.4222,87.6609,-6.4478e-9,442.482,155.665,1.38593e-10
25.4222,87.6609,5.30121e-10,442.482,155.665,-3.40067e-11
26.4222,87.6609,3.42731e-10,442.482,155.665,-1.5399e-12
27.4222,87.6609,3.36322e-11,442.482,155.665,1.56167e-13
28.4222,87.6609,-8.3281e-12,442.482,155.665,1.21379e-14
29.4222,87.6609,-6.94008e-13,442.482,155.665,1.36902e-16
30.4222,87.6609,-5.7834e-14,442.482,155.665,1.5441e-18
31.4222,87.6609,-4.8195e-15,442.482,155.665,1.74148e-20
32.4222,87.6609,-4.01625e-16,442.482,155.665,1.96337e-22
33.4222,87.6609,-3.34688e-17,442.482,155.665,2.20761e-24
34.4222,87.6609,-2.78906e-18,442.482,155.665,2.43279e-26
35.4222,87.6609,-2.32422e-19,442.482,155.665,2.26756e-28
36.4222,87.6609,-1.93685e-20,442.482,155.665,-1.41211e-30
37.4222,87.6609,-1.61404e-21,442.482,155.665,-3.46733e-31
38.4222,87.6609,-1.34503e-22,442.482,155.665,-3.14779e-32
39.4222,87.6609,-1.12086e-23,442.482,155.665,-2.6523e-33
40.4222,87.6609,-9.34052e-25,442.482,155.665,-2.21354e-34
41.4222,87.6609,-7.78377e-26,442.482,155.665,-1.84498e-35
42.4222,87.6609,-6.48647e-27,442.482,155.665,-1.53753e-36
43.4222,87.6609,-5.40539e-28,442.482,155.665,-1.28128e-37
44.4222,87.6609,-4.50449e-29,442.482,155.665,-1.06773e-38
45.4222,87.6609,-3.75375e-30,442.482,155.665,-8.89777e-40
46.4222,87.6609,-3.12812e-31,442.482,155.665,-7.41481e-41
47.4222,87.6609,-2.60677e-32,442.482,155.665,-6.17901e-42
48.4222,87.6609,-2.17231e-33,442.482,155.665,-5.14917e-43
49.4222,87.6609,-1.81026e-34,442.482,155.665,-4.29098e-44
50.4222,87.6609,-1.50855e-35,442.482,155.665,-3.57581e-45
51.4222,87.6609,-1.25712e-36,442.482,155.665,-2.97985e-46
52.4222,87.6609,-1.0476e-37,442.482,155.665,-2.4832e-47
53.4222,87.6609,-8.73001e-39,442.482,155.665,-2.06934e-48
54.4222,87.6609,-7.27501e-40,442.482,155.665,-1.72445e-49
55.4222,87.6609,-6.06251e-41,442.482,155.665,-1.43704e-50
56.4222,87.6609,-5.05209e-42,442.482,155.665,-1.19753e-51
57.4222,87.6609,-4.21008e-43,442.482,155.665,-9.97944e-53
58.4222,87.6609,-3.5084e-44,442.482,155.665,-8.3162e-54
59.4222,87.6609,-2.92366e-45,442.482,155.665,-6.93017e-55
60.4222,87.6609,-2.43639e-46,442.482,155.665,-5.77514e-56
61.4222,87.6609,-2.03032e-47,442.482,155.665,-4.81262e-57
62.4222,87.6609,-1.69193e-48,442.482,155.665,-4.01051e-58
63.4222,87.6609,-1.40995e-49,442.482,155.665,-3.34209e-59
64.4222,87.6609,-1.17495e-50,442.482,155.665,-2.78508e-60
65.4222,87.6609,-9.79129e-52,442.482,155.665,-2.3209e-61
66.4222,87.6609,-8.15941e-53,442.482,155.665,-1.93408e-62
67.4222,87.6609,-6.79951e-54,442.482,155.665,-1.61174e-63
68.4222,87.6609,-5.66626e-55,442.482,155.665,-1.34311e-64
69.4222,87.6609,-4.72188e-56,442.482,155.665,-1.11926e-65
70.4222,87.6609,-3.9349e-57,442.482,155.665,-9.32717e-67
71.4222,87.6609,-3.27908e-58,442.482,155.665,-7.77264e-68
72.4222,87.6609,-2.73257e-59,442.482,155.665,-6.4772e-69
73.4222,87.6609,-2.27714e-60,442.482,155.665,-5.39767e-70
74.4222,87.6609,-1.89762e-61,442.482,155.665,-4.49806e-71
75.4222,87.6609,-1.58135e-62,442.482,155.665,-3.74838e-72
76.4222,87.6609,-1.31779e-63,442.482,155.665,-3.12365e-73
77.4222,87.6609,-1.09816e-64,442.482,155.665,-2.60304e-74
78.4222,87.6609,-9.15132e-66,442.482,155.665,-2.1692e-75
79.4222,87.6609,-7.6261e-67,442.482,155.665,-1.80767e-76
80.4222,87.6609,-6.35508e-68,442.482,155.665,-1.50639e-77
81.4222,87.6609,-5.2959e-69,442.482,155.665,-1.25533e-78
82.4222,87.6609,-4.41325e-70,442.482,155.665,-1.0461e-79
83.4222,87.6609,-3.67771e-71,442.482,155.665,-8.71754e-81
84.4222,87.6609,-3.06476e-72,442.482,155.665,-7.26461e-82
85.4222,87.6609,-2.55397e-73,442.482,155.665,-6.05385e-83
86.4222,87.6609,-2.1283e-74,442.482,155.665,-5.04487e-84
87.4222,87.6609,-1.77359e-75,442.482,155.665,-4.20406e-85
88.4222,87.6609,-1.47799e-76,442.482,155.665,-3.50338e-86
89.4222,87.6609,-1.23166e-77,442.482,155.665,-2.91949e-87
90.4222,87.6609,-1.02638e-78,442.482,155.665,-2.4329e-88
91.4222,87.6609,-8.55318e-80,442.482,155.665,-2.02742e-89
92.4222,87.6609,-7.12765e-81,442.482,155.665,-2.28671e-91
93.4222,87.6609,-5.93971e-82,442.482,155.665,-2.57917e-93
94.4222,87.6609,-4.94976e-83,442.482,155.665,-2.90902e-95
95.4222,87.6609,-4.1248e-84,442.482,155.665,-3.28106e-97
96.4222,87.6609,-3.43733e-85,442.482,155.665,-3.70069e-99
97.4222,87.6609,-2.86444e-86,442.482,155.665,-4.17398e-101
98.4222,87.6609,-2.38703e-87,442.482,155.665,-4.7078e-103
99.4222,87.6609,-1.9892e-88,442.482,155.665,-5.30989e-105
100,87.6609,-2.70415e-89,442.482,155.665,-1.028e-106
