#Time,D,C,F,B,A
0,33.6353,0,0,97.4024,55.3245
3.1e-5,33.6353,0,0,97.4601,55.2669
0.000145545,33.6353,0,0,97.6725,55.0545
0.000322203,33.6353,0,0,97.9986,54.7284
0.00134406,33.6353,0,0,99.8478,52.8792
0.00257923,33.6353,0,0,102,50.7272
0.00381439,33.6353,0,0,104.064,48.6628
0.00544763,33.6353,0,0,106.665,46.0616
0.00945027,33.6353,0,0,112.467,40.2598
0.0132954,33.6353,0,0,117.351,35.3756
0.0173566,33.6353,0,0,121.868,30.8589
0.0214179,33.6353,0,0,125.808,26.9189
0.026252,33.6353,0,0,129.848,22.8793
0.0340129,33.6353,0,0,135.104,17.6227
0.0417737,33.6353,0,0,139.153,13.5738
0.0495346,33.6353,0,0,142.272,10.4552
0.0585704,33.6353,0,0,145.012,7.71511
0.0694698,33.6353,0,0,147.38,5.34723
0.0824946,33.6353,0,0,149.277,3.4504
0.0950758,33.6353,0,0,150.467,2.25989
0.107557,33.6353,0,0,151.242,1.48513
0.121369,33.6353,0,0,151.794,0.933273
0.135161,33.6353,0,0,152.14,0.586884
0.149851,33.6353,0,0,152.369,0.358065
0.165195,33.6353,0,0,152.513,0.213718
0.181101,33.6353,0,0,152.602,0.125167
0.198364,33.6353,0,0,152.657,0.0700397
0.216338,33.6353,0,0,152.689,0.0382652
0.237226,33.6353,0,0,152.708,0.0189564
0.259374,33.6353,0,0,152.718,0.00900116
0.28544,33.6353,0,0,152.723,0.00374865
0.314657,33.6353,0,0,152.726,0.00140482
0.34955,33.6353,0,0,152.727,0.000436977
0.391716,33.6353,0,0,152.727,0.000108165
0.436212,33.6353,0,0,152.727,2.39317e-5
0.490812,33.6353,0,0,152.727,2.96335e-6
0.598833,33.6353,0,0,152.727,-1.42111e-6
0.717764,33.6353,0,0,152.727,8.10349e-7
0.884084,33.6353,0,0,152.727,-2.45344e-7
1.25664,33.6353,0,0,152.727,-1.16508e-7
1.91011,33.6353,0,0,152.727,2.01768e-7
2.88977,33.6353,0,0,152.727,1.50702e-8
3.88977,33.6353,0,0,152.727,1.17687e-8
4.88977,33.6353,0,0,152.727,1.27834e-8
5.88977,33.6353,0,0,152.727,-1.27542e-9
6.88977,33.6353,0,0,152.727,-7.20506e-9
7.88977,33.6353,0,0,152.727,-3.91982e-10
8.88977,33.6353,0,0,152.727,8.02203e-11
9.88977,33.6353,0,0,152.727,2.31614e-12
10.8898,33.6353,0,0,152.727,6.68722e-14
11.8898,33.6353,0,0,152.727,1.93075e-15
12.8898,33.6353,0,0,152.727,5.57452e-17
13.8898,33.6353,0,0,152.727,1.60949e-18
14.8898,33.6353,0,0,152.727,4.64695e-20
15.8898,33.6353,0,0,152.727,1.34168e-21
16.8898,33.6353,0,0,152.727,3.87373e-23
17.8898,33.6353,0,0,152.727,1.11843e-24
18.8898,33.6353,0,0,152.727,3.22917e-26
19.8898,33.6353,0,0,152.727,9.32335e-28
20.8898,33.6353,0,0,152.727,2.69186e-29
21.8898,33.6353,0,0,152.727,7.77201e-31
22.8898,33.6353,0,0,152.727,2.24395e-32
23.8898,33.6353,0,0,152.727,6.4788e-34
24.8898,33.6353,0,0,152.727,1.87058e-35
25.8898,33.6353,0,0,152.727,5.40077e-37
26.8898,33.6353,0,0,152.727,1.55932e-38
27.8898,33.6353,0,0,152.727,4.50212e-40
28.8898,33.6353,0,0,152.727,1.29986e-41
29.8898,33.6353,0,0,152.727,3.753e-43
30.8898,33.6353,0,0,152.727,1.08358e-44
31.8898,33.6353,0,0,152.727,3.12853e-46
32.8898,33.6353,0,0,152.727,9.03276e-48
33.8898,33.6353,0,0,152.727,2.60796e-49
34.8898,33.6353,0,0,152.727,7.52977e-51
35.8898,33.6353,0,0,152.727,2.17401e-52
36.8898,33.6353,0,0,152.727,6.27687e-54
37.8898,33.6353,0,0,152.727,1.81227e-55
38.8898,33.6353,0,0,152.727,5.23244e-57
39.8898,33.6353,0,0,152.727,1.51072e-58
40.8898,33.6353,0,0,152.727,4.3618e-60
41.8898,33.6353,0,0,152.727,1.25935e-61
42.8898,33.6353,0,0,152.727,3.63603e-63
43.8898,33.6353,0,0,152.727,1.0498e-64
44.8898,33.6353,0,0,152.727,3.03102e-66
45.8898,33.6353,0,0,152.727,8.75123e-68
46.8898,33.6353,0,0,152.727,2.52668e-69
47.8898,33.6353,0,0,152.727,7.29509e-71
48.8898,33.6353,0,0,152.727,2.10626e-72
49.8898,33.6353,0,0,152.727,6.08124e-74
50.8898,33.6353,0,0,152.727,1.75579e-75
51.8898,33.6353,0,0,152.727,5.06936e-77
52.8898,33.6353,0,0,152.727,1.46364e-78
53.8898,33.6353,0,0,152.727,4.22585e-80
54.8898,33.6353,0,0,152.727,1.2201e-81
55.8898,33.6353,0,0,152.727,3.5227e-83
56.8898,33.6353,0,0,152.727,1.01708e-84
57.8898,33.6353,0,0,152.727,2.93655e-86
58.8898,33.6353,0,0,152.727,8.47848e-88
59.8898,33.6353,0,0,152.727,2.44793e-89
60.8898,33.6353,0,0,152.727,7.06772e-91
61.8898,33.6353,0,0,152.727,2.04061e-92
62.8898,33.6353,0,0,152.727,5.8917e-94
63.8898,33.6353,0,0,152.727,1.70107e-95
64.8898,33.6353,0,0,152.727,4.91136e-97
65.8898,33.6353,0,0,152.727,1.41802e-98
66.8898,33.6353,0,0,152.727,4.09415e-100
67.8898,33.6353,0,0,152.727,1.18207e-101
68.8898,33.6353,0,0,152.727,3.41291e-103
69.8898,33.6353,0,0,152.727,9.85384e-105
70.8898,33.6353,0,0,152.727,2.84502e-106
71.8898,33.6353,0,0,152.727,8.21423e-108
72.8898,33.6353,0,0,152.727,2.37163e-109
73.8898,33.6353,0,0,152.727,6.84744e-111
74.8898,33.6353,0,0,152.727,1.97701e-112
75.8898,33.6353,0,0,152.727,5.70807e-114
76.8898,33.6353,0,0,152.727,1.64805e-115
77.8898,33.6353,0,0,152.727,4.75829e-117
78.8898,33.6353,0,0,152.727,1.37382e-118
79.8898,33.6353,0,0,152.727,3.96654e-120
80.8898,33.6353,0,0,152.727,1.14523e-121
81.8898,33.6353,0,0,152.727,3.30654e-123
82.8898,33.6353,0,0,152.727,9.54672e-125
83.8898,33.6353,0,0,152.727,2.75635e-126
84.8898,33.6353,0,0,152.727,7.95821e-128
85.8898,33.6353,0,0,152.727,2.29771e-129
86.8898,33.6353,0,0,152.727,6.63402e-131
87.8898,33.6353,0,0,152.727,1.91539e-132
88.8898,33.6353,0,0,152.727,5.53016e-134
89.8898,33.6353,0,0,152.727,1.59668e-135
90.8898,33.6353,0,0,152.727,4.60998e-137
91.8898,33.6353,0,0,152.727,1.33101e-138
92.8898,33.6353,0,0,152.727,3.84291e-140
93.8898,33.6353,0,0,152.727,1.10954e-141
94.8898,33.6353,0,0,152.727,3.20348e-143
95.8898,33.6353,0,0,152.727,9.24917e-145
96.8898,33.6353,0,0,152.727,2.67044e-146
97.8898,33.6353,0,0,152.727,7.71017e-148
98.8898,33.6353,0,0,152.727,2.2261e-149
99.8898,33.6353,0,0,152.727,6.42725e-151
100,33.6353,0,0,152.727,1.36525e-151
