#Time,D,C,F,B,A
0,33.0829,247.042,0,25.5201,46.3038
1.82446e-5,33.1144,246.992,0.0180259,25.5481,46.2758
5.49783e-5,33.1779,246.893,0.054308,25.6044,46.2195
0.000112827,33.2779,246.735,0.111418,25.6931,46.1308
0.000398996,33.7713,245.96,0.393406,26.1336,45.6903
0.00116232,35.0801,243.903,1.14125,27.3185,44.5054
0.0018408,36.2342,242.09,1.80073,28.3822,43.4416
0.00274086,37.7519,239.705,2.668,29.8049,42.019
0.00533838,42.0487,232.953,5.12331,33.9429,37.881
0.00774727,45.9252,226.861,7.33847,37.7522,34.0717
0.0102184,49.7966,220.778,9.55069,41.5535,30.2704
0.0126896,53.5642,214.857,11.7036,45.1834,26.6405
0.0153933,57.5707,208.561,13.9931,48.9003,22.9236
0.0195079,63.4438,199.332,17.3491,53.954,17.8699
0.0236225,69.057,190.511,20.5566,58.2189,13.605
0.0277371,74.4218,182.081,23.6222,61.6971,10.1268
0.0318516,79.5492,174.023,26.5522,64.447,7.37685
0.0359662,84.4497,166.323,29.3525,66.5599,5.26396
0.0404953,89.5935,158.239,32.2918,68.2749,3.54898
0.045236,94.7101,150.199,35.2155,69.5313,2.29261
0.0508622,100.446,141.185,38.4933,70.5001,1.32382
0.0569279,106.245,132.073,41.807,71.1168,0.707127
0.0625332,111.271,124.175,44.6788,71.4396,0.384307
0.0701175,117.596,114.236,48.2931,71.6626,0.161291
0.0769039,122.825,106.019,51.2812,71.7526,0.0713247
0.083739,127.711,98.3398,54.0735,71.7936,0.0302935
0.091006,132.519,90.7848,56.8208,71.8121,0.0117678
0.0978957,136.736,84.1588,59.2302,71.8192,0.00465496
0.106764,141.713,76.3368,62.0746,71.8225,0.00135713
0.11662,146.705,68.4933,64.9268,71.8236,0.000328047
0.127038,151.424,61.0772,67.6235,71.8238,7.05795e-5
0.141178,157.023,52.2792,70.8228,71.8239,8.92484e-6
0.156707,162.247,44.07,73.808,71.8239,9.6155e-7
0.18726,170.252,31.4909,78.3822,71.8239,6.5872e-7
0.218115,176.019,22.4277,81.6779,71.8239,-1.38412e-7
0.253557,180.627,15.187,84.3109,71.8239,-8.52096e-8
0.289792,183.804,10.1946,86.1263,71.8239,-6.82278e-8
0.326764,185.972,6.7881,87.365,71.8239,2.01602e-8
0.363736,187.415,4.51987,88.1898,71.8239,4.16896e-8
0.400708,188.376,3.00957,88.739,71.8239,2.83074e-9
0.437806,189.018,2.00114,89.1057,71.8239,-2.1996e-8
0.475954,189.454,1.31534,89.3551,71.8239,-4.15913e-9
0.514936,189.746,0.856667,89.5219,71.8239,8.48872e-9
0.555554,189.943,0.547994,89.6341,71.8239,5.75572e-9
0.598255,190.073,0.342601,89.7088,71.8239,-1.63758e-9
0.642476,190.157,0.21064,89.7568,71.8239,-7.56841e-9
0.691348,190.213,0.123048,89.7887,71.8239,-7.19649e-9
0.742157,190.247,0.0703658,89.8078,71.8239,1.97524e-8
0.799967,190.268,0.0372588,89.8199,71.8239,8.85824e-9
0.860346,190.279,0.0191787,89.8264,71.8239,-1.07177e-8
0.931014,190.286,0.00881791,89.8302,71.8239,-7.44128e-9
1.00838,190.289,0.00376675,89.832,71.8239,-1.44077e-8
1.09974,190.29,0.00138163,89.8329,71.8239,1.87826e-8
1.20653,190.291,0.000428906,89.8333,71.8239,-1.2477e-8
1.31785,190.291,0.000126529,89.8334,71.8239,7.15138e-9
1.48935,190.291,2.1765e-5,89.8334,71.8239,2.5039e-9
1.6592,190.291,2.76383e-6,89.8334,71.8239,1.01437e-9
1.87645,190.291,1.03667e-6,89.8334,71.8239,-1.57384e-8
2.20328,190.291,-2.83679e-7,89.8334,71.8239,7.10949e-8
2.63035,190.291,-2.38637e-7,89.8334,71.8239,1.26025e-8
3.18035,190.291,-1.77565e-7,89.8334,71.8239,-7.83336e-7
3.62087,190.291,5.97462e-8,89.8334,71.8239,-5.69473e-8
4.17484,190.291,-3.24581e-8,89.8334,71.8239,9.02687e-9
5.17484,190.291,4.44679e-8,89.8334,71.8239,-7.00861e-9
6.17484,190.291,2.41111e-9,89.8334,71.8239,1.7186e-8
7.03957,190.291,-2.62788e-8,89.8334,71.8239,-3.26816e-9
8.03957,190.291,-1.01837e-9,89.8334,71.8239,1.10829e-10
9.03957,190.291,3.83585e-9,89.8334,71.8239,-3.58503e-10
10.0396,190.291,-6.23644e-8,89.8334,71.8239,5.40525e-10
11.0396,190.291,4.26011e-8,89.8334,71.8239,-1.23706e-8
12.0396,190.291,-9.05263e-9,89.8334,71.8239,6.88275e-11
13.0396,190.291,-2.71352e-10,89.8334,71.8239,7.02262e-13
14.0396,190.291,-2.26127e-11,89.8334,71.8239,3.67482e-15
15.0396,190.291,-1.88439e-12,89.8334,71.8239,1.96279e-17
16.0396,190.291,-1.57033e-13,89.8334,71.8239,1.37398e-19
17.0396,190.291,-1.30861e-14,89.8334,71.8239,3.61747e-21
18.0396,190.291,-1.0905e-15,89.8334,71.8239,2.60512e-22
19.0396,190.291,-9.08754e-17,89.8334,71.8239,2.14953e-23
20.0396,190.291,-7.57295e-18,89.8334,71.8239,1.79016e-24
21.0396,190.291,-6.31079e-19,89.8334,71.8239,1.49174e-25
22.0396,190.291,-5.25899e-20,89.8334,71.8239,1.24311e-26
23.0396,190.291,-4.38249e-21,89.8334,71.8239,1.03593e-27
24.0396,190.291,-3.65208e-22,89.8334,71.8239,8.63272e-29
25.0396,190.291,-3.0434e-23,89.8334,71.8239,7.19393e-30
26.0396,190.291,-2.53617e-24,89.8334,71.8239,5.99494e-31
27.0396,190.291,-2.11347e-25,89.8334,71.8239,4.99579e-32
28.0396,190.291,-1.76123e-26,89.8334,71.8239,4.16316e-33
29.0396,190.291,-1.46769e-27,89.8334,71.8239,3.4693e-34
30.0396,190.291,-1.22307e-28,89.8334,71.8239,2.89108e-35
31.0396,190.291,-1.01923e-29,89.8334,71.8239,2.40923e-36
32.0396,190.291,-8.49357e-31,89.8334,71.8239,2.00769e-37
33.0396,190.291,-7.07797e-32,89.8334,71.8239,1.67308e-38
34.0396,190.291,-5.89831e-33,89.8334,71.8239,1.39423e-39
35.0396,190.291,-4.91526e-34,89.8334,71.8239,1.16186e-40
36.0396,190.291,-4.09605e-35,89.8334,71.8239,9.68217e-42
37.0396,190.291,-3.41337e-36,89.8334,71.8239,8.06847e-43
38.0396,190.291,-2.84448e-37,89.8334,71.8239,6.72373e-44
39.0396,190.291,-2.3704e-38,89.8334,71.8239,5.60311e-45
40.0396,190.291,-1.97533e-39,89.8334,71.8239,4.66926e-46
41.0396,190.291,-1.64611e-40,89.8334,71.8239,3.89105e-47
42.0396,190.291,-1.37176e-41,89.8334,71.8239,3.24254e-48
43.0396,190.291,-1.14313e-42,89.8334,71.8239,2.70212e-49
44.0396,190.291,-9.5261e-44,89.8334,71.8239,2.25176e-50
45.0396,190.291,-7.93842e-45,89.8334,71.8239,1.87647e-51
46.0396,190.291,-6.61535e-46,89.8334,71.8239,1.56372e-52
47.0396,190.291,-5.51279e-47,89.8334,71.8239,1.3031e-53
48.0396,190.291,-4.59399e-48,89.8334,71.8239,1.08592e-54
49.0396,190.291,-3.82833e-49,89.8334,71.8239,9.04933e-56
50.0396,190.291,-3.19027e-50,89.8334,71.8239,7.54111e-57
51.0396,190.291,-2.65856e-51,89.8334,71.8239,6.28426e-58
52.0396,190.291,-2.21547e-52,89.8334,71.8239,5.23688e-59
53.0396,190.291,-1.84622e-53,89.8334,71.8239,4.36407e-60
54.0396,190.291,-1.53852e-54,89.8334,71.8239,3.63672e-61
55.0396,190.291,-1.2821e-55,89.8334,71.8239,3.0306e-62
56.0396,190.291,-1.06842e-56,89.8334,71.8239,1.58429e-64
57.0396,190.291,-8.90346e-58,89.8334,71.8239,8.28206e-67
58.0396,190.291,-7.41955e-59,89.8334,71.8239,4.32955e-69
59.0396,190.291,-6.18296e-60,89.8334,71.8239,2.26333e-71
60.0396,190.291,-5.15247e-61,89.8334,71.8239,1.18318e-73
61.0396,190.291,-4.29372e-62,89.8334,71.8239,6.18524e-76
62.0396,190.291,-3.5781e-63,89.8334,71.8239,3.23342e-78
63.0396,190.291,-2.98175e-64,89.8334,71.8239,1.69031e-80
64.0396,190.291,-2.48479e-65,89.8334,71.8239,8.83631e-83
65.0396,190.291,-2.07066e-66,89.8334,71.8239,4.61929e-85
66.0396,190.291,-1.72555e-67,89.8334,71.8239,2.41479e-87
67.0396,190.291,-1.43796e-68,89.8334,71.8239,1.26236e-89
68.0396,190.291,-1.1983e-69,89.8334,71.8239,6.59917e-92
69.0396,190.291,-9.98583e-71,89.8334,71.8239,3.4498e-94
70.0396,190.291,-8.32152e-72,89.8334,71.8239,1.80343e-96
71.0396,190.291,-6.9346e-73,89.8334,71.8239,9.42765e-99
72.0396,190.291,-5.77884e-74,89.8334,71.8239,4.92842e-101
73.0396,190.291,-4.8157e-75,89.8334,71.8239,2.5764e-103
74.0396,190.291,-4.01308e-76,89.8334,71.8239,1.34684e-105
75.0396,190.291,-3.34423e-77,89.8334,71.8239,7.0408e-108
76.0396,190.291,-2.78686e-78,89.8334,71.8239,3.68067e-110
77.0396,190.291,-2.32238e-79,89.8334,71.8239,1.92412e-112
78.0396,190.291,-1.93532e-80,89.8334,71.8239,1.00586e-114
79.0396,190.291,-1.61277e-81,89.8334,71.8239,5.25825e-117
80.0396,190.291,-1.34397e-82,89.8334,71.8239,2.74886e-119
81.0396,190.291,-1.11998e-83,89.8334,71.8239,1.43736e-121
82.0396,190.291,-9.33314e-85,89.8334,71.8239,7.54432e-124
83.0396,190.291,-7.77762e-86,89.8334,71.8239,4.19649e-126
84.0396,190.291,-6.48135e-87,89.8334,71.8239,4.29877e-128
85.0396,190.291,-5.40112e-88,89.8334,71.8239,1.97889e-129
86.0396,190.291,-4.50094e-89,89.8334,71.8239,1.56525e-130
87.0396,190.291,-3.75078e-90,89.8334,71.8239,1.3e-131
88.0396,190.291,-3.12565e-91,89.8334,71.8239,1.0831e-132
89.0396,190.291,-2.60471e-92,89.8334,71.8239,9.02573e-134
90.0396,190.291,-2.17059e-93,89.8334,71.8239,7.52144e-135
91.0396,190.291,-1.80883e-94,89.8334,71.8239,6.26786e-136
92.0396,190.291,-1.50735e-95,89.8334,71.8239,5.22322e-137
93.0396,190.291,-1.25613e-96,89.8334,71.8239,4.35268e-138
94.0396,190.291,-1.04677e-97,89.8334,71.8239,3.62724e-139
95.0396,190.291,-8.72312e-99,89.8334,71.8239,3.0227e-140
96.0396,190.291,-7.26926e-100,89.8334,71.8239,2.51891e-141
97.0396,190.291,-6.05772e-101,89.8334,71.8239,2.09909e-142
98.0396,190.291,-5.0481e-102,89.8334,71.8239,1.09733e-144
99.0396,190.291,-4.20675e-103,89.8334,71.8239,5.73642e-147
100,190.291,1.10893e-103,89.8334,71.8239,-4.10128e-146
