#Time,D,C,F,B,A
0,8.309,57.1594,9.2491,23.2585,203.969
3.01312e-5,8.32105,57.1404,9.25599,23.3097,203.918
0.000102525,8.34999,57.0949,9.27252,23.4327,203.795
0.000214705,8.3948,57.0245,9.29813,23.6241,203.604
0.000828423,8.63895,56.6409,9.43764,24.6855,202.542
0.00179331,9.0195,56.0429,9.6551,26.4037,200.824
0.002704,9.37498,55.4843,9.85823,28.0787,199.149
0.0039019,9.83718,54.7579,10.1223,30.3573,196.87
0.0079521,11.3556,52.3719,10.99,38.6321,188.596
0.0134464,13.3101,49.3004,12.1069,50.9978,176.23
0.0185629,15.0271,46.6024,13.088,63.3283,163.899
0.0233688,16.5541,44.2028,13.9606,75.3111,151.917
0.0289031,18.2154,41.5921,14.9099,89.2527,137.975
0.0438778,22.2351,35.2754,17.2069,125.39,101.838
0.0548692,24.7916,31.2582,18.6677,148.605,78.6225
0.0646141,26.8135,28.0808,19.8231,166.095,61.1324
0.0743591,28.6299,25.2264,20.8611,180.574,46.6533
0.084104,30.2617,22.6622,21.7935,192.217,35.0109
0.0946951,31.8477,20.17,22.6998,202.034,25.1937
0.106979,33.4699,17.6208,23.6268,210.363,16.8644
0.119522,34.9151,15.3498,24.4526,216.247,10.9804
0.132195,36.1861,13.3525,25.1789,220.231,6.99635
0.145127,37.3129,11.5819,25.8227,222.879,4.34896
0.15954,38.3934,9.88387,26.4402,224.708,2.51978
0.176576,39.4683,8.19481,27.0544,225.93,1.29776
0.190728,40.22,7.01349,27.484,226.489,0.738345
0.20447,40.8461,6.02957,27.8417,226.805,0.422976
0.218827,41.4067,5.14871,28.1621,226.993,0.234339
0.232253,41.8565,4.44182,28.4191,227.094,0.133991
0.247029,42.2806,3.77547,28.6614,227.156,0.0719604
0.263797,42.6852,3.13955,28.8927,227.192,0.0352947
0.281453,43.0379,2.58534,29.0942,227.211,0.0165603
0.301133,43.3582,2.08212,29.2772,227.221,0.00707958
0.321792,43.6275,1.65887,29.4311,227.225,0.00288371
0.347092,43.8839,1.25587,29.5776,227.227,0.000955986
0.3742,44.09,0.932063,29.6954,227.227,0.000291567
0.407966,44.274,0.642892,29.8005,227.228,6.74904e-5
0.444953,44.4108,0.427999,29.8787,227.228,1.33876e-5
0.488881,44.5151,0.263994,29.9383,227.228,2.12747e-6
0.535253,44.5823,0.158515,29.9767,227.228,5.19927e-7
0.585705,44.6252,0.0910055,30.0012,227.228,2.15112e-8
0.64031,44.6514,0.0499143,30.0162,227.228,-2.47966e-8
0.699018,44.6665,0.0261698,30.0248,227.228,2.39165e-8
0.766567,44.6752,0.0124509,30.0298,227.228,-2.01651e-8
0.838078,44.6795,0.00567159,30.0323,227.228,-5.59503e-9
0.925887,44.6818,0.00216187,30.0335,227.228,3.09749e-9
1.01904,44.6826,0.000777087,30.034,227.228,-4.53487e-9
1.13475,44.683,0.000219811,30.0342,227.228,1.33169e-9
1.29798,44.6831,4.00179e-5,30.0343,227.228,-1.07984e-9
1.44176,44.6831,6.71242e-6,30.0343,227.228,-9.2501e-10
1.64714,44.6831,2.08801e-6,30.0343,227.228,1.05367e-9
1.88917,44.6831,-1.37805e-7,30.0343,227.228,-1.02406e-10
2.23518,44.6831,7.81535e-7,30.0343,227.228,1.63353e-9
2.72001,44.6831,-7.53851e-8,30.0343,227.228,7.3195e-10
3.44209,44.6831,-1.93175e-7,30.0343,227.228,4.38791e-9
4.42858,44.6831,1.10345e-7,30.0343,227.228,3.33678e-9
5.42858,44.6831,-2.26576e-8,30.0343,227.228,1.29625e-9
6.38685,44.6831,2.33027e-7,30.0343,227.228,-7.50264e-10
7.38685,44.6831,1.42176e-8,30.0343,227.228,3.51841e-10
8.38685,44.6831,5.10458e-8,30.0343,227.228,1.15067e-10
9.38685,44.6831,-7.02258e-9,30.0343,227.228,-1.42471e-10
10.3869,44.6831,-6.10567e-8,30.0343,227.228,3.39002e-10
11.3869,44.6831,2.13317e-8,30.0343,227.228,-8.9592e-10
12.3869,44.6831,8.80468e-10,30.0343,227.228,6.35811e-10
13.3869,44.6831,9.77363e-9,30.0343,227.228,-1.20488e-10
14.3869,44.6831,-7.59003e-9,30.0343,227.228,1.19247e-11
15.3869,44.6831,1.56864e-8,30.0343,227.228,4.26804e-10
16.3869,44.6831,2.81342e-9,30.0343,227.228,1.83567e-11
17.3869,44.6831,2.34452e-10,30.0343,227.228,4.01931e-13
18.3869,44.6831,1.95376e-11,30.0343,227.228,8.80477e-15
19.3869,44.6831,1.62814e-12,30.0343,227.228,1.93234e-16
20.3869,44.6831,1.35678e-13,30.0343,227.228,4.27041e-18
21.3869,44.6831,1.13065e-14,30.0343,227.228,9.68344e-20
22.3869,44.6831,9.42209e-16,30.0343,227.228,2.39883e-21
23.3869,44.6831,7.85174e-17,30.0343,227.228,7.57611e-23
24.3869,44.6831,6.54312e-18,30.0343,227.228,3.59574e-24
25.3869,44.6831,5.4526e-19,30.0343,227.228,2.4015e-25
26.3869,44.6831,4.54383e-20,30.0343,227.228,1.87101e-26
27.3869,44.6831,3.78653e-21,30.0343,227.228,1.53066e-27
28.3869,44.6831,3.15544e-22,30.0343,227.228,1.26931e-28
29.3869,44.6831,2.62953e-23,30.0343,227.228,1.05639e-29
30.3869,44.6831,2.19128e-24,30.0343,227.228,8.80025e-31
31.3869,44.6831,1.82606e-25,30.0343,227.228,7.33288e-32
32.3869,44.6831,1.52172e-26,30.0343,227.228,6.11059e-33
33.3869,44.6831,1.2681e-27,30.0343,227.228,5.09213e-34
34.3869,44.6831,1.05675e-28,30.0343,227.228,4.24343e-35
35.3869,44.6831,8.80625e-30,30.0343,227.228,3.53619e-36
36.3869,44.6831,7.33854e-31,30.0343,227.228,2.94683e-37
37.3869,44.6831,6.11545e-32,30.0343,227.228,2.45569e-38
38.3869,44.6831,5.09621e-33,30.0343,227.228,2.04641e-39
39.3869,44.6831,4.24684e-34,30.0343,227.228,1.70534e-40
40.3869,44.6831,3.53904e-35,30.0343,227.228,1.42112e-41
41.3869,44.6831,2.9492e-36,30.0343,227.228,1.18426e-42
42.3869,44.6831,2.45766e-37,30.0343,227.228,9.86887e-44
43.3869,44.6831,2.04805e-38,30.0343,227.228,8.22406e-45
44.3869,44.6831,1.70671e-39,30.0343,227.228,6.85338e-46
45.3869,44.6831,1.42226e-40,30.0343,227.228,5.71115e-47
46.3869,44.6831,1.18522e-41,30.0343,227.228,4.75929e-48
47.3869,44.6831,9.8768e-43,30.0343,227.228,3.96608e-49
48.3869,44.6831,8.23066e-44,30.0343,227.228,3.30506e-50
49.3869,44.6831,6.85889e-45,30.0343,227.228,2.75422e-51
50.3869,44.6831,5.71574e-46,30.0343,227.228,2.29518e-52
51.3869,44.6831,4.76312e-47,30.0343,227.228,1.91265e-53
52.3869,44.6831,3.96926e-48,30.0343,227.228,1.59388e-54
53.3869,44.6831,3.30772e-49,30.0343,227.228,1.32823e-55
54.3869,44.6831,2.75643e-50,30.0343,227.228,1.10686e-56
55.3869,44.6831,2.29703e-51,30.0343,227.228,9.22383e-58
56.3869,44.6831,1.91419e-52,30.0343,227.228,7.68652e-59
57.3869,44.6831,1.59516e-53,30.0343,227.228,6.40544e-60
58.3869,44.6831,1.3293e-54,30.0343,227.228,5.33786e-61
59.3869,44.6831,1.10775e-55,30.0343,227.228,4.44822e-62
60.3869,44.6831,9.23124e-57,30.0343,227.228,3.70685e-63
61.3869,44.6831,7.6927e-58,30.0343,227.228,3.08904e-64
62.3869,44.6831,6.41058e-59,30.0343,227.228,2.5742e-65
63.3869,44.6831,5.34215e-60,30.0343,227.228,2.14517e-66
64.3869,44.6831,4.45179e-61,30.0343,227.228,1.78764e-67
65.3869,44.6831,3.70983e-62,30.0343,227.228,1.4897e-68
66.3869,44.6831,3.09152e-63,30.0343,227.228,1.24142e-69
67.3869,44.6831,2.57627e-64,30.0343,227.228,1.03451e-70
68.3869,44.6831,2.14689e-65,30.0343,227.228,8.62095e-72
69.3869,44.6831,1.78908e-66,30.0343,227.228,7.18412e-73
70.3869,44.6831,1.4909e-67,30.0343,227.228,5.98677e-74
71.3869,44.6831,1.24241e-68,30.0343,227.228,4.98897e-75
72.3869,44.6831,1.03534e-69,30.0343,227.228,4.15748e-76
73.3869,44.6831,8.62787e-71,30.0343,227.228,3.46456e-77
74.3869,44.6831,7.18989e-72,30.0343,227.228,2.88714e-78
75.3869,44.6831,5.99158e-73,30.0343,227.228,2.40595e-79
76.3869,44.6831,4.99298e-74,30.0343,227.228,2.00496e-80
77.3869,44.6831,4.16082e-75,30.0343,227.228,1.6708e-81
78.3869,44.6831,3.46735e-76,30.0343,227.228,1.39233e-82
79.3869,44.6831,2.88946e-77,30.0343,227.228,1.16028e-83
80.3869,44.6831,2.40788e-78,30.0343,227.228,2.53983e-85
81.3869,44.6831,2.00657e-79,30.0343,227.228,5.55967e-87
82.3869,44.6831,1.67214e-80,30.0343,227.228,1.21701e-88
83.3869,44.6831,1.39345e-81,30.0343,227.228,2.66402e-90
84.3869,44.6831,1.16121e-82,30.0343,227.228,5.83152e-92
85.3869,44.6831,9.67673e-84,30.0343,227.228,1.27651e-93
86.3869,44.6831,8.06395e-85,30.0343,227.228,2.79428e-95
87.3869,44.6831,6.71995e-86,30.0343,227.228,6.11665e-97
88.3869,44.6831,5.59996e-87,30.0343,227.228,1.33893e-98
89.3869,44.6831,4.66663e-88,30.0343,227.228,2.93091e-100
90.3869,44.6831,3.88886e-89,30.0343,227.228,6.41573e-102
91.3869,44.6831,3.24072e-90,30.0343,227.228,1.4044e-103
92.3869,44.6831,2.7006e-91,30.0343,227.228,3.07421e-105
93.3869,44.6831,2.2505e-92,30.0343,227.228,6.72943e-107
94.3869,44.6831,1.87542e-93,30.0343,227.228,1.47307e-108
95.3869,44.6831,1.56285e-94,30.0343,227.228,3.22453e-110
96.3869,44.6831,1.30237e-95,30.0343,227.228,7.05846e-112
97.3869,44.6831,1.08531e-96,30.0343,227.228,1.54509e-113
98.3869,44.6831,9.04425e-98,30.0343,227.228,3.38219e-115
99.3869,44.6831,7.53688e-99,30.0343,227.228,7.40359e-117
100,44.6831,9.73178e-100,30.0343,227.228,2.60715e-118
