#Time,D,C,F,B,A
0,0,0,0,199.229,11.4065
3.1e-5,0,0,0,199.229,11.4065
0.003906,0,0,0,199.229,11.4065
0.488281,0,0,0,199.229,11.4065
1.48828,0,0,0,199.229,11.4065
2.48828,0,0,0,199.229,11.4065
3.48828,0,0,0,199.229,11.4065
4.48828,0,0,0,199.229,11.4065
5.48828,0,0,0,199.229,11.4065
6.48828,0,0,0,199.229,11.4065
7.48828,0,0,0,199.229,11.4065
8.48828,0,0,0,199.229,11.4065
9.48828,0,0,0,199.229,11.4065
10.4883,0,0,0,199.229,11.4065
11.4883,0,0,0,199.229,11.4065
12.4883,0,0,0,199.229,11.4065
13.4883,0,0,0,199.229,11.4065
14.4883,0,0,0,199.229,11.4065
15.4883,0,0,0,199.229,11.4065
16.4883,0,0,0,199.229,11.4065
17.4883,0,0,0,199.229,11.4065
18.4883,0,0,0,199.229,11.4065
19.4883,0,0,0,199.229,11.4065
20.4883,0,0,0,199.229,11.4065
21.4883,0,0,0,199.229,11.4065
22.4883,0,0,0,199.229,11.4065
23.4883,0,0,0,199.229,11.4065
24.4883,0,0,0,199.229,11.4065
25.4883,0,0,0,199.229,11.4065
26.4883,0,0,0,199.229,11.4065
27.4883,0,0,0,199.229,11.4065
28.4883,0,0,0,199.229,11.4065
29.4883,0,0,0,199.229,11.4065
30.4883,0,0,0,199.229,11.4065
31.4883,0,0,0,199.229,11.4065
32.4883,0,0,0,199.229,11.4065
33.4883,0,0,0,199.229,11.4065
34.4883,0,0,0,199.229,11.4065
35.4883,0,0,0,199.229,11.4065
36.4883,0,0,0,199.229,11.4065
37.4883,0,0,0,199.229,11.4065
38.4883,0,0,0,199.229,11.4065
39.4883,0,0,0,199.229,11.4065
40.4883,0,0,0,199.229,11.4065
41.4883,0,0,0,199.229,11.4065
42.4883,0,0,0,199.229,11.4065
43.4883,0,0,0,199.229,11.4065
44.4883,0,0,0,199.229,11.4065
45.4883,0,0,0,199.229,11.4065
46.4883,0,0,0,199.229,11.4065
47.4883,0,0,0,199.229,11.4065
48.4883,0,0,0,199.229,11.4065
49.4883,0,0,0,199.229,11.4065
50.4883,0,0,0,199.229,11.4065
51.4883,0,0,0,199.229,11.4065
52.4883,0,0,0,199.229,11.4065
53.4883,0,0,0,199.229,11.4065
54.4883,0,0,0,199.229,11.4065
55.4883,0,0,0,199.229,11.4065
56.4883,0,0,0,199.229,11.4065
57.4883,0,0,0,199.229,11.4065
58.4883,0,0,0,199.229,11.4065
59.4883,0,0,0,199.229,11.4065
60.4883,0,0,0,199.229,11.4065
61.4883,0,0,0,199.229,11.4065
62.4883,0,0,0,199.229,11.4065
63.4883,0,0,0,199.229,11.4065
64.4883,0,0,0,199.229,11.4065
65.4883,0,0,0,199.229,11.4065
66.4883,0,0,0,199.229,11.4065
67.4883,0,0,0,199.229,11.4065
68.4883,0,0,0,199.229,11.4065
69.4883,0,0,0,199.229,11.4065
70.4883,0,0,0,199.229,11.4065
71.4883,0,0,0,199.229,11.4065
72.4883,0,0,0,199.229,11.4065
73.4883,0,0,0,199.229,11.4065
74.4883,0,0,0,199.229,11.4065
75.4883,0,0,0,199.229,11.4065
76.4883,0,0,0,199.229,11.4065
77.4883,0,0,0,199.229,11.4065
78.4883,0,0,0,199.229,11.4065
79.4883,0,0,0,199.229,11.4065
80.4883,0,0,0,199.229,11.4065
81.4883,0,0,0,199.229,11.4065
82.4883,0,0,0,199.229,11.4065
83.4883,0,0,0,199.229,11.4065
84.4883,0,0,0,199.229,11.4065
85.4883,0,0,0,199.229,11.4065
86.4883,0,0,0,199.229,11.4065
87.4883,0,0,0,199.229,11.4065
88.4883,0,0,0,199.229,11.4065
89.4883,0,0,0,199.229,11.4065
90.4883,0,0,0,199.229,11.4065
91.4883,0,0,0,199.229,11.4065
92.4883,0,0,0,199.229,11.4065
93.4883,0,0,0,199.229,11.4065
94.4883,0,0,0,199.229,11.4065
95.4883,0,0,0,199.229,11.4065
96.4883,0,0,0,199.229,11.4065
97.4883,0,0,0,199.229,11.4065
98.4883,0,0,0,199.229,11.4065
99.4883,0,0,0,199.229,11.4065
100,0,0,0,199.229,11.4065
