#Time,D,C,F,B,A
0,41.6184,305.073,232.162,40.5283,14.289
3.1e-5,41.6846,304.969,232.2,40.5467,14.2706
0.000193795,42.0317,304.424,232.398,40.6437,14.1736
0.000446045,42.5685,303.58,232.705,40.7941,14.0232
0.00120432,44.1732,301.059,233.622,41.2478,13.5695
0.00192142,45.6784,298.693,234.482,41.6779,13.1394
0.00346205,48.8725,293.674,236.307,42.601,12.2163
0.005546,53.1078,287.018,238.727,43.8328,10.9845
0.00762995,57.2471,280.514,241.093,45.0261,9.79118
0.010057,61.9498,273.124,243.78,46.345,8.47236
0.0144026,70.0626,260.375,248.416,48.4586,6.35876
0.0185242,77.4069,248.834,252.612,50.1255,4.69184
0.0221975,83.6777,238.98,256.196,51.3273,3.48998
0.0258708,89.7001,229.516,259.637,52.2793,2.53804
0.0295441,95.484,220.427,262.942,53.0111,1.80617
0.0336424,101.667,210.711,266.476,53.6115,1.20577
0.0385907,108.771,199.548,270.535,54.101,0.716264
0.0436904,115.698,188.662,274.493,54.4133,0.404038
0.0489485,122.445,178.06,278.349,54.6013,0.215991
0.0551601,129.929,166.3,282.625,54.7187,0.0986059
0.0624799,138.116,153.434,287.303,54.7804,0.0369586
0.0692429,145.116,142.434,291.303,54.8031,0.0141808
0.0762762,151.864,131.83,295.159,54.8123,0.00499124
0.083984,158.684,121.114,299.056,54.8158,0.00150998
0.0919912,165.182,110.902,302.77,54.8169,0.000413974
0.101788,172.392,99.5721,306.89,54.8172,8.13528e-5
0.112402,179.374,88.6003,310.879,54.8173,1.2687e-5
0.126246,187.339,76.0843,315.431,54.8173,1.46014e-6
0.142343,195.196,63.7377,319.92,54.8173,1.06869e-6
0.163996,203.792,50.2293,324.832,54.8173,-1.2401e-6
0.192633,212.429,36.6567,329.768,54.8173,-2.33216e-6
0.214282,217.372,28.8888,332.593,54.8173,6.20295e-7
0.234995,221.118,23.0026,334.733,54.8173,-9.09604e-7
0.260963,224.755,17.287,336.811,54.8173,-1.84704e-7
0.297408,228.388,11.5776,338.888,54.8173,2.41635e-7
0.336088,230.941,7.56552,340.347,54.8173,-1.85152e-7
0.370277,232.451,5.19409,341.209,54.8173,-2.32798e-8
0.4093,233.604,3.38135,341.868,54.8173,2.14522e-8
0.449854,234.379,2.16449,342.311,54.8173,3.7438e-8
0.485847,234.829,1.45683,342.568,54.8173,-2.08437e-8
0.528349,235.175,0.912785,342.766,54.8173,-7.64285e-9
0.574389,235.406,0.550086,342.898,54.8173,-8.11578e-10
0.616871,235.537,0.344736,342.972,54.8173,9.15281e-9
0.661754,235.622,0.210415,343.021,54.8173,1.47972e-8
0.713561,235.68,0.119013,343.054,54.8173,1.14884e-8
0.777216,235.718,0.0590926,343.076,54.8173,2.23519e-8
0.82346,235.733,0.0355299,343.085,54.8173,2.20407e-9
0.868907,235.742,0.0215496,343.09,54.8173,-9.80412e-10
0.921698,235.748,0.0120544,343.093,54.8173,-2.23861e-10
0.977477,235.752,0.00652456,343.095,54.8173,1.52129e-11
1.04098,235.754,0.00324281,343.096,54.8173,2.23589e-10
1.1138,235.755,0.00145374,343.097,54.8173,3.4768e-11
1.19464,235.756,0.000596076,343.097,54.8173,-1.3359e-10
1.29619,235.756,0.000193346,343.098,54.8173,-1.91566e-11
1.41293,235.756,5.26513e-5,343.098,54.8173,1.8335e-10
1.57119,235.756,8.12563e-6,343.098,54.8173,-1.08765e-9
1.77751,235.756,1.85079e-7,343.098,54.8173,-2.08751e-9
2.10376,235.756,-7.4364e-7,343.098,54.8173,-1.94733e-10
2.58338,235.756,2.66401e-7,343.098,54.8173,-7.53714e-10
3.40932,235.756,2.55846e-7,343.098,54.8173,8.76172e-10
4.40932,235.756,2.06268e-7,343.098,54.8173,4.12672e-10
5.40932,235.756,-9.3521e-9,343.098,54.8173,6.63628e-10
6.40932,235.756,-3.01452e-8,343.098,54.8173,-5.18912e-11
7.40932,235.756,-1.81671e-8,343.098,54.8173,-3.91488e-11
8.40932,235.756,-1.06477e-8,343.098,54.8173,-2.03268e-11
9.40932,235.756,-9.76951e-10,343.098,54.8173,-8.81287e-14
10.4093,235.756,2.69597e-10,343.098,54.8173,4.21123e-14
11.4093,235.756,8.22135e-11,343.098,54.8173,5.28688e-16
12.4093,235.756,2.3703e-12,343.098,54.8173,-8.67867e-17
13.4093,235.756,1.97525e-13,343.098,54.8173,-4.04453e-19
14.4093,235.756,1.64604e-14,343.098,54.8173,-4.92485e-21
15.4093,235.756,1.3717e-15,343.098,54.8173,-2.89103e-22
16.4093,235.756,1.14308e-16,343.098,54.8173,-2.35807e-23
17.4093,235.756,9.5257e-18,343.098,54.8173,-1.9629e-24
18.4093,235.756,7.93808e-19,343.098,54.8173,-1.63566e-25
19.4093,235.756,6.61507e-20,343.098,54.8173,-1.36305e-26
20.4093,235.756,5.51256e-21,343.098,54.8173,-1.13587e-27
21.4093,235.756,4.5938e-22,343.098,54.8173,-9.46561e-29
22.4093,235.756,3.82816e-23,343.098,54.8173,-7.88801e-30
23.4093,235.756,3.19014e-24,343.098,54.8173,-6.57334e-31
24.4093,235.756,2.65845e-25,343.098,54.8173,-5.47778e-32
25.4093,235.756,2.21537e-26,343.098,54.8173,-4.56482e-33
26.4093,235.756,1.84614e-27,343.098,54.8173,-3.80401e-34
27.4093,235.756,1.53845e-28,343.098,54.8173,-3.17001e-35
28.4093,235.756,1.28204e-29,343.098,54.8173,-2.64168e-36
29.4093,235.756,1.06837e-30,343.098,54.8173,-2.2014e-37
30.4093,235.756,8.90308e-32,343.098,54.8173,-1.8345e-38
31.4093,235.756,7.41924e-33,343.098,54.8173,-1.52875e-39
32.4093,235.756,6.1827e-34,343.098,54.8173,-1.27396e-40
33.4093,235.756,5.15225e-35,343.098,54.8173,-1.06163e-41
34.4093,235.756,4.29354e-36,343.098,54.8173,-8.84692e-43
35.4093,235.756,3.57795e-37,343.098,54.8173,-7.37244e-44
36.4093,235.756,2.98163e-38,343.098,54.8173,-6.1437e-45
37.4093,235.756,2.48469e-39,343.098,54.8173,-5.11975e-46
38.4093,235.756,2.07057e-40,343.098,54.8173,-4.26646e-47
39.4093,235.756,1.72548e-41,343.098,54.8173,-3.55538e-48
40.4093,235.756,1.4379e-42,343.098,54.8173,-2.96282e-49
41.4093,235.756,1.19825e-43,343.098,54.8173,-2.46901e-50
42.4093,235.756,9.9854e-45,343.098,54.8173,-2.05751e-51
43.4093,235.756,8.32117e-46,343.098,54.8173,-1.71459e-52
44.4093,235.756,6.93431e-47,343.098,54.8173,-1.42883e-53
45.4093,235.756,5.77859e-48,343.098,54.8173,-1.19069e-54
46.4093,235.756,4.81549e-49,343.098,54.8173,-9.92241e-56
47.4093,235.756,4.01291e-50,343.098,54.8173,-8.26868e-57
48.4093,235.756,3.34409e-51,343.098,54.8173,-6.89056e-58
49.4093,235.756,2.78674e-52,343.098,54.8173,-5.74214e-59
50.4093,235.756,2.32229e-53,343.098,54.8173,-4.78511e-60
51.4093,235.756,1.93524e-54,343.098,54.8173,-3.9876e-61
52.4093,235.756,1.6127e-55,343.098,54.8173,-3.323e-62
53.4093,235.756,1.34392e-56,343.098,54.8173,-2.76916e-63
54.4093,235.756,1.11993e-57,343.098,54.8173,-2.30764e-64
55.4093,235.756,9.33274e-59,343.098,54.8173,-9.7469e-67
56.4093,235.756,7.77729e-60,343.098,54.8173,-4.11686e-69
57.4093,235.756,6.48107e-61,343.098,54.8173,-1.73886e-71
58.4093,235.756,5.40089e-62,343.098,54.8173,-7.34453e-74
59.4093,235.756,4.50074e-63,343.098,54.8173,-3.10215e-76
60.4093,235.756,3.75062e-64,343.098,54.8173,-1.31027e-78
61.4093,235.756,3.12552e-65,343.098,54.8173,-5.53429e-81
62.4093,235.756,2.6046e-66,343.098,54.8173,-2.33755e-83
63.4093,235.756,2.1705e-67,343.098,54.8173,-9.87325e-86
64.4093,235.756,1.80875e-68,343.098,54.8173,-4.17022e-88
65.4093,235.756,1.50729e-69,343.098,54.8173,-1.7614e-90
66.4093,235.756,1.25608e-70,343.098,54.8173,-7.43974e-93
67.4093,235.756,1.04673e-71,343.098,54.8173,-3.14237e-95
68.4093,235.756,8.72274e-73,343.098,54.8173,-1.32726e-97
69.4093,235.756,7.26895e-74,343.098,54.8173,-5.60603e-100
70.4093,235.756,6.05746e-75,343.098,54.8173,-2.36785e-102
71.4093,235.756,5.04788e-76,343.098,54.8173,-1.00012e-104
72.4093,235.756,4.20657e-77,343.098,54.8173,-4.22428e-107
73.4093,235.756,3.50548e-78,343.098,54.8173,-1.78423e-109
74.4093,235.756,2.92123e-79,343.098,54.8173,-7.53618e-112
75.4093,235.756,2.43436e-80,343.098,54.8173,-3.1831e-114
76.4093,235.756,2.02863e-81,343.098,54.8173,-1.34446e-116
77.4093,235.756,1.69053e-82,343.098,54.8173,-5.6787e-119
78.4093,235.756,1.40877e-83,343.098,54.8173,-2.39854e-121
79.4093,235.756,1.17398e-84,343.098,54.8173,-1.01309e-123
80.4093,235.756,9.78314e-86,343.098,54.8173,-4.27904e-126
81.4093,235.756,8.15262e-87,343.098,54.8173,-1.80736e-128
82.4093,235.756,6.79385e-88,343.098,54.8173,-7.63387e-131
83.4093,235.756,5.66154e-89,343.098,54.8173,-3.22436e-133
84.4093,235.756,4.71795e-90,343.098,54.8173,-1.36189e-135
85.4093,235.756,3.93162e-91,343.098,54.8173,-5.75231e-138
86.4093,235.756,3.27635e-92,343.098,54.8173,-2.42964e-140
87.4093,235.756,2.73029e-93,343.098,54.8173,-1.02622e-142
88.4093,235.756,2.27525e-94,343.098,54.8173,-4.33451e-145
89.4093,235.756,1.89604e-95,343.098,54.8173,-1.83079e-147
90.4093,235.756,1.58003e-96,343.098,54.8173,-7.7328e-150
91.4093,235.756,1.31669e-97,343.098,54.8173,-3.26594e-152
92.4093,235.756,1.09724e-98,343.098,54.8173,-1.37775e-154
93.4093,235.756,9.1437e-100,343.098,54.8173,-5.67698e-157
94.4093,235.756,7.61975e-101,343.098,54.8173,-1.21199e-159
95.4093,235.756,6.34979e-102,343.098,54.8173,9.37001e-161
96.4093,235.756,5.29149e-103,343.098,54.8173,8.63071e-162
97.4093,235.756,4.40958e-104,343.098,54.8173,7.22699e-163
98.4093,235.756,3.67465e-105,343.098,54.8173,6.02396e-164
99.4093,235.756,3.06221e-106,343.098,54.8173,5.02003e-165
100,235.756,4.0843e-107,343.098,54.8173,2.56917e-166
